{"data":[{"id":38,"date":"2018-10-21T00:00:00.000Z","home_team":{"id":8,"abbreviation":"DEN","city":"Denver","conference":"West","division":"Northwest","full_name":"Denver Nuggets","name":"Nuggets"},"home_team_score":100,"period":4,"postseason":false,"season":2018,"status":"Final","time":" ","visitor_team":{"id":10,"abbreviation":"GSW","city":"Golden State","conference":"West","division":"Pacific","full_name":"Golden State Warriors","name":"Warriors"},"visitor_team_score":98},{"id":39,"date":"2018-10-21T00:00:00.000Z","home_team":{"id":13,"abbreviation":"LAC","city":"LA","conference":"West","division":"Pacific","full_name":"LA Clippers","name":"Clippers"},"home_team_score":115,"period":4,"postseason":false,"season":2018,"status":"Final","time":" ","visitor_team":{"id":11,"abbreviation":"HOU","city":"Houston","conference":"West","division":"Southwest","full_name":"Houston Rockets","name":"Rockets"},"visitor_team_score":112},{"id":40,"date":"2018-10-22T00:00:00.000Z","home_team":{"id":2,"abbreviation":"BOS","city":"Boston","conference":"East","division":"Atlantic","full_name":"Boston Celtics","name":"Celtics"},"home_team_score":90,"period":4,"postseason":false,"season":2018,"status":"Final","time":" ","visitor_team":{"id":22,"abbreviation":"ORL","city":"Orlando","conference":"East","division":"Southeast","full_name":"Orlando Magic","name":"Magic"},"visitor_team_score":93},{"id":41,"date":"2018-10-22T00:00:00.000Z","home_team":{"id":28,"abbreviation":"TOR","city":"Toronto","conference":"East","division":"Atlantic","full_name":"Toronto Raptors","name":"Raptors"},"home_team_score":127,"period":4,"postseason":false,"season":2018,"status":"Final","time":" ","visitor_team":{"id":4,"abbreviation":"CHA","city":"Charlotte","conference":"East","division":"Southeast","full_name":"Charlotte Hornets","name":"Hornets"},"visitor_team_score":106},{"id":42,"date":"2018-10-22T00:00:00.000Z","home_team":{"id":17,"abbreviation":"MIL","city":"Milwaukee","conference":"East","division":"Central","full_name":"Milwaukee Bucks","name":"Bucks"},"home_team_score":124,"period":4,"postseason":false,"season":2018,"status":"Final","time":" ","visitor_team":{"id":20,"abbreviation":"NYK","city":"New York","conference":"East","division":"Atlantic","full_name":"New York Knicks","name":"Knicks"},"visitor_team_score":113},{"id":43,"date":"2018-10-22T00:00:00.000Z","home_team":{"id":18,"abbreviation":"MIN","city":"Minnesota","conference":"West","division":"Northwest","full_name":"Minnesota Timberwolves","name":"Timberwolves"},"home_team_score":101,"period":4,"postseason":false,"season":2018,"status":"Final","time":" ","visitor_team":{"id":12,"abbreviation":"IND","city":"Indiana","conference":"East","division":"Central","full_name":"Indiana Pacers","name":"Pacers"},"visitor_team_score":91},{"id":44,"date":"2018-10-22T00:00:00.000Z","home_team":{"id":7,"abbreviation":"DAL","city":"Dallas","conference":"West","division":"Southwest","full_name":"Dallas Mavericks","name":"Mavericks"},"home_team_score":115,"period":4,"postseason":false,"season":2018,"status":"Final","time":" ","visitor_team":{"id":5,"abbreviation":"CHI","city":"Chicago","conference":"East","division":"Central","full_name":"Chicago Bulls","name":"Bulls"},"visitor_team_score":109},{"id":45,"date":"2018-10-22T00:00:00.000Z","home_team":{"id":29,"abbreviation":"UTA","city":"Utah","conference":"West","division":"Northwest","full_name":"Utah Jazz","name":"Jazz"},"home_team_score":84,"period":4,"postseason":false,"season":2018,"status":"Final","time":" ","visitor_team":{"id":15,"abbreviation":"MEM","city":"Memphis","conference":"West","division":"Southwest","full_name":"Memphis Grizzlies","name":"Grizzlies"},"visitor_team_score":92},{"id":46,"date":"2018-10-22T00:00:00.000Z","home_team":{"id":25,"abbreviation":"POR","city":"Portland","conference":"West","division":"Northwest","full_name":"Portland Trail Blazers","name":"Trail Blazers"},"home_team_score":124,"period":4,"postseason":false,"season":2018,"status":"Final","time":" ","visitor_team":{"id":30,"abbreviation":"WAS","city":"Washington","conference":"East","division":"Southeast","full_name":"Washington Wizards","name":"Wizards"},"visitor_team_score":125},{"id":47,"date":"2018-10-22T00:00:00.000Z","home_team":{"id":10,"abbreviation":"GSW","city":"Golden State","conference":"West","division":"Pacific","full_name":"Golden State Warriors","name":"Warriors"},"home_team_score":123,"period":4,"postseason":false,"season":2018,"status":"Final","time":" ","visitor_team":{"id":24,"abbreviation":"PHX","city":"Phoenix","conference":"West","division":"Pacific","full_name":"Phoenix Suns","name":"Suns"},"visitor_team_score":103},{"id":48,"date":"2018-10-22T00:00:00.000Z","home_team":{"id":14,"abbreviation":"LAL","city":"Los Angeles","conference":"West","division":"Pacific","full_name":"Los Angeles Lakers","name":"Lakers"},"home_team_score":142,"period":4,"postseason":false,"season":2018,"status":"Final","time":" ","visitor_team":{"id":27,"abbreviation":"SAS","city":"San Antonio","conference":"West","division":"Southwest","full_name":"San Antonio Spurs","name":"Spurs"},"visitor_team_score":143},{"id":49,"date":"2018-10-23T00:00:00.000Z","home_team":{"id":9,"abbreviation":"DET","city":"Detroit","conference":"East","division":"Central","full_name":"Detroit Pistons","name":"Pistons"},"home_team_score":133,"period":4,"postseason":false,"season":2018,"status":"Final","time":" ","visitor_team":{"id":23,"abbreviation":"PHI","city":"Philadelphia","conference":"East","division":"Atlantic","full_name":"Philadelphia 76ers","name":"76ers"},"visitor_team_score":132},{"id":50,"date":"2018-10-23T00:00:00.000Z","home_team":{"id":19,"abbreviation":"NOP","city":"New Orleans","conference":"West","division":"Southwest","full_name":"New Orleans Pelicans","name":"Pelicans"},"home_team_score":116,"period":4,"postseason":false,"season":2018,"status":"Final","time":" ","visitor_team":{"id":13,"abbreviation":"LAC","city":"LA","conference":"West","division":"Pacific","full_name":"LA Clippers","name":"Clippers"},"visitor_team_score":109},{"id":51,"date":"2018-10-23T00:00:00.000Z","home_team":{"id":8,"abbreviation":"DEN","city":"Denver","conference":"West","division":"Northwest","full_name":"Denver Nuggets","name":"Nuggets"},"home_team_score":126,"period":4,"postseason":false,"season":2018,"status":"Final","time":" ","visitor_team":{"id":26,"abbreviation":"SAC","city":"Sacramento","conference":"West","division":"Pacific","full_name":"Sacramento Kings","name":"Kings"},"visitor_team_score":112},{"id":52,"date":"2018-10-24T00:00:00.000Z","home_team":{"id":1,"abbreviation":"ATL","city":"Atlanta","conference":"East","division":"Southeast","full_name":"Atlanta Hawks","name":"Hawks"},"home_team_score":111,"period":4,"postseason":false,"season":2018,"status":"Final","time":" ","visitor_team":{"id":7,"abbreviation":"DAL","city":"Dallas","conference":"West","division":"Southwest","full_name":"Dallas Mavericks","name":"Mavericks"},"visitor_team_score":104},{"id":53,"date":"2018-10-24T00:00:00.000Z","home_team":{"id":6,"abbreviation":"CLE","city":"Cleveland","conference":"East","division":"Central","full_name":"Cleveland Cavaliers","name":"Cavaliers"},"home_team_score":86,"period":4,"postseason":false,"season":2018,"status":"Final","time":" ","visitor_team":{"id":3,"abbreviation":"BKN","city":"Brooklyn","conference":"East","division":"Atlantic","full_name":"Brooklyn Nets","name":"Nets"},"visitor_team_score":102},{"id":54,"date":"2018-10-24T00:00:00.000Z","home_team":{"id":16,"abbreviation":"MIA","city":"Miami","conference":"East","division":"Southeast","full_name":"Miami Heat","name":"Heat"},"home_team_score":110,"period":4,"postseason":false,"season":2018,"status":"Final","time":" ","visitor_team":{"id":20,"abbreviation":"NYK","city":"New York","conference":"East","division":"Atlantic","full_name":"New York Knicks","name":"Knicks"},"visitor_team_score":87},{"id":55,"date":"2018-10-24T00:00:00.000Z","home_team":{"id":28,"abbreviation":"TOR","city":"Toronto","conference":"East","division":"Atlantic","full_name":"Toronto Raptors","name":"Raptors"},"home_team_score":112,"period":4,"postseason":false,"season":2018,"status":"Final","time":" ","visitor_team":{"id":18,"abbreviation":"MIN","city":"Minnesota","conference":"West","division":"Northwest","full_name":"Minnesota Timberwolves","name":"Timberwolves"},"visitor_team_score":105},{"id":56,"date":"2018-10-24T00:00:00.000Z","home_team":{"id":5,"abbreviation":"CHI","city":"Chicago","conference":"East","division":"Central","full_name":"Chicago Bulls","name":"Bulls"},"home_team_score":112,"period":4,"postseason":false,"season":2018,"status":"Final","time":" ","visitor_team":{"id":4,"abbreviation":"CHA","city":"Charlotte","conference":"East","division":"Southeast","full_name":"Charlotte Hornets","name":"Hornets"},"visitor_team_score":110},{"id":57,"date":"2018-10-24T00:00:00.000Z","home_team":{"id":11,"abbreviation":"HOU","city":"Houston","conference":"West","division":"Southwest","full_name":"Houston Rockets","name":"Rockets"},"home_team_score":89,"period":4,"postseason":false,"season":2018,"status":"Final","time":" ","visitor_team":{"id":29,"abbreviation":"UTA","city":"Utah","conference":"West","division":"Northwest","full_name":"Utah Jazz","name":"Jazz"},"visitor_team_score":100},{"id":58,"date":"2018-10-24T00:00:00.000Z","home_team":{"id":27,"abbreviation":"SAS","city":"San Antonio","conference":"West","division":"Southwest","full_name":"San Antonio Spurs","name":"Spurs"},"home_team_score":96,"period":4,"postseason":false,"season":2018,"status":"Final","time":" ","visitor_team":{"id":12,"abbreviation":"IND","city":"Indiana","conference":"East","division":"Central","full_name":"Indiana Pacers","name":"Pacers"},"visitor_team_score":116},{"id":59,"date":"2018-10-24T00:00:00.000Z","home_team":{"id":17,"abbreviation":"MIL","city":"Milwaukee","conference":"East","division":"Central","full_name":"Milwaukee Bucks","name":"Bucks"},"home_team_score":123,"period":4,"postseason":false,"season":2018,"status":"Final","time":" ","visitor_team":{"id":23,"abbreviation":"PHI","city":"Philadelphia","conference":"East","division":"Atlantic","full_name":"Philadelphia 76ers","name":"76ers"},"visitor_team_score":108},{"id":60,"date":"2018-10-24T00:00:00.000Z","home_team":{"id":24,"abbreviation":"PHX","city":"Phoenix","conference":"West","division":"Pacific","full_name":"Phoenix Suns","name":"Suns"},"home_team_score":113,"period":4,"postseason":false,"season":2018,"status":"Final","time":" ","visitor_team":{"id":14,"abbreviation":"LAL","city":"Los Angeles","conference":"West","division":"Pacific","full_name":"Los Angeles Lakers","name":"Lakers"},"visitor_team_score":131},{"id":61,"date":"2018-10-24T00:00:00.000Z","home_team":{"id":26,"abbreviation":"SAC","city":"Sacramento","conference":"West","division":"Pacific","full_name":"Sacramento Kings","name":"Kings"},"home_team_score":97,"period":4,"postseason":false,"season":2018,"status":"Final","time":" ","visitor_team":{"id":15,"abbreviation":"MEM","city":"Memphis","conference":"West","division":"Southwest","full_name":"Memphis Grizzlies","name":"Grizzlies"},"visitor_team_score":92},{"id":62,"date":"2018-10-24T00:00:00.000Z","home_team":{"id":10,"abbreviation":"GSW","city":"Golden State","conference":"West","division":"Pacific","full_name":"Golden State Warriors","name":"Warriors"},"home_team_score":144,"period":4,"postseason":false,"season":2018,"status":"Final","time":" ","visitor_team":{"id":30,"abbreviation":"WAS","city":"Washington","conference":"East","division":"Southeast","full_name":"Washington Wizards","name":"Wizards"},"visitor_team_score":122}],"meta":{"total_pages":2773,"current_page":17,"next_page":18,"per_page":25,"total_count":69308}}