{"data":[{"id":11566703,"ast":11,"blk":1,"dreb":9,"fg3_pct":0.25,"fg3a":8,"fg3m":2,"fg_pct":0.4,"fga":20,"fgm":8,"ft_pct":0.571,"fta":7,"ftm":4,"game":{"id":474608,"date":"2022-04-07T00:00:00.000Z","home_team_id":17,"home_team_score":127,"period":4,"postseason":false,"season":2021,"status":"Final","time":"","visitor_team_id":2,"visitor_team_score":121},"min":"37","oreb":1,"pf":5,"player":{"id":70,"first_name":"Jaylen","height_feet":6,"height_inches":7,"last_name":"Brown","position":"G","team_id":2,"weight_pounds":220},"pts":22,"reb":10,"stl":1,"team":{"id":2,"abbreviation":"BOS","city":"Boston","conference":"East","division":"Atlantic","full_name":"Boston Celtics","name":"Celtics"},"turnover":4},{"id":11566704,"ast":2,"blk":2,"dreb":7,"fg3_pct":0,"fg3a":4,"fg3m":0,"fg_pct":0.286,"fga":7,"fgm":2,"ft_pct":null,"fta":0,"ftm":0,"game":{"id":474608,"date":"2022-04-07T00:00:00.000Z","home_team_id":17,"home_team_score":127,"period":4,"postseason":false,"season":2021,"status":"Final","time":"","visitor_team_id":2,"visitor_team_score":121},"min":"37","oreb":1,"pf":3,"player":{"id":666965,"first_name":"Grant","height_feet":null,"height_inches":null,"last_name":"Williams","position":"F","team_id":2,"weight_pounds":null},"pts":4,"reb":8,"stl":2,"team":{"id":2,"abbreviation":"BOS","city":"Boston","conference":"East","division":"Atlantic","full_name":"Boston Celtics","name":"Celtics"},"turnover":2},{"id":11566706,"ast":3,"blk":0,"dreb":7,"fg3_pct":0.5,"fg3a":8,"fg3m":4,"fg_pct":0.462,"fga":13,"fgm":6,"ft_pct":1,"fta":3,"ftm":3,"game":{"id":474608,"date":"2022-04-07T00:00:00.000Z","home_team_id":17,"home_team_score":127,"period":4,"postseason":false,"season":2021,"status":"Final","time":"","visitor_team_id":2,"visitor_team_score":121},"min":"39","oreb":0,"pf":2,"player":{"id":473,"first_name":"Derrick","height_feet":6,"height_inches":4,"last_name":"White","position":"G","team_id":2,"weight_pounds":190},"pts":19,"reb":7,"stl":0,"team":{"id":2,"abbreviation":"BOS","city":"Boston","conference":"East","division":"Atlantic","full_name":"Boston Celtics","name":"Celtics"},"turnover":3},{"id":11566707,"ast":7,"blk":0,"dreb":1,"fg3_pct":0.583,"fg3a":12,"fg3m":7,"fg_pct":0.625,"fga":16,"fgm":10,"ft_pct":1,"fta":2,"ftm":2,"game":{"id":474608,"date":"2022-04-07T00:00:00.000Z","home_team_id":17,"home_team_score":127,"period":4,"postseason":false,"season":2021,"status":"Final","time":"","visitor_team_id":2,"visitor_team_score":121},"min":"30","oreb":0,"pf":1,"player":{"id":420,"first_name":"Marcus","height_feet":6,"height_inches":4,"last_name":"Smart","position":"G","team_id":2,"weight_pounds":220},"pts":29,"reb":1,"stl":2,"team":{"id":2,"abbreviation":"BOS","city":"Boston","conference":"East","division":"Atlantic","full_name":"Boston Celtics","name":"Celtics"},"turnover":3},{"id":11566711,"ast":0,"blk":0,"dreb":0,"fg3_pct":0,"fg3a":3,"fg3m":0,"fg_pct":0,"fga":3,"fgm":0,"ft_pct":0,"fta":0,"ftm":0,"game":{"id":474608,"date":"2022-04-07T00:00:00.000Z","home_team_id":17,"home_team_score":127,"period":4,"postseason":false,"season":2021,"status":"Final","time":"","visitor_team_id":2,"visitor_team_score":121},"min":"11:48","oreb":0,"pf":1,"player":{"id":3547250,"first_name":"Aaron","height_feet":null,"height_inches":null,"last_name":"Nesmith","position":"G-F","team_id":12,"weight_pounds":null},"pts":0,"reb":0,"stl":1,"team":{"id":2,"abbreviation":"BOS","city":"Boston","conference":"East","division":"Atlantic","full_name":"Boston Celtics","name":"Celtics"},"turnover":2},{"id":11566722,"ast":1,"blk":0,"dreb":2,"fg3_pct":0.4,"fg3a":5,"fg3m":2,"fg_pct":0.333,"fga":6,"fgm":2,"ft_pct":null,"fta":0,"ftm":0,"game":{"id":474608,"date":"2022-04-07T00:00:00.000Z","home_team_id":17,"home_team_score":127,"period":4,"postseason":false,"season":2021,"status":"Final","time":"","visitor_team_id":2,"visitor_team_score":121},"min":"21","oreb":1,"pf":0,"player":{"id":105,"first_name":"Pat","height_feet":6,"height_inches":4,"last_name":"Connaughton","position":"G","team_id":17,"weight_pounds":209},"pts":6,"reb":3,"stl":2,"team":{"id":17,"abbreviation":"MIL","city":"Milwaukee","conference":"East","division":"Central","full_name":"Milwaukee Bucks","name":"Bucks"},"turnover":1},{"id":11566721,"ast":0,"blk":0,"dreb":1,"fg3_pct":0,"fg3a":0,"fg3m":0,"fg_pct":0,"fga":0,"fgm":0,"ft_pct":0,"fta":0,"ftm":0,"game":{"id":474608,"date":"2022-04-07T00:00:00.000Z","home_team_id":17,"home_team_score":127,"period":4,"postseason":false,"season":2021,"status":"Final","time":"","visitor_team_id":2,"visitor_team_score":121},"min":"10:56","oreb":0,"pf":1,"player":{"id":87,"first_name":"Jevon","height_feet":6,"height_inches":2,"last_name":"Carter","position":"G","team_id":17,"weight_pounds":196},"pts":0,"reb":1,"stl":0,"team":{"id":17,"abbreviation":"MIL","city":"Milwaukee","conference":"East","division":"Central","full_name":"Milwaukee Bucks","name":"Bucks"},"turnover":0},{"id":11566720,"ast":0,"blk":0,"dreb":0,"fg3_pct":0,"fg3a":0,"fg3m":0,"fg_pct":0,"fga":0,"fgm":0,"ft_pct":0,"fta":0,"ftm":0,"game":{"id":474608,"date":"2022-04-07T00:00:00.000Z","home_team_id":17,"home_team_score":127,"period":4,"postseason":false,"season":2021,"status":"Final","time":"","visitor_team_id":2,"visitor_team_score":121},"min":"0:00","oreb":0,"pf":0,"player":{"id":2148,"first_name":"Thanasis","height_feet":null,"height_inches":null,"last_name":"Antetokounmpo","position":"","team_id":17,"weight_pounds":null},"pts":0,"reb":0,"stl":0,"team":{"id":17,"abbreviation":"MIL","city":"Milwaukee","conference":"East","division":"Central","full_name":"Milwaukee Bucks","name":"Bucks"},"turnover":0},{"id":11566727,"ast":1,"blk":0,"dreb":5,"fg3_pct":0.75,"fg3a":4,"fg3m":3,"fg_pct":0.636,"fga":11,"fgm":7,"ft_pct":null,"fta":0,"ftm":0,"game":{"id":474608,"date":"2022-04-07T00:00:00.000Z","home_team_id":17,"home_team_score":127,"period":4,"postseason":false,"season":2021,"status":"Final","time":"","visitor_team_id":2,"visitor_team_score":121},"min":"27","oreb":2,"pf":3,"player":{"id":377,"first_name":"Bobby","height_feet":6,"height_inches":11,"last_name":"Portis","position":"F","team_id":17,"weight_pounds":250},"pts":17,"reb":7,"stl":1,"team":{"id":17,"abbreviation":"MIL","city":"Milwaukee","conference":"East","division":"Central","full_name":"Milwaukee Bucks","name":"Bucks"},"turnover":0},{"id":11566723,"ast":2,"blk":0,"dreb":1,"fg3_pct":0,"fg3a":1,"fg3m":0,"fg_pct":0.5,"fga":2,"fgm":1,"ft_pct":null,"fta":0,"ftm":0,"game":{"id":474608,"date":"2022-04-07T00:00:00.000Z","home_team_id":17,"home_team_score":127,"period":4,"postseason":false,"season":2021,"status":"Final","time":"","visitor_team_id":2,"visitor_team_score":121},"min":"14","oreb":1,"pf":3,"player":{"id":211,"first_name":"George","height_feet":6,"height_inches":3,"last_name":"Hill","position":"G","team_id":12,"weight_pounds":188},"pts":2,"reb":2,"stl":2,"team":{"id":17,"abbreviation":"MIL","city":"Milwaukee","conference":"East","division":"Central","full_name":"Milwaukee Bucks","name":"Bucks"},"turnover":0},{"id":11566724,"ast":0,"blk":0,"dreb":0,"fg3_pct":0,"fg3a":0,"fg3m":0,"fg_pct":0,"fga":0,"fgm":0,"ft_pct":0,"fta":0,"ftm":0,"game":{"id":474608,"date":"2022-04-07T00:00:00.000Z","home_team_id":17,"home_team_score":127,"period":4,"postseason":false,"season":2021,"status":"Final","time":"","visitor_team_id":2,"visitor_team_score":121},"min":"0:00","oreb":0,"pf":0,"player":{"id":223,"first_name":"Serge","height_feet":6,"height_inches":10,"last_name":"Ibaka","position":"F-C","team_id":17,"weight_pounds":235},"pts":0,"reb":0,"stl":0,"team":{"id":17,"abbreviation":"MIL","city":"Milwaukee","conference":"East","division":"Central","full_name":"Milwaukee Bucks","name":"Bucks"},"turnover":0},{"id":11566725,"ast":0,"blk":0,"dreb":0,"fg3_pct":0,"fg3a":0,"fg3m":0,"fg_pct":0,"fga":0,"fgm":0,"ft_pct":0,"fta":0,"ftm":0,"game":{"id":474608,"date":"2022-04-07T00:00:00.000Z","home_team_id":17,"home_team_score":127,"period":4,"postseason":false,"season":2021,"status":"Final","time":"","visitor_team_id":2,"visitor_team_score":121},"min":"0:00","oreb":0,"pf":0,"player":{"id":17896059,"first_name":"Sandro","height_feet":null,"height_inches":null,"last_name":"Mamukelashvili","position":"F","team_id":27,"weight_pounds":null},"pts":0,"reb":0,"stl":0,"team":{"id":17,"abbreviation":"MIL","city":"Milwaukee","conference":"East","division":"Central","full_name":"Milwaukee Bucks","name":"Bucks"},"turnover":0},{"id":11566726,"ast":0,"blk":0,"dreb":0,"fg3_pct":0,"fg3a":0,"fg3m":0,"fg_pct":0,"fga":0,"fgm":0,"ft_pct":0,"fta":0,"ftm":0,"game":{"id":474608,"date":"2022-04-07T00:00:00.000Z","home_team_id":17,"home_team_score":127,"period":4,"postseason":false,"season":2021,"status":"Final","time":"","visitor_team_id":2,"visitor_team_score":121},"min":"0:00","oreb":0,"pf":0,"player":{"id":3547207,"first_name":"Jordan","height_feet":null,"height_inches":null,"last_name":"Nwora","position":"F","team_id":12,"weight_pounds":null},"pts":0,"reb":0,"stl":0,"team":{"id":17,"abbreviation":"MIL","city":"Milwaukee","conference":"East","division":"Central","full_name":"Milwaukee Bucks","name":"Bucks"},"turnover":0},{"id":11566728,"ast":0,"blk":0,"dreb":0,"fg3_pct":0,"fg3a":0,"fg3m":0,"fg_pct":0,"fga":0,"fgm":0,"ft_pct":0,"fta":0,"ftm":0,"game":{"id":474608,"date":"2022-04-07T00:00:00.000Z","home_team_id":17,"home_team_score":127,"period":4,"postseason":false,"season":2021,"status":"Final","time":"","visitor_team_id":2,"visitor_team_score":121},"min":"0:00","oreb":0,"pf":0,"player":{"id":666960,"first_name":"Lindell","height_feet":null,"height_inches":null,"last_name":"Wigginton","position":"G","team_id":17,"weight_pounds":null},"pts":0,"reb":0,"stl":0,"team":{"id":17,"abbreviation":"MIL","city":"Milwaukee","conference":"East","division":"Central","full_name":"Milwaukee Bucks","name":"Bucks"},"turnover":0},{"id":11566709,"ast":1,"blk":0,"dreb":4,"fg3_pct":0.75,"fg3a":4,"fg3m":3,"fg_pct":0.8,"fga":5,"fgm":4,"ft_pct":null,"fta":0,"ftm":0,"game":{"id":474608,"date":"2022-04-07T00:00:00.000Z","home_team_id":17,"home_team_score":127,"period":4,"postseason":false,"season":2021,"status":"Final","time":"","visitor_team_id":2,"visitor_team_score":121},"min":"18","oreb":0,"pf":0,"player":{"id":17896060,"first_name":"Sam","height_feet":null,"height_inches":null,"last_name":"Hauser","position":"F","team_id":2,"weight_pounds":null},"pts":11,"reb":4,"stl":0,"team":{"id":2,"abbreviation":"BOS","city":"Boston","conference":"East","division":"Atlantic","full_name":"Boston Celtics","name":"Celtics"},"turnover":0},{"id":11566712,"ast":2,"blk":1,"dreb":2,"fg3_pct":0.286,"fg3a":7,"fg3m":2,"fg_pct":0.5,"fga":10,"fgm":5,"ft_pct":null,"fta":0,"ftm":0,"game":{"id":474608,"date":"2022-04-07T00:00:00.000Z","home_team_id":17,"home_team_score":127,"period":4,"postseason":false,"season":2021,"status":"Final","time":"","visitor_team_id":2,"visitor_team_score":121},"min":"19","oreb":2,"pf":1,"player":{"id":3547276,"first_name":"Payton","height_feet":null,"height_inches":null,"last_name":"Pritchard","position":"G","team_id":2,"weight_pounds":null},"pts":12,"reb":4,"stl":2,"team":{"id":2,"abbreviation":"BOS","city":"Boston","conference":"East","division":"Atlantic","full_name":"Boston Celtics","name":"Celtics"},"turnover":1},{"id":11566710,"ast":1,"blk":0,"dreb":3,"fg3_pct":0,"fg3a":1,"fg3m":0,"fg_pct":0,"fga":1,"fgm":0,"ft_pct":1,"fta":2,"ftm":2,"game":{"id":474608,"date":"2022-04-07T00:00:00.000Z","home_team_id":17,"home_team_score":127,"period":4,"postseason":false,"season":2021,"status":"Final","time":"","visitor_team_id":2,"visitor_team_score":121},"min":"16","oreb":2,"pf":1,"player":{"id":261,"first_name":"Luke","height_feet":7,"height_inches":1,"last_name":"Kornet","position":"F-C","team_id":2,"weight_pounds":250},"pts":2,"reb":5,"stl":0,"team":{"id":2,"abbreviation":"BOS","city":"Boston","conference":"East","division":"Atlantic","full_name":"Boston Celtics","name":"Celtics"},"turnover":0},{"id":11566708,"ast":0,"blk":0,"dreb":0,"fg3_pct":0,"fg3a":0,"fg3m":0,"fg_pct":0,"fga":0,"fgm":0,"ft_pct":0,"fta":0,"ftm":0,"game":{"id":474608,"date":"2022-04-07T00:00:00.000Z","home_team_id":17,"home_team_score":127,"period":4,"postseason":false,"season":2021,"status":"Final","time":"","visitor_team_id":2,"visitor_team_score":121},"min":"0:00","oreb":0,"pf":0,"player":{"id":9338307,"first_name":"Malik","height_feet":null,"height_inches":null,"last_name":"Fitts","position":"F","team_id":2,"weight_pounds":null},"pts":0,"reb":0,"stl":0,"team":{"id":2,"abbreviation":"BOS","city":"Boston","conference":"East","division":"Atlantic","full_name":"Boston Celtics","name":"Celtics"},"turnover":0},{"id":11566713,"ast":0,"blk":0,"dreb":0,"fg3_pct":0,"fg3a":0,"fg3m":0,"fg_pct":0,"fga":0,"fgm":0,"ft_pct":0,"fta":0,"ftm":0,"game":{"id":474608,"date":"2022-04-07T00:00:00.000Z","home_team_id":17,"home_team_score":127,"period":4,"postseason":false,"season":2021,"status":"Final","time":"","visitor_team_id":2,"visitor_team_score":121},"min":"0:00","oreb":0,"pf":0,"player":{"id":17896017,"first_name":"Matt","height_feet":null,"height_inches":null,"last_name":"Ryan","position":"F","team_id":18,"weight_pounds":null},"pts":0,"reb":0,"stl":0,"team":{"id":2,"abbreviation":"BOS","city":"Boston","conference":"East","division":"Atlantic","full_name":"Boston Celtics","name":"Celtics"},"turnover":0},{"id":11566714,"ast":0,"blk":0,"dreb":0,"fg3_pct":0,"fg3a":0,"fg3m":0,"fg_pct":0,"fga":0,"fgm":0,"ft_pct":0,"fta":0,"ftm":0,"game":{"id":474608,"date":"2022-04-07T00:00:00.000Z","home_team_id":17,"home_team_score":127,"period":4,"postseason":false,"season":2021,"status":"Final","time":"","visitor_team_id":2,"visitor_team_score":121},"min":"0:00","oreb":0,"pf":0,"player":{"id":3547306,"first_name":"Brodric","height_feet":null,"height_inches":null,"last_name":"Thomas","position":"G","team_id":2,"weight_pounds":null},"pts":0,"reb":0,"stl":0,"team":{"id":2,"abbreviation":"BOS","city":"Boston","conference":"East","division":"Atlantic","full_name":"Boston Celtics","name":"Celtics"},"turnover":0},{"id":11566717,"ast":0,"blk":1,"dreb":4,"fg3_pct":0.25,"fg3a":4,"fg3m":1,"fg_pct":0.438,"fga":16,"fgm":7,"ft_pct":null,"fta":0,"ftm":0,"game":{"id":474608,"date":"2022-04-07T00:00:00.000Z","home_team_id":17,"home_team_score":127,"period":4,"postseason":false,"season":2021,"status":"Final","time":"","visitor_team_id":2,"visitor_team_score":121},"min":"24","oreb":3,"pf":1,"player":{"id":283,"first_name":"Brook","height_feet":7,"height_inches":0,"last_name":"Lopez","position":"C","team_id":17,"weight_pounds":270},"pts":15,"reb":7,"stl":0,"team":{"id":17,"abbreviation":"MIL","city":"Milwaukee","conference":"East","division":"Central","full_name":"Milwaukee Bucks","name":"Bucks"},"turnover":0},{"id":11566719,"ast":8,"blk":1,"dreb":4,"fg3_pct":0.444,"fg3a":9,"fg3m":4,"fg_pct":0.526,"fga":19,"fgm":10,"ft_pct":0.625,"fta":8,"ftm":5,"game":{"id":474608,"date":"2022-04-07T00:00:00.000Z","home_team_id":17,"home_team_score":127,"period":4,"postseason":false,"season":2021,"status":"Final","time":"","visitor_team_id":2,"visitor_team_score":121},"min":"39","oreb":4,"pf":4,"player":{"id":214,"first_name":"Jrue","height_feet":6,"height_inches":4,"last_name":"Holiday","position":"G","team_id":17,"weight_pounds":205},"pts":29,"reb":8,"stl":3,"team":{"id":17,"abbreviation":"MIL","city":"Milwaukee","conference":"East","division":"Central","full_name":"Milwaukee Bucks","name":"Bucks"},"turnover":3},{"id":11566715,"ast":9,"blk":1,"dreb":8,"fg3_pct":0.375,"fg3a":8,"fg3m":3,"fg_pct":0.5,"fga":18,"fgm":9,"ft_pct":1,"fta":1,"ftm":1,"game":{"id":474608,"date":"2022-04-07T00:00:00.000Z","home_team_id":17,"home_team_score":127,"period":4,"postseason":false,"season":2021,"status":"Final","time":"","visitor_team_id":2,"visitor_team_score":121},"min":"39","oreb":0,"pf":1,"player":{"id":315,"first_name":"Khris","height_feet":6,"height_inches":8,"last_name":"Middleton","position":"F","team_id":17,"weight_pounds":222},"pts":22,"reb":8,"stl":2,"team":{"id":17,"abbreviation":"MIL","city":"Milwaukee","conference":"East","division":"Central","full_name":"Milwaukee Bucks","name":"Bucks"},"turnover":3},{"id":11566716,"ast":5,"blk":1,"dreb":9,"fg3_pct":0,"fg3a":4,"fg3m":0,"fg_pct":0.524,"fga":21,"fgm":11,"ft_pct":0.7,"fta":10,"ftm":7,"game":{"id":474608,"date":"2022-04-07T00:00:00.000Z","home_team_id":17,"home_team_score":127,"period":4,"postseason":false,"season":2021,"status":"Final","time":"","visitor_team_id":2,"visitor_team_score":121},"min":"38","oreb":2,"pf":2,"player":{"id":15,"first_name":"Giannis","height_feet":6,"height_inches":11,"last_name":"Antetokounmpo","position":"F","team_id":17,"weight_pounds":242},"pts":29,"reb":11,"stl":2,"team":{"id":17,"abbreviation":"MIL","city":"Milwaukee","conference":"East","division":"Central","full_name":"Milwaukee Bucks","name":"Bucks"},"turnover":4},{"id":11566705,"ast":3,"blk":0,"dreb":3,"fg3_pct":1,"fg3a":3,"fg3m":3,"fg_pct":0.667,"fga":12,"fgm":8,"ft_pct":0.6,"fta":5,"ftm":3,"game":{"id":474608,"date":"2022-04-07T00:00:00.000Z","home_team_id":17,"home_team_score":127,"period":4,"postseason":false,"season":2021,"status":"Final","time":"","visitor_team_id":2,"visitor_team_score":121},"min":"32","oreb":2,"pf":1,"player":{"id":439,"first_name":"Daniel","height_feet":6,"height_inches":8,"last_name":"Theis","position":"F","team_id":12,"weight_pounds":243},"pts":22,"reb":5,"stl":0,"team":{"id":2,"abbreviation":"BOS","city":"Boston","conference":"East","division":"Atlantic","full_name":"Boston Celtics","name":"Celtics"},"turnover":1}],"meta":{"total_pages":2,"current_page":1,"next_page":2,"per_page":25,"total_count":26}}