{"data":[{"id":7247350,"ast":4,"blk":0,"dreb":5,"fg3_pct":20,"fg3a":5,"fg3m":1,"fg_pct":35.3,"fga":17,"fgm":6,"ft_pct":0,"fta":0,"ftm":0,"game":{"id":467897,"date":"2021-08-16T00:00:00.000Z","home_team_id":20,"home_team_score":104,"period":4,"postseason":false,"season":2021,"status":"Final","time":"","visitor_team_id":1,"visitor_team_score":85},"min":"28:33","oreb":2,"pf":0,"player":{"id":5,"first_name":"DeVaughn","height_feet":null,"height_inches":null,"last_name":"Akoon-Purcell","position":"G-F","team_id":1,"weight_pounds":null},"pts":13,"reb":7,"stl":1,"team":{"id":1,"abbreviation":"ATL","city":"Atlanta","conference":"East","division":"Southeast","full_name":"Atlanta Hawks","name":"Hawks"},"turnover":3},{"id":7247351,"ast":4,"blk":1,"dreb":3,"fg3_pct":28.6,"fg3a":7,"fg3m":2,"fg_pct":37.5,"fga":8,"fgm":3,"ft_pct":50,"fta":2,"ftm":1,"game":{"id":467897,"date":"2021-08-16T00:00:00.000Z","home_team_id":20,"home_team_score":104,"period":4,"postseason":false,"season":2021,"status":"Final","time":"","visitor_team_id":1,"visitor_team_score":85},"min":"21:12","oreb":1,"pf":2,"player":{"id":666885,"first_name":"Admiral","height_feet":null,"height_inches":null,"last_name":"Schofield","position":"F","team_id":22,"weight_pounds":null},"pts":9,"reb":4,"stl":0,"team":{"id":1,"abbreviation":"ATL","city":"Atlanta","conference":"East","division":"Southeast","full_name":"Atlanta Hawks","name":"Hawks"},"turnover":0},{"id":7247352,"ast":2,"blk":1,"dreb":1,"fg3_pct":0,"fg3a":0,"fg3m":0,"fg_pct":40,"fga":5,"fgm":2,"ft_pct":0,"fta":0,"ftm":0,"game":{"id":467897,"date":"2021-08-16T00:00:00.000Z","home_team_id":20,"home_team_score":104,"period":4,"postseason":false,"season":2021,"status":"Final","time":"","visitor_team_id":1,"visitor_team_score":85},"min":"15:47","oreb":5,"pf":1,"player":{"id":17895721,"first_name":"Juwan","height_feet":null,"height_inches":null,"last_name":"Durham","position":"F","team_id":1,"weight_pounds":null},"pts":4,"reb":6,"stl":0,"team":{"id":1,"abbreviation":"ATL","city":"Atlanta","conference":"East","division":"Southeast","full_name":"Atlanta Hawks","name":"Hawks"},"turnover":1},{"id":7247353,"ast":3,"blk":0,"dreb":1,"fg3_pct":50,"fg3a":4,"fg3m":2,"fg_pct":33.3,"fga":6,"fgm":2,"ft_pct":0,"fta":0,"ftm":0,"game":{"id":467897,"date":"2021-08-16T00:00:00.000Z","home_team_id":20,"home_team_score":104,"period":4,"postseason":false,"season":2021,"status":"Final","time":"","visitor_team_id":1,"visitor_team_score":85},"min":"21:03","oreb":0,"pf":0,"player":{"id":17895724,"first_name":"Ibi","height_feet":null,"height_inches":null,"last_name":"Watson","position":"G","team_id":1,"weight_pounds":null},"pts":6,"reb":1,"stl":1,"team":{"id":1,"abbreviation":"ATL","city":"Atlanta","conference":"East","division":"Southeast","full_name":"Atlanta Hawks","name":"Hawks"},"turnover":0},{"id":7247354,"ast":2,"blk":0,"dreb":2,"fg3_pct":0,"fg3a":2,"fg3m":0,"fg_pct":27.3,"fga":11,"fgm":3,"ft_pct":0,"fta":0,"ftm":0,"game":{"id":467897,"date":"2021-08-16T00:00:00.000Z","home_team_id":20,"home_team_score":104,"period":4,"postseason":false,"season":2021,"status":"Final","time":"","visitor_team_id":1,"visitor_team_score":85},"min":"19:43","oreb":0,"pf":2,"player":{"id":17896029,"first_name":"Sharife","height_feet":null,"height_inches":null,"last_name":"Cooper","position":"G","team_id":1,"weight_pounds":null},"pts":6,"reb":2,"stl":1,"team":{"id":1,"abbreviation":"ATL","city":"Atlanta","conference":"East","division":"Southeast","full_name":"Atlanta Hawks","name":"Hawks"},"turnover":3},{"id":7247357,"ast":2,"blk":3,"dreb":3,"fg3_pct":50,"fg3a":2,"fg3m":1,"fg_pct":77.8,"fga":9,"fgm":7,"ft_pct":60,"fta":5,"ftm":3,"game":{"id":467897,"date":"2021-08-16T00:00:00.000Z","home_team_id":20,"home_team_score":104,"period":4,"postseason":false,"season":2021,"status":"Final","time":"","visitor_team_id":1,"visitor_team_score":85},"min":"26:37","oreb":4,"pf":3,"player":{"id":17895839,"first_name":"Javin","height_feet":null,"height_inches":null,"last_name":"DeLaurier","position":"F","team_id":17,"weight_pounds":null},"pts":18,"reb":7,"stl":1,"team":{"id":1,"abbreviation":"ATL","city":"Atlanta","conference":"East","division":"Southeast","full_name":"Atlanta Hawks","name":"Hawks"},"turnover":0},{"id":7247371,"ast":1,"blk":0,"dreb":1,"fg3_pct":0,"fg3a":1,"fg3m":0,"fg_pct":0,"fga":1,"fgm":0,"ft_pct":0,"fta":0,"ftm":0,"game":{"id":467897,"date":"2021-08-16T00:00:00.000Z","home_team_id":20,"home_team_score":104,"period":4,"postseason":false,"season":2021,"status":"Final","time":"","visitor_team_id":1,"visitor_team_score":85},"min":"6:14","oreb":0,"pf":1,"player":{"id":17895902,"first_name":"Tyler","height_feet":null,"height_inches":null,"last_name":"Hall","position":"G","team_id":20,"weight_pounds":null},"pts":0,"reb":1,"stl":0,"team":{"id":20,"abbreviation":"NYK","city":"New York","conference":"East","division":"Atlantic","full_name":"New York Knicks","name":"Knicks"},"turnover":0},{"id":7247370,"ast":0,"blk":0,"dreb":0,"fg3_pct":0,"fg3a":0,"fg3m":0,"fg_pct":0,"fga":0,"fgm":0,"ft_pct":0,"fta":0,"ftm":0,"game":{"id":467897,"date":"2021-08-16T00:00:00.000Z","home_team_id":20,"home_team_score":104,"period":4,"postseason":false,"season":2021,"status":"Final","time":"","visitor_team_id":1,"visitor_team_score":85},"min":"0:00","oreb":0,"pf":0,"player":{"id":17895777,"first_name":"Trey","height_feet":null,"height_inches":null,"last_name":"Davis","position":"G","team_id":20,"weight_pounds":null},"pts":0,"reb":0,"stl":0,"team":{"id":20,"abbreviation":"NYK","city":"New York","conference":"East","division":"Atlantic","full_name":"New York Knicks","name":"Knicks"},"turnover":0},{"id":7247372,"ast":0,"blk":0,"dreb":0,"fg3_pct":0,"fg3a":0,"fg3m":0,"fg_pct":0,"fga":0,"fgm":0,"ft_pct":0,"fta":0,"ftm":0,"game":{"id":467897,"date":"2021-08-16T00:00:00.000Z","home_team_id":20,"home_team_score":104,"period":4,"postseason":false,"season":2021,"status":"Final","time":"","visitor_team_id":1,"visitor_team_score":85},"min":"0:00","oreb":0,"pf":0,"player":{"id":17896079,"first_name":"Rokas","height_feet":null,"height_inches":null,"last_name":"Jokubaitis","position":"G","team_id":20,"weight_pounds":null},"pts":0,"reb":0,"stl":0,"team":{"id":20,"abbreviation":"NYK","city":"New York","conference":"East","division":"Atlantic","full_name":"New York Knicks","name":"Knicks"},"turnover":0},{"id":7247361,"ast":3,"blk":0,"dreb":5,"fg3_pct":16.7,"fg3a":6,"fg3m":1,"fg_pct":33.3,"fga":9,"fgm":3,"ft_pct":0,"fta":0,"ftm":0,"game":{"id":467897,"date":"2021-08-16T00:00:00.000Z","home_team_id":20,"home_team_score":104,"period":4,"postseason":false,"season":2021,"status":"Final","time":"","visitor_team_id":1,"visitor_team_score":85},"min":"25:36","oreb":1,"pf":2,"player":{"id":17554004,"first_name":"AJ","height_feet":null,"height_inches":null,"last_name":"Lawson","position":"G","team_id":7,"weight_pounds":null},"pts":7,"reb":6,"stl":2,"team":{"id":1,"abbreviation":"ATL","city":"Atlanta","conference":"East","division":"Southeast","full_name":"Atlanta Hawks","name":"Hawks"},"turnover":2},{"id":7247356,"ast":2,"blk":0,"dreb":1,"fg3_pct":0,"fg3a":2,"fg3m":0,"fg_pct":40,"fga":5,"fgm":2,"ft_pct":33.3,"fta":6,"ftm":2,"game":{"id":467897,"date":"2021-08-16T00:00:00.000Z","home_team_id":20,"home_team_score":104,"period":4,"postseason":false,"season":2021,"status":"Final","time":"","visitor_team_id":1,"visitor_team_score":85},"min":"19:15","oreb":2,"pf":1,"player":{"id":17896019,"first_name":"Nahziah","height_feet":null,"height_inches":null,"last_name":"Carter","position":"G","team_id":1,"weight_pounds":null},"pts":6,"reb":3,"stl":0,"team":{"id":1,"abbreviation":"ATL","city":"Atlanta","conference":"East","division":"Southeast","full_name":"Atlanta Hawks","name":"Hawks"},"turnover":0},{"id":7247359,"ast":1,"blk":0,"dreb":1,"fg3_pct":57.1,"fg3a":7,"fg3m":4,"fg_pct":50,"fga":10,"fgm":5,"ft_pct":100,"fta":2,"ftm":2,"game":{"id":467897,"date":"2021-08-16T00:00:00.000Z","home_team_id":20,"home_team_score":104,"period":4,"postseason":false,"season":2021,"status":"Final","time":"","visitor_team_id":1,"visitor_team_score":85},"min":"22:13","oreb":0,"pf":4,"player":{"id":17895723,"first_name":"Justin","height_feet":null,"height_inches":null,"last_name":"Jaworski","position":"G","team_id":1,"weight_pounds":null},"pts":16,"reb":1,"stl":0,"team":{"id":1,"abbreviation":"ATL","city":"Atlanta","conference":"East","division":"Southeast","full_name":"Atlanta Hawks","name":"Hawks"},"turnover":1},{"id":7247355,"ast":0,"blk":0,"dreb":0,"fg3_pct":0,"fg3a":0,"fg3m":0,"fg_pct":0,"fga":0,"fgm":0,"ft_pct":0,"fta":0,"ftm":0,"game":{"id":467897,"date":"2021-08-16T00:00:00.000Z","home_team_id":20,"home_team_score":104,"period":4,"postseason":false,"season":2021,"status":"Final","time":"","visitor_team_id":1,"visitor_team_score":85},"min":"0:00","oreb":0,"pf":0,"player":{"id":41,"first_name":"Jordan","height_feet":6,"height_inches":9,"last_name":"Bell","position":"F","team_id":5,"weight_pounds":224},"pts":0,"reb":0,"stl":0,"team":{"id":1,"abbreviation":"ATL","city":"Atlanta","conference":"East","division":"Southeast","full_name":"Atlanta Hawks","name":"Hawks"},"turnover":0},{"id":7247358,"ast":0,"blk":0,"dreb":0,"fg3_pct":0,"fg3a":0,"fg3m":0,"fg_pct":0,"fga":0,"fgm":0,"ft_pct":0,"fta":0,"ftm":0,"game":{"id":467897,"date":"2021-08-16T00:00:00.000Z","home_team_id":20,"home_team_score":104,"period":4,"postseason":false,"season":2021,"status":"Final","time":"","visitor_team_id":1,"visitor_team_score":85},"min":"0:00","oreb":0,"pf":0,"player":{"id":17895722,"first_name":"Max","height_feet":null,"height_inches":null,"last_name":"Heidegger","position":"G","team_id":1,"weight_pounds":null},"pts":0,"reb":0,"stl":0,"team":{"id":1,"abbreviation":"ATL","city":"Atlanta","conference":"East","division":"Southeast","full_name":"Atlanta Hawks","name":"Hawks"},"turnover":0},{"id":7247360,"ast":0,"blk":0,"dreb":0,"fg3_pct":0,"fg3a":0,"fg3m":0,"fg_pct":0,"fga":0,"fgm":0,"ft_pct":0,"fta":0,"ftm":0,"game":{"id":467897,"date":"2021-08-16T00:00:00.000Z","home_team_id":20,"home_team_score":104,"period":4,"postseason":false,"season":2021,"status":"Final","time":"","visitor_team_id":1,"visitor_team_score":85},"min":"0:00","oreb":0,"pf":0,"player":{"id":17896040,"first_name":"Jalen","height_feet":null,"height_inches":null,"last_name":"Johnson","position":"F","team_id":1,"weight_pounds":null},"pts":0,"reb":0,"stl":0,"team":{"id":1,"abbreviation":"ATL","city":"Atlanta","conference":"East","division":"Southeast","full_name":"Atlanta Hawks","name":"Hawks"},"turnover":0},{"id":7247362,"ast":0,"blk":0,"dreb":0,"fg3_pct":0,"fg3a":0,"fg3m":0,"fg_pct":0,"fga":0,"fgm":0,"ft_pct":0,"fta":0,"ftm":0,"game":{"id":467897,"date":"2021-08-16T00:00:00.000Z","home_team_id":20,"home_team_score":104,"period":4,"postseason":false,"season":2021,"status":"Final","time":"","visitor_team_id":1,"visitor_team_score":85},"min":"0:00","oreb":0,"pf":0,"player":{"id":666750,"first_name":"Jeremiah","height_feet":null,"height_inches":null,"last_name":"Martin","position":"G","team_id":6,"weight_pounds":null},"pts":0,"reb":0,"stl":0,"team":{"id":1,"abbreviation":"ATL","city":"Atlanta","conference":"East","division":"Southeast","full_name":"Atlanta Hawks","name":"Hawks"},"turnover":0},{"id":7247363,"ast":0,"blk":0,"dreb":0,"fg3_pct":0,"fg3a":0,"fg3m":0,"fg_pct":0,"fga":0,"fgm":0,"ft_pct":0,"fta":0,"ftm":0,"game":{"id":467897,"date":"2021-08-16T00:00:00.000Z","home_team_id":20,"home_team_score":104,"period":4,"postseason":false,"season":2021,"status":"Final","time":"","visitor_team_id":1,"visitor_team_score":85},"min":"0:00","oreb":0,"pf":0,"player":{"id":3547289,"first_name":"Skylar","height_feet":null,"height_inches":null,"last_name":"Mays","position":"G","team_id":25,"weight_pounds":null},"pts":0,"reb":0,"stl":0,"team":{"id":1,"abbreviation":"ATL","city":"Atlanta","conference":"East","division":"Southeast","full_name":"Atlanta Hawks","name":"Hawks"},"turnover":0},{"id":7247364,"ast":0,"blk":0,"dreb":0,"fg3_pct":0,"fg3a":0,"fg3m":0,"fg_pct":0,"fga":0,"fgm":0,"ft_pct":0,"fta":0,"ftm":0,"game":{"id":467897,"date":"2021-08-16T00:00:00.000Z","home_team_id":20,"home_team_score":104,"period":4,"postseason":false,"season":2021,"status":"Final","time":"","visitor_team_id":1,"visitor_team_score":85},"min":"0:00","oreb":0,"pf":0,"player":{"id":2106,"first_name":"Eric","height_feet":null,"height_inches":null,"last_name":"Moreland","position":"","team_id":1,"weight_pounds":null},"pts":0,"reb":0,"stl":0,"team":{"id":1,"abbreviation":"ATL","city":"Atlanta","conference":"East","division":"Southeast","full_name":"Atlanta Hawks","name":"Hawks"},"turnover":0},{"id":7247365,"ast":3,"blk":0,"dreb":1,"fg3_pct":100,"fg3a":4,"fg3m":4,"fg_pct":57.1,"fga":7,"fgm":4,"ft_pct":0,"fta":0,"ftm":0,"game":{"id":467897,"date":"2021-08-16T00:00:00.000Z","home_team_id":20,"home_team_score":104,"period":4,"postseason":false,"season":2021,"status":"Final","time":"","visitor_team_id":1,"visitor_team_score":85},"min":"11:02","oreb":1,"pf":1,"player":{"id":412,"first_name":"Wayne","height_feet":6,"height_inches":5,"last_name":"Selden","position":"G-F","team_id":20,"weight_pounds":230},"pts":12,"reb":2,"stl":1,"team":{"id":20,"abbreviation":"NYK","city":"New York","conference":"East","division":"Atlantic","full_name":"New York Knicks","name":"Knicks"},"turnover":2},{"id":7247366,"ast":2,"blk":0,"dreb":6,"fg3_pct":25,"fg3a":4,"fg3m":1,"fg_pct":33.3,"fga":12,"fgm":4,"ft_pct":100,"fta":2,"ftm":2,"game":{"id":467897,"date":"2021-08-16T00:00:00.000Z","home_team_id":20,"home_team_score":104,"period":4,"postseason":false,"season":2021,"status":"Final","time":"","visitor_team_id":1,"visitor_team_score":85},"min":"28:21","oreb":3,"pf":2,"player":{"id":3547243,"first_name":"Obi","height_feet":null,"height_inches":null,"last_name":"Toppin","position":"F","team_id":20,"weight_pounds":null},"pts":11,"reb":9,"stl":3,"team":{"id":20,"abbreviation":"NYK","city":"New York","conference":"East","division":"Atlantic","full_name":"New York Knicks","name":"Knicks"},"turnover":2},{"id":7247374,"ast":0,"blk":0,"dreb":0,"fg3_pct":0,"fg3a":0,"fg3m":0,"fg_pct":0,"fga":0,"fgm":0,"ft_pct":0,"fta":0,"ftm":0,"game":{"id":467897,"date":"2021-08-16T00:00:00.000Z","home_team_id":20,"home_team_score":104,"period":4,"postseason":false,"season":2021,"status":"Final","time":"","visitor_team_id":1,"visitor_team_score":85},"min":"0:00","oreb":0,"pf":0,"player":{"id":366,"first_name":"Justin","height_feet":7,"height_inches":0,"last_name":"Patton","position":"C","team_id":20,"weight_pounds":241},"pts":0,"reb":0,"stl":0,"team":{"id":20,"abbreviation":"NYK","city":"New York","conference":"East","division":"Atlantic","full_name":"New York Knicks","name":"Knicks"},"turnover":0},{"id":7247377,"ast":0,"blk":0,"dreb":0,"fg3_pct":0,"fg3a":0,"fg3m":0,"fg_pct":0,"fga":0,"fgm":0,"ft_pct":0,"fta":0,"ftm":0,"game":{"id":467897,"date":"2021-08-16T00:00:00.000Z","home_team_id":20,"home_team_score":104,"period":4,"postseason":false,"season":2021,"status":"Final","time":"","visitor_team_id":1,"visitor_team_score":85},"min":"0:00","oreb":0,"pf":0,"player":{"id":17896119,"first_name":"Reid","height_feet":null,"height_inches":null,"last_name":"Travis","position":"F","team_id":20,"weight_pounds":null},"pts":0,"reb":0,"stl":0,"team":{"id":20,"abbreviation":"NYK","city":"New York","conference":"East","division":"Atlantic","full_name":"New York Knicks","name":"Knicks"},"turnover":0},{"id":7247378,"ast":0,"blk":0,"dreb":0,"fg3_pct":0,"fg3a":0,"fg3m":0,"fg_pct":0,"fga":0,"fgm":0,"ft_pct":0,"fta":0,"ftm":0,"game":{"id":467897,"date":"2021-08-16T00:00:00.000Z","home_team_id":20,"home_team_score":104,"period":4,"postseason":false,"season":2021,"status":"Final","time":"","visitor_team_id":1,"visitor_team_score":85},"min":"0:00","oreb":0,"pf":0,"player":{"id":11314392,"first_name":"Luca","height_feet":null,"height_inches":null,"last_name":"Vildoza","position":"G","team_id":17,"weight_pounds":null},"pts":0,"reb":0,"stl":0,"team":{"id":20,"abbreviation":"NYK","city":"New York","conference":"East","division":"Atlantic","full_name":"New York Knicks","name":"Knicks"},"turnover":0},{"id":7247367,"ast":1,"blk":1,"dreb":10,"fg3_pct":0,"fg3a":0,"fg3m":0,"fg_pct":50,"fga":4,"fgm":2,"ft_pct":100,"fta":2,"ftm":2,"game":{"id":467897,"date":"2021-08-16T00:00:00.000Z","home_team_id":20,"home_team_score":104,"period":4,"postseason":false,"season":2021,"status":"Final","time":"","visitor_team_id":1,"visitor_team_score":85},"min":"27:06","oreb":3,"pf":1,"player":{"id":17896063,"first_name":"Jericho","height_feet":null,"height_inches":null,"last_name":"Sims","position":"F","team_id":20,"weight_pounds":null},"pts":6,"reb":13,"stl":0,"team":{"id":20,"abbreviation":"NYK","city":"New York","conference":"East","division":"Atlantic","full_name":"New York Knicks","name":"Knicks"},"turnover":0},{"id":7247368,"ast":3,"blk":1,"dreb":5,"fg3_pct":50,"fg3a":12,"fg3m":6,"fg_pct":58.8,"fga":17,"fgm":10,"ft_pct":0,"fta":1,"ftm":0,"game":{"id":467897,"date":"2021-08-16T00:00:00.000Z","home_team_id":20,"home_team_score":104,"period":4,"postseason":false,"season":2021,"status":"Final","time":"","visitor_team_id":1,"visitor_team_score":85},"min":"28:17","oreb":1,"pf":2,"player":{"id":17895858,"first_name":"Quentin","height_feet":null,"height_inches":null,"last_name":"Grimes","position":"G","team_id":20,"weight_pounds":null},"pts":26,"reb":6,"stl":1,"team":{"id":20,"abbreviation":"NYK","city":"New York","conference":"East","division":"Atlantic","full_name":"New York Knicks","name":"Knicks"},"turnover":3}],"meta":{"total_pages":2,"current_page":1,"next_page":2,"per_page":25,"total_count":30}}