{"data":[{"id":7141757,"ast":1,"blk":0,"dreb":2,"fg3_pct":33.3,"fg3a":3,"fg3m":1,"fg_pct":66.7,"fga":6,"fgm":4,"ft_pct":0,"fta":1,"ftm":0,"game":{"id":461295,"date":"2021-08-13T00:00:00.000Z","home_team_id":17,"home_team_score":64,"period":4,"postseason":false,"season":2021,"status":"Final","time":"","visitor_team_id":18,"visitor_team_score":91},"min":"20:19","oreb":0,"pf":0,"player":{"id":666459,"first_name":"Brian","height_feet":null,"height_inches":null,"last_name":"Bowen II","position":"F","team_id":18,"weight_pounds":null},"pts":9,"reb":2,"stl":0,"team":{"id":18,"abbreviation":"MIN","city":"Minnesota","conference":"West","division":"Northwest","full_name":"Minnesota Timberwolves","name":"Timberwolves"},"turnover":0},{"id":7141758,"ast":3,"blk":0,"dreb":5,"fg3_pct":33.3,"fg3a":6,"fg3m":2,"fg_pct":58.3,"fga":12,"fgm":7,"ft_pct":100,"fta":1,"ftm":1,"game":{"id":461295,"date":"2021-08-13T00:00:00.000Z","home_team_id":17,"home_team_score":64,"period":4,"postseason":false,"season":2021,"status":"Final","time":"","visitor_team_id":18,"visitor_team_score":91},"min":"25:02","oreb":0,"pf":4,"player":{"id":3547259,"first_name":"Jaden","height_feet":null,"height_inches":null,"last_name":"McDaniels","position":"F","team_id":18,"weight_pounds":null},"pts":17,"reb":5,"stl":2,"team":{"id":18,"abbreviation":"MIN","city":"Minnesota","conference":"West","division":"Northwest","full_name":"Minnesota Timberwolves","name":"Timberwolves"},"turnover":2},{"id":7141759,"ast":6,"blk":1,"dreb":2,"fg3_pct":0,"fg3a":2,"fg3m":0,"fg_pct":37.5,"fga":8,"fgm":3,"ft_pct":25,"fta":4,"ftm":1,"game":{"id":461295,"date":"2021-08-13T00:00:00.000Z","home_team_id":17,"home_team_score":64,"period":4,"postseason":false,"season":2021,"status":"Final","time":"","visitor_team_id":18,"visitor_team_score":91},"min":"23:02","oreb":2,"pf":4,"player":{"id":3547295,"first_name":"Nathan","height_feet":null,"height_inches":null,"last_name":"Knight","position":"F-C","team_id":18,"weight_pounds":null},"pts":7,"reb":4,"stl":0,"team":{"id":18,"abbreviation":"MIN","city":"Minnesota","conference":"West","division":"Northwest","full_name":"Minnesota Timberwolves","name":"Timberwolves"},"turnover":0},{"id":7141760,"ast":3,"blk":0,"dreb":6,"fg3_pct":33.3,"fg3a":12,"fg3m":4,"fg_pct":50,"fga":22,"fgm":11,"ft_pct":0,"fta":0,"ftm":0,"game":{"id":461295,"date":"2021-08-13T00:00:00.000Z","home_team_id":17,"home_team_score":64,"period":4,"postseason":false,"season":2021,"status":"Final","time":"","visitor_team_id":18,"visitor_team_score":91},"min":"27:42","oreb":0,"pf":2,"player":{"id":666809,"first_name":"Jaylen","height_feet":null,"height_inches":null,"last_name":"Nowell","position":"G","team_id":18,"weight_pounds":null},"pts":26,"reb":6,"stl":2,"team":{"id":18,"abbreviation":"MIN","city":"Minnesota","conference":"West","division":"Northwest","full_name":"Minnesota Timberwolves","name":"Timberwolves"},"turnover":5},{"id":7141761,"ast":4,"blk":0,"dreb":4,"fg3_pct":50,"fg3a":2,"fg3m":1,"fg_pct":60,"fga":5,"fgm":3,"ft_pct":0,"fta":0,"ftm":0,"game":{"id":461295,"date":"2021-08-13T00:00:00.000Z","home_team_id":17,"home_team_score":64,"period":4,"postseason":false,"season":2021,"status":"Final","time":"","visitor_team_id":18,"visitor_team_score":91},"min":"23:07","oreb":1,"pf":1,"player":{"id":17896074,"first_name":"McKinley","height_feet":null,"height_inches":null,"last_name":"Wright IV","position":"G","team_id":7,"weight_pounds":null},"pts":7,"reb":5,"stl":2,"team":{"id":18,"abbreviation":"MIN","city":"Minnesota","conference":"West","division":"Northwest","full_name":"Minnesota Timberwolves","name":"Timberwolves"},"turnover":2},{"id":7141768,"ast":1,"blk":0,"dreb":1,"fg3_pct":0,"fg3a":1,"fg3m":0,"fg_pct":20,"fga":5,"fgm":1,"ft_pct":0,"fta":0,"ftm":0,"game":{"id":461295,"date":"2021-08-13T00:00:00.000Z","home_team_id":17,"home_team_score":64,"period":4,"postseason":false,"season":2021,"status":"Final","time":"","visitor_team_id":18,"visitor_team_score":91},"min":"15:04","oreb":0,"pf":2,"player":{"id":2215,"first_name":"Malcolm","height_feet":null,"height_inches":null,"last_name":"Miller","position":"","team_id":18,"weight_pounds":null},"pts":2,"reb":1,"stl":0,"team":{"id":18,"abbreviation":"MIN","city":"Minnesota","conference":"West","division":"Northwest","full_name":"Minnesota Timberwolves","name":"Timberwolves"},"turnover":1},{"id":7141762,"ast":1,"blk":1,"dreb":5,"fg3_pct":0,"fg3a":0,"fg3m":0,"fg_pct":33.3,"fga":3,"fgm":1,"ft_pct":100,"fta":1,"ftm":1,"game":{"id":461295,"date":"2021-08-13T00:00:00.000Z","home_team_id":17,"home_team_score":64,"period":4,"postseason":false,"season":2021,"status":"Final","time":"","visitor_team_id":18,"visitor_team_score":91},"min":"16:58","oreb":2,"pf":2,"player":{"id":18030330,"first_name":"Kerry","height_feet":null,"height_inches":null,"last_name":"Blackshear Jr.","position":"C","team_id":18,"weight_pounds":null},"pts":3,"reb":7,"stl":0,"team":{"id":18,"abbreviation":"MIN","city":"Minnesota","conference":"West","division":"Northwest","full_name":"Minnesota Timberwolves","name":"Timberwolves"},"turnover":0},{"id":7141767,"ast":3,"blk":0,"dreb":2,"fg3_pct":0,"fg3a":1,"fg3m":0,"fg_pct":42.9,"fga":7,"fgm":3,"ft_pct":0,"fta":2,"ftm":0,"game":{"id":461295,"date":"2021-08-13T00:00:00.000Z","home_team_id":17,"home_team_score":64,"period":4,"postseason":false,"season":2021,"status":"Final","time":"","visitor_team_id":18,"visitor_team_score":91},"min":"16:11","oreb":0,"pf":3,"player":{"id":17896095,"first_name":"Isaiah","height_feet":null,"height_inches":null,"last_name":"Miller","position":"G","team_id":18,"weight_pounds":null},"pts":6,"reb":2,"stl":0,"team":{"id":18,"abbreviation":"MIN","city":"Minnesota","conference":"West","division":"Northwest","full_name":"Minnesota Timberwolves","name":"Timberwolves"},"turnover":0},{"id":7141763,"ast":1,"blk":0,"dreb":2,"fg3_pct":100,"fg3a":4,"fg3m":4,"fg_pct":100,"fga":4,"fgm":4,"ft_pct":0,"fta":0,"ftm":0,"game":{"id":461295,"date":"2021-08-13T00:00:00.000Z","home_team_id":17,"home_team_score":64,"period":4,"postseason":false,"season":2021,"status":"Final","time":"","visitor_team_id":18,"visitor_team_score":91},"min":"12:31","oreb":0,"pf":0,"player":{"id":17895798,"first_name":"Jared","height_feet":null,"height_inches":null,"last_name":"Brownridge","position":"G","team_id":18,"weight_pounds":null},"pts":12,"reb":2,"stl":1,"team":{"id":18,"abbreviation":"MIN","city":"Minnesota","conference":"West","division":"Northwest","full_name":"Minnesota Timberwolves","name":"Timberwolves"},"turnover":0},{"id":7141770,"ast":0,"blk":0,"dreb":2,"fg3_pct":0,"fg3a":0,"fg3m":0,"fg_pct":0,"fga":1,"fgm":0,"ft_pct":0,"fta":0,"ftm":0,"game":{"id":461295,"date":"2021-08-13T00:00:00.000Z","home_team_id":17,"home_team_score":64,"period":4,"postseason":false,"season":2021,"status":"Final","time":"","visitor_team_id":18,"visitor_team_score":91},"min":"6:53","oreb":0,"pf":1,"player":{"id":17895793,"first_name":"Cullen","height_feet":null,"height_inches":null,"last_name":"Russo","position":"F","team_id":18,"weight_pounds":null},"pts":0,"reb":2,"stl":0,"team":{"id":18,"abbreviation":"MIN","city":"Minnesota","conference":"West","division":"Northwest","full_name":"Minnesota Timberwolves","name":"Timberwolves"},"turnover":0},{"id":7141769,"ast":1,"blk":0,"dreb":1,"fg3_pct":0,"fg3a":1,"fg3m":0,"fg_pct":0,"fga":2,"fgm":0,"ft_pct":0,"fta":0,"ftm":0,"game":{"id":461295,"date":"2021-08-13T00:00:00.000Z","home_team_id":17,"home_team_score":64,"period":4,"postseason":false,"season":2021,"status":"Final","time":"","visitor_team_id":18,"visitor_team_score":91},"min":"10:12","oreb":0,"pf":2,"player":{"id":2213,"first_name":"London","height_feet":null,"height_inches":null,"last_name":"Perrantes","position":"","team_id":18,"weight_pounds":null},"pts":0,"reb":1,"stl":0,"team":{"id":18,"abbreviation":"MIN","city":"Minnesota","conference":"West","division":"Northwest","full_name":"Minnesota Timberwolves","name":"Timberwolves"},"turnover":1},{"id":7141766,"ast":1,"blk":0,"dreb":1,"fg3_pct":0,"fg3a":0,"fg3m":0,"fg_pct":0,"fga":0,"fgm":0,"ft_pct":100,"fta":2,"ftm":2,"game":{"id":461295,"date":"2021-08-13T00:00:00.000Z","home_team_id":17,"home_team_score":64,"period":4,"postseason":false,"season":2021,"status":"Final","time":"","visitor_team_id":18,"visitor_team_score":91},"min":"2:59","oreb":0,"pf":1,"player":{"id":3547284,"first_name":"Karim","height_feet":null,"height_inches":null,"last_name":"Mane","position":"G","team_id":18,"weight_pounds":null},"pts":2,"reb":1,"stl":0,"team":{"id":18,"abbreviation":"MIN","city":"Minnesota","conference":"West","division":"Northwest","full_name":"Minnesota Timberwolves","name":"Timberwolves"},"turnover":0},{"id":7141764,"ast":0,"blk":0,"dreb":0,"fg3_pct":0,"fg3a":0,"fg3m":0,"fg_pct":0,"fga":0,"fgm":0,"ft_pct":0,"fta":0,"ftm":0,"game":{"id":461295,"date":"2021-08-13T00:00:00.000Z","home_team_id":17,"home_team_score":64,"period":4,"postseason":false,"season":2021,"status":"Final","time":"","visitor_team_id":18,"visitor_team_score":91},"min":"0:00","oreb":0,"pf":0,"player":{"id":666552,"first_name":"John","height_feet":null,"height_inches":null,"last_name":"Egbunu","position":"C","team_id":18,"weight_pounds":null},"pts":0,"reb":0,"stl":0,"team":{"id":18,"abbreviation":"MIN","city":"Minnesota","conference":"West","division":"Northwest","full_name":"Minnesota Timberwolves","name":"Timberwolves"},"turnover":0},{"id":7141765,"ast":0,"blk":0,"dreb":0,"fg3_pct":0,"fg3a":0,"fg3m":0,"fg_pct":0,"fga":0,"fgm":0,"ft_pct":0,"fta":0,"ftm":0,"game":{"id":461295,"date":"2021-08-13T00:00:00.000Z","home_team_id":17,"home_team_score":64,"period":4,"postseason":false,"season":2021,"status":"Final","time":"","visitor_team_id":18,"visitor_team_score":91},"min":"0:00","oreb":0,"pf":0,"player":{"id":17896110,"first_name":"Matt","height_feet":null,"height_inches":null,"last_name":"Lewis","position":"G","team_id":18,"weight_pounds":null},"pts":0,"reb":0,"stl":0,"team":{"id":18,"abbreviation":"MIN","city":"Minnesota","conference":"West","division":"Northwest","full_name":"Minnesota Timberwolves","name":"Timberwolves"},"turnover":0},{"id":7141771,"ast":0,"blk":0,"dreb":0,"fg3_pct":0,"fg3a":0,"fg3m":0,"fg_pct":0,"fga":0,"fgm":0,"ft_pct":0,"fta":0,"ftm":0,"game":{"id":461295,"date":"2021-08-13T00:00:00.000Z","home_team_id":17,"home_team_score":64,"period":4,"postseason":false,"season":2021,"status":"Final","time":"","visitor_team_id":18,"visitor_team_score":91},"min":"0:00","oreb":0,"pf":0,"player":{"id":666975,"first_name":"Kenny","height_feet":null,"height_inches":null,"last_name":"Wooten","position":"F","team_id":18,"weight_pounds":null},"pts":0,"reb":0,"stl":0,"team":{"id":18,"abbreviation":"MIN","city":"Minnesota","conference":"West","division":"Northwest","full_name":"Minnesota Timberwolves","name":"Timberwolves"},"turnover":0},{"id":7141772,"ast":1,"blk":1,"dreb":2,"fg3_pct":12.5,"fg3a":8,"fg3m":1,"fg_pct":15.4,"fga":13,"fgm":2,"ft_pct":75,"fta":8,"ftm":6,"game":{"id":461295,"date":"2021-08-13T00:00:00.000Z","home_team_id":17,"home_team_score":64,"period":4,"postseason":false,"season":2021,"status":"Final","time":"","visitor_team_id":18,"visitor_team_score":91},"min":"25:54","oreb":0,"pf":1,"player":{"id":3547207,"first_name":"Jordan","height_feet":null,"height_inches":null,"last_name":"Nwora","position":"F","team_id":12,"weight_pounds":null},"pts":11,"reb":2,"stl":0,"team":{"id":17,"abbreviation":"MIL","city":"Milwaukee","conference":"East","division":"Central","full_name":"Milwaukee Bucks","name":"Bucks"},"turnover":3},{"id":7141773,"ast":1,"blk":1,"dreb":9,"fg3_pct":0,"fg3a":2,"fg3m":0,"fg_pct":37.5,"fga":8,"fgm":3,"ft_pct":100,"fta":3,"ftm":3,"game":{"id":461295,"date":"2021-08-13T00:00:00.000Z","home_team_id":17,"home_team_score":64,"period":4,"postseason":false,"season":2021,"status":"Final","time":"","visitor_team_id":18,"visitor_team_score":91},"min":"25:05","oreb":1,"pf":2,"player":{"id":3547163,"first_name":"Mamadi","height_feet":null,"height_inches":null,"last_name":"Diakite","position":"F","team_id":6,"weight_pounds":null},"pts":9,"reb":10,"stl":0,"team":{"id":17,"abbreviation":"MIL","city":"Milwaukee","conference":"East","division":"Central","full_name":"Milwaukee Bucks","name":"Bucks"},"turnover":1},{"id":7141774,"ast":2,"blk":0,"dreb":3,"fg3_pct":0,"fg3a":3,"fg3m":0,"fg_pct":12.5,"fga":8,"fgm":1,"ft_pct":100,"fta":2,"ftm":2,"game":{"id":461295,"date":"2021-08-13T00:00:00.000Z","home_team_id":17,"home_team_score":64,"period":4,"postseason":false,"season":2021,"status":"Final","time":"","visitor_team_id":18,"visitor_team_score":91},"min":"25:30","oreb":3,"pf":0,"player":{"id":17896059,"first_name":"Sandro","height_feet":null,"height_inches":null,"last_name":"Mamukelashvili","position":"F","team_id":27,"weight_pounds":null},"pts":4,"reb":6,"stl":1,"team":{"id":17,"abbreviation":"MIL","city":"Milwaukee","conference":"East","division":"Central","full_name":"Milwaukee Bucks","name":"Bucks"},"turnover":2},{"id":7141775,"ast":1,"blk":1,"dreb":2,"fg3_pct":40,"fg3a":5,"fg3m":2,"fg_pct":50,"fga":12,"fgm":6,"ft_pct":75,"fta":4,"ftm":3,"game":{"id":461295,"date":"2021-08-13T00:00:00.000Z","home_team_id":17,"home_team_score":64,"period":4,"postseason":false,"season":2021,"status":"Final","time":"","visitor_team_id":18,"visitor_team_score":91},"min":"24:30","oreb":1,"pf":3,"player":{"id":17895903,"first_name":"Brandon","height_feet":null,"height_inches":null,"last_name":"Randolph","position":"G-F","team_id":17,"weight_pounds":null},"pts":17,"reb":3,"stl":1,"team":{"id":17,"abbreviation":"MIL","city":"Milwaukee","conference":"East","division":"Central","full_name":"Milwaukee Bucks","name":"Bucks"},"turnover":2},{"id":7141776,"ast":1,"blk":0,"dreb":2,"fg3_pct":0,"fg3a":3,"fg3m":0,"fg_pct":0,"fga":4,"fgm":0,"ft_pct":0,"fta":0,"ftm":0,"game":{"id":461295,"date":"2021-08-13T00:00:00.000Z","home_team_id":17,"home_team_score":64,"period":4,"postseason":false,"season":2021,"status":"Final","time":"","visitor_team_id":18,"visitor_team_score":91},"min":"18:00","oreb":0,"pf":1,"player":{"id":370,"first_name":"Theo","height_feet":6,"height_inches":6,"last_name":"Pinson","position":"G-F","team_id":7,"weight_pounds":218},"pts":0,"reb":2,"stl":1,"team":{"id":17,"abbreviation":"MIL","city":"Milwaukee","conference":"East","division":"Central","full_name":"Milwaukee Bucks","name":"Bucks"},"turnover":1},{"id":7141781,"ast":7,"blk":0,"dreb":0,"fg3_pct":0,"fg3a":2,"fg3m":0,"fg_pct":42.9,"fga":7,"fgm":3,"ft_pct":75,"fta":4,"ftm":3,"game":{"id":461295,"date":"2021-08-13T00:00:00.000Z","home_team_id":17,"home_team_score":64,"period":4,"postseason":false,"season":2021,"status":"Final","time":"","visitor_team_id":18,"visitor_team_score":91},"min":"17:34","oreb":1,"pf":3,"player":{"id":18170939,"first_name":"Georgios","height_feet":null,"height_inches":null,"last_name":"Kalaitzakis","position":"F","team_id":21,"weight_pounds":null},"pts":9,"reb":1,"stl":2,"team":{"id":17,"abbreviation":"MIL","city":"Milwaukee","conference":"East","division":"Central","full_name":"Milwaukee Bucks","name":"Bucks"},"turnover":1},{"id":7141779,"ast":0,"blk":2,"dreb":5,"fg3_pct":0,"fg3a":1,"fg3m":0,"fg_pct":33.3,"fga":3,"fgm":1,"ft_pct":0,"fta":1,"ftm":0,"game":{"id":461295,"date":"2021-08-13T00:00:00.000Z","home_team_id":17,"home_team_score":64,"period":4,"postseason":false,"season":2021,"status":"Final","time":"","visitor_team_id":18,"visitor_team_score":91},"min":"15:51","oreb":1,"pf":2,"player":{"id":17895750,"first_name":"Steven","height_feet":null,"height_inches":null,"last_name":"Enoch","position":"F","team_id":17,"weight_pounds":null},"pts":2,"reb":6,"stl":2,"team":{"id":17,"abbreviation":"MIL","city":"Milwaukee","conference":"East","division":"Central","full_name":"Milwaukee Bucks","name":"Bucks"},"turnover":1},{"id":7141777,"ast":1,"blk":0,"dreb":3,"fg3_pct":25,"fg3a":4,"fg3m":1,"fg_pct":20,"fga":5,"fgm":1,"ft_pct":50,"fta":2,"ftm":1,"game":{"id":461295,"date":"2021-08-13T00:00:00.000Z","home_team_id":17,"home_team_score":64,"period":4,"postseason":false,"season":2021,"status":"Final","time":"","visitor_team_id":18,"visitor_team_score":91},"min":"14:51","oreb":0,"pf":2,"player":{"id":17896092,"first_name":"Jalen","height_feet":null,"height_inches":null,"last_name":"Crutcher","position":"G","team_id":17,"weight_pounds":null},"pts":4,"reb":3,"stl":0,"team":{"id":17,"abbreviation":"MIL","city":"Milwaukee","conference":"East","division":"Central","full_name":"Milwaukee Bucks","name":"Bucks"},"turnover":0},{"id":7141778,"ast":1,"blk":0,"dreb":1,"fg3_pct":33.3,"fg3a":3,"fg3m":1,"fg_pct":25,"fga":4,"fgm":1,"ft_pct":100,"fta":2,"ftm":2,"game":{"id":461295,"date":"2021-08-13T00:00:00.000Z","home_team_id":17,"home_team_score":64,"period":4,"postseason":false,"season":2021,"status":"Final","time":"","visitor_team_id":18,"visitor_team_score":91},"min":"10:53","oreb":3,"pf":5,"player":{"id":17895963,"first_name":"Paul","height_feet":null,"height_inches":null,"last_name":"Eboua","position":"F","team_id":17,"weight_pounds":null},"pts":5,"reb":4,"stl":0,"team":{"id":17,"abbreviation":"MIL","city":"Milwaukee","conference":"East","division":"Central","full_name":"Milwaukee Bucks","name":"Bucks"},"turnover":1},{"id":7141782,"ast":0,"blk":0,"dreb":0,"fg3_pct":0,"fg3a":0,"fg3m":0,"fg_pct":0,"fga":0,"fgm":0,"ft_pct":0,"fta":0,"ftm":0,"game":{"id":461295,"date":"2021-08-13T00:00:00.000Z","home_team_id":17,"home_team_score":64,"period":4,"postseason":false,"season":2021,"status":"Final","time":"","visitor_team_id":18,"visitor_team_score":91},"min":"2:41","oreb":0,"pf":0,"player":{"id":17895996,"first_name":"E.J.","height_feet":null,"height_inches":null,"last_name":"Montgomery","position":"F","team_id":17,"weight_pounds":null},"pts":0,"reb":0,"stl":0,"team":{"id":17,"abbreviation":"MIL","city":"Milwaukee","conference":"East","division":"Central","full_name":"Milwaukee Bucks","name":"Bucks"},"turnover":0}],"meta":{"total_pages":2,"current_page":1,"next_page":2,"per_page":25,"total_count":30}}