{"data":[{"id":11209885,"ast":2,"blk":0,"dreb":4,"fg3_pct":0.25,"fg3a":4,"fg3m":1,"fg_pct":0.444,"fga":9,"fgm":4,"ft_pct":null,"fta":0,"ftm":0,"game":{"id":474511,"date":"2022-03-25T00:00:00.000Z","home_team_id":1,"home_team_score":121,"period":4,"postseason":false,"season":2021,"status":"Final","time":"","visitor_team_id":10,"visitor_team_score":110},"min":"22","oreb":0,"pf":2,"player":{"id":475,"first_name":"Andrew","height_feet":6,"height_inches":8,"last_name":"Wiggins","position":"F-G","team_id":10,"weight_pounds":194},"pts":9,"reb":4,"stl":0,"team":{"id":10,"abbreviation":"GSW","city":"Golden State","conference":"West","division":"Pacific","full_name":"Golden State Warriors","name":"Warriors"},"turnover":0},{"id":11209886,"ast":0,"blk":0,"dreb":3,"fg3_pct":0,"fg3a":2,"fg3m":0,"fg_pct":0.333,"fga":6,"fgm":2,"ft_pct":0,"fta":2,"ftm":0,"game":{"id":474511,"date":"2022-03-25T00:00:00.000Z","home_team_id":1,"home_team_score":121,"period":4,"postseason":false,"season":2021,"status":"Final","time":"","visitor_team_id":10,"visitor_team_score":110},"min":"14","oreb":1,"pf":1,"player":{"id":17553979,"first_name":"Jonathan","height_feet":null,"height_inches":null,"last_name":"Kuminga","position":"F","team_id":10,"weight_pounds":null},"pts":4,"reb":4,"stl":0,"team":{"id":10,"abbreviation":"GSW","city":"Golden State","conference":"West","division":"Pacific","full_name":"Golden State Warriors","name":"Warriors"},"turnover":1},{"id":11209887,"ast":3,"blk":0,"dreb":3,"fg3_pct":0,"fg3a":1,"fg3m":0,"fg_pct":0.333,"fga":3,"fgm":1,"ft_pct":0.667,"fta":3,"ftm":2,"game":{"id":474511,"date":"2022-03-25T00:00:00.000Z","home_team_id":1,"home_team_score":121,"period":4,"postseason":false,"season":2021,"status":"Final","time":"","visitor_team_id":10,"visitor_team_score":110},"min":"24","oreb":2,"pf":3,"player":{"id":185,"first_name":"Draymond","height_feet":6,"height_inches":7,"last_name":"Green","position":"F","team_id":10,"weight_pounds":230},"pts":4,"reb":5,"stl":0,"team":{"id":10,"abbreviation":"GSW","city":"Golden State","conference":"West","division":"Pacific","full_name":"Golden State Warriors","name":"Warriors"},"turnover":5},{"id":11209888,"ast":3,"blk":1,"dreb":6,"fg3_pct":0.563,"fg3a":16,"fg3m":9,"fg_pct":0.538,"fga":26,"fgm":14,"ft_pct":null,"fta":0,"ftm":0,"game":{"id":474511,"date":"2022-03-25T00:00:00.000Z","home_team_id":1,"home_team_score":121,"period":4,"postseason":false,"season":2021,"status":"Final","time":"","visitor_team_id":10,"visitor_team_score":110},"min":"40","oreb":1,"pf":1,"player":{"id":443,"first_name":"Klay","height_feet":6,"height_inches":7,"last_name":"Thompson","position":"G","team_id":10,"weight_pounds":215},"pts":37,"reb":7,"stl":0,"team":{"id":10,"abbreviation":"GSW","city":"Golden State","conference":"West","division":"Pacific","full_name":"Golden State Warriors","name":"Warriors"},"turnover":2},{"id":11209889,"ast":10,"blk":0,"dreb":4,"fg3_pct":0.308,"fg3a":13,"fg3m":4,"fg_pct":0.364,"fga":22,"fgm":8,"ft_pct":1,"fta":4,"ftm":4,"game":{"id":474511,"date":"2022-03-25T00:00:00.000Z","home_team_id":1,"home_team_score":121,"period":4,"postseason":false,"season":2021,"status":"Final","time":"","visitor_team_id":10,"visitor_team_score":110},"min":"39","oreb":0,"pf":5,"player":{"id":666848,"first_name":"Jordan","height_feet":null,"height_inches":null,"last_name":"Poole","position":"G","team_id":10,"weight_pounds":null},"pts":24,"reb":4,"stl":0,"team":{"id":10,"abbreviation":"GSW","city":"Golden State","conference":"West","division":"Pacific","full_name":"Golden State Warriors","name":"Warriors"},"turnover":5},{"id":11209890,"ast":3,"blk":0,"dreb":5,"fg3_pct":null,"fg3a":0,"fg3m":0,"fg_pct":0.8,"fga":5,"fgm":4,"ft_pct":null,"fta":0,"ftm":0,"game":{"id":474511,"date":"2022-03-25T00:00:00.000Z","home_team_id":1,"home_team_score":121,"period":4,"postseason":false,"season":2021,"status":"Final","time":"","visitor_team_id":10,"visitor_team_score":110},"min":"24","oreb":3,"pf":2,"player":{"id":282,"first_name":"Kevon","height_feet":6,"height_inches":9,"last_name":"Looney","position":"F","team_id":10,"weight_pounds":220},"pts":8,"reb":8,"stl":0,"team":{"id":10,"abbreviation":"GSW","city":"Golden State","conference":"West","division":"Pacific","full_name":"Golden State Warriors","name":"Warriors"},"turnover":1},{"id":11209895,"ast":2,"blk":0,"dreb":2,"fg3_pct":0,"fg3a":1,"fg3m":0,"fg_pct":0.857,"fga":7,"fgm":6,"ft_pct":1,"fta":2,"ftm":2,"game":{"id":474511,"date":"2022-03-25T00:00:00.000Z","home_team_id":1,"home_team_score":121,"period":4,"postseason":false,"season":2021,"status":"Final","time":"","visitor_team_id":10,"visitor_team_score":110},"min":"30","oreb":4,"pf":3,"player":{"id":2189,"first_name":"Gary","height_feet":null,"height_inches":null,"last_name":"Payton II","position":"","team_id":10,"weight_pounds":null},"pts":14,"reb":6,"stl":2,"team":{"id":10,"abbreviation":"GSW","city":"Golden State","conference":"West","division":"Pacific","full_name":"Golden State Warriors","name":"Warriors"},"turnover":2},{"id":11209891,"ast":0,"blk":0,"dreb":0,"fg3_pct":0,"fg3a":0,"fg3m":0,"fg_pct":0,"fga":0,"fgm":0,"ft_pct":0,"fta":0,"ftm":0,"game":{"id":474511,"date":"2022-03-25T00:00:00.000Z","home_team_id":1,"home_team_score":121,"period":4,"postseason":false,"season":2021,"status":"Final","time":"","visitor_team_id":10,"visitor_team_score":110},"min":"0:00","oreb":0,"pf":0,"player":{"id":49,"first_name":"Nemanja","height_feet":6,"height_inches":10,"last_name":"Bjelica","position":"F","team_id":10,"weight_pounds":234},"pts":0,"reb":0,"stl":0,"team":{"id":10,"abbreviation":"GSW","city":"Golden State","conference":"West","division":"Pacific","full_name":"Golden State Warriors","name":"Warriors"},"turnover":0},{"id":11209892,"ast":0,"blk":0,"dreb":0,"fg3_pct":0,"fg3a":0,"fg3m":0,"fg_pct":0,"fga":0,"fgm":0,"ft_pct":0,"fta":0,"ftm":0,"game":{"id":474511,"date":"2022-03-25T00:00:00.000Z","home_team_id":1,"home_team_score":121,"period":4,"postseason":false,"season":2021,"status":"Final","time":"","visitor_team_id":10,"visitor_team_score":110},"min":"0:00","oreb":0,"pf":0,"player":{"id":50661,"first_name":"Chris","height_feet":null,"height_inches":null,"last_name":"Chiozza","position":"G","team_id":10,"weight_pounds":null},"pts":0,"reb":0,"stl":0,"team":{"id":10,"abbreviation":"GSW","city":"Golden State","conference":"West","division":"Pacific","full_name":"Golden State Warriors","name":"Warriors"},"turnover":0},{"id":11209894,"ast":0,"blk":0,"dreb":0,"fg3_pct":0,"fg3a":0,"fg3m":0,"fg_pct":0,"fga":0,"fgm":0,"ft_pct":0,"fta":0,"ftm":0,"game":{"id":474511,"date":"2022-03-25T00:00:00.000Z","home_team_id":1,"home_team_score":121,"period":4,"postseason":false,"season":2021,"status":"Final","time":"","visitor_team_id":10,"visitor_team_score":110},"min":"0:00","oreb":0,"pf":0,"player":{"id":17553992,"first_name":"Moses","height_feet":null,"height_inches":null,"last_name":"Moody","position":"G","team_id":10,"weight_pounds":null},"pts":0,"reb":0,"stl":0,"team":{"id":10,"abbreviation":"GSW","city":"Golden State","conference":"West","division":"Pacific","full_name":"Golden State Warriors","name":"Warriors"},"turnover":0},{"id":11209900,"ast":1,"blk":1,"dreb":8,"fg3_pct":null,"fg3a":0,"fg3m":0,"fg_pct":0.818,"fga":11,"fgm":9,"ft_pct":0.5,"fta":2,"ftm":1,"game":{"id":474511,"date":"2022-03-25T00:00:00.000Z","home_team_id":1,"home_team_score":121,"period":4,"postseason":false,"season":2021,"status":"Final","time":"","visitor_team_id":10,"visitor_team_score":110},"min":"31","oreb":5,"pf":1,"player":{"id":83,"first_name":"Clint","height_feet":6,"height_inches":10,"last_name":"Capela","position":"C","team_id":1,"weight_pounds":240},"pts":19,"reb":13,"stl":1,"team":{"id":1,"abbreviation":"ATL","city":"Atlanta","conference":"East","division":"Southeast","full_name":"Atlanta Hawks","name":"Hawks"},"turnover":2},{"id":11209901,"ast":2,"blk":0,"dreb":6,"fg3_pct":0.417,"fg3a":12,"fg3m":5,"fg_pct":0.412,"fga":17,"fgm":7,"ft_pct":0.5,"fta":2,"ftm":1,"game":{"id":474511,"date":"2022-03-25T00:00:00.000Z","home_team_id":1,"home_team_score":121,"period":4,"postseason":false,"season":2021,"status":"Final","time":"","visitor_team_id":10,"visitor_team_score":110},"min":"37","oreb":0,"pf":3,"player":{"id":221,"first_name":"Kevin","height_feet":6,"height_inches":7,"last_name":"Huerter","position":"G","team_id":26,"weight_pounds":190},"pts":20,"reb":6,"stl":1,"team":{"id":1,"abbreviation":"ATL","city":"Atlanta","conference":"East","division":"Southeast","full_name":"Atlanta Hawks","name":"Hawks"},"turnover":0},{"id":11209902,"ast":15,"blk":0,"dreb":3,"fg3_pct":0.444,"fg3a":9,"fg3m":4,"fg_pct":0.6,"fga":20,"fgm":12,"ft_pct":1,"fta":5,"ftm":5,"game":{"id":474511,"date":"2022-03-25T00:00:00.000Z","home_team_id":1,"home_team_score":121,"period":4,"postseason":false,"season":2021,"status":"Final","time":"","visitor_team_id":10,"visitor_team_score":110},"min":"39","oreb":1,"pf":3,"player":{"id":490,"first_name":"Trae","height_feet":6,"height_inches":2,"last_name":"Young","position":"G","team_id":1,"weight_pounds":180},"pts":33,"reb":4,"stl":2,"team":{"id":1,"abbreviation":"ATL","city":"Atlanta","conference":"East","division":"Southeast","full_name":"Atlanta Hawks","name":"Hawks"},"turnover":3},{"id":11209907,"ast":1,"blk":1,"dreb":0,"fg3_pct":0.5,"fg3a":2,"fg3m":1,"fg_pct":0.5,"fga":2,"fgm":1,"ft_pct":1,"fta":2,"ftm":2,"game":{"id":474511,"date":"2022-03-25T00:00:00.000Z","home_team_id":1,"home_team_score":121,"period":4,"postseason":false,"season":2021,"status":"Final","time":"","visitor_team_id":10,"visitor_team_score":110},"min":"16","oreb":2,"pf":4,"player":{"id":288,"first_name":"Timothe","height_feet":6,"height_inches":6,"last_name":"Luwawu-Cabarrot","position":"G-F","team_id":1,"weight_pounds":210},"pts":5,"reb":2,"stl":1,"team":{"id":1,"abbreviation":"ATL","city":"Atlanta","conference":"East","division":"Southeast","full_name":"Atlanta Hawks","name":"Hawks"},"turnover":2},{"id":11209910,"ast":2,"blk":0,"dreb":1,"fg3_pct":1,"fg3a":1,"fg3m":1,"fg_pct":0.5,"fga":2,"fgm":1,"ft_pct":null,"fta":0,"ftm":0,"game":{"id":474511,"date":"2022-03-25T00:00:00.000Z","home_team_id":1,"home_team_score":121,"period":4,"postseason":false,"season":2021,"status":"Final","time":"","visitor_team_id":10,"visitor_team_score":110},"min":"19","oreb":2,"pf":1,"player":{"id":487,"first_name":"Delon","height_feet":6,"height_inches":5,"last_name":"Wright","position":"G","team_id":30,"weight_pounds":183},"pts":3,"reb":3,"stl":2,"team":{"id":1,"abbreviation":"ATL","city":"Atlanta","conference":"East","division":"Southeast","full_name":"Atlanta Hawks","name":"Hawks"},"turnover":0},{"id":11209908,"ast":0,"blk":2,"dreb":4,"fg3_pct":0,"fg3a":0,"fg3m":0,"fg_pct":0,"fga":0,"fgm":0,"ft_pct":0,"fta":0,"ftm":0,"game":{"id":474511,"date":"2022-03-25T00:00:00.000Z","home_team_id":1,"home_team_score":121,"period":4,"postseason":false,"season":2021,"status":"Final","time":"","visitor_team_id":10,"visitor_team_score":110},"min":"17:02","oreb":1,"pf":2,"player":{"id":3547244,"first_name":"Onyeka","height_feet":null,"height_inches":null,"last_name":"Okongwu","position":"F-C","team_id":1,"weight_pounds":null},"pts":0,"reb":5,"stl":1,"team":{"id":1,"abbreviation":"ATL","city":"Atlanta","conference":"East","division":"Southeast","full_name":"Atlanta Hawks","name":"Hawks"},"turnover":2},{"id":11209909,"ast":0,"blk":0,"dreb":2,"fg3_pct":1,"fg3a":1,"fg3m":1,"fg_pct":0.5,"fga":4,"fgm":2,"ft_pct":null,"fta":0,"ftm":0,"game":{"id":474511,"date":"2022-03-25T00:00:00.000Z","home_team_id":1,"home_team_score":121,"period":4,"postseason":false,"season":2021,"status":"Final","time":"","visitor_team_id":10,"visitor_team_score":110},"min":"10","oreb":1,"pf":0,"player":{"id":481,"first_name":"Lou","height_feet":6,"height_inches":1,"last_name":"Williams","position":"G","team_id":1,"weight_pounds":175},"pts":5,"reb":3,"stl":0,"team":{"id":1,"abbreviation":"ATL","city":"Atlanta","conference":"East","division":"Southeast","full_name":"Atlanta Hawks","name":"Hawks"},"turnover":1},{"id":11209903,"ast":0,"blk":0,"dreb":0,"fg3_pct":0,"fg3a":0,"fg3m":0,"fg_pct":0,"fga":0,"fgm":0,"ft_pct":0,"fta":0,"ftm":0,"game":{"id":474511,"date":"2022-03-25T00:00:00.000Z","home_team_id":1,"home_team_score":121,"period":4,"postseason":false,"season":2021,"status":"Final","time":"","visitor_team_id":10,"visitor_team_score":110},"min":"","oreb":0,"pf":0,"player":{"id":53,"first_name":"Bogdan","height_feet":6,"height_inches":6,"last_name":"Bogdanovic","position":"G","team_id":1,"weight_pounds":205},"pts":0,"reb":0,"stl":0,"team":{"id":1,"abbreviation":"ATL","city":"Atlanta","conference":"East","division":"Southeast","full_name":"Atlanta Hawks","name":"Hawks"},"turnover":0},{"id":11209904,"ast":0,"blk":0,"dreb":0,"fg3_pct":0,"fg3a":0,"fg3m":0,"fg_pct":0,"fga":0,"fgm":0,"ft_pct":0,"fta":0,"ftm":0,"game":{"id":474511,"date":"2022-03-25T00:00:00.000Z","home_team_id":1,"home_team_score":121,"period":4,"postseason":false,"season":2021,"status":"Final","time":"","visitor_team_id":10,"visitor_team_score":110},"min":"0:00","oreb":0,"pf":0,"player":{"id":129,"first_name":"Gorgui","height_feet":6,"height_inches":11,"last_name":"Dieng","position":"C","team_id":27,"weight_pounds":252},"pts":0,"reb":0,"stl":0,"team":{"id":1,"abbreviation":"ATL","city":"Atlanta","conference":"East","division":"Southeast","full_name":"Atlanta Hawks","name":"Hawks"},"turnover":0},{"id":11209905,"ast":0,"blk":0,"dreb":0,"fg3_pct":0,"fg3a":0,"fg3m":0,"fg_pct":0,"fga":0,"fgm":0,"ft_pct":0,"fta":0,"ftm":0,"game":{"id":474511,"date":"2022-03-25T00:00:00.000Z","home_team_id":1,"home_team_score":121,"period":4,"postseason":false,"season":2021,"status":"Final","time":"","visitor_team_id":10,"visitor_team_score":110},"min":"0:00","oreb":0,"pf":0,"player":{"id":17896040,"first_name":"Jalen","height_feet":null,"height_inches":null,"last_name":"Johnson","position":"F","team_id":1,"weight_pounds":null},"pts":0,"reb":0,"stl":0,"team":{"id":1,"abbreviation":"ATL","city":"Atlanta","conference":"East","division":"Southeast","full_name":"Atlanta Hawks","name":"Hawks"},"turnover":0},{"id":11209906,"ast":0,"blk":0,"dreb":0,"fg3_pct":0,"fg3a":0,"fg3m":0,"fg_pct":0,"fga":0,"fgm":0,"ft_pct":0,"fta":0,"ftm":0,"game":{"id":474511,"date":"2022-03-25T00:00:00.000Z","home_team_id":1,"home_team_score":121,"period":4,"postseason":false,"season":2021,"status":"Final","time":"","visitor_team_id":10,"visitor_team_score":110},"min":"0:00","oreb":0,"pf":0,"player":{"id":259,"first_name":"Kevin","height_feet":6,"height_inches":9,"last_name":"Knox","position":"F","team_id":25,"weight_pounds":215},"pts":0,"reb":0,"stl":0,"team":{"id":1,"abbreviation":"ATL","city":"Atlanta","conference":"East","division":"Southeast","full_name":"Atlanta Hawks","name":"Hawks"},"turnover":0},{"id":11209898,"ast":3,"blk":0,"dreb":3,"fg3_pct":0,"fg3a":3,"fg3m":0,"fg_pct":0.385,"fga":13,"fgm":5,"ft_pct":0.333,"fta":3,"ftm":1,"game":{"id":474511,"date":"2022-03-25T00:00:00.000Z","home_team_id":1,"home_team_score":121,"period":4,"postseason":false,"season":2021,"status":"Final","time":"","visitor_team_id":10,"visitor_team_score":110},"min":"34","oreb":0,"pf":2,"player":{"id":666656,"first_name":"De'Andre","height_feet":null,"height_inches":null,"last_name":"Hunter","position":"F","team_id":1,"weight_pounds":null},"pts":11,"reb":3,"stl":3,"team":{"id":1,"abbreviation":"ATL","city":"Atlanta","conference":"East","division":"Southeast","full_name":"Atlanta Hawks","name":"Hawks"},"turnover":1},{"id":11209899,"ast":3,"blk":0,"dreb":5,"fg3_pct":0.222,"fg3a":9,"fg3m":2,"fg_pct":0.45,"fga":20,"fgm":9,"ft_pct":1,"fta":5,"ftm":5,"game":{"id":474511,"date":"2022-03-25T00:00:00.000Z","home_team_id":1,"home_team_score":121,"period":4,"postseason":false,"season":2021,"status":"Final","time":"","visitor_team_id":10,"visitor_team_score":110},"min":"37","oreb":0,"pf":2,"player":{"id":167,"first_name":"Danilo","height_feet":6,"height_inches":10,"last_name":"Gallinari","position":"F","team_id":2,"weight_pounds":225},"pts":25,"reb":5,"stl":0,"team":{"id":1,"abbreviation":"ATL","city":"Atlanta","conference":"East","division":"Southeast","full_name":"Atlanta Hawks","name":"Hawks"},"turnover":0},{"id":11209897,"ast":0,"blk":0,"dreb":0,"fg3_pct":0,"fg3a":0,"fg3m":0,"fg_pct":0,"fga":0,"fgm":0,"ft_pct":0,"fta":0,"ftm":0,"game":{"id":474511,"date":"2022-03-25T00:00:00.000Z","home_team_id":1,"home_team_score":121,"period":4,"postseason":false,"season":2021,"status":"Final","time":"","visitor_team_id":10,"visitor_team_score":110},"min":"0:23","oreb":0,"pf":0,"player":{"id":666925,"first_name":"Juan","height_feet":null,"height_inches":null,"last_name":"Toscano-Anderson","position":"F","team_id":29,"weight_pounds":null},"pts":0,"reb":0,"stl":0,"team":{"id":10,"abbreviation":"GSW","city":"Golden State","conference":"West","division":"Pacific","full_name":"Golden State Warriors","name":"Warriors"},"turnover":0},{"id":11209893,"ast":0,"blk":0,"dreb":5,"fg3_pct":0,"fg3a":3,"fg3m":0,"fg_pct":0.25,"fga":8,"fgm":2,"ft_pct":1,"fta":2,"ftm":2,"game":{"id":474511,"date":"2022-03-25T00:00:00.000Z","home_team_id":1,"home_team_score":121,"period":4,"postseason":false,"season":2021,"status":"Final","time":"","visitor_team_id":10,"visitor_team_score":110},"min":"27","oreb":1,"pf":3,"player":{"id":272,"first_name":"Damion","height_feet":6,"height_inches":6,"last_name":"Lee","position":"G","team_id":24,"weight_pounds":210},"pts":6,"reb":6,"stl":1,"team":{"id":10,"abbreviation":"GSW","city":"Golden State","conference":"West","division":"Pacific","full_name":"Golden State Warriors","name":"Warriors"},"turnover":0}],"meta":{"total_pages":2,"current_page":1,"next_page":2,"per_page":25,"total_count":26}}