{"data":[{"id":11712741,"ast":0,"blk":0,"dreb":4,"fg3_pct":0,"fg3a":5,"fg3m":0,"fg_pct":35.7,"fga":14,"fgm":5,"ft_pct":0,"fta":0,"ftm":0,"game":{"id":831662,"date":"2022-04-15T00:00:00.000Z","home_team_id":6,"home_team_score":101,"period":4,"postseason":true,"season":2021,"status":"Final","time":"","visitor_team_id":1,"visitor_team_score":107},"min":"28:12","oreb":1,"pf":1,"player":{"id":666656,"first_name":"De'Andre","height_feet":null,"height_inches":null,"last_name":"Hunter","position":"F","team_id":1,"weight_pounds":null},"pts":10,"reb":5,"stl":0,"team":{"id":1,"abbreviation":"ATL","city":"Atlanta","conference":"East","division":"Southeast","full_name":"Atlanta Hawks","name":"Hawks"},"turnover":2},{"id":11712742,"ast":1,"blk":1,"dreb":2,"fg3_pct":33.3,"fg3a":6,"fg3m":2,"fg_pct":30.8,"fga":13,"fgm":4,"ft_pct":100,"fta":4,"ftm":4,"game":{"id":831662,"date":"2022-04-15T00:00:00.000Z","home_team_id":6,"home_team_score":101,"period":4,"postseason":true,"season":2021,"status":"Final","time":"","visitor_team_id":1,"visitor_team_score":107},"min":"40:50","oreb":1,"pf":2,"player":{"id":167,"first_name":"Danilo","height_feet":6,"height_inches":10,"last_name":"Gallinari","position":"F","team_id":2,"weight_pounds":225},"pts":14,"reb":3,"stl":0,"team":{"id":1,"abbreviation":"ATL","city":"Atlanta","conference":"East","division":"Southeast","full_name":"Atlanta Hawks","name":"Hawks"},"turnover":3},{"id":11712743,"ast":0,"blk":0,"dreb":4,"fg3_pct":0,"fg3a":0,"fg3m":0,"fg_pct":100,"fga":3,"fgm":3,"ft_pct":50,"fta":2,"ftm":1,"game":{"id":831662,"date":"2022-04-15T00:00:00.000Z","home_team_id":6,"home_team_score":101,"period":4,"postseason":true,"season":2021,"status":"Final","time":"","visitor_team_id":1,"visitor_team_score":107},"min":"13:28","oreb":4,"pf":1,"player":{"id":83,"first_name":"Clint","height_feet":6,"height_inches":10,"last_name":"Capela","position":"C","team_id":1,"weight_pounds":240},"pts":7,"reb":8,"stl":0,"team":{"id":1,"abbreviation":"ATL","city":"Atlanta","conference":"East","division":"Southeast","full_name":"Atlanta Hawks","name":"Hawks"},"turnover":0},{"id":11712744,"ast":2,"blk":0,"dreb":2,"fg3_pct":33.3,"fg3a":3,"fg3m":1,"fg_pct":54.5,"fga":11,"fgm":6,"ft_pct":0,"fta":0,"ftm":0,"game":{"id":831662,"date":"2022-04-15T00:00:00.000Z","home_team_id":6,"home_team_score":101,"period":4,"postseason":true,"season":2021,"status":"Final","time":"","visitor_team_id":1,"visitor_team_score":107},"min":"28:47","oreb":0,"pf":4,"player":{"id":221,"first_name":"Kevin","height_feet":6,"height_inches":7,"last_name":"Huerter","position":"G","team_id":26,"weight_pounds":190},"pts":13,"reb":2,"stl":1,"team":{"id":1,"abbreviation":"ATL","city":"Atlanta","conference":"East","division":"Southeast","full_name":"Atlanta Hawks","name":"Hawks"},"turnover":0},{"id":11712745,"ast":9,"blk":1,"dreb":3,"fg3_pct":36.4,"fg3a":11,"fg3m":4,"fg_pct":52,"fga":25,"fgm":13,"ft_pct":88.9,"fta":9,"ftm":8,"game":{"id":831662,"date":"2022-04-15T00:00:00.000Z","home_team_id":6,"home_team_score":101,"period":4,"postseason":true,"season":2021,"status":"Final","time":"","visitor_team_id":1,"visitor_team_score":107},"min":"40:14","oreb":0,"pf":1,"player":{"id":490,"first_name":"Trae","height_feet":6,"height_inches":2,"last_name":"Young","position":"G","team_id":1,"weight_pounds":180},"pts":38,"reb":3,"stl":0,"team":{"id":1,"abbreviation":"ATL","city":"Atlanta","conference":"East","division":"Southeast","full_name":"Atlanta Hawks","name":"Hawks"},"turnover":4},{"id":11712746,"ast":2,"blk":0,"dreb":4,"fg3_pct":66.7,"fg3a":3,"fg3m":2,"fg_pct":75,"fga":8,"fgm":6,"ft_pct":100,"fta":5,"ftm":5,"game":{"id":831662,"date":"2022-04-15T00:00:00.000Z","home_team_id":6,"home_team_score":101,"period":4,"postseason":true,"season":2021,"status":"Final","time":"","visitor_team_id":1,"visitor_team_score":107},"min":"29:27","oreb":1,"pf":4,"player":{"id":53,"first_name":"Bogdan","height_feet":6,"height_inches":6,"last_name":"Bogdanovic","position":"G","team_id":1,"weight_pounds":205},"pts":19,"reb":5,"stl":3,"team":{"id":1,"abbreviation":"ATL","city":"Atlanta","conference":"East","division":"Southeast","full_name":"Atlanta Hawks","name":"Hawks"},"turnover":0},{"id":11712759,"ast":0,"blk":0,"dreb":0,"fg3_pct":0,"fg3a":0,"fg3m":0,"fg_pct":0,"fga":0,"fgm":0,"ft_pct":0,"fta":0,"ftm":0,"game":{"id":831662,"date":"2022-04-15T00:00:00.000Z","home_team_id":6,"home_team_score":101,"period":4,"postseason":true,"season":2021,"status":"Final","time":"","visitor_team_id":1,"visitor_team_score":107},"min":"0:00","oreb":0,"pf":0,"player":{"id":666476,"first_name":"Moses","height_feet":null,"height_inches":null,"last_name":"Brown","position":"C","team_id":3,"weight_pounds":null},"pts":0,"reb":0,"stl":0,"team":{"id":6,"abbreviation":"CLE","city":"Cleveland","conference":"East","division":"Central","full_name":"Cleveland Cavaliers","name":"Cavaliers"},"turnover":0},{"id":11712760,"ast":0,"blk":0,"dreb":0,"fg3_pct":0,"fg3a":0,"fg3m":0,"fg_pct":0,"fga":0,"fgm":0,"ft_pct":0,"fta":0,"ftm":0,"game":{"id":831662,"date":"2022-04-15T00:00:00.000Z","home_team_id":6,"home_team_score":101,"period":4,"postseason":true,"season":2021,"status":"Final","time":"","visitor_team_id":1,"visitor_team_score":107},"min":"0:00","oreb":0,"pf":0,"player":{"id":118,"first_name":"Ed","height_feet":6,"height_inches":10,"last_name":"Davis","position":"C","team_id":6,"weight_pounds":225},"pts":0,"reb":0,"stl":0,"team":{"id":6,"abbreviation":"CLE","city":"Cleveland","conference":"East","division":"Central","full_name":"Cleveland Cavaliers","name":"Cavaliers"},"turnover":0},{"id":11712753,"ast":1,"blk":1,"dreb":4,"fg3_pct":0,"fg3a":2,"fg3m":0,"fg_pct":33.3,"fga":3,"fgm":1,"ft_pct":0,"fta":0,"ftm":0,"game":{"id":831662,"date":"2022-04-15T00:00:00.000Z","home_team_id":6,"home_team_score":101,"period":4,"postseason":true,"season":2021,"status":"Final","time":"","visitor_team_id":1,"visitor_team_score":107},"min":"20:37","oreb":2,"pf":0,"player":{"id":487,"first_name":"Delon","height_feet":6,"height_inches":5,"last_name":"Wright","position":"G","team_id":30,"weight_pounds":183},"pts":2,"reb":6,"stl":0,"team":{"id":1,"abbreviation":"ATL","city":"Atlanta","conference":"East","division":"Southeast","full_name":"Atlanta Hawks","name":"Hawks"},"turnover":2},{"id":11712752,"ast":0,"blk":0,"dreb":8,"fg3_pct":0,"fg3a":0,"fg3m":0,"fg_pct":100,"fga":1,"fgm":1,"ft_pct":0,"fta":0,"ftm":0,"game":{"id":831662,"date":"2022-04-15T00:00:00.000Z","home_team_id":6,"home_team_score":101,"period":4,"postseason":true,"season":2021,"status":"Final","time":"","visitor_team_id":1,"visitor_team_score":107},"min":"28:52","oreb":1,"pf":4,"player":{"id":3547244,"first_name":"Onyeka","height_feet":null,"height_inches":null,"last_name":"Okongwu","position":"F-C","team_id":1,"weight_pounds":null},"pts":2,"reb":9,"stl":1,"team":{"id":1,"abbreviation":"ATL","city":"Atlanta","conference":"East","division":"Southeast","full_name":"Atlanta Hawks","name":"Hawks"},"turnover":1},{"id":11712750,"ast":0,"blk":0,"dreb":1,"fg3_pct":0,"fg3a":0,"fg3m":0,"fg_pct":0,"fga":1,"fgm":0,"ft_pct":100,"fta":2,"ftm":2,"game":{"id":831662,"date":"2022-04-15T00:00:00.000Z","home_team_id":6,"home_team_score":101,"period":4,"postseason":true,"season":2021,"status":"Final","time":"","visitor_team_id":1,"visitor_team_score":107},"min":"4:01","oreb":0,"pf":1,"player":{"id":288,"first_name":"Timothe","height_feet":6,"height_inches":6,"last_name":"Luwawu-Cabarrot","position":"G-F","team_id":1,"weight_pounds":210},"pts":2,"reb":1,"stl":0,"team":{"id":1,"abbreviation":"ATL","city":"Atlanta","conference":"East","division":"Southeast","full_name":"Atlanta Hawks","name":"Hawks"},"turnover":0},{"id":11712747,"ast":0,"blk":0,"dreb":0,"fg3_pct":0,"fg3a":1,"fg3m":0,"fg_pct":0,"fga":1,"fgm":0,"ft_pct":0,"fta":0,"ftm":0,"game":{"id":831662,"date":"2022-04-15T00:00:00.000Z","home_team_id":6,"home_team_score":101,"period":4,"postseason":true,"season":2021,"status":"Final","time":"","visitor_team_id":1,"visitor_team_score":107},"min":"5:28","oreb":0,"pf":1,"player":{"id":129,"first_name":"Gorgui","height_feet":6,"height_inches":11,"last_name":"Dieng","position":"C","team_id":27,"weight_pounds":252},"pts":0,"reb":0,"stl":0,"team":{"id":1,"abbreviation":"ATL","city":"Atlanta","conference":"East","division":"Southeast","full_name":"Atlanta Hawks","name":"Hawks"},"turnover":1},{"id":11712748,"ast":0,"blk":0,"dreb":0,"fg3_pct":0,"fg3a":0,"fg3m":0,"fg_pct":0,"fga":0,"fgm":0,"ft_pct":0,"fta":0,"ftm":0,"game":{"id":831662,"date":"2022-04-15T00:00:00.000Z","home_team_id":6,"home_team_score":101,"period":4,"postseason":true,"season":2021,"status":"Final","time":"","visitor_team_id":1,"visitor_team_score":107},"min":"0:00","oreb":0,"pf":0,"player":{"id":17896040,"first_name":"Jalen","height_feet":null,"height_inches":null,"last_name":"Johnson","position":"F","team_id":1,"weight_pounds":null},"pts":0,"reb":0,"stl":0,"team":{"id":1,"abbreviation":"ATL","city":"Atlanta","conference":"East","division":"Southeast","full_name":"Atlanta Hawks","name":"Hawks"},"turnover":0},{"id":11712749,"ast":0,"blk":0,"dreb":0,"fg3_pct":0,"fg3a":0,"fg3m":0,"fg_pct":0,"fga":0,"fgm":0,"ft_pct":0,"fta":0,"ftm":0,"game":{"id":831662,"date":"2022-04-15T00:00:00.000Z","home_team_id":6,"home_team_score":101,"period":4,"postseason":true,"season":2021,"status":"Final","time":"","visitor_team_id":1,"visitor_team_score":107},"min":"0:00","oreb":0,"pf":0,"player":{"id":259,"first_name":"Kevin","height_feet":6,"height_inches":9,"last_name":"Knox","position":"F","team_id":25,"weight_pounds":215},"pts":0,"reb":0,"stl":0,"team":{"id":1,"abbreviation":"ATL","city":"Atlanta","conference":"East","division":"Southeast","full_name":"Atlanta Hawks","name":"Hawks"},"turnover":0},{"id":11712751,"ast":0,"blk":0,"dreb":0,"fg3_pct":0,"fg3a":0,"fg3m":0,"fg_pct":0,"fga":0,"fgm":0,"ft_pct":0,"fta":0,"ftm":0,"game":{"id":831662,"date":"2022-04-15T00:00:00.000Z","home_team_id":6,"home_team_score":101,"period":4,"postseason":true,"season":2021,"status":"Final","time":"","visitor_team_id":1,"visitor_team_score":107},"min":"0:00","oreb":0,"pf":0,"player":{"id":3547289,"first_name":"Skylar","height_feet":null,"height_inches":null,"last_name":"Mays","position":"G","team_id":25,"weight_pounds":null},"pts":0,"reb":0,"stl":0,"team":{"id":1,"abbreviation":"ATL","city":"Atlanta","conference":"East","division":"Southeast","full_name":"Atlanta Hawks","name":"Hawks"},"turnover":0},{"id":11712763,"ast":0,"blk":0,"dreb":0,"fg3_pct":0,"fg3a":0,"fg3m":0,"fg_pct":0,"fga":0,"fgm":0,"ft_pct":0,"fta":0,"ftm":0,"game":{"id":831662,"date":"2022-04-15T00:00:00.000Z","home_team_id":6,"home_team_score":101,"period":4,"postseason":true,"season":2021,"status":"Final","time":"","visitor_team_id":1,"visitor_team_score":107},"min":"0:00","oreb":0,"pf":0,"player":{"id":359,"first_name":"Cedi","height_feet":6,"height_inches":8,"last_name":"Osman","position":"F","team_id":6,"weight_pounds":215},"pts":0,"reb":0,"stl":0,"team":{"id":6,"abbreviation":"CLE","city":"Cleveland","conference":"East","division":"Central","full_name":"Cleveland Cavaliers","name":"Cavaliers"},"turnover":0},{"id":11712765,"ast":0,"blk":0,"dreb":0,"fg3_pct":0,"fg3a":0,"fg3m":0,"fg_pct":0,"fga":0,"fgm":0,"ft_pct":0,"fta":0,"ftm":0,"game":{"id":831662,"date":"2022-04-15T00:00:00.000Z","home_team_id":6,"home_team_score":101,"period":4,"postseason":true,"season":2021,"status":"Final","time":"","visitor_team_id":1,"visitor_team_score":107},"min":"0:00","oreb":0,"pf":0,"player":{"id":3547279,"first_name":"Lamar","height_feet":null,"height_inches":null,"last_name":"Stevens","position":"F","team_id":6,"weight_pounds":null},"pts":0,"reb":0,"stl":0,"team":{"id":6,"abbreviation":"CLE","city":"Cleveland","conference":"East","division":"Central","full_name":"Cleveland Cavaliers","name":"Cavaliers"},"turnover":0},{"id":11712766,"ast":0,"blk":0,"dreb":0,"fg3_pct":0,"fg3a":0,"fg3m":0,"fg_pct":0,"fga":0,"fgm":0,"ft_pct":0,"fta":0,"ftm":0,"game":{"id":831662,"date":"2022-04-15T00:00:00.000Z","home_team_id":6,"home_team_score":101,"period":4,"postseason":true,"season":2021,"status":"Final","time":"","visitor_team_id":1,"visitor_team_score":107},"min":"0:00","oreb":0,"pf":0,"player":{"id":666971,"first_name":"Dylan","height_feet":null,"height_inches":null,"last_name":"Windler","position":"G-F","team_id":6,"weight_pounds":null},"pts":0,"reb":0,"stl":0,"team":{"id":6,"abbreviation":"CLE","city":"Cleveland","conference":"East","division":"Central","full_name":"Cleveland Cavaliers","name":"Cavaliers"},"turnover":0},{"id":11712754,"ast":0,"blk":1,"dreb":7,"fg3_pct":50,"fg3a":12,"fg3m":6,"fg_pct":58.8,"fga":17,"fgm":10,"ft_pct":0,"fta":0,"ftm":0,"game":{"id":831662,"date":"2022-04-15T00:00:00.000Z","home_team_id":6,"home_team_score":101,"period":4,"postseason":true,"season":2021,"status":"Final","time":"","visitor_team_id":1,"visitor_team_score":107},"min":"36:31","oreb":1,"pf":4,"player":{"id":297,"first_name":"Lauri","height_feet":7,"height_inches":0,"last_name":"Markkanen","position":"F","team_id":29,"weight_pounds":240},"pts":26,"reb":8,"stl":2,"team":{"id":6,"abbreviation":"CLE","city":"Cleveland","conference":"East","division":"Central","full_name":"Cleveland Cavaliers","name":"Cavaliers"},"turnover":1},{"id":11712755,"ast":5,"blk":2,"dreb":5,"fg3_pct":33.3,"fg3a":3,"fg3m":1,"fg_pct":50,"fga":12,"fgm":6,"ft_pct":83.3,"fta":6,"ftm":5,"game":{"id":831662,"date":"2022-04-15T00:00:00.000Z","home_team_id":6,"home_team_score":101,"period":4,"postseason":true,"season":2021,"status":"Final","time":"","visitor_team_id":1,"visitor_team_score":107},"min":"37:29","oreb":3,"pf":4,"player":{"id":17896076,"first_name":"Evan","height_feet":null,"height_inches":null,"last_name":"Mobley","position":"F-C","team_id":6,"weight_pounds":null},"pts":18,"reb":8,"stl":0,"team":{"id":6,"abbreviation":"CLE","city":"Cleveland","conference":"East","division":"Central","full_name":"Cleveland Cavaliers","name":"Cavaliers"},"turnover":0},{"id":11712756,"ast":2,"blk":1,"dreb":2,"fg3_pct":0,"fg3a":0,"fg3m":0,"fg_pct":100,"fga":4,"fgm":4,"ft_pct":75,"fta":4,"ftm":3,"game":{"id":831662,"date":"2022-04-15T00:00:00.000Z","home_team_id":6,"home_team_score":101,"period":4,"postseason":true,"season":2021,"status":"Final","time":"","visitor_team_id":1,"visitor_team_score":107},"min":"35:29","oreb":1,"pf":3,"player":{"id":9,"first_name":"Jarrett","height_feet":6,"height_inches":11,"last_name":"Allen","position":"C","team_id":6,"weight_pounds":237},"pts":11,"reb":3,"stl":0,"team":{"id":6,"abbreviation":"CLE","city":"Cleveland","conference":"East","division":"Central","full_name":"Cleveland Cavaliers","name":"Cavaliers"},"turnover":2},{"id":11712757,"ast":5,"blk":0,"dreb":3,"fg3_pct":44.4,"fg3a":9,"fg3m":4,"fg_pct":38.5,"fga":13,"fgm":5,"ft_pct":100,"fta":2,"ftm":2,"game":{"id":831662,"date":"2022-04-15T00:00:00.000Z","home_team_id":6,"home_team_score":101,"period":4,"postseason":true,"season":2021,"status":"Final","time":"","visitor_team_id":1,"visitor_team_score":107},"min":"39:53","oreb":0,"pf":4,"player":{"id":277,"first_name":"Caris","height_feet":6,"height_inches":7,"last_name":"LeVert","position":"G","team_id":6,"weight_pounds":204},"pts":16,"reb":3,"stl":1,"team":{"id":6,"abbreviation":"CLE","city":"Cleveland","conference":"East","division":"Central","full_name":"Cleveland Cavaliers","name":"Cavaliers"},"turnover":2},{"id":11712758,"ast":9,"blk":0,"dreb":2,"fg3_pct":14.3,"fg3a":7,"fg3m":1,"fg_pct":33.3,"fga":27,"fgm":9,"ft_pct":100,"fta":2,"ftm":2,"game":{"id":831662,"date":"2022-04-15T00:00:00.000Z","home_team_id":6,"home_team_score":101,"period":4,"postseason":true,"season":2021,"status":"Final","time":"","visitor_team_id":1,"visitor_team_score":107},"min":"43:18","oreb":1,"pf":0,"player":{"id":666581,"first_name":"Darius","height_feet":null,"height_inches":null,"last_name":"Garland","position":"G","team_id":6,"weight_pounds":null},"pts":21,"reb":3,"stl":3,"team":{"id":6,"abbreviation":"CLE","city":"Cleveland","conference":"East","division":"Central","full_name":"Cleveland Cavaliers","name":"Cavaliers"},"turnover":5},{"id":11712762,"ast":0,"blk":0,"dreb":3,"fg3_pct":0,"fg3a":1,"fg3m":0,"fg_pct":66.7,"fga":3,"fgm":2,"ft_pct":66.7,"fta":3,"ftm":2,"game":{"id":831662,"date":"2022-04-15T00:00:00.000Z","home_team_id":6,"home_team_score":101,"period":4,"postseason":true,"season":2021,"status":"Final","time":"","visitor_team_id":1,"visitor_team_score":107},"min":"21:51","oreb":2,"pf":1,"player":{"id":3547247,"first_name":"Isaac","height_feet":null,"height_inches":null,"last_name":"Okoro","position":"F-G","team_id":6,"weight_pounds":null},"pts":6,"reb":5,"stl":0,"team":{"id":6,"abbreviation":"CLE","city":"Cleveland","conference":"East","division":"Central","full_name":"Cleveland Cavaliers","name":"Cavaliers"},"turnover":0},{"id":11712761,"ast":0,"blk":0,"dreb":4,"fg3_pct":50,"fg3a":2,"fg3m":1,"fg_pct":50,"fga":2,"fgm":1,"ft_pct":0,"fta":0,"ftm":0,"game":{"id":831662,"date":"2022-04-15T00:00:00.000Z","home_team_id":6,"home_team_score":101,"period":4,"postseason":true,"season":2021,"status":"Final","time":"","visitor_team_id":1,"visitor_team_score":107},"min":"10:29","oreb":0,"pf":2,"player":{"id":285,"first_name":"Kevin","height_feet":6,"height_inches":10,"last_name":"Love","position":"F-C","team_id":16,"weight_pounds":251},"pts":3,"reb":4,"stl":1,"team":{"id":6,"abbreviation":"CLE","city":"Cleveland","conference":"East","division":"Central","full_name":"Cleveland Cavaliers","name":"Cavaliers"},"turnover":0}],"meta":{"total_pages":2,"current_page":1,"next_page":2,"per_page":25,"total_count":26}}