{"data":[{"id":11990248,"ast":0,"blk":0,"dreb":1,"fg3_pct":0,"fg3a":3,"fg3m":0,"fg_pct":0.2,"fga":5,"fgm":1,"ft_pct":0.5,"fta":2,"ftm":1,"game":{"id":851563,"date":"2022-05-15T00:00:00.000Z","home_team_id":2,"home_team_score":109,"period":4,"postseason":true,"season":2021,"status":"Final","time":"","visitor_team_id":17,"visitor_team_score":81},"min":"22","oreb":1,"pf":2,"player":{"id":301,"first_name":"Wesley","height_feet":null,"height_inches":null,"last_name":"Matthews","position":"G-F","team_id":17,"weight_pounds":null},"pts":3,"reb":2,"stl":0,"team":{"id":17,"abbreviation":"MIL","city":"Milwaukee","conference":"East","division":"Central","full_name":"Milwaukee Bucks","name":"Bucks"},"turnover":1},{"id":11990251,"ast":0,"blk":0,"dreb":3,"fg3_pct":0,"fg3a":4,"fg3m":0,"fg_pct":0,"fga":6,"fgm":0,"ft_pct":0.5,"fta":2,"ftm":1,"game":{"id":851563,"date":"2022-05-15T00:00:00.000Z","home_team_id":2,"home_team_score":109,"period":4,"postseason":true,"season":2021,"status":"Final","time":"","visitor_team_id":17,"visitor_team_score":81},"min":"22","oreb":0,"pf":1,"player":{"id":8,"first_name":"Grayson","height_feet":6,"height_inches":5,"last_name":"Allen","position":"G","team_id":17,"weight_pounds":198},"pts":1,"reb":3,"stl":0,"team":{"id":17,"abbreviation":"MIL","city":"Milwaukee","conference":"East","division":"Central","full_name":"Milwaukee Bucks","name":"Bucks"},"turnover":0},{"id":11990252,"ast":8,"blk":0,"dreb":4,"fg3_pct":0,"fg3a":6,"fg3m":0,"fg_pct":0.429,"fga":21,"fgm":9,"ft_pct":0.75,"fta":4,"ftm":3,"game":{"id":851563,"date":"2022-05-15T00:00:00.000Z","home_team_id":2,"home_team_score":109,"period":4,"postseason":true,"season":2021,"status":"Final","time":"","visitor_team_id":17,"visitor_team_score":81},"min":"41","oreb":1,"pf":4,"player":{"id":214,"first_name":"Jrue","height_feet":6,"height_inches":4,"last_name":"Holiday","position":"G","team_id":17,"weight_pounds":205},"pts":21,"reb":5,"stl":2,"team":{"id":17,"abbreviation":"MIL","city":"Milwaukee","conference":"East","division":"Central","full_name":"Milwaukee Bucks","name":"Bucks"},"turnover":1},{"id":11990254,"ast":0,"blk":0,"dreb":0,"fg3_pct":0,"fg3a":0,"fg3m":0,"fg_pct":0,"fga":0,"fgm":0,"ft_pct":0,"fta":0,"ftm":0,"game":{"id":851563,"date":"2022-05-15T00:00:00.000Z","home_team_id":2,"home_team_score":109,"period":4,"postseason":true,"season":2021,"status":"Final","time":"","visitor_team_id":17,"visitor_team_score":81},"min":"2:03","oreb":0,"pf":0,"player":{"id":87,"first_name":"Jevon","height_feet":6,"height_inches":2,"last_name":"Carter","position":"G","team_id":17,"weight_pounds":196},"pts":0,"reb":0,"stl":0,"team":{"id":17,"abbreviation":"MIL","city":"Milwaukee","conference":"East","division":"Central","full_name":"Milwaukee Bucks","name":"Bucks"},"turnover":0},{"id":11990253,"ast":0,"blk":0,"dreb":0,"fg3_pct":0,"fg3a":0,"fg3m":0,"fg_pct":0,"fga":0,"fgm":0,"ft_pct":0,"fta":0,"ftm":0,"game":{"id":851563,"date":"2022-05-15T00:00:00.000Z","home_team_id":2,"home_team_score":109,"period":4,"postseason":true,"season":2021,"status":"Final","time":"","visitor_team_id":17,"visitor_team_score":81},"min":"2:03","oreb":1,"pf":0,"player":{"id":2148,"first_name":"Thanasis","height_feet":null,"height_inches":null,"last_name":"Antetokounmpo","position":"","team_id":17,"weight_pounds":null},"pts":0,"reb":1,"stl":0,"team":{"id":17,"abbreviation":"MIL","city":"Milwaukee","conference":"East","division":"Central","full_name":"Milwaukee Bucks","name":"Bucks"},"turnover":0},{"id":11990256,"ast":0,"blk":0,"dreb":2,"fg3_pct":0,"fg3a":0,"fg3m":0,"fg_pct":0,"fga":0,"fgm":0,"ft_pct":0,"fta":0,"ftm":0,"game":{"id":851563,"date":"2022-05-15T00:00:00.000Z","home_team_id":2,"home_team_score":109,"period":4,"postseason":true,"season":2021,"status":"Final","time":"","visitor_team_id":17,"visitor_team_score":81},"min":"11:15","oreb":0,"pf":1,"player":{"id":211,"first_name":"George","height_feet":6,"height_inches":3,"last_name":"Hill","position":"G","team_id":12,"weight_pounds":188},"pts":0,"reb":2,"stl":0,"team":{"id":17,"abbreviation":"MIL","city":"Milwaukee","conference":"East","division":"Central","full_name":"Milwaukee Bucks","name":"Bucks"},"turnover":1},{"id":11990261,"ast":1,"blk":0,"dreb":0,"fg3_pct":null,"fg3a":0,"fg3m":0,"fg_pct":1,"fga":1,"fgm":1,"ft_pct":null,"fta":0,"ftm":0,"game":{"id":851563,"date":"2022-05-15T00:00:00.000Z","home_team_id":2,"home_team_score":109,"period":4,"postseason":true,"season":2021,"status":"Final","time":"","visitor_team_id":17,"visitor_team_score":81},"min":"2","oreb":1,"pf":0,"player":{"id":11314392,"first_name":"Luca","height_feet":null,"height_inches":null,"last_name":"Vildoza","position":"G","team_id":17,"weight_pounds":null},"pts":2,"reb":1,"stl":0,"team":{"id":17,"abbreviation":"MIL","city":"Milwaukee","conference":"East","division":"Central","full_name":"Milwaukee Bucks","name":"Bucks"},"turnover":0},{"id":11990258,"ast":0,"blk":0,"dreb":0,"fg3_pct":0,"fg3a":1,"fg3m":0,"fg_pct":0.5,"fga":2,"fgm":1,"ft_pct":null,"fta":0,"ftm":0,"game":{"id":851563,"date":"2022-05-15T00:00:00.000Z","home_team_id":2,"home_team_score":109,"period":4,"postseason":true,"season":2021,"status":"Final","time":"","visitor_team_id":17,"visitor_team_score":81},"min":"2","oreb":0,"pf":0,"player":{"id":3547207,"first_name":"Jordan","height_feet":null,"height_inches":null,"last_name":"Nwora","position":"F","team_id":12,"weight_pounds":null},"pts":2,"reb":0,"stl":0,"team":{"id":17,"abbreviation":"MIL","city":"Milwaukee","conference":"East","division":"Central","full_name":"Milwaukee Bucks","name":"Bucks"},"turnover":0},{"id":11990260,"ast":0,"blk":0,"dreb":0,"fg3_pct":0,"fg3a":1,"fg3m":0,"fg_pct":0,"fga":2,"fgm":0,"ft_pct":0,"fta":0,"ftm":0,"game":{"id":851563,"date":"2022-05-15T00:00:00.000Z","home_team_id":2,"home_team_score":109,"period":4,"postseason":true,"season":2021,"status":"Final","time":"","visitor_team_id":17,"visitor_team_score":81},"min":"2:03","oreb":0,"pf":0,"player":{"id":666930,"first_name":"Rayjon","height_feet":null,"height_inches":null,"last_name":"Tucker","position":"F","team_id":17,"weight_pounds":null},"pts":0,"reb":0,"stl":0,"team":{"id":17,"abbreviation":"MIL","city":"Milwaukee","conference":"East","division":"Central","full_name":"Milwaukee Bucks","name":"Bucks"},"turnover":0},{"id":11990257,"ast":0,"blk":0,"dreb":0,"fg3_pct":0,"fg3a":0,"fg3m":0,"fg_pct":0,"fga":0,"fgm":0,"ft_pct":0,"fta":0,"ftm":0,"game":{"id":851563,"date":"2022-05-15T00:00:00.000Z","home_team_id":2,"home_team_score":109,"period":4,"postseason":true,"season":2021,"status":"Final","time":"","visitor_team_id":17,"visitor_team_score":81},"min":"0:00","oreb":0,"pf":0,"player":{"id":223,"first_name":"Serge","height_feet":6,"height_inches":10,"last_name":"Ibaka","position":"F-C","team_id":17,"weight_pounds":235},"pts":0,"reb":0,"stl":0,"team":{"id":17,"abbreviation":"MIL","city":"Milwaukee","conference":"East","division":"Central","full_name":"Milwaukee Bucks","name":"Bucks"},"turnover":0},{"id":11990262,"ast":8,"blk":1,"dreb":5,"fg3_pct":0.556,"fg3a":9,"fg3m":5,"fg_pct":0.5,"fga":14,"fgm":7,"ft_pct":0.8,"fta":5,"ftm":4,"game":{"id":851563,"date":"2022-05-15T00:00:00.000Z","home_team_id":2,"home_team_score":109,"period":4,"postseason":true,"season":2021,"status":"Final","time":"","visitor_team_id":17,"visitor_team_score":81},"min":"37","oreb":1,"pf":4,"player":{"id":434,"first_name":"Jayson","height_feet":6,"height_inches":8,"last_name":"Tatum","position":"F","team_id":2,"weight_pounds":208},"pts":23,"reb":6,"stl":0,"team":{"id":2,"abbreviation":"BOS","city":"Boston","conference":"East","division":"Atlantic","full_name":"Boston Celtics","name":"Celtics"},"turnover":7},{"id":11990263,"ast":0,"blk":2,"dreb":5,"fg3_pct":0.389,"fg3a":18,"fg3m":7,"fg_pct":0.455,"fga":22,"fgm":10,"ft_pct":null,"fta":0,"ftm":0,"game":{"id":851563,"date":"2022-05-15T00:00:00.000Z","home_team_id":2,"home_team_score":109,"period":4,"postseason":true,"season":2021,"status":"Final","time":"","visitor_team_id":17,"visitor_team_score":81},"min":"39","oreb":1,"pf":5,"player":{"id":666965,"first_name":"Grant","height_feet":null,"height_inches":null,"last_name":"Williams","position":"F","team_id":2,"weight_pounds":null},"pts":27,"reb":6,"stl":0,"team":{"id":2,"abbreviation":"BOS","city":"Boston","conference":"East","division":"Atlantic","full_name":"Boston Celtics","name":"Celtics"},"turnover":1},{"id":11990264,"ast":6,"blk":1,"dreb":9,"fg3_pct":0,"fg3a":2,"fg3m":0,"fg_pct":0.286,"fga":7,"fgm":2,"ft_pct":1,"fta":2,"ftm":2,"game":{"id":851563,"date":"2022-05-15T00:00:00.000Z","home_team_id":2,"home_team_score":109,"period":4,"postseason":true,"season":2021,"status":"Final","time":"","visitor_team_id":17,"visitor_team_score":81},"min":"40","oreb":1,"pf":3,"player":{"id":219,"first_name":"Al","height_feet":6,"height_inches":10,"last_name":"Horford","position":"C-F","team_id":2,"weight_pounds":245},"pts":6,"reb":10,"stl":0,"team":{"id":2,"abbreviation":"BOS","city":"Boston","conference":"East","division":"Atlantic","full_name":"Boston Celtics","name":"Celtics"},"turnover":0},{"id":11990265,"ast":0,"blk":0,"dreb":7,"fg3_pct":0.4,"fg3a":5,"fg3m":2,"fg_pct":0.5,"fga":16,"fgm":8,"ft_pct":0.25,"fta":4,"ftm":1,"game":{"id":851563,"date":"2022-05-15T00:00:00.000Z","home_team_id":2,"home_team_score":109,"period":4,"postseason":true,"season":2021,"status":"Final","time":"","visitor_team_id":17,"visitor_team_score":81},"min":"37","oreb":1,"pf":2,"player":{"id":70,"first_name":"Jaylen","height_feet":6,"height_inches":7,"last_name":"Brown","position":"G","team_id":2,"weight_pounds":220},"pts":19,"reb":8,"stl":2,"team":{"id":2,"abbreviation":"BOS","city":"Boston","conference":"East","division":"Atlantic","full_name":"Boston Celtics","name":"Celtics"},"turnover":2},{"id":11990266,"ast":10,"blk":1,"dreb":6,"fg3_pct":0.167,"fg3a":6,"fg3m":1,"fg_pct":0.222,"fga":9,"fgm":2,"ft_pct":0.857,"fta":7,"ftm":6,"game":{"id":851563,"date":"2022-05-15T00:00:00.000Z","home_team_id":2,"home_team_score":109,"period":4,"postseason":true,"season":2021,"status":"Final","time":"","visitor_team_id":17,"visitor_team_score":81},"min":"37","oreb":1,"pf":5,"player":{"id":420,"first_name":"Marcus","height_feet":6,"height_inches":4,"last_name":"Smart","position":"G","team_id":2,"weight_pounds":220},"pts":11,"reb":7,"stl":1,"team":{"id":2,"abbreviation":"BOS","city":"Boston","conference":"East","division":"Atlantic","full_name":"Boston Celtics","name":"Celtics"},"turnover":2},{"id":11990273,"ast":0,"blk":2,"dreb":2,"fg3_pct":0,"fg3a":1,"fg3m":0,"fg_pct":0,"fga":1,"fgm":0,"ft_pct":0,"fta":0,"ftm":0,"game":{"id":851563,"date":"2022-05-15T00:00:00.000Z","home_team_id":2,"home_team_score":109,"period":4,"postseason":true,"season":2021,"status":"Final","time":"","visitor_team_id":17,"visitor_team_score":81},"min":"6:18","oreb":1,"pf":0,"player":{"id":439,"first_name":"Daniel","height_feet":6,"height_inches":8,"last_name":"Theis","position":"F","team_id":12,"weight_pounds":243},"pts":0,"reb":3,"stl":1,"team":{"id":2,"abbreviation":"BOS","city":"Boston","conference":"East","division":"Atlantic","full_name":"Boston Celtics","name":"Celtics"},"turnover":0},{"id":11990271,"ast":3,"blk":0,"dreb":3,"fg3_pct":0.667,"fg3a":6,"fg3m":4,"fg_pct":0.714,"fga":7,"fgm":5,"ft_pct":null,"fta":0,"ftm":0,"game":{"id":851563,"date":"2022-05-15T00:00:00.000Z","home_team_id":2,"home_team_score":109,"period":4,"postseason":true,"season":2021,"status":"Final","time":"","visitor_team_id":17,"visitor_team_score":81},"min":"17","oreb":2,"pf":0,"player":{"id":3547276,"first_name":"Payton","height_feet":null,"height_inches":null,"last_name":"Pritchard","position":"G","team_id":2,"weight_pounds":null},"pts":14,"reb":5,"stl":0,"team":{"id":2,"abbreviation":"BOS","city":"Boston","conference":"East","division":"Atlantic","full_name":"Boston Celtics","name":"Celtics"},"turnover":0},{"id":11990267,"ast":0,"blk":0,"dreb":0,"fg3_pct":1,"fg3a":1,"fg3m":1,"fg_pct":1,"fga":1,"fgm":1,"ft_pct":null,"fta":0,"ftm":0,"game":{"id":851563,"date":"2022-05-15T00:00:00.000Z","home_team_id":2,"home_team_score":109,"period":4,"postseason":true,"season":2021,"status":"Final","time":"","visitor_team_id":17,"visitor_team_score":81},"min":"2","oreb":0,"pf":0,"player":{"id":9338307,"first_name":"Malik","height_feet":null,"height_inches":null,"last_name":"Fitts","position":"F","team_id":2,"weight_pounds":null},"pts":3,"reb":0,"stl":0,"team":{"id":2,"abbreviation":"BOS","city":"Boston","conference":"East","division":"Atlantic","full_name":"Boston Celtics","name":"Celtics"},"turnover":0},{"id":11990272,"ast":1,"blk":0,"dreb":0,"fg3_pct":0,"fg3a":0,"fg3m":0,"fg_pct":0,"fga":0,"fgm":0,"ft_pct":0,"fta":0,"ftm":0,"game":{"id":851563,"date":"2022-05-15T00:00:00.000Z","home_team_id":2,"home_team_score":109,"period":4,"postseason":true,"season":2021,"status":"Final","time":"","visitor_team_id":17,"visitor_team_score":81},"min":"2:03","oreb":0,"pf":0,"player":{"id":429,"first_name":"Nik","height_feet":6,"height_inches":6,"last_name":"Stauskas","position":"G","team_id":2,"weight_pounds":205},"pts":0,"reb":0,"stl":0,"team":{"id":2,"abbreviation":"BOS","city":"Boston","conference":"East","division":"Atlantic","full_name":"Boston Celtics","name":"Celtics"},"turnover":0},{"id":11990270,"ast":0,"blk":0,"dreb":1,"fg3_pct":1,"fg3a":1,"fg3m":1,"fg_pct":1,"fga":1,"fgm":1,"ft_pct":null,"fta":0,"ftm":0,"game":{"id":851563,"date":"2022-05-15T00:00:00.000Z","home_team_id":2,"home_team_score":109,"period":4,"postseason":true,"season":2021,"status":"Final","time":"","visitor_team_id":17,"visitor_team_score":81},"min":"2","oreb":0,"pf":0,"player":{"id":3547250,"first_name":"Aaron","height_feet":null,"height_inches":null,"last_name":"Nesmith","position":"G-F","team_id":12,"weight_pounds":null},"pts":3,"reb":1,"stl":0,"team":{"id":2,"abbreviation":"BOS","city":"Boston","conference":"East","division":"Atlantic","full_name":"Boston Celtics","name":"Celtics"},"turnover":0},{"id":11990268,"ast":0,"blk":0,"dreb":0,"fg3_pct":0,"fg3a":0,"fg3m":0,"fg_pct":0,"fga":0,"fgm":0,"ft_pct":0,"fta":0,"ftm":0,"game":{"id":851563,"date":"2022-05-15T00:00:00.000Z","home_team_id":2,"home_team_score":109,"period":4,"postseason":true,"season":2021,"status":"Final","time":"","visitor_team_id":17,"visitor_team_score":81},"min":"2:03","oreb":0,"pf":0,"player":{"id":261,"first_name":"Luke","height_feet":7,"height_inches":1,"last_name":"Kornet","position":"F-C","team_id":2,"weight_pounds":250},"pts":0,"reb":0,"stl":0,"team":{"id":2,"abbreviation":"BOS","city":"Boston","conference":"East","division":"Atlantic","full_name":"Boston Celtics","name":"Celtics"},"turnover":0},{"id":11990269,"ast":0,"blk":0,"dreb":0,"fg3_pct":0,"fg3a":0,"fg3m":0,"fg_pct":0,"fga":0,"fgm":0,"ft_pct":0,"fta":0,"ftm":0,"game":{"id":851563,"date":"2022-05-15T00:00:00.000Z","home_team_id":2,"home_team_score":109,"period":4,"postseason":true,"season":2021,"status":"Final","time":"","visitor_team_id":17,"visitor_team_score":81},"min":"0:56","oreb":0,"pf":0,"player":{"id":666788,"first_name":"Juwan","height_feet":null,"height_inches":null,"last_name":"Morgan","position":"F","team_id":2,"weight_pounds":null},"pts":0,"reb":0,"stl":0,"team":{"id":2,"abbreviation":"BOS","city":"Boston","conference":"East","division":"Atlantic","full_name":"Boston Celtics","name":"Celtics"},"turnover":0},{"id":11990274,"ast":1,"blk":0,"dreb":2,"fg3_pct":0.167,"fg3a":6,"fg3m":1,"fg_pct":0.1,"fga":10,"fgm":1,"ft_pct":null,"fta":0,"ftm":0,"game":{"id":851563,"date":"2022-05-15T00:00:00.000Z","home_team_id":2,"home_team_score":109,"period":4,"postseason":true,"season":2021,"status":"Final","time":"","visitor_team_id":17,"visitor_team_score":81},"min":"18","oreb":0,"pf":0,"player":{"id":473,"first_name":"Derrick","height_feet":6,"height_inches":4,"last_name":"White","position":"G","team_id":2,"weight_pounds":190},"pts":3,"reb":2,"stl":1,"team":{"id":2,"abbreviation":"BOS","city":"Boston","conference":"East","division":"Atlantic","full_name":"Boston Celtics","name":"Celtics"},"turnover":0},{"id":11990275,"ast":0,"blk":0,"dreb":0,"fg3_pct":0,"fg3a":0,"fg3m":0,"fg_pct":0,"fga":0,"fgm":0,"ft_pct":0,"fta":0,"ftm":0,"game":{"id":851563,"date":"2022-05-15T00:00:00.000Z","home_team_id":2,"home_team_score":109,"period":4,"postseason":true,"season":2021,"status":"Final","time":"","visitor_team_id":17,"visitor_team_score":81},"min":"0:00","oreb":0,"pf":0,"player":{"id":476,"first_name":"Robert","height_feet":6,"height_inches":10,"last_name":"Williams III","position":"C-F","team_id":2,"weight_pounds":240},"pts":0,"reb":0,"stl":0,"team":{"id":2,"abbreviation":"BOS","city":"Boston","conference":"East","division":"Atlantic","full_name":"Boston Celtics","name":"Celtics"},"turnover":0},{"id":11990255,"ast":2,"blk":0,"dreb":6,"fg3_pct":0,"fg3a":5,"fg3m":0,"fg_pct":0.167,"fga":6,"fgm":1,"ft_pct":null,"fta":0,"ftm":0,"game":{"id":851563,"date":"2022-05-15T00:00:00.000Z","home_team_id":2,"home_team_score":109,"period":4,"postseason":true,"season":2021,"status":"Final","time":"","visitor_team_id":17,"visitor_team_score":81},"min":"32","oreb":0,"pf":1,"player":{"id":105,"first_name":"Pat","height_feet":6,"height_inches":4,"last_name":"Connaughton","position":"G","team_id":17,"weight_pounds":209},"pts":2,"reb":6,"stl":0,"team":{"id":17,"abbreviation":"MIL","city":"Milwaukee","conference":"East","division":"Central","full_name":"Milwaukee Bucks","name":"Bucks"},"turnover":0}],"meta":{"total_pages":2,"current_page":1,"next_page":2,"per_page":25,"total_count":28}}