{"data":[{"id":11379356,"ast":11,"blk":1,"dreb":7,"fg3_pct":0.5,"fg3a":6,"fg3m":3,"fg_pct":0.476,"fga":21,"fgm":10,"ft_pct":1,"fta":3,"ftm":3,"game":{"id":474558,"date":"2022-03-31T00:00:00.000Z","home_team_id":3,"home_team_score":119,"period":5,"postseason":false,"season":2021,"status":"Final","time":"","visitor_team_id":17,"visitor_team_score":120},"min":"45","oreb":0,"pf":4,"player":{"id":140,"first_name":"Kevin","height_feet":6,"height_inches":9,"last_name":"Durant","position":"F","team_id":24,"weight_pounds":240},"pts":26,"reb":7,"stl":1,"team":{"id":3,"abbreviation":"BKN","city":"Brooklyn","conference":"East","division":"Atlantic","full_name":"Brooklyn Nets","name":"Nets"},"turnover":6},{"id":11379353,"ast":0,"blk":0,"dreb":0,"fg3_pct":0,"fg3a":0,"fg3m":0,"fg_pct":0,"fga":0,"fgm":0,"ft_pct":0,"fta":0,"ftm":0,"game":{"id":474558,"date":"2022-03-31T00:00:00.000Z","home_team_id":3,"home_team_score":119,"period":5,"postseason":false,"season":2021,"status":"Final","time":"","visitor_team_id":17,"visitor_team_score":120},"min":"0:00","oreb":0,"pf":0,"player":{"id":17896059,"first_name":"Sandro","height_feet":null,"height_inches":null,"last_name":"Mamukelashvili","position":"F","team_id":27,"weight_pounds":null},"pts":0,"reb":0,"stl":0,"team":{"id":17,"abbreviation":"MIL","city":"Milwaukee","conference":"East","division":"Central","full_name":"Milwaukee Bucks","name":"Bucks"},"turnover":0},{"id":11379354,"ast":0,"blk":0,"dreb":0,"fg3_pct":0,"fg3a":0,"fg3m":0,"fg_pct":0,"fga":0,"fgm":0,"ft_pct":0,"fta":0,"ftm":0,"game":{"id":474558,"date":"2022-03-31T00:00:00.000Z","home_team_id":3,"home_team_score":119,"period":5,"postseason":false,"season":2021,"status":"Final","time":"","visitor_team_id":17,"visitor_team_score":120},"min":"0:00","oreb":0,"pf":0,"player":{"id":3547207,"first_name":"Jordan","height_feet":null,"height_inches":null,"last_name":"Nwora","position":"F","team_id":12,"weight_pounds":null},"pts":0,"reb":0,"stl":0,"team":{"id":17,"abbreviation":"MIL","city":"Milwaukee","conference":"East","division":"Central","full_name":"Milwaukee Bucks","name":"Bucks"},"turnover":0},{"id":11379342,"ast":4,"blk":1,"dreb":9,"fg3_pct":0.286,"fg3a":7,"fg3m":2,"fg_pct":0.333,"fga":12,"fgm":4,"ft_pct":1,"fta":6,"ftm":6,"game":{"id":474558,"date":"2022-03-31T00:00:00.000Z","home_team_id":3,"home_team_score":119,"period":5,"postseason":false,"season":2021,"status":"Final","time":"","visitor_team_id":17,"visitor_team_score":120},"min":"30","oreb":0,"pf":4,"player":{"id":315,"first_name":"Khris","height_feet":6,"height_inches":8,"last_name":"Middleton","position":"F","team_id":17,"weight_pounds":222},"pts":16,"reb":9,"stl":2,"team":{"id":17,"abbreviation":"MIL","city":"Milwaukee","conference":"East","division":"Central","full_name":"Milwaukee Bucks","name":"Bucks"},"turnover":4},{"id":11379343,"ast":6,"blk":0,"dreb":10,"fg3_pct":0.25,"fg3a":4,"fg3m":1,"fg_pct":0.667,"fga":21,"fgm":14,"ft_pct":0.789,"fta":19,"ftm":15,"game":{"id":474558,"date":"2022-03-31T00:00:00.000Z","home_team_id":3,"home_team_score":119,"period":5,"postseason":false,"season":2021,"status":"Final","time":"","visitor_team_id":17,"visitor_team_score":120},"min":"39","oreb":4,"pf":1,"player":{"id":15,"first_name":"Giannis","height_feet":6,"height_inches":11,"last_name":"Antetokounmpo","position":"F","team_id":17,"weight_pounds":242},"pts":44,"reb":14,"stl":1,"team":{"id":17,"abbreviation":"MIL","city":"Milwaukee","conference":"East","division":"Central","full_name":"Milwaukee Bucks","name":"Bucks"},"turnover":8},{"id":11379344,"ast":0,"blk":1,"dreb":3,"fg3_pct":0,"fg3a":3,"fg3m":0,"fg_pct":0.286,"fga":7,"fgm":2,"ft_pct":0.5,"fta":2,"ftm":1,"game":{"id":474558,"date":"2022-03-31T00:00:00.000Z","home_team_id":3,"home_team_score":119,"period":5,"postseason":false,"season":2021,"status":"Final","time":"","visitor_team_id":17,"visitor_team_score":120},"min":"21","oreb":0,"pf":1,"player":{"id":283,"first_name":"Brook","height_feet":7,"height_inches":0,"last_name":"Lopez","position":"C","team_id":17,"weight_pounds":270},"pts":5,"reb":3,"stl":0,"team":{"id":17,"abbreviation":"MIL","city":"Milwaukee","conference":"East","division":"Central","full_name":"Milwaukee Bucks","name":"Bucks"},"turnover":2},{"id":11379345,"ast":0,"blk":1,"dreb":0,"fg3_pct":0.429,"fg3a":7,"fg3m":3,"fg_pct":0.444,"fga":9,"fgm":4,"ft_pct":null,"fta":0,"ftm":0,"game":{"id":474558,"date":"2022-03-31T00:00:00.000Z","home_team_id":3,"home_team_score":119,"period":5,"postseason":false,"season":2021,"status":"Final","time":"","visitor_team_id":17,"visitor_team_score":120},"min":"36","oreb":2,"pf":2,"player":{"id":301,"first_name":"Wesley","height_feet":null,"height_inches":null,"last_name":"Matthews","position":"G-F","team_id":17,"weight_pounds":null},"pts":11,"reb":2,"stl":0,"team":{"id":17,"abbreviation":"MIL","city":"Milwaukee","conference":"East","division":"Central","full_name":"Milwaukee Bucks","name":"Bucks"},"turnover":0},{"id":11379346,"ast":4,"blk":0,"dreb":7,"fg3_pct":0.286,"fg3a":7,"fg3m":2,"fg_pct":0.333,"fga":18,"fgm":6,"ft_pct":0.833,"fta":6,"ftm":5,"game":{"id":474558,"date":"2022-03-31T00:00:00.000Z","home_team_id":3,"home_team_score":119,"period":5,"postseason":false,"season":2021,"status":"Final","time":"","visitor_team_id":17,"visitor_team_score":120},"min":"43","oreb":1,"pf":3,"player":{"id":214,"first_name":"Jrue","height_feet":6,"height_inches":4,"last_name":"Holiday","position":"G","team_id":17,"weight_pounds":205},"pts":19,"reb":8,"stl":6,"team":{"id":17,"abbreviation":"MIL","city":"Milwaukee","conference":"East","division":"Central","full_name":"Milwaukee Bucks","name":"Bucks"},"turnover":6},{"id":11379350,"ast":1,"blk":0,"dreb":4,"fg3_pct":0.333,"fg3a":6,"fg3m":2,"fg_pct":0.5,"fga":8,"fgm":4,"ft_pct":1,"fta":1,"ftm":1,"game":{"id":474558,"date":"2022-03-31T00:00:00.000Z","home_team_id":3,"home_team_score":119,"period":5,"postseason":false,"season":2021,"status":"Final","time":"","visitor_team_id":17,"visitor_team_score":120},"min":"21","oreb":1,"pf":0,"player":{"id":105,"first_name":"Pat","height_feet":6,"height_inches":4,"last_name":"Connaughton","position":"G","team_id":17,"weight_pounds":209},"pts":11,"reb":5,"stl":0,"team":{"id":17,"abbreviation":"MIL","city":"Milwaukee","conference":"East","division":"Central","full_name":"Milwaukee Bucks","name":"Bucks"},"turnover":0},{"id":11379352,"ast":0,"blk":0,"dreb":0,"fg3_pct":0,"fg3a":0,"fg3m":0,"fg_pct":0,"fga":0,"fgm":0,"ft_pct":0,"fta":0,"ftm":0,"game":{"id":474558,"date":"2022-03-31T00:00:00.000Z","home_team_id":3,"home_team_score":119,"period":5,"postseason":false,"season":2021,"status":"Final","time":"","visitor_team_id":17,"visitor_team_score":120},"min":"0:00","oreb":0,"pf":0,"player":{"id":223,"first_name":"Serge","height_feet":6,"height_inches":10,"last_name":"Ibaka","position":"F-C","team_id":17,"weight_pounds":235},"pts":0,"reb":0,"stl":0,"team":{"id":17,"abbreviation":"MIL","city":"Milwaukee","conference":"East","division":"Central","full_name":"Milwaukee Bucks","name":"Bucks"},"turnover":0},{"id":11379357,"ast":3,"blk":3,"dreb":4,"fg3_pct":0.6,"fg3a":5,"fg3m":3,"fg_pct":0.471,"fga":17,"fgm":8,"ft_pct":1,"fta":4,"ftm":4,"game":{"id":474558,"date":"2022-03-31T00:00:00.000Z","home_team_id":3,"home_team_score":119,"period":5,"postseason":false,"season":2021,"status":"Final","time":"","visitor_team_id":17,"visitor_team_score":120},"min":"34","oreb":1,"pf":2,"player":{"id":69,"first_name":"Bruce","height_feet":6,"height_inches":5,"last_name":"Brown","position":"G","team_id":8,"weight_pounds":202},"pts":23,"reb":5,"stl":1,"team":{"id":3,"abbreviation":"BKN","city":"Brooklyn","conference":"East","division":"Atlantic","full_name":"Brooklyn Nets","name":"Nets"},"turnover":2},{"id":11379358,"ast":4,"blk":1,"dreb":8,"fg3_pct":null,"fg3a":0,"fg3m":0,"fg_pct":0.5,"fga":4,"fgm":2,"ft_pct":0,"fta":2,"ftm":0,"game":{"id":474558,"date":"2022-03-31T00:00:00.000Z","home_team_id":3,"home_team_score":119,"period":5,"postseason":false,"season":2021,"status":"Final","time":"","visitor_team_id":17,"visitor_team_score":120},"min":"29","oreb":2,"pf":3,"player":{"id":137,"first_name":"Andre","height_feet":6,"height_inches":11,"last_name":"Drummond","position":"C","team_id":5,"weight_pounds":279},"pts":4,"reb":10,"stl":2,"team":{"id":3,"abbreviation":"BKN","city":"Brooklyn","conference":"East","division":"Atlantic","full_name":"Brooklyn Nets","name":"Nets"},"turnover":0},{"id":11379359,"ast":0,"blk":0,"dreb":2,"fg3_pct":0.5,"fg3a":8,"fg3m":4,"fg_pct":0.462,"fga":13,"fgm":6,"ft_pct":null,"fta":0,"ftm":0,"game":{"id":474558,"date":"2022-03-31T00:00:00.000Z","home_team_id":3,"home_team_score":119,"period":5,"postseason":false,"season":2021,"status":"Final","time":"","visitor_team_id":17,"visitor_team_score":120},"min":"35","oreb":1,"pf":5,"player":{"id":114,"first_name":"Seth","height_feet":6,"height_inches":2,"last_name":"Curry","position":"G","team_id":3,"weight_pounds":185},"pts":16,"reb":3,"stl":0,"team":{"id":3,"abbreviation":"BKN","city":"Brooklyn","conference":"East","division":"Atlantic","full_name":"Brooklyn Nets","name":"Nets"},"turnover":1},{"id":11379360,"ast":5,"blk":0,"dreb":3,"fg3_pct":0.444,"fg3a":9,"fg3m":4,"fg_pct":0.409,"fga":22,"fgm":9,"ft_pct":1,"fta":3,"ftm":3,"game":{"id":474558,"date":"2022-03-31T00:00:00.000Z","home_team_id":3,"home_team_score":119,"period":5,"postseason":false,"season":2021,"status":"Final","time":"","visitor_team_id":17,"visitor_team_score":120},"min":"45","oreb":0,"pf":2,"player":{"id":228,"first_name":"Kyrie","height_feet":6,"height_inches":3,"last_name":"Irving","position":"G","team_id":7,"weight_pounds":193},"pts":25,"reb":3,"stl":2,"team":{"id":3,"abbreviation":"BKN","city":"Brooklyn","conference":"East","division":"Atlantic","full_name":"Brooklyn Nets","name":"Nets"},"turnover":3},{"id":11379367,"ast":2,"blk":0,"dreb":1,"fg3_pct":0.5,"fg3a":2,"fg3m":1,"fg_pct":0.333,"fga":3,"fgm":1,"ft_pct":null,"fta":0,"ftm":0,"game":{"id":474558,"date":"2022-03-31T00:00:00.000Z","home_team_id":3,"home_team_score":119,"period":5,"postseason":false,"season":2021,"status":"Final","time":"","visitor_team_id":17,"visitor_team_score":120},"min":"16","oreb":0,"pf":0,"player":{"id":319,"first_name":"Patty","height_feet":6,"height_inches":0,"last_name":"Mills","position":"G","team_id":3,"weight_pounds":180},"pts":3,"reb":1,"stl":1,"team":{"id":3,"abbreviation":"BKN","city":"Brooklyn","conference":"East","division":"Atlantic","full_name":"Brooklyn Nets","name":"Nets"},"turnover":0},{"id":11379362,"ast":1,"blk":1,"dreb":7,"fg3_pct":null,"fg3a":0,"fg3m":0,"fg_pct":0.833,"fga":6,"fgm":5,"ft_pct":0.25,"fta":4,"ftm":1,"game":{"id":474558,"date":"2022-03-31T00:00:00.000Z","home_team_id":3,"home_team_score":119,"period":5,"postseason":false,"season":2021,"status":"Final","time":"","visitor_team_id":17,"visitor_team_score":120},"min":"24","oreb":1,"pf":3,"player":{"id":666508,"first_name":"Nicolas","height_feet":null,"height_inches":null,"last_name":"Claxton","position":"F-C","team_id":3,"weight_pounds":null},"pts":11,"reb":8,"stl":2,"team":{"id":3,"abbreviation":"BKN","city":"Brooklyn","conference":"East","division":"Atlantic","full_name":"Brooklyn Nets","name":"Nets"},"turnover":2},{"id":11379363,"ast":2,"blk":0,"dreb":2,"fg3_pct":0.25,"fg3a":4,"fg3m":1,"fg_pct":0.333,"fga":6,"fgm":2,"ft_pct":null,"fta":0,"ftm":0,"game":{"id":474558,"date":"2022-03-31T00:00:00.000Z","home_team_id":3,"home_team_score":119,"period":5,"postseason":false,"season":2021,"status":"Final","time":"","visitor_team_id":17,"visitor_team_score":120},"min":"21","oreb":0,"pf":1,"player":{"id":136,"first_name":"Goran","height_feet":6,"height_inches":3,"last_name":"Dragic","position":"G","team_id":17,"weight_pounds":190},"pts":5,"reb":2,"stl":2,"team":{"id":3,"abbreviation":"BKN","city":"Brooklyn","conference":"East","division":"Atlantic","full_name":"Brooklyn Nets","name":"Nets"},"turnover":2},{"id":11379364,"ast":0,"blk":0,"dreb":1,"fg3_pct":0.667,"fg3a":3,"fg3m":2,"fg_pct":0.667,"fga":3,"fgm":2,"ft_pct":null,"fta":0,"ftm":0,"game":{"id":474558,"date":"2022-03-31T00:00:00.000Z","home_team_id":3,"home_team_score":119,"period":5,"postseason":false,"season":2021,"status":"Final","time":"","visitor_team_id":17,"visitor_team_score":120},"min":"6","oreb":0,"pf":2,"player":{"id":17896044,"first_name":"Kessler","height_feet":null,"height_inches":null,"last_name":"Edwards","position":"F","team_id":26,"weight_pounds":null},"pts":6,"reb":1,"stl":0,"team":{"id":3,"abbreviation":"BKN","city":"Brooklyn","conference":"East","division":"Atlantic","full_name":"Brooklyn Nets","name":"Nets"},"turnover":0},{"id":11379366,"ast":3,"blk":1,"dreb":1,"fg3_pct":0,"fg3a":0,"fg3m":0,"fg_pct":0,"fga":2,"fgm":0,"ft_pct":0,"fta":0,"ftm":0,"game":{"id":474558,"date":"2022-03-31T00:00:00.000Z","home_team_id":3,"home_team_score":119,"period":5,"postseason":false,"season":2021,"status":"Final","time":"","visitor_team_id":17,"visitor_team_score":120},"min":"10:39","oreb":0,"pf":3,"player":{"id":242,"first_name":"James","height_feet":6,"height_inches":8,"last_name":"Johnson","position":"F","team_id":12,"weight_pounds":240},"pts":0,"reb":1,"stl":1,"team":{"id":3,"abbreviation":"BKN","city":"Brooklyn","conference":"East","division":"Atlantic","full_name":"Brooklyn Nets","name":"Nets"},"turnover":0},{"id":11379365,"ast":0,"blk":0,"dreb":0,"fg3_pct":0,"fg3a":0,"fg3m":0,"fg_pct":0,"fga":0,"fgm":0,"ft_pct":0,"fta":0,"ftm":0,"game":{"id":474558,"date":"2022-03-31T00:00:00.000Z","home_team_id":3,"home_team_score":119,"period":5,"postseason":false,"season":2021,"status":"Final","time":"","visitor_team_id":17,"visitor_team_score":120},"min":"0:00","oreb":0,"pf":0,"player":{"id":189,"first_name":"Blake","height_feet":6,"height_inches":10,"last_name":"Griffin","position":"F","team_id":2,"weight_pounds":250},"pts":0,"reb":0,"stl":0,"team":{"id":3,"abbreviation":"BKN","city":"Brooklyn","conference":"East","division":"Atlantic","full_name":"Brooklyn Nets","name":"Nets"},"turnover":0},{"id":11379347,"ast":0,"blk":0,"dreb":3,"fg3_pct":0.333,"fg3a":3,"fg3m":1,"fg_pct":0.5,"fga":4,"fgm":2,"ft_pct":null,"fta":0,"ftm":0,"game":{"id":474558,"date":"2022-03-31T00:00:00.000Z","home_team_id":3,"home_team_score":119,"period":5,"postseason":false,"season":2021,"status":"Final","time":"","visitor_team_id":17,"visitor_team_score":120},"min":"29","oreb":2,"pf":2,"player":{"id":8,"first_name":"Grayson","height_feet":6,"height_inches":5,"last_name":"Allen","position":"G","team_id":17,"weight_pounds":198},"pts":5,"reb":5,"stl":1,"team":{"id":17,"abbreviation":"MIL","city":"Milwaukee","conference":"East","division":"Central","full_name":"Milwaukee Bucks","name":"Bucks"},"turnover":0},{"id":11379355,"ast":1,"blk":0,"dreb":8,"fg3_pct":0.25,"fg3a":4,"fg3m":1,"fg_pct":0.444,"fga":9,"fgm":4,"ft_pct":null,"fta":0,"ftm":0,"game":{"id":474558,"date":"2022-03-31T00:00:00.000Z","home_team_id":3,"home_team_score":119,"period":5,"postseason":false,"season":2021,"status":"Final","time":"","visitor_team_id":17,"visitor_team_score":120},"min":"31","oreb":1,"pf":0,"player":{"id":377,"first_name":"Bobby","height_feet":6,"height_inches":11,"last_name":"Portis","position":"F","team_id":17,"weight_pounds":250},"pts":9,"reb":9,"stl":1,"team":{"id":17,"abbreviation":"MIL","city":"Milwaukee","conference":"East","division":"Central","full_name":"Milwaukee Bucks","name":"Bucks"},"turnover":2},{"id":11379351,"ast":1,"blk":0,"dreb":1,"fg3_pct":0,"fg3a":0,"fg3m":0,"fg_pct":0,"fga":1,"fgm":0,"ft_pct":0,"fta":0,"ftm":0,"game":{"id":474558,"date":"2022-03-31T00:00:00.000Z","home_team_id":3,"home_team_score":119,"period":5,"postseason":false,"season":2021,"status":"Final","time":"","visitor_team_id":17,"visitor_team_score":120},"min":"15:58","oreb":0,"pf":1,"player":{"id":211,"first_name":"George","height_feet":6,"height_inches":3,"last_name":"Hill","position":"G","team_id":12,"weight_pounds":188},"pts":0,"reb":1,"stl":1,"team":{"id":17,"abbreviation":"MIL","city":"Milwaukee","conference":"East","division":"Central","full_name":"Milwaukee Bucks","name":"Bucks"},"turnover":0},{"id":11379349,"ast":0,"blk":0,"dreb":1,"fg3_pct":0,"fg3a":0,"fg3m":0,"fg_pct":0,"fga":0,"fgm":0,"ft_pct":0,"fta":0,"ftm":0,"game":{"id":474558,"date":"2022-03-31T00:00:00.000Z","home_team_id":3,"home_team_score":119,"period":5,"postseason":false,"season":2021,"status":"Final","time":"","visitor_team_id":17,"visitor_team_score":120},"min":"0:24","oreb":0,"pf":0,"player":{"id":87,"first_name":"Jevon","height_feet":6,"height_inches":2,"last_name":"Carter","position":"G","team_id":17,"weight_pounds":196},"pts":0,"reb":1,"stl":0,"team":{"id":17,"abbreviation":"MIL","city":"Milwaukee","conference":"East","division":"Central","full_name":"Milwaukee Bucks","name":"Bucks"},"turnover":0},{"id":11379348,"ast":0,"blk":0,"dreb":0,"fg3_pct":0,"fg3a":0,"fg3m":0,"fg_pct":0,"fga":0,"fgm":0,"ft_pct":0,"fta":0,"ftm":0,"game":{"id":474558,"date":"2022-03-31T00:00:00.000Z","home_team_id":3,"home_team_score":119,"period":5,"postseason":false,"season":2021,"status":"Final","time":"","visitor_team_id":17,"visitor_team_score":120},"min":"0:00","oreb":0,"pf":0,"player":{"id":2148,"first_name":"Thanasis","height_feet":null,"height_inches":null,"last_name":"Antetokounmpo","position":"","team_id":17,"weight_pounds":null},"pts":0,"reb":0,"stl":0,"team":{"id":17,"abbreviation":"MIL","city":"Milwaukee","conference":"East","division":"Central","full_name":"Milwaukee Bucks","name":"Bucks"},"turnover":0}],"meta":{"total_pages":2,"current_page":1,"next_page":2,"per_page":25,"total_count":27}}