{"data":[{"id":11501465,"ast":2,"blk":1,"dreb":3,"fg3_pct":0,"fg3a":2,"fg3m":0,"fg_pct":0.471,"fga":17,"fgm":8,"ft_pct":1,"fta":4,"ftm":4,"game":{"id":474589,"date":"2022-04-05T00:00:00.000Z","home_team_id":28,"home_team_score":118,"period":4,"postseason":false,"season":2021,"status":"Final","time":"","visitor_team_id":1,"visitor_team_score":108},"min":"37","oreb":3,"pf":5,"player":{"id":666656,"first_name":"De'Andre","height_feet":null,"height_inches":null,"last_name":"Hunter","position":"F","team_id":1,"weight_pounds":null},"pts":20,"reb":6,"stl":0,"team":{"id":1,"abbreviation":"ATL","city":"Atlanta","conference":"East","division":"Southeast","full_name":"Atlanta Hawks","name":"Hawks"},"turnover":1},{"id":11501466,"ast":0,"blk":0,"dreb":11,"fg3_pct":null,"fg3a":0,"fg3m":0,"fg_pct":0.625,"fga":8,"fgm":5,"ft_pct":0,"fta":1,"ftm":0,"game":{"id":474589,"date":"2022-04-05T00:00:00.000Z","home_team_id":28,"home_team_score":118,"period":4,"postseason":false,"season":2021,"status":"Final","time":"","visitor_team_id":1,"visitor_team_score":108},"min":"33","oreb":3,"pf":3,"player":{"id":83,"first_name":"Clint","height_feet":6,"height_inches":10,"last_name":"Capela","position":"C","team_id":1,"weight_pounds":240},"pts":10,"reb":14,"stl":2,"team":{"id":1,"abbreviation":"ATL","city":"Atlanta","conference":"East","division":"Southeast","full_name":"Atlanta Hawks","name":"Hawks"},"turnover":0},{"id":11501467,"ast":4,"blk":1,"dreb":2,"fg3_pct":0.556,"fg3a":9,"fg3m":5,"fg_pct":0.615,"fga":13,"fgm":8,"ft_pct":null,"fta":0,"ftm":0,"game":{"id":474589,"date":"2022-04-05T00:00:00.000Z","home_team_id":28,"home_team_score":118,"period":4,"postseason":false,"season":2021,"status":"Final","time":"","visitor_team_id":1,"visitor_team_score":108},"min":"31","oreb":0,"pf":2,"player":{"id":221,"first_name":"Kevin","height_feet":6,"height_inches":7,"last_name":"Huerter","position":"G","team_id":26,"weight_pounds":190},"pts":21,"reb":2,"stl":1,"team":{"id":1,"abbreviation":"ATL","city":"Atlanta","conference":"East","division":"Southeast","full_name":"Atlanta Hawks","name":"Hawks"},"turnover":1},{"id":11501468,"ast":15,"blk":0,"dreb":3,"fg3_pct":0.375,"fg3a":8,"fg3m":3,"fg_pct":0.435,"fga":23,"fgm":10,"ft_pct":0.75,"fta":4,"ftm":3,"game":{"id":474589,"date":"2022-04-05T00:00:00.000Z","home_team_id":28,"home_team_score":118,"period":4,"postseason":false,"season":2021,"status":"Final","time":"","visitor_team_id":1,"visitor_team_score":108},"min":"37","oreb":1,"pf":1,"player":{"id":490,"first_name":"Trae","height_feet":6,"height_inches":2,"last_name":"Young","position":"G","team_id":1,"weight_pounds":180},"pts":26,"reb":4,"stl":0,"team":{"id":1,"abbreviation":"ATL","city":"Atlanta","conference":"East","division":"Southeast","full_name":"Atlanta Hawks","name":"Hawks"},"turnover":3},{"id":11501469,"ast":3,"blk":1,"dreb":8,"fg3_pct":0.417,"fg3a":12,"fg3m":5,"fg_pct":0.412,"fga":17,"fgm":7,"ft_pct":null,"fta":0,"ftm":0,"game":{"id":474589,"date":"2022-04-05T00:00:00.000Z","home_team_id":28,"home_team_score":118,"period":4,"postseason":false,"season":2021,"status":"Final","time":"","visitor_team_id":1,"visitor_team_score":108},"min":"32","oreb":1,"pf":5,"player":{"id":53,"first_name":"Bogdan","height_feet":6,"height_inches":6,"last_name":"Bogdanovic","position":"G","team_id":1,"weight_pounds":205},"pts":19,"reb":9,"stl":0,"team":{"id":1,"abbreviation":"ATL","city":"Atlanta","conference":"East","division":"Southeast","full_name":"Atlanta Hawks","name":"Hawks"},"turnover":1},{"id":11501477,"ast":3,"blk":0,"dreb":3,"fg3_pct":0,"fg3a":1,"fg3m":0,"fg_pct":0.333,"fga":3,"fgm":1,"ft_pct":0.5,"fta":2,"ftm":1,"game":{"id":474589,"date":"2022-04-05T00:00:00.000Z","home_team_id":28,"home_team_score":118,"period":4,"postseason":false,"season":2021,"status":"Final","time":"","visitor_team_id":1,"visitor_team_score":108},"min":"17","oreb":1,"pf":1,"player":{"id":487,"first_name":"Delon","height_feet":6,"height_inches":5,"last_name":"Wright","position":"G","team_id":30,"weight_pounds":183},"pts":3,"reb":4,"stl":1,"team":{"id":1,"abbreviation":"ATL","city":"Atlanta","conference":"East","division":"Southeast","full_name":"Atlanta Hawks","name":"Hawks"},"turnover":0},{"id":11501482,"ast":9,"blk":1,"dreb":2,"fg3_pct":0.167,"fg3a":12,"fg3m":2,"fg_pct":0.19,"fga":21,"fgm":4,"ft_pct":0.667,"fta":3,"ftm":2,"game":{"id":474589,"date":"2022-04-05T00:00:00.000Z","home_team_id":28,"home_team_score":118,"period":4,"postseason":false,"season":2021,"status":"Final","time":"","visitor_team_id":1,"visitor_team_score":108},"min":"36","oreb":0,"pf":4,"player":{"id":458,"first_name":"Fred","height_feet":6,"height_inches":0,"last_name":"VanVleet","position":"G","team_id":28,"weight_pounds":195},"pts":12,"reb":2,"stl":1,"team":{"id":28,"abbreviation":"TOR","city":"Toronto","conference":"East","division":"Atlantic","full_name":"Toronto Raptors","name":"Raptors"},"turnover":3},{"id":11501483,"ast":0,"blk":0,"dreb":1,"fg3_pct":0,"fg3a":4,"fg3m":0,"fg_pct":0.364,"fga":11,"fgm":4,"ft_pct":0.6,"fta":5,"ftm":3,"game":{"id":474589,"date":"2022-04-05T00:00:00.000Z","home_team_id":28,"home_team_score":118,"period":4,"postseason":false,"season":2021,"status":"Final","time":"","visitor_team_id":1,"visitor_team_score":108},"min":"24","oreb":1,"pf":1,"player":{"id":3547249,"first_name":"Precious","height_feet":null,"height_inches":null,"last_name":"Achiuwa","position":"F","team_id":28,"weight_pounds":null},"pts":11,"reb":2,"stl":1,"team":{"id":28,"abbreviation":"TOR","city":"Toronto","conference":"East","division":"Atlantic","full_name":"Toronto Raptors","name":"Raptors"},"turnover":0},{"id":11501485,"ast":0,"blk":0,"dreb":4,"fg3_pct":0.6,"fg3a":5,"fg3m":3,"fg_pct":0.636,"fga":11,"fgm":7,"ft_pct":0.5,"fta":2,"ftm":1,"game":{"id":474589,"date":"2022-04-05T00:00:00.000Z","home_team_id":28,"home_team_score":118,"period":4,"postseason":false,"season":2021,"status":"Final","time":"","visitor_team_id":1,"visitor_team_score":108},"min":"22","oreb":3,"pf":1,"player":{"id":58,"first_name":"Chris","height_feet":6,"height_inches":10,"last_name":"Boucher","position":"F","team_id":28,"weight_pounds":200},"pts":18,"reb":7,"stl":1,"team":{"id":28,"abbreviation":"TOR","city":"Toronto","conference":"East","division":"Atlantic","full_name":"Toronto Raptors","name":"Raptors"},"turnover":1},{"id":11501484,"ast":1,"blk":0,"dreb":1,"fg3_pct":null,"fg3a":0,"fg3m":0,"fg_pct":null,"fga":0,"fgm":0,"ft_pct":0.5,"fta":2,"ftm":1,"game":{"id":474589,"date":"2022-04-05T00:00:00.000Z","home_team_id":28,"home_team_score":118,"period":4,"postseason":false,"season":2021,"status":"Final","time":"","visitor_team_id":1,"visitor_team_score":108},"min":"4","oreb":0,"pf":1,"player":{"id":17896094,"first_name":"Dalano","height_feet":null,"height_inches":null,"last_name":"Banton","position":"G","team_id":28,"weight_pounds":null},"pts":1,"reb":1,"stl":1,"team":{"id":28,"abbreviation":"TOR","city":"Toronto","conference":"East","division":"Atlantic","full_name":"Toronto Raptors","name":"Raptors"},"turnover":0},{"id":11501488,"ast":0,"blk":0,"dreb":1,"fg3_pct":0,"fg3a":0,"fg3m":0,"fg_pct":0,"fga":0,"fgm":0,"ft_pct":0,"fta":0,"ftm":0,"game":{"id":474589,"date":"2022-04-05T00:00:00.000Z","home_team_id":28,"home_team_score":118,"period":4,"postseason":false,"season":2021,"status":"Final","time":"","visitor_team_id":1,"visitor_team_score":108},"min":"6:38","oreb":0,"pf":1,"player":{"id":3547275,"first_name":"Malachi","height_feet":null,"height_inches":null,"last_name":"Flynn","position":"G","team_id":28,"weight_pounds":null},"pts":0,"reb":1,"stl":0,"team":{"id":28,"abbreviation":"TOR","city":"Toronto","conference":"East","division":"Atlantic","full_name":"Toronto Raptors","name":"Raptors"},"turnover":1},{"id":11501486,"ast":0,"blk":0,"dreb":0,"fg3_pct":0,"fg3a":0,"fg3m":0,"fg_pct":0,"fga":0,"fgm":0,"ft_pct":0,"fta":0,"ftm":0,"game":{"id":474589,"date":"2022-04-05T00:00:00.000Z","home_team_id":28,"home_team_score":118,"period":4,"postseason":false,"season":2021,"status":"Final","time":"","visitor_team_id":1,"visitor_team_score":108},"min":"0:00","oreb":0,"pf":0,"player":{"id":9051997,"first_name":"Armoni","height_feet":null,"height_inches":null,"last_name":"Brooks","position":"G","team_id":28,"weight_pounds":null},"pts":0,"reb":0,"stl":0,"team":{"id":28,"abbreviation":"TOR","city":"Toronto","conference":"East","division":"Atlantic","full_name":"Toronto Raptors","name":"Raptors"},"turnover":0},{"id":11501487,"ast":0,"blk":0,"dreb":0,"fg3_pct":0,"fg3a":0,"fg3m":0,"fg_pct":0,"fga":0,"fgm":0,"ft_pct":0,"fta":0,"ftm":0,"game":{"id":474589,"date":"2022-04-05T00:00:00.000Z","home_team_id":28,"home_team_score":118,"period":4,"postseason":false,"season":2021,"status":"Final","time":"","visitor_team_id":1,"visitor_team_score":108},"min":"0:00","oreb":0,"pf":0,"player":{"id":17896039,"first_name":"Justin","height_feet":null,"height_inches":null,"last_name":"Champagnie","position":"F","team_id":2,"weight_pounds":null},"pts":0,"reb":0,"stl":0,"team":{"id":28,"abbreviation":"TOR","city":"Toronto","conference":"East","division":"Atlantic","full_name":"Toronto Raptors","name":"Raptors"},"turnover":0},{"id":11501489,"ast":0,"blk":0,"dreb":0,"fg3_pct":0,"fg3a":0,"fg3m":0,"fg_pct":0,"fga":0,"fgm":0,"ft_pct":0,"fta":0,"ftm":0,"game":{"id":474589,"date":"2022-04-05T00:00:00.000Z","home_team_id":28,"home_team_score":118,"period":4,"postseason":false,"season":2021,"status":"Final","time":"","visitor_team_id":1,"visitor_team_score":108},"min":"0:00","oreb":0,"pf":0,"player":{"id":17896020,"first_name":"David","height_feet":null,"height_inches":null,"last_name":"Johnson","position":"G","team_id":28,"weight_pounds":null},"pts":0,"reb":0,"stl":0,"team":{"id":28,"abbreviation":"TOR","city":"Toronto","conference":"East","division":"Atlantic","full_name":"Toronto Raptors","name":"Raptors"},"turnover":0},{"id":11501472,"ast":0,"blk":0,"dreb":0,"fg3_pct":0,"fg3a":1,"fg3m":0,"fg_pct":0,"fga":2,"fgm":0,"ft_pct":0,"fta":0,"ftm":0,"game":{"id":474589,"date":"2022-04-05T00:00:00.000Z","home_team_id":28,"home_team_score":118,"period":4,"postseason":false,"season":2021,"status":"Final","time":"","visitor_team_id":1,"visitor_team_score":108},"min":"5:46","oreb":0,"pf":0,"player":{"id":17896040,"first_name":"Jalen","height_feet":null,"height_inches":null,"last_name":"Johnson","position":"F","team_id":1,"weight_pounds":null},"pts":0,"reb":0,"stl":0,"team":{"id":1,"abbreviation":"ATL","city":"Atlanta","conference":"East","division":"Southeast","full_name":"Atlanta Hawks","name":"Hawks"},"turnover":0},{"id":11501476,"ast":2,"blk":0,"dreb":0,"fg3_pct":0,"fg3a":1,"fg3m":0,"fg_pct":0.25,"fga":4,"fgm":1,"ft_pct":null,"fta":0,"ftm":0,"game":{"id":474589,"date":"2022-04-05T00:00:00.000Z","home_team_id":28,"home_team_score":118,"period":4,"postseason":false,"season":2021,"status":"Final","time":"","visitor_team_id":1,"visitor_team_score":108},"min":"11","oreb":0,"pf":0,"player":{"id":481,"first_name":"Lou","height_feet":6,"height_inches":1,"last_name":"Williams","position":"G","team_id":1,"weight_pounds":175},"pts":2,"reb":0,"stl":0,"team":{"id":1,"abbreviation":"ATL","city":"Atlanta","conference":"East","division":"Southeast","full_name":"Atlanta Hawks","name":"Hawks"},"turnover":1},{"id":11501470,"ast":0,"blk":0,"dreb":0,"fg3_pct":0,"fg3a":0,"fg3m":0,"fg_pct":0,"fga":0,"fgm":0,"ft_pct":0,"fta":0,"ftm":0,"game":{"id":474589,"date":"2022-04-05T00:00:00.000Z","home_team_id":28,"home_team_score":118,"period":4,"postseason":false,"season":2021,"status":"Final","time":"","visitor_team_id":1,"visitor_team_score":108},"min":"0:00","oreb":0,"pf":0,"player":{"id":129,"first_name":"Gorgui","height_feet":6,"height_inches":11,"last_name":"Dieng","position":"C","team_id":27,"weight_pounds":252},"pts":0,"reb":0,"stl":0,"team":{"id":1,"abbreviation":"ATL","city":"Atlanta","conference":"East","division":"Southeast","full_name":"Atlanta Hawks","name":"Hawks"},"turnover":0},{"id":11501471,"ast":0,"blk":0,"dreb":0,"fg3_pct":0,"fg3a":0,"fg3m":0,"fg_pct":0,"fga":0,"fgm":0,"ft_pct":0,"fta":0,"ftm":0,"game":{"id":474589,"date":"2022-04-05T00:00:00.000Z","home_team_id":28,"home_team_score":118,"period":4,"postseason":false,"season":2021,"status":"Final","time":"","visitor_team_id":1,"visitor_team_score":108},"min":"","oreb":0,"pf":0,"player":{"id":167,"first_name":"Danilo","height_feet":6,"height_inches":10,"last_name":"Gallinari","position":"F","team_id":2,"weight_pounds":225},"pts":0,"reb":0,"stl":0,"team":{"id":1,"abbreviation":"ATL","city":"Atlanta","conference":"East","division":"Southeast","full_name":"Atlanta Hawks","name":"Hawks"},"turnover":0},{"id":11501473,"ast":0,"blk":0,"dreb":0,"fg3_pct":0,"fg3a":0,"fg3m":0,"fg_pct":0,"fga":0,"fgm":0,"ft_pct":0,"fta":0,"ftm":0,"game":{"id":474589,"date":"2022-04-05T00:00:00.000Z","home_team_id":28,"home_team_score":118,"period":4,"postseason":false,"season":2021,"status":"Final","time":"","visitor_team_id":1,"visitor_team_score":108},"min":"0:00","oreb":0,"pf":0,"player":{"id":259,"first_name":"Kevin","height_feet":6,"height_inches":9,"last_name":"Knox","position":"F","team_id":25,"weight_pounds":215},"pts":0,"reb":0,"stl":0,"team":{"id":1,"abbreviation":"ATL","city":"Atlanta","conference":"East","division":"Southeast","full_name":"Atlanta Hawks","name":"Hawks"},"turnover":0},{"id":11501474,"ast":0,"blk":0,"dreb":0,"fg3_pct":0,"fg3a":0,"fg3m":0,"fg_pct":0,"fga":0,"fgm":0,"ft_pct":0,"fta":0,"ftm":0,"game":{"id":474589,"date":"2022-04-05T00:00:00.000Z","home_team_id":28,"home_team_score":118,"period":4,"postseason":false,"season":2021,"status":"Final","time":"","visitor_team_id":1,"visitor_team_score":108},"min":"0:00","oreb":0,"pf":0,"player":{"id":3547289,"first_name":"Skylar","height_feet":null,"height_inches":null,"last_name":"Mays","position":"G","team_id":25,"weight_pounds":null},"pts":0,"reb":0,"stl":0,"team":{"id":1,"abbreviation":"ATL","city":"Atlanta","conference":"East","division":"Southeast","full_name":"Atlanta Hawks","name":"Hawks"},"turnover":0},{"id":11501478,"ast":1,"blk":0,"dreb":8,"fg3_pct":0.333,"fg3a":3,"fg3m":1,"fg_pct":0.538,"fga":13,"fgm":7,"ft_pct":0.571,"fta":7,"ftm":4,"game":{"id":474589,"date":"2022-04-05T00:00:00.000Z","home_team_id":28,"home_team_score":118,"period":4,"postseason":false,"season":2021,"status":"Final","time":"","visitor_team_id":1,"visitor_team_score":108},"min":"35","oreb":6,"pf":1,"player":{"id":17896055,"first_name":"Scottie","height_feet":null,"height_inches":null,"last_name":"Barnes","position":"G-F","team_id":28,"weight_pounds":null},"pts":19,"reb":14,"stl":0,"team":{"id":28,"abbreviation":"TOR","city":"Toronto","conference":"East","division":"Atlantic","full_name":"Toronto Raptors","name":"Raptors"},"turnover":0},{"id":11501491,"ast":1,"blk":0,"dreb":3,"fg3_pct":1,"fg3a":1,"fg3m":1,"fg_pct":0.5,"fga":6,"fgm":3,"ft_pct":null,"fta":0,"ftm":0,"game":{"id":474589,"date":"2022-04-05T00:00:00.000Z","home_team_id":28,"home_team_score":118,"period":4,"postseason":false,"season":2021,"status":"Final","time":"","visitor_team_id":1,"visitor_team_score":108},"min":"15","oreb":5,"pf":2,"player":{"id":489,"first_name":"Thaddeus","height_feet":6,"height_inches":8,"last_name":"Young","position":"F","team_id":28,"weight_pounds":221},"pts":7,"reb":8,"stl":0,"team":{"id":28,"abbreviation":"TOR","city":"Toronto","conference":"East","division":"Atlantic","full_name":"Toronto Raptors","name":"Raptors"},"turnover":0},{"id":11501490,"ast":0,"blk":0,"dreb":0,"fg3_pct":0,"fg3a":0,"fg3m":0,"fg_pct":0,"fga":0,"fgm":0,"ft_pct":0,"fta":0,"ftm":0,"game":{"id":474589,"date":"2022-04-05T00:00:00.000Z","home_team_id":28,"home_team_score":118,"period":4,"postseason":false,"season":2021,"status":"Final","time":"","visitor_team_id":1,"visitor_team_score":108},"min":"0:00","oreb":0,"pf":0,"player":{"id":338,"first_name":"Svi","height_feet":6,"height_inches":8,"last_name":"Mykhailiuk","position":"G","team_id":4,"weight_pounds":205},"pts":0,"reb":0,"stl":0,"team":{"id":28,"abbreviation":"TOR","city":"Toronto","conference":"East","division":"Atlantic","full_name":"Toronto Raptors","name":"Raptors"},"turnover":0},{"id":11501479,"ast":6,"blk":1,"dreb":11,"fg3_pct":0.25,"fg3a":4,"fg3m":1,"fg_pct":0.522,"fga":23,"fgm":12,"ft_pct":0.75,"fta":8,"ftm":6,"game":{"id":474589,"date":"2022-04-05T00:00:00.000Z","home_team_id":28,"home_team_score":118,"period":4,"postseason":false,"season":2021,"status":"Final","time":"","visitor_team_id":1,"visitor_team_score":108},"min":"40","oreb":2,"pf":0,"player":{"id":416,"first_name":"Pascal","height_feet":6,"height_inches":9,"last_name":"Siakam","position":"F","team_id":28,"weight_pounds":230},"pts":31,"reb":13,"stl":1,"team":{"id":28,"abbreviation":"TOR","city":"Toronto","conference":"East","division":"Atlantic","full_name":"Toronto Raptors","name":"Raptors"},"turnover":0},{"id":11501480,"ast":0,"blk":2,"dreb":6,"fg3_pct":null,"fg3a":0,"fg3m":0,"fg_pct":0.667,"fga":3,"fgm":2,"ft_pct":1,"fta":1,"ftm":1,"game":{"id":474589,"date":"2022-04-05T00:00:00.000Z","home_team_id":28,"home_team_score":118,"period":4,"postseason":false,"season":2021,"status":"Final","time":"","visitor_team_id":1,"visitor_team_score":108},"min":"24","oreb":2,"pf":2,"player":{"id":46,"first_name":"Khem","height_feet":6,"height_inches":9,"last_name":"Birch","position":"C","team_id":27,"weight_pounds":233},"pts":5,"reb":8,"stl":0,"team":{"id":28,"abbreviation":"TOR","city":"Toronto","conference":"East","division":"Atlantic","full_name":"Toronto Raptors","name":"Raptors"},"turnover":2}],"meta":{"total_pages":2,"current_page":1,"next_page":2,"per_page":25,"total_count":28}}