{"data":[{"id":11501354,"ast":5,"blk":0,"dreb":4,"fg3_pct":0.3,"fg3a":10,"fg3m":3,"fg_pct":0.471,"fga":17,"fgm":8,"ft_pct":null,"fta":0,"ftm":0,"game":{"id":474591,"date":"2022-04-05T00:00:00.000Z","home_team_id":5,"home_team_score":106,"period":4,"postseason":false,"season":2021,"status":"Final","time":"","visitor_team_id":17,"visitor_team_score":127},"min":"28","oreb":0,"pf":5,"player":{"id":315,"first_name":"Khris","height_feet":6,"height_inches":8,"last_name":"Middleton","position":"F","team_id":17,"weight_pounds":222},"pts":19,"reb":4,"stl":3,"team":{"id":17,"abbreviation":"MIL","city":"Milwaukee","conference":"East","division":"Central","full_name":"Milwaukee Bucks","name":"Bucks"},"turnover":4},{"id":11501355,"ast":7,"blk":0,"dreb":7,"fg3_pct":0.5,"fg3a":2,"fg3m":1,"fg_pct":0.538,"fga":13,"fgm":7,"ft_pct":0.6,"fta":5,"ftm":3,"game":{"id":474591,"date":"2022-04-05T00:00:00.000Z","home_team_id":5,"home_team_score":106,"period":4,"postseason":false,"season":2021,"status":"Final","time":"","visitor_team_id":17,"visitor_team_score":127},"min":"24","oreb":2,"pf":5,"player":{"id":15,"first_name":"Giannis","height_feet":6,"height_inches":11,"last_name":"Antetokounmpo","position":"F","team_id":17,"weight_pounds":242},"pts":18,"reb":9,"stl":0,"team":{"id":17,"abbreviation":"MIL","city":"Milwaukee","conference":"East","division":"Central","full_name":"Milwaukee Bucks","name":"Bucks"},"turnover":2},{"id":11501356,"ast":0,"blk":3,"dreb":6,"fg3_pct":0.25,"fg3a":4,"fg3m":1,"fg_pct":0.643,"fga":14,"fgm":9,"ft_pct":1,"fta":9,"ftm":9,"game":{"id":474591,"date":"2022-04-05T00:00:00.000Z","home_team_id":5,"home_team_score":106,"period":4,"postseason":false,"season":2021,"status":"Final","time":"","visitor_team_id":17,"visitor_team_score":127},"min":"29","oreb":1,"pf":1,"player":{"id":283,"first_name":"Brook","height_feet":7,"height_inches":0,"last_name":"Lopez","position":"C","team_id":17,"weight_pounds":270},"pts":28,"reb":7,"stl":2,"team":{"id":17,"abbreviation":"MIL","city":"Milwaukee","conference":"East","division":"Central","full_name":"Milwaukee Bucks","name":"Bucks"},"turnover":1},{"id":11501357,"ast":0,"blk":0,"dreb":2,"fg3_pct":0.75,"fg3a":4,"fg3m":3,"fg_pct":0.75,"fga":4,"fgm":3,"ft_pct":1,"fta":2,"ftm":2,"game":{"id":474591,"date":"2022-04-05T00:00:00.000Z","home_team_id":5,"home_team_score":106,"period":4,"postseason":false,"season":2021,"status":"Final","time":"","visitor_team_id":17,"visitor_team_score":127},"min":"22","oreb":0,"pf":1,"player":{"id":301,"first_name":"Wesley","height_feet":null,"height_inches":null,"last_name":"Matthews","position":"G-F","team_id":17,"weight_pounds":null},"pts":11,"reb":2,"stl":0,"team":{"id":17,"abbreviation":"MIL","city":"Milwaukee","conference":"East","division":"Central","full_name":"Milwaukee Bucks","name":"Bucks"},"turnover":1},{"id":11501358,"ast":13,"blk":1,"dreb":5,"fg3_pct":0.333,"fg3a":3,"fg3m":1,"fg_pct":0.417,"fga":12,"fgm":5,"ft_pct":null,"fta":0,"ftm":0,"game":{"id":474591,"date":"2022-04-05T00:00:00.000Z","home_team_id":5,"home_team_score":106,"period":4,"postseason":false,"season":2021,"status":"Final","time":"","visitor_team_id":17,"visitor_team_score":127},"min":"35","oreb":1,"pf":1,"player":{"id":214,"first_name":"Jrue","height_feet":6,"height_inches":4,"last_name":"Holiday","position":"G","team_id":17,"weight_pounds":205},"pts":11,"reb":6,"stl":0,"team":{"id":17,"abbreviation":"MIL","city":"Milwaukee","conference":"East","division":"Central","full_name":"Milwaukee Bucks","name":"Bucks"},"turnover":3},{"id":11501359,"ast":1,"blk":2,"dreb":2,"fg3_pct":0.333,"fg3a":3,"fg3m":1,"fg_pct":0.667,"fga":6,"fgm":4,"ft_pct":1,"fta":4,"ftm":4,"game":{"id":474591,"date":"2022-04-05T00:00:00.000Z","home_team_id":5,"home_team_score":106,"period":4,"postseason":false,"season":2021,"status":"Final","time":"","visitor_team_id":17,"visitor_team_score":127},"min":"24","oreb":1,"pf":0,"player":{"id":8,"first_name":"Grayson","height_feet":6,"height_inches":5,"last_name":"Allen","position":"G","team_id":17,"weight_pounds":198},"pts":13,"reb":3,"stl":0,"team":{"id":17,"abbreviation":"MIL","city":"Milwaukee","conference":"East","division":"Central","full_name":"Milwaukee Bucks","name":"Bucks"},"turnover":0},{"id":11501360,"ast":1,"blk":0,"dreb":0,"fg3_pct":null,"fg3a":0,"fg3m":0,"fg_pct":0.5,"fga":2,"fgm":1,"ft_pct":null,"fta":0,"ftm":0,"game":{"id":474591,"date":"2022-04-05T00:00:00.000Z","home_team_id":5,"home_team_score":106,"period":4,"postseason":false,"season":2021,"status":"Final","time":"","visitor_team_id":17,"visitor_team_score":127},"min":"4","oreb":0,"pf":0,"player":{"id":2148,"first_name":"Thanasis","height_feet":null,"height_inches":null,"last_name":"Antetokounmpo","position":"","team_id":17,"weight_pounds":null},"pts":2,"reb":0,"stl":1,"team":{"id":17,"abbreviation":"MIL","city":"Milwaukee","conference":"East","division":"Central","full_name":"Milwaukee Bucks","name":"Bucks"},"turnover":0},{"id":11501367,"ast":2,"blk":0,"dreb":7,"fg3_pct":0.25,"fg3a":4,"fg3m":1,"fg_pct":0.545,"fga":11,"fgm":6,"ft_pct":null,"fta":0,"ftm":0,"game":{"id":474591,"date":"2022-04-05T00:00:00.000Z","home_team_id":5,"home_team_score":106,"period":4,"postseason":false,"season":2021,"status":"Final","time":"","visitor_team_id":17,"visitor_team_score":127},"min":"26","oreb":2,"pf":2,"player":{"id":377,"first_name":"Bobby","height_feet":6,"height_inches":11,"last_name":"Portis","position":"F","team_id":17,"weight_pounds":250},"pts":13,"reb":9,"stl":0,"team":{"id":17,"abbreviation":"MIL","city":"Milwaukee","conference":"East","division":"Central","full_name":"Milwaukee Bucks","name":"Bucks"},"turnover":1},{"id":11501363,"ast":1,"blk":0,"dreb":2,"fg3_pct":null,"fg3a":0,"fg3m":0,"fg_pct":1,"fga":1,"fgm":1,"ft_pct":1,"fta":3,"ftm":3,"game":{"id":474591,"date":"2022-04-05T00:00:00.000Z","home_team_id":5,"home_team_score":106,"period":4,"postseason":false,"season":2021,"status":"Final","time":"","visitor_team_id":17,"visitor_team_score":127},"min":"17","oreb":0,"pf":0,"player":{"id":211,"first_name":"George","height_feet":6,"height_inches":3,"last_name":"Hill","position":"G","team_id":12,"weight_pounds":188},"pts":5,"reb":2,"stl":0,"team":{"id":17,"abbreviation":"MIL","city":"Milwaukee","conference":"East","division":"Central","full_name":"Milwaukee Bucks","name":"Bucks"},"turnover":0},{"id":11501362,"ast":1,"blk":1,"dreb":3,"fg3_pct":0,"fg3a":2,"fg3m":0,"fg_pct":0.333,"fga":3,"fgm":1,"ft_pct":null,"fta":0,"ftm":0,"game":{"id":474591,"date":"2022-04-05T00:00:00.000Z","home_team_id":5,"home_team_score":106,"period":4,"postseason":false,"season":2021,"status":"Final","time":"","visitor_team_id":17,"visitor_team_score":127},"min":"17","oreb":1,"pf":1,"player":{"id":105,"first_name":"Pat","height_feet":6,"height_inches":4,"last_name":"Connaughton","position":"G","team_id":17,"weight_pounds":209},"pts":2,"reb":4,"stl":1,"team":{"id":17,"abbreviation":"MIL","city":"Milwaukee","conference":"East","division":"Central","full_name":"Milwaukee Bucks","name":"Bucks"},"turnover":0},{"id":11501365,"ast":0,"blk":0,"dreb":0,"fg3_pct":0.5,"fg3a":2,"fg3m":1,"fg_pct":0.5,"fga":2,"fgm":1,"ft_pct":null,"fta":0,"ftm":0,"game":{"id":474591,"date":"2022-04-05T00:00:00.000Z","home_team_id":5,"home_team_score":106,"period":4,"postseason":false,"season":2021,"status":"Final","time":"","visitor_team_id":17,"visitor_team_score":127},"min":"4","oreb":0,"pf":1,"player":{"id":17896059,"first_name":"Sandro","height_feet":null,"height_inches":null,"last_name":"Mamukelashvili","position":"F","team_id":27,"weight_pounds":null},"pts":3,"reb":0,"stl":1,"team":{"id":17,"abbreviation":"MIL","city":"Milwaukee","conference":"East","division":"Central","full_name":"Milwaukee Bucks","name":"Bucks"},"turnover":2},{"id":11501361,"ast":1,"blk":1,"dreb":1,"fg3_pct":0,"fg3a":0,"fg3m":0,"fg_pct":0,"fga":0,"fgm":0,"ft_pct":0,"fta":0,"ftm":0,"game":{"id":474591,"date":"2022-04-05T00:00:00.000Z","home_team_id":5,"home_team_score":106,"period":4,"postseason":false,"season":2021,"status":"Final","time":"","visitor_team_id":17,"visitor_team_score":127},"min":"4:01","oreb":0,"pf":1,"player":{"id":87,"first_name":"Jevon","height_feet":6,"height_inches":2,"last_name":"Carter","position":"G","team_id":17,"weight_pounds":196},"pts":0,"reb":1,"stl":0,"team":{"id":17,"abbreviation":"MIL","city":"Milwaukee","conference":"East","division":"Central","full_name":"Milwaukee Bucks","name":"Bucks"},"turnover":0},{"id":11501366,"ast":0,"blk":0,"dreb":0,"fg3_pct":0,"fg3a":1,"fg3m":0,"fg_pct":0,"fga":2,"fgm":0,"ft_pct":1,"fta":2,"ftm":2,"game":{"id":474591,"date":"2022-04-05T00:00:00.000Z","home_team_id":5,"home_team_score":106,"period":4,"postseason":false,"season":2021,"status":"Final","time":"","visitor_team_id":17,"visitor_team_score":127},"min":"4","oreb":0,"pf":1,"player":{"id":3547207,"first_name":"Jordan","height_feet":null,"height_inches":null,"last_name":"Nwora","position":"F","team_id":12,"weight_pounds":null},"pts":2,"reb":0,"stl":0,"team":{"id":17,"abbreviation":"MIL","city":"Milwaukee","conference":"East","division":"Central","full_name":"Milwaukee Bucks","name":"Bucks"},"turnover":0},{"id":11501364,"ast":0,"blk":0,"dreb":0,"fg3_pct":0,"fg3a":0,"fg3m":0,"fg_pct":0,"fga":0,"fgm":0,"ft_pct":0,"fta":0,"ftm":0,"game":{"id":474591,"date":"2022-04-05T00:00:00.000Z","home_team_id":5,"home_team_score":106,"period":4,"postseason":false,"season":2021,"status":"Final","time":"","visitor_team_id":17,"visitor_team_score":127},"min":"0:00","oreb":0,"pf":0,"player":{"id":223,"first_name":"Serge","height_feet":6,"height_inches":10,"last_name":"Ibaka","position":"F-C","team_id":17,"weight_pounds":235},"pts":0,"reb":0,"stl":0,"team":{"id":17,"abbreviation":"MIL","city":"Milwaukee","conference":"East","division":"Central","full_name":"Milwaukee Bucks","name":"Bucks"},"turnover":0},{"id":11501368,"ast":6,"blk":0,"dreb":1,"fg3_pct":0,"fg3a":2,"fg3m":0,"fg_pct":0.615,"fga":26,"fgm":16,"ft_pct":1,"fta":8,"ftm":8,"game":{"id":474591,"date":"2022-04-05T00:00:00.000Z","home_team_id":5,"home_team_score":106,"period":4,"postseason":false,"season":2021,"status":"Final","time":"","visitor_team_id":17,"visitor_team_score":127},"min":"37","oreb":2,"pf":5,"player":{"id":125,"first_name":"DeMar","height_feet":6,"height_inches":7,"last_name":"DeRozan","position":"G","team_id":5,"weight_pounds":220},"pts":40,"reb":3,"stl":1,"team":{"id":5,"abbreviation":"CHI","city":"Chicago","conference":"East","division":"Central","full_name":"Chicago Bulls","name":"Bulls"},"turnover":4},{"id":11501369,"ast":0,"blk":0,"dreb":2,"fg3_pct":0.5,"fg3a":4,"fg3m":2,"fg_pct":0.778,"fga":9,"fgm":7,"ft_pct":1,"fta":2,"ftm":2,"game":{"id":474591,"date":"2022-04-05T00:00:00.000Z","home_team_id":5,"home_team_score":106,"period":4,"postseason":false,"season":2021,"status":"Final","time":"","visitor_team_id":17,"visitor_team_score":127},"min":"32","oreb":4,"pf":2,"player":{"id":3547248,"first_name":"Patrick","height_feet":null,"height_inches":null,"last_name":"Williams","position":"F","team_id":5,"weight_pounds":null},"pts":18,"reb":6,"stl":0,"team":{"id":5,"abbreviation":"CHI","city":"Chicago","conference":"East","division":"Central","full_name":"Chicago Bulls","name":"Bulls"},"turnover":1},{"id":11501370,"ast":3,"blk":0,"dreb":5,"fg3_pct":0.167,"fg3a":6,"fg3m":1,"fg_pct":0.158,"fga":19,"fgm":3,"ft_pct":null,"fta":0,"ftm":0,"game":{"id":474591,"date":"2022-04-05T00:00:00.000Z","home_team_id":5,"home_team_score":106,"period":4,"postseason":false,"season":2021,"status":"Final","time":"","visitor_team_id":17,"visitor_team_score":127},"min":"26","oreb":1,"pf":4,"player":{"id":460,"first_name":"Nikola","height_feet":7,"height_inches":0,"last_name":"Vucevic","position":"C","team_id":5,"weight_pounds":260},"pts":7,"reb":6,"stl":1,"team":{"id":5,"abbreviation":"CHI","city":"Chicago","conference":"East","division":"Central","full_name":"Chicago Bulls","name":"Bulls"},"turnover":2},{"id":11501373,"ast":0,"blk":0,"dreb":2,"fg3_pct":null,"fg3a":0,"fg3m":0,"fg_pct":1,"fga":1,"fgm":1,"ft_pct":null,"fta":0,"ftm":0,"game":{"id":474591,"date":"2022-04-05T00:00:00.000Z","home_team_id":5,"home_team_score":106,"period":4,"postseason":false,"season":2021,"status":"Final","time":"","visitor_team_id":17,"visitor_team_score":127},"min":"4","oreb":0,"pf":0,"player":{"id":60,"first_name":"Tony","height_feet":6,"height_inches":10,"last_name":"Bradley","position":"C","team_id":5,"weight_pounds":248},"pts":2,"reb":2,"stl":0,"team":{"id":5,"abbreviation":"CHI","city":"Chicago","conference":"East","division":"Central","full_name":"Chicago Bulls","name":"Bulls"},"turnover":0},{"id":11501375,"ast":0,"blk":0,"dreb":0,"fg3_pct":0,"fg3a":0,"fg3m":0,"fg_pct":0,"fga":0,"fgm":0,"ft_pct":0,"fta":0,"ftm":0,"game":{"id":474591,"date":"2022-04-05T00:00:00.000Z","home_team_id":5,"home_team_score":106,"period":4,"postseason":false,"season":2021,"status":"Final","time":"","visitor_team_id":17,"visitor_team_score":127},"min":"0:00","oreb":0,"pf":0,"player":{"id":666517,"first_name":"Tyler","height_feet":null,"height_inches":null,"last_name":"Cook","position":"C","team_id":5,"weight_pounds":null},"pts":0,"reb":0,"stl":0,"team":{"id":5,"abbreviation":"CHI","city":"Chicago","conference":"East","division":"Central","full_name":"Chicago Bulls","name":"Bulls"},"turnover":0},{"id":11501377,"ast":0,"blk":0,"dreb":0,"fg3_pct":0,"fg3a":0,"fg3m":0,"fg_pct":0,"fga":0,"fgm":0,"ft_pct":0,"fta":0,"ftm":0,"game":{"id":474591,"date":"2022-04-05T00:00:00.000Z","home_team_id":5,"home_team_score":106,"period":4,"postseason":false,"season":2021,"status":"Final","time":"","visitor_team_id":17,"visitor_team_score":127},"min":"0:00","oreb":0,"pf":0,"player":{"id":24102469,"first_name":"Malcolm","height_feet":null,"height_inches":null,"last_name":"Hill","position":"F","team_id":5,"weight_pounds":null},"pts":0,"reb":0,"stl":0,"team":{"id":5,"abbreviation":"CHI","city":"Chicago","conference":"East","division":"Central","full_name":"Chicago Bulls","name":"Bulls"},"turnover":0},{"id":11501379,"ast":0,"blk":0,"dreb":0,"fg3_pct":0,"fg3a":0,"fg3m":0,"fg_pct":0,"fga":0,"fgm":0,"ft_pct":0,"fta":0,"ftm":0,"game":{"id":474591,"date":"2022-04-05T00:00:00.000Z","home_team_id":5,"home_team_score":106,"period":4,"postseason":false,"season":2021,"status":"Final","time":"","visitor_team_id":17,"visitor_team_score":127},"min":"0:00","oreb":0,"pf":0,"player":{"id":4197388,"first_name":"Marko","height_feet":null,"height_inches":null,"last_name":"Simonovic","position":"C","team_id":5,"weight_pounds":null},"pts":0,"reb":0,"stl":0,"team":{"id":5,"abbreviation":"CHI","city":"Chicago","conference":"East","division":"Central","full_name":"Chicago Bulls","name":"Bulls"},"turnover":0},{"id":11501380,"ast":0,"blk":0,"dreb":0,"fg3_pct":0,"fg3a":0,"fg3m":0,"fg_pct":0,"fga":0,"fgm":0,"ft_pct":0,"fta":0,"ftm":0,"game":{"id":474591,"date":"2022-04-05T00:00:00.000Z","home_team_id":5,"home_team_score":106,"period":4,"postseason":false,"season":2021,"status":"Final","time":"","visitor_team_id":17,"visitor_team_score":127},"min":"","oreb":0,"pf":0,"player":{"id":666919,"first_name":"Matt","height_feet":null,"height_inches":null,"last_name":"Thomas","position":"G","team_id":5,"weight_pounds":null},"pts":0,"reb":0,"stl":0,"team":{"id":5,"abbreviation":"CHI","city":"Chicago","conference":"East","division":"Central","full_name":"Chicago Bulls","name":"Bulls"},"turnover":0},{"id":11501376,"ast":1,"blk":0,"dreb":2,"fg3_pct":0.5,"fg3a":2,"fg3m":1,"fg_pct":0.4,"fga":5,"fgm":2,"ft_pct":1,"fta":2,"ftm":2,"game":{"id":474591,"date":"2022-04-05T00:00:00.000Z","home_team_id":5,"home_team_score":106,"period":4,"postseason":false,"season":2021,"status":"Final","time":"","visitor_team_id":17,"visitor_team_score":127},"min":"22","oreb":1,"pf":1,"player":{"id":666604,"first_name":"Javonte","height_feet":null,"height_inches":null,"last_name":"Green","position":"G-F","team_id":5,"weight_pounds":null},"pts":7,"reb":3,"stl":3,"team":{"id":5,"abbreviation":"CHI","city":"Chicago","conference":"East","division":"Central","full_name":"Chicago Bulls","name":"Bulls"},"turnover":0},{"id":11501382,"ast":1,"blk":0,"dreb":3,"fg3_pct":0.429,"fg3a":7,"fg3m":3,"fg_pct":0.455,"fga":11,"fgm":5,"ft_pct":null,"fta":0,"ftm":0,"game":{"id":474591,"date":"2022-04-05T00:00:00.000Z","home_team_id":5,"home_team_score":106,"period":4,"postseason":false,"season":2021,"status":"Final","time":"","visitor_team_id":17,"visitor_team_score":127},"min":"31","oreb":0,"pf":0,"player":{"id":666956,"first_name":"Coby","height_feet":null,"height_inches":null,"last_name":"White","position":"G","team_id":5,"weight_pounds":null},"pts":13,"reb":3,"stl":0,"team":{"id":5,"abbreviation":"CHI","city":"Chicago","conference":"East","division":"Central","full_name":"Chicago Bulls","name":"Bulls"},"turnover":2},{"id":11501381,"ast":0,"blk":1,"dreb":4,"fg3_pct":null,"fg3a":0,"fg3m":0,"fg_pct":0.4,"fga":5,"fgm":2,"ft_pct":null,"fta":0,"ftm":0,"game":{"id":474591,"date":"2022-04-05T00:00:00.000Z","home_team_id":5,"home_team_score":106,"period":4,"postseason":false,"season":2021,"status":"Final","time":"","visitor_team_id":17,"visitor_team_score":127},"min":"16","oreb":3,"pf":3,"player":{"id":444,"first_name":"Tristan","height_feet":6,"height_inches":10,"last_name":"Thompson","position":"C-F","team_id":14,"weight_pounds":238},"pts":4,"reb":7,"stl":0,"team":{"id":5,"abbreviation":"CHI","city":"Chicago","conference":"East","division":"Central","full_name":"Chicago Bulls","name":"Bulls"},"turnover":0}],"meta":{"total_pages":2,"current_page":1,"next_page":2,"per_page":25,"total_count":29}}