{"data":[{"id":10651927,"ast":3,"blk":2,"dreb":4,"fg3_pct":null,"fg3a":0,"fg3m":0,"fg_pct":0.727,"fga":11,"fgm":8,"ft_pct":0.75,"fta":4,"ftm":3,"game":{"id":474353,"date":"2022-03-03T00:00:00.000Z","home_team_id":13,"home_team_score":132,"period":4,"postseason":false,"season":2021,"status":"Final","time":"","visitor_team_id":14,"visitor_team_score":111},"min":"25","oreb":5,"pf":5,"player":{"id":493,"first_name":"Ivica","height_feet":7,"height_inches":1,"last_name":"Zubac","position":"C","team_id":13,"weight_pounds":240},"pts":19,"reb":9,"stl":0,"team":{"id":13,"abbreviation":"LAC","city":"LA","conference":"West","division":"Pacific","full_name":"LA Clippers","name":"Clippers"},"turnover":0},{"id":10651928,"ast":4,"blk":0,"dreb":3,"fg3_pct":1,"fg3a":1,"fg3m":1,"fg_pct":0.75,"fga":4,"fgm":3,"ft_pct":1,"fta":2,"ftm":2,"game":{"id":474353,"date":"2022-03-03T00:00:00.000Z","home_team_id":13,"home_team_score":132,"period":4,"postseason":false,"season":2021,"status":"Final","time":"","visitor_team_id":14,"visitor_team_score":111},"min":"26","oreb":1,"pf":3,"player":{"id":666743,"first_name":"Terance","height_feet":null,"height_inches":null,"last_name":"Mann","position":"G","team_id":13,"weight_pounds":null},"pts":9,"reb":4,"stl":2,"team":{"id":13,"abbreviation":"LAC","city":"LA","conference":"West","division":"Pacific","full_name":"LA Clippers","name":"Clippers"},"turnover":1},{"id":10651929,"ast":9,"blk":0,"dreb":6,"fg3_pct":0.5,"fg3a":8,"fg3m":4,"fg_pct":0.467,"fga":30,"fgm":14,"ft_pct":1,"fta":4,"ftm":4,"game":{"id":474353,"date":"2022-03-03T00:00:00.000Z","home_team_id":13,"home_team_score":132,"period":4,"postseason":false,"season":2021,"status":"Final","time":"","visitor_team_id":14,"visitor_team_score":111},"min":"35","oreb":2,"pf":5,"player":{"id":236,"first_name":"Reggie","height_feet":6,"height_inches":3,"last_name":"Jackson","position":"G","team_id":8,"weight_pounds":208},"pts":36,"reb":8,"stl":2,"team":{"id":13,"abbreviation":"LAC","city":"LA","conference":"West","division":"Pacific","full_name":"LA Clippers","name":"Clippers"},"turnover":3},{"id":10651931,"ast":2,"blk":0,"dreb":3,"fg3_pct":0.667,"fg3a":3,"fg3m":2,"fg_pct":0.5,"fga":6,"fgm":3,"ft_pct":null,"fta":0,"ftm":0,"game":{"id":474353,"date":"2022-03-03T00:00:00.000Z","home_team_id":13,"home_team_score":132,"period":4,"postseason":false,"season":2021,"status":"Final","time":"","visitor_team_id":14,"visitor_team_score":111},"min":"27","oreb":0,"pf":0,"player":{"id":666511,"first_name":"Amir","height_feet":null,"height_inches":null,"last_name":"Coffey","position":"G","team_id":13,"weight_pounds":null},"pts":8,"reb":3,"stl":2,"team":{"id":13,"abbreviation":"LAC","city":"LA","conference":"West","division":"Pacific","full_name":"LA Clippers","name":"Clippers"},"turnover":1},{"id":10651933,"ast":5,"blk":1,"dreb":1,"fg3_pct":null,"fg3a":0,"fg3m":0,"fg_pct":0.857,"fga":7,"fgm":6,"ft_pct":0,"fta":1,"ftm":0,"game":{"id":474353,"date":"2022-03-03T00:00:00.000Z","home_team_id":13,"home_team_score":132,"period":4,"postseason":false,"season":2021,"status":"Final","time":"","visitor_team_id":14,"visitor_team_score":111},"min":"23","oreb":4,"pf":2,"player":{"id":201,"first_name":"Isaiah","height_feet":7,"height_inches":0,"last_name":"Hartenstein","position":"F-C","team_id":20,"weight_pounds":249},"pts":12,"reb":5,"stl":1,"team":{"id":13,"abbreviation":"LAC","city":"LA","conference":"West","division":"Pacific","full_name":"LA Clippers","name":"Clippers"},"turnover":0},{"id":10651917,"ast":0,"blk":0,"dreb":0,"fg3_pct":0,"fg3a":0,"fg3m":0,"fg_pct":0,"fga":0,"fgm":0,"ft_pct":0,"fta":0,"ftm":0,"game":{"id":474353,"date":"2022-03-03T00:00:00.000Z","home_team_id":13,"home_team_score":132,"period":4,"postseason":false,"season":2021,"status":"Final","time":"","visitor_team_id":14,"visitor_team_score":111},"min":"0:00","oreb":0,"pf":0,"player":{"id":20,"first_name":"Trevor","height_feet":6,"height_inches":8,"last_name":"Ariza","position":"F","team_id":14,"weight_pounds":215},"pts":0,"reb":0,"stl":0,"team":{"id":14,"abbreviation":"LAL","city":"Los Angeles","conference":"West","division":"Pacific","full_name":"Los Angeles Lakers","name":"Lakers"},"turnover":0},{"id":10651911,"ast":3,"blk":1,"dreb":1,"fg3_pct":0.667,"fg3a":3,"fg3m":2,"fg_pct":0.429,"fga":7,"fgm":3,"ft_pct":1,"fta":1,"ftm":1,"game":{"id":474353,"date":"2022-03-03T00:00:00.000Z","home_team_id":13,"home_team_score":132,"period":4,"postseason":false,"season":2021,"status":"Final","time":"","visitor_team_id":14,"visitor_team_score":111},"min":"26","oreb":0,"pf":1,"player":{"id":17553995,"first_name":"Austin","height_feet":null,"height_inches":null,"last_name":"Reaves","position":"G","team_id":14,"weight_pounds":null},"pts":9,"reb":1,"stl":1,"team":{"id":14,"abbreviation":"LAL","city":"Los Angeles","conference":"West","division":"Pacific","full_name":"Los Angeles Lakers","name":"Lakers"},"turnover":0},{"id":10651912,"ast":4,"blk":1,"dreb":7,"fg3_pct":0.222,"fg3a":9,"fg3m":2,"fg_pct":0.444,"fga":18,"fgm":8,"ft_pct":0.8,"fta":10,"ftm":8,"game":{"id":474353,"date":"2022-03-03T00:00:00.000Z","home_team_id":13,"home_team_score":132,"period":4,"postseason":false,"season":2021,"status":"Final","time":"","visitor_team_id":14,"visitor_team_score":111},"min":"37","oreb":1,"pf":2,"player":{"id":237,"first_name":"LeBron","height_feet":6,"height_inches":8,"last_name":"James","position":"F","team_id":14,"weight_pounds":250},"pts":26,"reb":8,"stl":0,"team":{"id":14,"abbreviation":"LAL","city":"Los Angeles","conference":"West","division":"Pacific","full_name":"Los Angeles Lakers","name":"Lakers"},"turnover":4},{"id":10651913,"ast":1,"blk":0,"dreb":0,"fg3_pct":null,"fg3a":0,"fg3m":0,"fg_pct":0,"fga":1,"fgm":0,"ft_pct":0.5,"fta":4,"ftm":2,"game":{"id":474353,"date":"2022-03-03T00:00:00.000Z","home_team_id":13,"home_team_score":132,"period":4,"postseason":false,"season":2021,"status":"Final","time":"","visitor_team_id":14,"visitor_team_score":111},"min":"16","oreb":1,"pf":2,"player":{"id":220,"first_name":"Dwight","height_feet":6,"height_inches":11,"last_name":"Howard","position":"C","team_id":14,"weight_pounds":265},"pts":2,"reb":1,"stl":0,"team":{"id":14,"abbreviation":"LAL","city":"Los Angeles","conference":"West","division":"Pacific","full_name":"Los Angeles Lakers","name":"Lakers"},"turnover":1},{"id":10651914,"ast":4,"blk":1,"dreb":2,"fg3_pct":0.4,"fg3a":5,"fg3m":2,"fg_pct":0.556,"fga":9,"fgm":5,"ft_pct":null,"fta":0,"ftm":0,"game":{"id":474353,"date":"2022-03-03T00:00:00.000Z","home_team_id":13,"home_team_score":132,"period":4,"postseason":false,"season":2021,"status":"Final","time":"","visitor_team_id":14,"visitor_team_score":111},"min":"29","oreb":1,"pf":0,"player":{"id":324,"first_name":"Malik","height_feet":6,"height_inches":3,"last_name":"Monk","position":"G","team_id":26,"weight_pounds":200},"pts":12,"reb":3,"stl":1,"team":{"id":14,"abbreviation":"LAL","city":"Los Angeles","conference":"West","division":"Pacific","full_name":"Los Angeles Lakers","name":"Lakers"},"turnover":0},{"id":10651915,"ast":3,"blk":0,"dreb":6,"fg3_pct":0,"fg3a":2,"fg3m":0,"fg_pct":0.438,"fga":16,"fgm":7,"ft_pct":0.75,"fta":4,"ftm":3,"game":{"id":474353,"date":"2022-03-03T00:00:00.000Z","home_team_id":13,"home_team_score":132,"period":4,"postseason":false,"season":2021,"status":"Final","time":"","visitor_team_id":14,"visitor_team_score":111},"min":"29","oreb":2,"pf":4,"player":{"id":472,"first_name":"Russell","height_feet":6,"height_inches":3,"last_name":"Westbrook","position":"G","team_id":13,"weight_pounds":200},"pts":17,"reb":8,"stl":0,"team":{"id":14,"abbreviation":"LAL","city":"Los Angeles","conference":"West","division":"Pacific","full_name":"Los Angeles Lakers","name":"Lakers"},"turnover":2},{"id":10651916,"ast":0,"blk":1,"dreb":1,"fg3_pct":0,"fg3a":3,"fg3m":0,"fg_pct":0.545,"fga":11,"fgm":6,"ft_pct":1,"fta":1,"ftm":1,"game":{"id":474353,"date":"2022-03-03T00:00:00.000Z","home_team_id":13,"home_team_score":132,"period":4,"postseason":false,"season":2021,"status":"Final","time":"","visitor_team_id":14,"visitor_team_score":111},"min":"25","oreb":1,"pf":1,"player":{"id":17,"first_name":"Carmelo","height_feet":null,"height_inches":null,"last_name":"Anthony","position":"F","team_id":14,"weight_pounds":null},"pts":13,"reb":2,"stl":0,"team":{"id":14,"abbreviation":"LAL","city":"Los Angeles","conference":"West","division":"Pacific","full_name":"Los Angeles Lakers","name":"Lakers"},"turnover":2},{"id":10651924,"ast":2,"blk":0,"dreb":2,"fg3_pct":0,"fg3a":2,"fg3m":0,"fg_pct":0.6,"fga":5,"fgm":3,"ft_pct":1,"fta":2,"ftm":2,"game":{"id":474353,"date":"2022-03-03T00:00:00.000Z","home_team_id":13,"home_team_score":132,"period":4,"postseason":false,"season":2021,"status":"Final","time":"","visitor_team_id":14,"visitor_team_score":111},"min":"20","oreb":0,"pf":3,"player":{"id":243,"first_name":"Stanley","height_feet":6,"height_inches":7,"last_name":"Johnson","position":"F","team_id":27,"weight_pounds":245},"pts":8,"reb":2,"stl":2,"team":{"id":14,"abbreviation":"LAL","city":"Los Angeles","conference":"West","division":"Pacific","full_name":"Los Angeles Lakers","name":"Lakers"},"turnover":2},{"id":10651935,"ast":1,"blk":0,"dreb":1,"fg3_pct":0.75,"fg3a":4,"fg3m":3,"fg_pct":0.5,"fga":8,"fgm":4,"ft_pct":null,"fta":0,"ftm":0,"game":{"id":474353,"date":"2022-03-03T00:00:00.000Z","home_team_id":13,"home_team_score":132,"period":4,"postseason":false,"season":2021,"status":"Final","time":"","visitor_team_id":14,"visitor_team_score":111},"min":"24","oreb":0,"pf":0,"player":{"id":254,"first_name":"Luke","height_feet":6,"height_inches":5,"last_name":"Kennard","position":"G","team_id":15,"weight_pounds":206},"pts":11,"reb":1,"stl":0,"team":{"id":13,"abbreviation":"LAC","city":"LA","conference":"West","division":"Pacific","full_name":"LA Clippers","name":"Clippers"},"turnover":2},{"id":10651934,"ast":0,"blk":0,"dreb":0,"fg3_pct":0,"fg3a":0,"fg3m":0,"fg_pct":0,"fga":1,"fgm":0,"ft_pct":0,"fta":0,"ftm":0,"game":{"id":474353,"date":"2022-03-03T00:00:00.000Z","home_team_id":13,"home_team_score":132,"period":4,"postseason":false,"season":2021,"status":"Final","time":"","visitor_team_id":14,"visitor_team_score":111},"min":"3:57","oreb":0,"pf":0,"player":{"id":218,"first_name":"Rodney","height_feet":6,"height_inches":8,"last_name":"Hood","position":"G","team_id":13,"weight_pounds":206},"pts":0,"reb":0,"stl":1,"team":{"id":13,"abbreviation":"LAC","city":"LA","conference":"West","division":"Pacific","full_name":"LA Clippers","name":"Clippers"},"turnover":0},{"id":10651936,"ast":0,"blk":0,"dreb":0,"fg3_pct":0,"fg3a":0,"fg3m":0,"fg_pct":0,"fga":0,"fgm":0,"ft_pct":0,"fta":0,"ftm":0,"game":{"id":474353,"date":"2022-03-03T00:00:00.000Z","home_team_id":13,"home_team_score":132,"period":4,"postseason":false,"season":2021,"status":"Final","time":"","visitor_team_id":14,"visitor_team_score":111},"min":"3:57","oreb":0,"pf":1,"player":{"id":353,"first_name":"Semi","height_feet":6,"height_inches":7,"last_name":"Ojeleye","position":"F","team_id":13,"weight_pounds":241},"pts":0,"reb":0,"stl":0,"team":{"id":13,"abbreviation":"LAC","city":"LA","conference":"West","division":"Pacific","full_name":"LA Clippers","name":"Clippers"},"turnover":0},{"id":10651920,"ast":0,"blk":0,"dreb":0,"fg3_pct":0,"fg3a":0,"fg3m":0,"fg_pct":0,"fga":0,"fgm":0,"ft_pct":0,"fta":0,"ftm":0,"game":{"id":474353,"date":"2022-03-03T00:00:00.000Z","home_team_id":13,"home_team_score":132,"period":4,"postseason":false,"season":2021,"status":"Final","time":"","visitor_team_id":14,"visitor_team_score":111},"min":"0:00","oreb":0,"pf":0,"player":{"id":59,"first_name":"Avery","height_feet":6,"height_inches":2,"last_name":"Bradley","position":"G","team_id":14,"weight_pounds":180},"pts":0,"reb":0,"stl":0,"team":{"id":14,"abbreviation":"LAL","city":"Los Angeles","conference":"West","division":"Pacific","full_name":"Los Angeles Lakers","name":"Lakers"},"turnover":0},{"id":10651923,"ast":0,"blk":0,"dreb":0,"fg3_pct":0,"fg3a":0,"fg3m":0,"fg_pct":0,"fga":0,"fgm":0,"ft_pct":0,"fta":0,"ftm":0,"game":{"id":474353,"date":"2022-03-03T00:00:00.000Z","home_team_id":13,"home_team_score":132,"period":4,"postseason":false,"season":2021,"status":"Final","time":"","visitor_team_id":14,"visitor_team_score":111},"min":"0:00","oreb":0,"pf":0,"player":{"id":666650,"first_name":"Talen","height_feet":null,"height_inches":null,"last_name":"Horton-Tucker","position":"G","team_id":29,"weight_pounds":null},"pts":0,"reb":0,"stl":0,"team":{"id":14,"abbreviation":"LAL","city":"Los Angeles","conference":"West","division":"Pacific","full_name":"Los Angeles Lakers","name":"Lakers"},"turnover":0},{"id":10651925,"ast":3,"blk":0,"dreb":5,"fg3_pct":1,"fg3a":2,"fg3m":2,"fg_pct":1,"fga":2,"fgm":2,"ft_pct":null,"fta":0,"ftm":0,"game":{"id":474353,"date":"2022-03-03T00:00:00.000Z","home_team_id":13,"home_team_score":132,"period":4,"postseason":false,"season":2021,"status":"Final","time":"","visitor_team_id":14,"visitor_team_score":111},"min":"19","oreb":0,"pf":1,"player":{"id":33,"first_name":"Nicolas","height_feet":6,"height_inches":8,"last_name":"Batum","position":"F-G","team_id":13,"weight_pounds":200},"pts":6,"reb":5,"stl":0,"team":{"id":13,"abbreviation":"LAC","city":"LA","conference":"West","division":"Pacific","full_name":"LA Clippers","name":"Clippers"},"turnover":0},{"id":10651926,"ast":2,"blk":0,"dreb":3,"fg3_pct":0.667,"fg3a":3,"fg3m":2,"fg_pct":0.5,"fga":10,"fgm":5,"ft_pct":1,"fta":2,"ftm":2,"game":{"id":474353,"date":"2022-03-03T00:00:00.000Z","home_team_id":13,"home_team_score":132,"period":4,"postseason":false,"season":2021,"status":"Final","time":"","visitor_team_id":14,"visitor_team_score":111},"min":"21","oreb":0,"pf":2,"player":{"id":328,"first_name":"Marcus","height_feet":6,"height_inches":9,"last_name":"Morris","position":"F","team_id":13,"weight_pounds":235},"pts":14,"reb":3,"stl":0,"team":{"id":13,"abbreviation":"LAC","city":"LA","conference":"West","division":"Pacific","full_name":"LA Clippers","name":"Clippers"},"turnover":2},{"id":10651919,"ast":3,"blk":0,"dreb":6,"fg3_pct":0.5,"fg3a":4,"fg3m":2,"fg_pct":0.4,"fga":5,"fgm":2,"ft_pct":null,"fta":0,"ftm":0,"game":{"id":474353,"date":"2022-03-03T00:00:00.000Z","home_team_id":13,"home_team_score":132,"period":4,"postseason":false,"season":2021,"status":"Final","time":"","visitor_team_id":14,"visitor_team_score":111},"min":"20","oreb":0,"pf":2,"player":{"id":36,"first_name":"Kent","height_feet":6,"height_inches":5,"last_name":"Bazemore","position":"G","team_id":14,"weight_pounds":201},"pts":6,"reb":6,"stl":1,"team":{"id":14,"abbreviation":"LAL","city":"Los Angeles","conference":"West","division":"Pacific","full_name":"Los Angeles Lakers","name":"Lakers"},"turnover":3},{"id":10651918,"ast":6,"blk":0,"dreb":0,"fg3_pct":0.333,"fg3a":3,"fg3m":1,"fg_pct":0.25,"fga":4,"fgm":1,"ft_pct":null,"fta":0,"ftm":0,"game":{"id":474353,"date":"2022-03-03T00:00:00.000Z","home_team_id":13,"home_team_score":132,"period":4,"postseason":false,"season":2021,"status":"Final","time":"","visitor_team_id":14,"visitor_team_score":111},"min":"22","oreb":1,"pf":1,"player":{"id":21,"first_name":"D.J.","height_feet":6,"height_inches":0,"last_name":"Augustin","position":"G","team_id":11,"weight_pounds":183},"pts":3,"reb":1,"stl":3,"team":{"id":14,"abbreviation":"LAL","city":"Los Angeles","conference":"West","division":"Pacific","full_name":"Los Angeles Lakers","name":"Lakers"},"turnover":0},{"id":10651921,"ast":0,"blk":0,"dreb":1,"fg3_pct":1,"fg3a":2,"fg3m":2,"fg_pct":1,"fga":5,"fgm":5,"ft_pct":null,"fta":0,"ftm":0,"game":{"id":474353,"date":"2022-03-03T00:00:00.000Z","home_team_id":13,"home_team_score":132,"period":4,"postseason":false,"season":2021,"status":"Final","time":"","visitor_team_id":14,"visitor_team_score":111},"min":"12","oreb":0,"pf":1,"player":{"id":144,"first_name":"Wayne","height_feet":null,"height_inches":null,"last_name":"Ellington","position":"G","team_id":14,"weight_pounds":null},"pts":12,"reb":1,"stl":0,"team":{"id":14,"abbreviation":"LAL","city":"Los Angeles","conference":"West","division":"Pacific","full_name":"Los Angeles Lakers","name":"Lakers"},"turnover":0},{"id":10651922,"ast":0,"blk":0,"dreb":1,"fg3_pct":0.5,"fg3a":2,"fg3m":1,"fg_pct":0.333,"fga":3,"fgm":1,"ft_pct":null,"fta":0,"ftm":0,"game":{"id":474353,"date":"2022-03-03T00:00:00.000Z","home_team_id":13,"home_team_score":132,"period":4,"postseason":false,"season":2021,"status":"Final","time":"","visitor_team_id":14,"visitor_team_score":111},"min":"4","oreb":2,"pf":0,"player":{"id":166,"first_name":"Wenyen","height_feet":6,"height_inches":9,"last_name":"Gabriel","position":"F","team_id":14,"weight_pounds":205},"pts":3,"reb":3,"stl":0,"team":{"id":14,"abbreviation":"LAL","city":"Los Angeles","conference":"West","division":"Pacific","full_name":"Los Angeles Lakers","name":"Lakers"},"turnover":0},{"id":10651932,"ast":3,"blk":0,"dreb":6,"fg3_pct":0.4,"fg3a":5,"fg3m":2,"fg_pct":0.444,"fga":9,"fgm":4,"ft_pct":1,"fta":2,"ftm":2,"game":{"id":474353,"date":"2022-03-03T00:00:00.000Z","home_team_id":13,"home_team_score":132,"period":4,"postseason":false,"season":2021,"status":"Final","time":"","visitor_team_id":14,"visitor_team_score":111},"min":"27","oreb":1,"pf":3,"player":{"id":108,"first_name":"Robert","height_feet":6,"height_inches":9,"last_name":"Covington","position":"F","team_id":13,"weight_pounds":225},"pts":12,"reb":7,"stl":2,"team":{"id":13,"abbreviation":"LAC","city":"LA","conference":"West","division":"Pacific","full_name":"LA Clippers","name":"Clippers"},"turnover":1}],"meta":{"total_pages":2,"current_page":1,"next_page":2,"per_page":25,"total_count":26}}