{"data":[{"id":11982865,"ast":4,"blk":1,"dreb":9,"fg3_pct":0.467,"fg3a":15,"fg3m":7,"fg_pct":0.531,"fga":32,"fgm":17,"ft_pct":0.714,"fta":7,"ftm":5,"game":{"id":850702,"date":"2022-05-13T00:00:00.000Z","home_team_id":17,"home_team_score":95,"period":4,"postseason":true,"season":2021,"status":"Final","time":"","visitor_team_id":2,"visitor_team_score":108},"min":"43","oreb":0,"pf":2,"player":{"id":434,"first_name":"Jayson","height_feet":6,"height_inches":8,"last_name":"Tatum","position":"F","team_id":2,"weight_pounds":208},"pts":46,"reb":9,"stl":0,"team":{"id":2,"abbreviation":"BOS","city":"Boston","conference":"East","division":"Atlantic","full_name":"Boston Celtics","name":"Celtics"},"turnover":4},{"id":11982866,"ast":1,"blk":0,"dreb":5,"fg3_pct":0,"fg3a":1,"fg3m":0,"fg_pct":0,"fga":3,"fgm":0,"ft_pct":0.4,"fta":5,"ftm":2,"game":{"id":850702,"date":"2022-05-13T00:00:00.000Z","home_team_id":17,"home_team_score":95,"period":4,"postseason":true,"season":2021,"status":"Final","time":"","visitor_team_id":2,"visitor_team_score":108},"min":"28","oreb":0,"pf":5,"player":{"id":666965,"first_name":"Grant","height_feet":null,"height_inches":null,"last_name":"Williams","position":"F","team_id":2,"weight_pounds":null},"pts":2,"reb":5,"stl":2,"team":{"id":2,"abbreviation":"BOS","city":"Boston","conference":"East","division":"Atlantic","full_name":"Boston Celtics","name":"Celtics"},"turnover":1},{"id":11982867,"ast":3,"blk":4,"dreb":8,"fg3_pct":0,"fg3a":4,"fg3m":0,"fg_pct":0.167,"fga":6,"fgm":1,"ft_pct":null,"fta":0,"ftm":0,"game":{"id":850702,"date":"2022-05-13T00:00:00.000Z","home_team_id":17,"home_team_score":95,"period":4,"postseason":true,"season":2021,"status":"Final","time":"","visitor_team_id":2,"visitor_team_score":108},"min":"38","oreb":2,"pf":1,"player":{"id":219,"first_name":"Al","height_feet":6,"height_inches":10,"last_name":"Horford","position":"C-F","team_id":2,"weight_pounds":245},"pts":2,"reb":10,"stl":1,"team":{"id":2,"abbreviation":"BOS","city":"Boston","conference":"East","division":"Atlantic","full_name":"Boston Celtics","name":"Celtics"},"turnover":1},{"id":11982868,"ast":4,"blk":1,"dreb":3,"fg3_pct":0.571,"fg3a":7,"fg3m":4,"fg_pct":0.438,"fga":16,"fgm":7,"ft_pct":0.571,"fta":7,"ftm":4,"game":{"id":850702,"date":"2022-05-13T00:00:00.000Z","home_team_id":17,"home_team_score":95,"period":4,"postseason":true,"season":2021,"status":"Final","time":"","visitor_team_id":2,"visitor_team_score":108},"min":"41","oreb":2,"pf":2,"player":{"id":70,"first_name":"Jaylen","height_feet":6,"height_inches":7,"last_name":"Brown","position":"G","team_id":2,"weight_pounds":220},"pts":22,"reb":5,"stl":0,"team":{"id":2,"abbreviation":"BOS","city":"Boston","conference":"East","division":"Atlantic","full_name":"Boston Celtics","name":"Celtics"},"turnover":2},{"id":11982869,"ast":7,"blk":0,"dreb":3,"fg3_pct":0.556,"fg3a":9,"fg3m":5,"fg_pct":0.5,"fga":16,"fgm":8,"ft_pct":null,"fta":0,"ftm":0,"game":{"id":850702,"date":"2022-05-13T00:00:00.000Z","home_team_id":17,"home_team_score":95,"period":4,"postseason":true,"season":2021,"status":"Final","time":"","visitor_team_id":2,"visitor_team_score":108},"min":"40","oreb":2,"pf":2,"player":{"id":420,"first_name":"Marcus","height_feet":6,"height_inches":4,"last_name":"Smart","position":"G","team_id":2,"weight_pounds":220},"pts":21,"reb":5,"stl":0,"team":{"id":2,"abbreviation":"BOS","city":"Boston","conference":"East","division":"Atlantic","full_name":"Boston Celtics","name":"Celtics"},"turnover":0},{"id":11982877,"ast":2,"blk":0,"dreb":3,"fg3_pct":0.2,"fg3a":5,"fg3m":1,"fg_pct":0.333,"fga":9,"fgm":3,"ft_pct":1,"fta":2,"ftm":2,"game":{"id":850702,"date":"2022-05-13T00:00:00.000Z","home_team_id":17,"home_team_score":95,"period":4,"postseason":true,"season":2021,"status":"Final","time":"","visitor_team_id":2,"visitor_team_score":108},"min":"30","oreb":2,"pf":3,"player":{"id":473,"first_name":"Derrick","height_feet":6,"height_inches":4,"last_name":"White","position":"G","team_id":2,"weight_pounds":190},"pts":9,"reb":5,"stl":2,"team":{"id":2,"abbreviation":"BOS","city":"Boston","conference":"East","division":"Atlantic","full_name":"Boston Celtics","name":"Celtics"},"turnover":0},{"id":11982884,"ast":0,"blk":0,"dreb":1,"fg3_pct":null,"fg3a":0,"fg3m":0,"fg_pct":1,"fga":1,"fgm":1,"ft_pct":null,"fta":0,"ftm":0,"game":{"id":850702,"date":"2022-05-13T00:00:00.000Z","home_team_id":17,"home_team_score":95,"period":4,"postseason":true,"season":2021,"status":"Final","time":"","visitor_team_id":2,"visitor_team_score":108},"min":"1","oreb":0,"pf":0,"player":{"id":87,"first_name":"Jevon","height_feet":6,"height_inches":2,"last_name":"Carter","position":"G","team_id":17,"weight_pounds":196},"pts":2,"reb":1,"stl":0,"team":{"id":17,"abbreviation":"MIL","city":"Milwaukee","conference":"East","division":"Central","full_name":"Milwaukee Bucks","name":"Bucks"},"turnover":0},{"id":11982883,"ast":0,"blk":0,"dreb":1,"fg3_pct":null,"fg3a":0,"fg3m":0,"fg_pct":null,"fga":0,"fgm":0,"ft_pct":0.5,"fta":2,"ftm":1,"game":{"id":850702,"date":"2022-05-13T00:00:00.000Z","home_team_id":17,"home_team_score":95,"period":4,"postseason":true,"season":2021,"status":"Final","time":"","visitor_team_id":2,"visitor_team_score":108},"min":"1","oreb":0,"pf":0,"player":{"id":2148,"first_name":"Thanasis","height_feet":null,"height_inches":null,"last_name":"Antetokounmpo","position":"","team_id":17,"weight_pounds":null},"pts":1,"reb":1,"stl":0,"team":{"id":17,"abbreviation":"MIL","city":"Milwaukee","conference":"East","division":"Central","full_name":"Milwaukee Bucks","name":"Bucks"},"turnover":0},{"id":11982876,"ast":0,"blk":0,"dreb":2,"fg3_pct":0,"fg3a":1,"fg3m":0,"fg_pct":0.667,"fga":3,"fgm":2,"ft_pct":null,"fta":0,"ftm":0,"game":{"id":850702,"date":"2022-05-13T00:00:00.000Z","home_team_id":17,"home_team_score":95,"period":4,"postseason":true,"season":2021,"status":"Final","time":"","visitor_team_id":2,"visitor_team_score":108},"min":"10","oreb":0,"pf":1,"player":{"id":439,"first_name":"Daniel","height_feet":6,"height_inches":8,"last_name":"Theis","position":"F","team_id":12,"weight_pounds":243},"pts":4,"reb":2,"stl":0,"team":{"id":2,"abbreviation":"BOS","city":"Boston","conference":"East","division":"Atlantic","full_name":"Boston Celtics","name":"Celtics"},"turnover":0},{"id":11982874,"ast":1,"blk":1,"dreb":0,"fg3_pct":0,"fg3a":1,"fg3m":0,"fg_pct":0,"fga":2,"fgm":0,"ft_pct":0,"fta":0,"ftm":0,"game":{"id":850702,"date":"2022-05-13T00:00:00.000Z","home_team_id":17,"home_team_score":95,"period":4,"postseason":true,"season":2021,"status":"Final","time":"","visitor_team_id":2,"visitor_team_score":108},"min":"7:23","oreb":0,"pf":1,"player":{"id":3547276,"first_name":"Payton","height_feet":null,"height_inches":null,"last_name":"Pritchard","position":"G","team_id":2,"weight_pounds":null},"pts":0,"reb":0,"stl":0,"team":{"id":2,"abbreviation":"BOS","city":"Boston","conference":"East","division":"Atlantic","full_name":"Boston Celtics","name":"Celtics"},"turnover":0},{"id":11982875,"ast":0,"blk":0,"dreb":0,"fg3_pct":null,"fg3a":0,"fg3m":0,"fg_pct":null,"fga":0,"fgm":0,"ft_pct":1,"fta":2,"ftm":2,"game":{"id":850702,"date":"2022-05-13T00:00:00.000Z","home_team_id":17,"home_team_score":95,"period":4,"postseason":true,"season":2021,"status":"Final","time":"","visitor_team_id":2,"visitor_team_score":108},"min":"1","oreb":0,"pf":0,"player":{"id":429,"first_name":"Nik","height_feet":6,"height_inches":6,"last_name":"Stauskas","position":"G","team_id":2,"weight_pounds":205},"pts":2,"reb":0,"stl":0,"team":{"id":2,"abbreviation":"BOS","city":"Boston","conference":"East","division":"Atlantic","full_name":"Boston Celtics","name":"Celtics"},"turnover":0},{"id":11982873,"ast":0,"blk":0,"dreb":1,"fg3_pct":0,"fg3a":0,"fg3m":0,"fg_pct":0,"fga":0,"fgm":0,"ft_pct":0,"fta":0,"ftm":0,"game":{"id":850702,"date":"2022-05-13T00:00:00.000Z","home_team_id":17,"home_team_score":95,"period":4,"postseason":true,"season":2021,"status":"Final","time":"","visitor_team_id":2,"visitor_team_score":108},"min":"1:17","oreb":0,"pf":0,"player":{"id":3547250,"first_name":"Aaron","height_feet":null,"height_inches":null,"last_name":"Nesmith","position":"G-F","team_id":12,"weight_pounds":null},"pts":0,"reb":1,"stl":0,"team":{"id":2,"abbreviation":"BOS","city":"Boston","conference":"East","division":"Atlantic","full_name":"Boston Celtics","name":"Celtics"},"turnover":0},{"id":11982870,"ast":0,"blk":0,"dreb":0,"fg3_pct":0,"fg3a":0,"fg3m":0,"fg_pct":0,"fga":0,"fgm":0,"ft_pct":0,"fta":0,"ftm":0,"game":{"id":850702,"date":"2022-05-13T00:00:00.000Z","home_team_id":17,"home_team_score":95,"period":4,"postseason":true,"season":2021,"status":"Final","time":"","visitor_team_id":2,"visitor_team_score":108},"min":"0:00","oreb":0,"pf":0,"player":{"id":9338307,"first_name":"Malik","height_feet":null,"height_inches":null,"last_name":"Fitts","position":"F","team_id":2,"weight_pounds":null},"pts":0,"reb":0,"stl":0,"team":{"id":2,"abbreviation":"BOS","city":"Boston","conference":"East","division":"Atlantic","full_name":"Boston Celtics","name":"Celtics"},"turnover":0},{"id":11982871,"ast":0,"blk":0,"dreb":0,"fg3_pct":0,"fg3a":0,"fg3m":0,"fg_pct":0,"fga":0,"fgm":0,"ft_pct":0,"fta":0,"ftm":0,"game":{"id":850702,"date":"2022-05-13T00:00:00.000Z","home_team_id":17,"home_team_score":95,"period":4,"postseason":true,"season":2021,"status":"Final","time":"","visitor_team_id":2,"visitor_team_score":108},"min":"0:00","oreb":0,"pf":0,"player":{"id":261,"first_name":"Luke","height_feet":7,"height_inches":1,"last_name":"Kornet","position":"F-C","team_id":2,"weight_pounds":250},"pts":0,"reb":0,"stl":0,"team":{"id":2,"abbreviation":"BOS","city":"Boston","conference":"East","division":"Atlantic","full_name":"Boston Celtics","name":"Celtics"},"turnover":0},{"id":11982872,"ast":0,"blk":0,"dreb":0,"fg3_pct":0,"fg3a":0,"fg3m":0,"fg_pct":0,"fga":0,"fgm":0,"ft_pct":0,"fta":0,"ftm":0,"game":{"id":850702,"date":"2022-05-13T00:00:00.000Z","home_team_id":17,"home_team_score":95,"period":4,"postseason":true,"season":2021,"status":"Final","time":"","visitor_team_id":2,"visitor_team_score":108},"min":"0:00","oreb":0,"pf":0,"player":{"id":666788,"first_name":"Juwan","height_feet":null,"height_inches":null,"last_name":"Morgan","position":"F","team_id":2,"weight_pounds":null},"pts":0,"reb":0,"stl":0,"team":{"id":2,"abbreviation":"BOS","city":"Boston","conference":"East","division":"Atlantic","full_name":"Boston Celtics","name":"Celtics"},"turnover":0},{"id":11982878,"ast":2,"blk":0,"dreb":4,"fg3_pct":0,"fg3a":2,"fg3m":0,"fg_pct":0.333,"fga":6,"fgm":2,"ft_pct":null,"fta":0,"ftm":0,"game":{"id":850702,"date":"2022-05-13T00:00:00.000Z","home_team_id":17,"home_team_score":95,"period":4,"postseason":true,"season":2021,"status":"Final","time":"","visitor_team_id":2,"visitor_team_score":108},"min":"28","oreb":0,"pf":2,"player":{"id":301,"first_name":"Wesley","height_feet":null,"height_inches":null,"last_name":"Matthews","position":"G-F","team_id":17,"weight_pounds":null},"pts":4,"reb":4,"stl":0,"team":{"id":17,"abbreviation":"MIL","city":"Milwaukee","conference":"East","division":"Central","full_name":"Milwaukee Bucks","name":"Bucks"},"turnover":1},{"id":11982879,"ast":6,"blk":1,"dreb":17,"fg3_pct":0.667,"fg3a":3,"fg3m":2,"fg_pct":0.467,"fga":30,"fgm":14,"ft_pct":0.933,"fta":15,"ftm":14,"game":{"id":850702,"date":"2022-05-13T00:00:00.000Z","home_team_id":17,"home_team_score":95,"period":4,"postseason":true,"season":2021,"status":"Final","time":"","visitor_team_id":2,"visitor_team_score":108},"min":"41","oreb":3,"pf":4,"player":{"id":15,"first_name":"Giannis","height_feet":6,"height_inches":11,"last_name":"Antetokounmpo","position":"F","team_id":17,"weight_pounds":242},"pts":44,"reb":20,"stl":1,"team":{"id":17,"abbreviation":"MIL","city":"Milwaukee","conference":"East","division":"Central","full_name":"Milwaukee Bucks","name":"Bucks"},"turnover":6},{"id":11982880,"ast":0,"blk":0,"dreb":3,"fg3_pct":0,"fg3a":2,"fg3m":0,"fg_pct":0.5,"fga":6,"fgm":3,"ft_pct":null,"fta":0,"ftm":0,"game":{"id":850702,"date":"2022-05-13T00:00:00.000Z","home_team_id":17,"home_team_score":95,"period":4,"postseason":true,"season":2021,"status":"Final","time":"","visitor_team_id":2,"visitor_team_score":108},"min":"19","oreb":0,"pf":1,"player":{"id":283,"first_name":"Brook","height_feet":7,"height_inches":0,"last_name":"Lopez","position":"C","team_id":17,"weight_pounds":270},"pts":6,"reb":3,"stl":1,"team":{"id":17,"abbreviation":"MIL","city":"Milwaukee","conference":"East","division":"Central","full_name":"Milwaukee Bucks","name":"Bucks"},"turnover":1},{"id":11982881,"ast":1,"blk":0,"dreb":2,"fg3_pct":0,"fg3a":4,"fg3m":0,"fg_pct":0.143,"fga":7,"fgm":1,"ft_pct":1,"fta":1,"ftm":1,"game":{"id":850702,"date":"2022-05-13T00:00:00.000Z","home_team_id":17,"home_team_score":95,"period":4,"postseason":true,"season":2021,"status":"Final","time":"","visitor_team_id":2,"visitor_team_score":108},"min":"22","oreb":1,"pf":3,"player":{"id":8,"first_name":"Grayson","height_feet":6,"height_inches":5,"last_name":"Allen","position":"G","team_id":17,"weight_pounds":198},"pts":3,"reb":3,"stl":0,"team":{"id":17,"abbreviation":"MIL","city":"Milwaukee","conference":"East","division":"Central","full_name":"Milwaukee Bucks","name":"Bucks"},"turnover":1},{"id":11982882,"ast":4,"blk":2,"dreb":2,"fg3_pct":0.3,"fg3a":10,"fg3m":3,"fg_pct":0.412,"fga":17,"fgm":7,"ft_pct":null,"fta":0,"ftm":0,"game":{"id":850702,"date":"2022-05-13T00:00:00.000Z","home_team_id":17,"home_team_score":95,"period":4,"postseason":true,"season":2021,"status":"Final","time":"","visitor_team_id":2,"visitor_team_score":108},"min":"42","oreb":0,"pf":1,"player":{"id":214,"first_name":"Jrue","height_feet":6,"height_inches":4,"last_name":"Holiday","position":"G","team_id":17,"weight_pounds":205},"pts":17,"reb":2,"stl":3,"team":{"id":17,"abbreviation":"MIL","city":"Milwaukee","conference":"East","division":"Central","full_name":"Milwaukee Bucks","name":"Bucks"},"turnover":1},{"id":11982885,"ast":2,"blk":0,"dreb":4,"fg3_pct":0.667,"fg3a":3,"fg3m":2,"fg_pct":0.75,"fga":8,"fgm":6,"ft_pct":null,"fta":0,"ftm":0,"game":{"id":850702,"date":"2022-05-13T00:00:00.000Z","home_team_id":17,"home_team_score":95,"period":4,"postseason":true,"season":2021,"status":"Final","time":"","visitor_team_id":2,"visitor_team_score":108},"min":"33","oreb":0,"pf":3,"player":{"id":105,"first_name":"Pat","height_feet":6,"height_inches":4,"last_name":"Connaughton","position":"G","team_id":17,"weight_pounds":209},"pts":14,"reb":4,"stl":0,"team":{"id":17,"abbreviation":"MIL","city":"Milwaukee","conference":"East","division":"Central","full_name":"Milwaukee Bucks","name":"Bucks"},"turnover":0},{"id":11982891,"ast":0,"blk":0,"dreb":0,"fg3_pct":0,"fg3a":1,"fg3m":0,"fg_pct":0,"fga":1,"fgm":0,"ft_pct":0,"fta":0,"ftm":0,"game":{"id":850702,"date":"2022-05-13T00:00:00.000Z","home_team_id":17,"home_team_score":95,"period":4,"postseason":true,"season":2021,"status":"Final","time":"","visitor_team_id":2,"visitor_team_score":108},"min":"1:24","oreb":0,"pf":0,"player":{"id":11314392,"first_name":"Luca","height_feet":null,"height_inches":null,"last_name":"Vildoza","position":"G","team_id":17,"weight_pounds":null},"pts":0,"reb":0,"stl":0,"team":{"id":17,"abbreviation":"MIL","city":"Milwaukee","conference":"East","division":"Central","full_name":"Milwaukee Bucks","name":"Bucks"},"turnover":0},{"id":11982888,"ast":0,"blk":0,"dreb":0,"fg3_pct":0,"fg3a":1,"fg3m":0,"fg_pct":0,"fga":1,"fgm":0,"ft_pct":0,"fta":0,"ftm":0,"game":{"id":850702,"date":"2022-05-13T00:00:00.000Z","home_team_id":17,"home_team_score":95,"period":4,"postseason":true,"season":2021,"status":"Final","time":"","visitor_team_id":2,"visitor_team_score":108},"min":"1:24","oreb":0,"pf":0,"player":{"id":3547207,"first_name":"Jordan","height_feet":null,"height_inches":null,"last_name":"Nwora","position":"F","team_id":12,"weight_pounds":null},"pts":0,"reb":0,"stl":0,"team":{"id":17,"abbreviation":"MIL","city":"Milwaukee","conference":"East","division":"Central","full_name":"Milwaukee Bucks","name":"Bucks"},"turnover":0},{"id":11982890,"ast":0,"blk":0,"dreb":0,"fg3_pct":0,"fg3a":0,"fg3m":0,"fg_pct":0,"fga":0,"fgm":0,"ft_pct":0,"fta":0,"ftm":0,"game":{"id":850702,"date":"2022-05-13T00:00:00.000Z","home_team_id":17,"home_team_score":95,"period":4,"postseason":true,"season":2021,"status":"Final","time":"","visitor_team_id":2,"visitor_team_score":108},"min":"1:24","oreb":0,"pf":2,"player":{"id":666930,"first_name":"Rayjon","height_feet":null,"height_inches":null,"last_name":"Tucker","position":"F","team_id":17,"weight_pounds":null},"pts":0,"reb":0,"stl":0,"team":{"id":17,"abbreviation":"MIL","city":"Milwaukee","conference":"East","division":"Central","full_name":"Milwaukee Bucks","name":"Bucks"},"turnover":0},{"id":11982887,"ast":0,"blk":0,"dreb":0,"fg3_pct":0,"fg3a":0,"fg3m":0,"fg_pct":0,"fga":0,"fgm":0,"ft_pct":0,"fta":0,"ftm":0,"game":{"id":850702,"date":"2022-05-13T00:00:00.000Z","home_team_id":17,"home_team_score":95,"period":4,"postseason":true,"season":2021,"status":"Final","time":"","visitor_team_id":2,"visitor_team_score":108},"min":"0:00","oreb":0,"pf":0,"player":{"id":223,"first_name":"Serge","height_feet":6,"height_inches":10,"last_name":"Ibaka","position":"F-C","team_id":17,"weight_pounds":235},"pts":0,"reb":0,"stl":0,"team":{"id":17,"abbreviation":"MIL","city":"Milwaukee","conference":"East","division":"Central","full_name":"Milwaukee Bucks","name":"Bucks"},"turnover":0}],"meta":{"total_pages":2,"current_page":1,"next_page":2,"per_page":25,"total_count":27}}