{"data":[{"id":10177834,"ast":5,"blk":0,"dreb":5,"fg3_pct":0.4,"fg3a":5,"fg3m":2,"fg_pct":0.462,"fga":13,"fgm":6,"ft_pct":1,"fta":3,"ftm":3,"game":{"id":474216,"date":"2022-02-06T00:00:00.000Z","home_team_id":13,"home_team_score":113,"period":4,"postseason":false,"season":2021,"status":"Final","time":"","visitor_team_id":17,"visitor_team_score":137},"min":"32","oreb":1,"pf":3,"player":{"id":315,"first_name":"Khris","height_feet":6,"height_inches":8,"last_name":"Middleton","position":"F","team_id":17,"weight_pounds":222},"pts":17,"reb":6,"stl":1,"team":{"id":17,"abbreviation":"MIL","city":"Milwaukee","conference":"East","division":"Central","full_name":"Milwaukee Bucks","name":"Bucks"},"turnover":1},{"id":10177835,"ast":5,"blk":2,"dreb":8,"fg3_pct":0.667,"fg3a":3,"fg3m":2,"fg_pct":0.533,"fga":15,"fgm":8,"ft_pct":0.833,"fta":12,"ftm":10,"game":{"id":474216,"date":"2022-02-06T00:00:00.000Z","home_team_id":13,"home_team_score":113,"period":4,"postseason":false,"season":2021,"status":"Final","time":"","visitor_team_id":17,"visitor_team_score":137},"min":"31","oreb":2,"pf":2,"player":{"id":15,"first_name":"Giannis","height_feet":6,"height_inches":11,"last_name":"Antetokounmpo","position":"F","team_id":17,"weight_pounds":242},"pts":28,"reb":10,"stl":1,"team":{"id":17,"abbreviation":"MIL","city":"Milwaukee","conference":"East","division":"Central","full_name":"Milwaukee Bucks","name":"Bucks"},"turnover":2},{"id":10177836,"ast":1,"blk":0,"dreb":11,"fg3_pct":0.8,"fg3a":5,"fg3m":4,"fg_pct":0.667,"fga":12,"fgm":8,"ft_pct":1,"fta":4,"ftm":4,"game":{"id":474216,"date":"2022-02-06T00:00:00.000Z","home_team_id":13,"home_team_score":113,"period":4,"postseason":false,"season":2021,"status":"Final","time":"","visitor_team_id":17,"visitor_team_score":137},"min":"29","oreb":0,"pf":3,"player":{"id":377,"first_name":"Bobby","height_feet":6,"height_inches":11,"last_name":"Portis","position":"F","team_id":17,"weight_pounds":250},"pts":24,"reb":11,"stl":1,"team":{"id":17,"abbreviation":"MIL","city":"Milwaukee","conference":"East","division":"Central","full_name":"Milwaukee Bucks","name":"Bucks"},"turnover":0},{"id":10177837,"ast":0,"blk":0,"dreb":5,"fg3_pct":0.667,"fg3a":9,"fg3m":6,"fg_pct":0.667,"fga":9,"fgm":6,"ft_pct":null,"fta":0,"ftm":0,"game":{"id":474216,"date":"2022-02-06T00:00:00.000Z","home_team_id":13,"home_team_score":113,"period":4,"postseason":false,"season":2021,"status":"Final","time":"","visitor_team_id":17,"visitor_team_score":137},"min":"28","oreb":0,"pf":1,"player":{"id":105,"first_name":"Pat","height_feet":6,"height_inches":4,"last_name":"Connaughton","position":"G","team_id":17,"weight_pounds":209},"pts":18,"reb":5,"stl":0,"team":{"id":17,"abbreviation":"MIL","city":"Milwaukee","conference":"East","division":"Central","full_name":"Milwaukee Bucks","name":"Bucks"},"turnover":0},{"id":10177838,"ast":13,"blk":1,"dreb":5,"fg3_pct":0.4,"fg3a":5,"fg3m":2,"fg_pct":0.688,"fga":16,"fgm":11,"ft_pct":0.75,"fta":4,"ftm":3,"game":{"id":474216,"date":"2022-02-06T00:00:00.000Z","home_team_id":13,"home_team_score":113,"period":4,"postseason":false,"season":2021,"status":"Final","time":"","visitor_team_id":17,"visitor_team_score":137},"min":"36","oreb":0,"pf":1,"player":{"id":214,"first_name":"Jrue","height_feet":6,"height_inches":4,"last_name":"Holiday","position":"G","team_id":17,"weight_pounds":205},"pts":27,"reb":5,"stl":2,"team":{"id":17,"abbreviation":"MIL","city":"Milwaukee","conference":"East","division":"Central","full_name":"Milwaukee Bucks","name":"Bucks"},"turnover":2},{"id":10177843,"ast":0,"blk":0,"dreb":2,"fg3_pct":0.333,"fg3a":3,"fg3m":1,"fg_pct":0.333,"fga":3,"fgm":1,"ft_pct":null,"fta":0,"ftm":0,"game":{"id":474216,"date":"2022-02-06T00:00:00.000Z","home_team_id":13,"home_team_score":113,"period":4,"postseason":false,"season":2021,"status":"Final","time":"","visitor_team_id":17,"visitor_team_score":137},"min":"22","oreb":1,"pf":2,"player":{"id":301,"first_name":"Wesley","height_feet":null,"height_inches":null,"last_name":"Matthews","position":"G-F","team_id":17,"weight_pounds":null},"pts":3,"reb":3,"stl":0,"team":{"id":17,"abbreviation":"MIL","city":"Milwaukee","conference":"East","division":"Central","full_name":"Milwaukee Bucks","name":"Bucks"},"turnover":0},{"id":10177840,"ast":1,"blk":0,"dreb":3,"fg3_pct":0.4,"fg3a":5,"fg3m":2,"fg_pct":0.429,"fga":7,"fgm":3,"ft_pct":0.5,"fta":2,"ftm":1,"game":{"id":474216,"date":"2022-02-06T00:00:00.000Z","home_team_id":13,"home_team_score":113,"period":4,"postseason":false,"season":2021,"status":"Final","time":"","visitor_team_id":17,"visitor_team_score":137},"min":"21","oreb":0,"pf":0,"player":{"id":131,"first_name":"Donte","height_feet":6,"height_inches":4,"last_name":"DiVincenzo","position":"G","team_id":10,"weight_pounds":203},"pts":9,"reb":3,"stl":0,"team":{"id":17,"abbreviation":"MIL","city":"Milwaukee","conference":"East","division":"Central","full_name":"Milwaukee Bucks","name":"Bucks"},"turnover":3},{"id":10177844,"ast":2,"blk":0,"dreb":2,"fg3_pct":0,"fg3a":1,"fg3m":0,"fg_pct":0.25,"fga":4,"fgm":1,"ft_pct":null,"fta":0,"ftm":0,"game":{"id":474216,"date":"2022-02-06T00:00:00.000Z","home_team_id":13,"home_team_score":113,"period":4,"postseason":false,"season":2021,"status":"Final","time":"","visitor_team_id":17,"visitor_team_score":137},"min":"12","oreb":1,"pf":1,"player":{"id":3547207,"first_name":"Jordan","height_feet":null,"height_inches":null,"last_name":"Nwora","position":"F","team_id":12,"weight_pounds":null},"pts":2,"reb":3,"stl":0,"team":{"id":17,"abbreviation":"MIL","city":"Milwaukee","conference":"East","division":"Central","full_name":"Milwaukee Bucks","name":"Bucks"},"turnover":1},{"id":10177841,"ast":0,"blk":1,"dreb":0,"fg3_pct":0,"fg3a":2,"fg3m":0,"fg_pct":0,"fga":3,"fgm":0,"ft_pct":0,"fta":0,"ftm":0,"game":{"id":474216,"date":"2022-02-06T00:00:00.000Z","home_team_id":13,"home_team_score":113,"period":4,"postseason":false,"season":2021,"status":"Final","time":"","visitor_team_id":17,"visitor_team_score":137},"min":"13:37","oreb":0,"pf":1,"player":{"id":218,"first_name":"Rodney","height_feet":6,"height_inches":8,"last_name":"Hood","position":"G","team_id":13,"weight_pounds":206},"pts":0,"reb":0,"stl":1,"team":{"id":17,"abbreviation":"MIL","city":"Milwaukee","conference":"East","division":"Central","full_name":"Milwaukee Bucks","name":"Bucks"},"turnover":0},{"id":10177846,"ast":0,"blk":0,"dreb":0,"fg3_pct":0,"fg3a":0,"fg3m":0,"fg_pct":0,"fga":0,"fgm":0,"ft_pct":0,"fta":0,"ftm":0,"game":{"id":474216,"date":"2022-02-06T00:00:00.000Z","home_team_id":13,"home_team_score":113,"period":4,"postseason":false,"season":2021,"status":"Final","time":"","visitor_team_id":17,"visitor_team_score":137},"min":"0:36","oreb":0,"pf":0,"player":{"id":666960,"first_name":"Lindell","height_feet":null,"height_inches":null,"last_name":"Wigginton","position":"G","team_id":17,"weight_pounds":null},"pts":0,"reb":0,"stl":0,"team":{"id":17,"abbreviation":"MIL","city":"Milwaukee","conference":"East","division":"Central","full_name":"Milwaukee Bucks","name":"Bucks"},"turnover":0},{"id":10177839,"ast":0,"blk":0,"dreb":0,"fg3_pct":0,"fg3a":0,"fg3m":0,"fg_pct":0,"fga":0,"fgm":0,"ft_pct":0,"fta":0,"ftm":0,"game":{"id":474216,"date":"2022-02-06T00:00:00.000Z","home_team_id":13,"home_team_score":113,"period":4,"postseason":false,"season":2021,"status":"Final","time":"","visitor_team_id":17,"visitor_team_score":137},"min":"0:00","oreb":0,"pf":0,"player":{"id":2148,"first_name":"Thanasis","height_feet":null,"height_inches":null,"last_name":"Antetokounmpo","position":"","team_id":17,"weight_pounds":null},"pts":0,"reb":0,"stl":0,"team":{"id":17,"abbreviation":"MIL","city":"Milwaukee","conference":"East","division":"Central","full_name":"Milwaukee Bucks","name":"Bucks"},"turnover":0},{"id":10177842,"ast":0,"blk":0,"dreb":0,"fg3_pct":0,"fg3a":0,"fg3m":0,"fg_pct":0,"fga":0,"fgm":0,"ft_pct":0,"fta":0,"ftm":0,"game":{"id":474216,"date":"2022-02-06T00:00:00.000Z","home_team_id":13,"home_team_score":113,"period":4,"postseason":false,"season":2021,"status":"Final","time":"","visitor_team_id":17,"visitor_team_score":137},"min":"0:00","oreb":0,"pf":0,"player":{"id":17896059,"first_name":"Sandro","height_feet":null,"height_inches":null,"last_name":"Mamukelashvili","position":"F","team_id":27,"weight_pounds":null},"pts":0,"reb":0,"stl":0,"team":{"id":17,"abbreviation":"MIL","city":"Milwaukee","conference":"East","division":"Central","full_name":"Milwaukee Bucks","name":"Bucks"},"turnover":0},{"id":10177845,"ast":0,"blk":0,"dreb":0,"fg3_pct":0,"fg3a":0,"fg3m":0,"fg_pct":0,"fga":0,"fgm":0,"ft_pct":0,"fta":0,"ftm":0,"game":{"id":474216,"date":"2022-02-06T00:00:00.000Z","home_team_id":13,"home_team_score":113,"period":4,"postseason":false,"season":2021,"status":"Final","time":"","visitor_team_id":17,"visitor_team_score":137},"min":"0:00","oreb":0,"pf":0,"player":{"id":353,"first_name":"Semi","height_feet":6,"height_inches":7,"last_name":"Ojeleye","position":"F","team_id":13,"weight_pounds":241},"pts":0,"reb":0,"stl":0,"team":{"id":17,"abbreviation":"MIL","city":"Milwaukee","conference":"East","division":"Central","full_name":"Milwaukee Bucks","name":"Bucks"},"turnover":0},{"id":10178819,"ast":1,"blk":0,"dreb":2,"fg3_pct":null,"fg3a":0,"fg3m":0,"fg_pct":0.667,"fga":6,"fgm":4,"ft_pct":0.5,"fta":2,"ftm":1,"game":{"id":474216,"date":"2022-02-06T00:00:00.000Z","home_team_id":13,"home_team_score":113,"period":4,"postseason":false,"season":2021,"status":"Final","time":"","visitor_team_id":17,"visitor_team_score":137},"min":"14","oreb":2,"pf":1,"player":{"id":325,"first_name":"Greg","height_feet":null,"height_inches":null,"last_name":"Monroe","position":"C","team_id":18,"weight_pounds":null},"pts":9,"reb":4,"stl":0,"team":{"id":17,"abbreviation":"MIL","city":"Milwaukee","conference":"East","division":"Central","full_name":"Milwaukee Bucks","name":"Bucks"},"turnover":1},{"id":10177847,"ast":1,"blk":0,"dreb":4,"fg3_pct":0,"fg3a":3,"fg3m":0,"fg_pct":0.2,"fga":5,"fgm":1,"ft_pct":null,"fta":0,"ftm":0,"game":{"id":474216,"date":"2022-02-06T00:00:00.000Z","home_team_id":13,"home_team_score":113,"period":4,"postseason":false,"season":2021,"status":"Final","time":"","visitor_team_id":17,"visitor_team_score":137},"min":"16","oreb":0,"pf":2,"player":{"id":33,"first_name":"Nicolas","height_feet":6,"height_inches":8,"last_name":"Batum","position":"F-G","team_id":13,"weight_pounds":200},"pts":2,"reb":4,"stl":0,"team":{"id":13,"abbreviation":"LAC","city":"LA","conference":"West","division":"Pacific","full_name":"LA Clippers","name":"Clippers"},"turnover":0},{"id":10177848,"ast":4,"blk":0,"dreb":6,"fg3_pct":0.625,"fg3a":8,"fg3m":5,"fg_pct":0.467,"fga":15,"fgm":7,"ft_pct":1,"fta":1,"ftm":1,"game":{"id":474216,"date":"2022-02-06T00:00:00.000Z","home_team_id":13,"home_team_score":113,"period":4,"postseason":false,"season":2021,"status":"Final","time":"","visitor_team_id":17,"visitor_team_score":137},"min":"30","oreb":2,"pf":3,"player":{"id":328,"first_name":"Marcus","height_feet":6,"height_inches":9,"last_name":"Morris","position":"F","team_id":13,"weight_pounds":235},"pts":20,"reb":8,"stl":1,"team":{"id":13,"abbreviation":"LAC","city":"LA","conference":"West","division":"Pacific","full_name":"LA Clippers","name":"Clippers"},"turnover":3},{"id":10177849,"ast":1,"blk":1,"dreb":5,"fg3_pct":null,"fg3a":0,"fg3m":0,"fg_pct":0.6,"fga":5,"fgm":3,"ft_pct":1,"fta":4,"ftm":4,"game":{"id":474216,"date":"2022-02-06T00:00:00.000Z","home_team_id":13,"home_team_score":113,"period":4,"postseason":false,"season":2021,"status":"Final","time":"","visitor_team_id":17,"visitor_team_score":137},"min":"19","oreb":0,"pf":2,"player":{"id":493,"first_name":"Ivica","height_feet":7,"height_inches":1,"last_name":"Zubac","position":"C","team_id":13,"weight_pounds":240},"pts":10,"reb":5,"stl":0,"team":{"id":13,"abbreviation":"LAC","city":"LA","conference":"West","division":"Pacific","full_name":"LA Clippers","name":"Clippers"},"turnover":1},{"id":10177850,"ast":0,"blk":0,"dreb":1,"fg3_pct":0.333,"fg3a":6,"fg3m":2,"fg_pct":0.364,"fga":11,"fgm":4,"ft_pct":null,"fta":0,"ftm":0,"game":{"id":474216,"date":"2022-02-06T00:00:00.000Z","home_team_id":13,"home_team_score":113,"period":4,"postseason":false,"season":2021,"status":"Final","time":"","visitor_team_id":17,"visitor_team_score":137},"min":"25","oreb":1,"pf":1,"player":{"id":666511,"first_name":"Amir","height_feet":null,"height_inches":null,"last_name":"Coffey","position":"G","team_id":13,"weight_pounds":null},"pts":10,"reb":2,"stl":0,"team":{"id":13,"abbreviation":"LAC","city":"LA","conference":"West","division":"Pacific","full_name":"LA Clippers","name":"Clippers"},"turnover":1},{"id":10177851,"ast":5,"blk":0,"dreb":1,"fg3_pct":0.4,"fg3a":5,"fg3m":2,"fg_pct":0.25,"fga":12,"fgm":3,"ft_pct":1,"fta":2,"ftm":2,"game":{"id":474216,"date":"2022-02-06T00:00:00.000Z","home_team_id":13,"home_team_score":113,"period":4,"postseason":false,"season":2021,"status":"Final","time":"","visitor_team_id":17,"visitor_team_score":137},"min":"25","oreb":1,"pf":2,"player":{"id":236,"first_name":"Reggie","height_feet":6,"height_inches":3,"last_name":"Jackson","position":"G","team_id":8,"weight_pounds":208},"pts":10,"reb":2,"stl":0,"team":{"id":13,"abbreviation":"LAC","city":"LA","conference":"West","division":"Pacific","full_name":"LA Clippers","name":"Clippers"},"turnover":1},{"id":10177855,"ast":1,"blk":1,"dreb":6,"fg3_pct":1,"fg3a":1,"fg3m":1,"fg_pct":0.6,"fga":5,"fgm":3,"ft_pct":null,"fta":0,"ftm":0,"game":{"id":474216,"date":"2022-02-06T00:00:00.000Z","home_team_id":13,"home_team_score":113,"period":4,"postseason":false,"season":2021,"status":"Final","time":"","visitor_team_id":17,"visitor_team_score":137},"min":"19","oreb":1,"pf":1,"player":{"id":223,"first_name":"Serge","height_feet":6,"height_inches":10,"last_name":"Ibaka","position":"F-C","team_id":17,"weight_pounds":235},"pts":7,"reb":7,"stl":0,"team":{"id":13,"abbreviation":"LAC","city":"LA","conference":"West","division":"Pacific","full_name":"LA Clippers","name":"Clippers"},"turnover":0},{"id":10177852,"ast":0,"blk":0,"dreb":0,"fg3_pct":0,"fg3a":1,"fg3m":0,"fg_pct":0.5,"fga":2,"fgm":1,"ft_pct":null,"fta":0,"ftm":0,"game":{"id":474216,"date":"2022-02-06T00:00:00.000Z","home_team_id":13,"home_team_score":113,"period":4,"postseason":false,"season":2021,"status":"Final","time":"","visitor_team_id":17,"visitor_team_score":137},"min":"4","oreb":0,"pf":0,"player":{"id":17896022,"first_name":"Brandon","height_feet":null,"height_inches":null,"last_name":"Boston Jr.","position":"G","team_id":13,"weight_pounds":null},"pts":2,"reb":0,"stl":0,"team":{"id":13,"abbreviation":"LAC","city":"LA","conference":"West","division":"Pacific","full_name":"LA Clippers","name":"Clippers"},"turnover":0},{"id":10177856,"ast":3,"blk":0,"dreb":1,"fg3_pct":0.167,"fg3a":6,"fg3m":1,"fg_pct":0.25,"fga":8,"fgm":2,"ft_pct":null,"fta":0,"ftm":0,"game":{"id":474216,"date":"2022-02-06T00:00:00.000Z","home_team_id":13,"home_team_score":113,"period":4,"postseason":false,"season":2021,"status":"Final","time":"","visitor_team_id":17,"visitor_team_score":137},"min":"22","oreb":1,"pf":1,"player":{"id":254,"first_name":"Luke","height_feet":6,"height_inches":5,"last_name":"Kennard","position":"G","team_id":15,"weight_pounds":206},"pts":5,"reb":2,"stl":2,"team":{"id":13,"abbreviation":"LAC","city":"LA","conference":"West","division":"Pacific","full_name":"LA Clippers","name":"Clippers"},"turnover":0},{"id":10177858,"ast":4,"blk":0,"dreb":1,"fg3_pct":0.5,"fg3a":8,"fg3m":4,"fg_pct":0.563,"fga":16,"fgm":9,"ft_pct":0.857,"fta":7,"ftm":6,"game":{"id":474216,"date":"2022-02-06T00:00:00.000Z","home_team_id":13,"home_team_score":113,"period":4,"postseason":false,"season":2021,"status":"Final","time":"","visitor_team_id":17,"visitor_team_score":137},"min":"24","oreb":0,"pf":4,"player":{"id":380,"first_name":"Norman","height_feet":6,"height_inches":4,"last_name":"Powell","position":"F-G","team_id":13,"weight_pounds":215},"pts":28,"reb":1,"stl":0,"team":{"id":13,"abbreviation":"LAC","city":"LA","conference":"West","division":"Pacific","full_name":"LA Clippers","name":"Clippers"},"turnover":1},{"id":10177857,"ast":5,"blk":0,"dreb":6,"fg3_pct":0,"fg3a":2,"fg3m":0,"fg_pct":0.375,"fga":8,"fgm":3,"ft_pct":null,"fta":0,"ftm":0,"game":{"id":474216,"date":"2022-02-06T00:00:00.000Z","home_team_id":13,"home_team_score":113,"period":4,"postseason":false,"season":2021,"status":"Final","time":"","visitor_team_id":17,"visitor_team_score":137},"min":"25","oreb":1,"pf":0,"player":{"id":666743,"first_name":"Terance","height_feet":null,"height_inches":null,"last_name":"Mann","position":"G","team_id":13,"weight_pounds":null},"pts":6,"reb":7,"stl":2,"team":{"id":13,"abbreviation":"LAC","city":"LA","conference":"West","division":"Pacific","full_name":"LA Clippers","name":"Clippers"},"turnover":0},{"id":10177853,"ast":0,"blk":0,"dreb":2,"fg3_pct":0.5,"fg3a":6,"fg3m":3,"fg_pct":0.571,"fga":7,"fgm":4,"ft_pct":1,"fta":2,"ftm":2,"game":{"id":474216,"date":"2022-02-06T00:00:00.000Z","home_team_id":13,"home_team_score":113,"period":4,"postseason":false,"season":2021,"status":"Final","time":"","visitor_team_id":17,"visitor_team_score":137},"min":"23","oreb":2,"pf":3,"player":{"id":108,"first_name":"Robert","height_feet":6,"height_inches":9,"last_name":"Covington","position":"F","team_id":13,"weight_pounds":225},"pts":13,"reb":4,"stl":1,"team":{"id":13,"abbreviation":"LAC","city":"LA","conference":"West","division":"Pacific","full_name":"LA Clippers","name":"Clippers"},"turnover":2}],"meta":{"total_pages":2,"current_page":1,"next_page":2,"per_page":25,"total_count":26}}