{"data":[{"id":11911002,"ast":7,"blk":1,"dreb":8,"fg3_pct":0.25,"fg3a":4,"fg3m":1,"fg_pct":0.407,"fga":27,"fgm":11,"ft_pct":0.556,"fta":9,"ftm":5,"game":{"id":845520,"date":"2022-05-03T00:00:00.000Z","home_team_id":2,"home_team_score":109,"period":4,"postseason":true,"season":2021,"status":"Final","time":"","visitor_team_id":17,"visitor_team_score":86},"min":"38","oreb":1,"pf":3,"player":{"id":15,"first_name":"Giannis","height_feet":6,"height_inches":11,"last_name":"Antetokounmpo","position":"F","team_id":17,"weight_pounds":242},"pts":28,"reb":9,"stl":1,"team":{"id":17,"abbreviation":"MIL","city":"Milwaukee","conference":"East","division":"Central","full_name":"Milwaukee Bucks","name":"Bucks"},"turnover":6},{"id":11911003,"ast":0,"blk":3,"dreb":4,"fg3_pct":null,"fg3a":0,"fg3m":0,"fg_pct":0.5,"fga":2,"fgm":1,"ft_pct":null,"fta":0,"ftm":0,"game":{"id":845520,"date":"2022-05-03T00:00:00.000Z","home_team_id":2,"home_team_score":109,"period":4,"postseason":true,"season":2021,"status":"Final","time":"","visitor_team_id":17,"visitor_team_score":86},"min":"25","oreb":2,"pf":5,"player":{"id":283,"first_name":"Brook","height_feet":7,"height_inches":0,"last_name":"Lopez","position":"C","team_id":17,"weight_pounds":270},"pts":2,"reb":6,"stl":0,"team":{"id":17,"abbreviation":"MIL","city":"Milwaukee","conference":"East","division":"Central","full_name":"Milwaukee Bucks","name":"Bucks"},"turnover":1},{"id":11911004,"ast":0,"blk":0,"dreb":4,"fg3_pct":0,"fg3a":1,"fg3m":0,"fg_pct":0.5,"fga":2,"fgm":1,"ft_pct":1,"fta":2,"ftm":2,"game":{"id":845520,"date":"2022-05-03T00:00:00.000Z","home_team_id":2,"home_team_score":109,"period":4,"postseason":true,"season":2021,"status":"Final","time":"","visitor_team_id":17,"visitor_team_score":86},"min":"30","oreb":0,"pf":1,"player":{"id":301,"first_name":"Wesley","height_feet":null,"height_inches":null,"last_name":"Matthews","position":"G-F","team_id":17,"weight_pounds":null},"pts":4,"reb":4,"stl":0,"team":{"id":17,"abbreviation":"MIL","city":"Milwaukee","conference":"East","division":"Central","full_name":"Milwaukee Bucks","name":"Bucks"},"turnover":0},{"id":11911005,"ast":7,"blk":0,"dreb":3,"fg3_pct":0.167,"fg3a":6,"fg3m":1,"fg_pct":0.35,"fga":20,"fgm":7,"ft_pct":1,"fta":4,"ftm":4,"game":{"id":845520,"date":"2022-05-03T00:00:00.000Z","home_team_id":2,"home_team_score":109,"period":4,"postseason":true,"season":2021,"status":"Final","time":"","visitor_team_id":17,"visitor_team_score":86},"min":"40","oreb":1,"pf":2,"player":{"id":214,"first_name":"Jrue","height_feet":6,"height_inches":4,"last_name":"Holiday","position":"G","team_id":17,"weight_pounds":205},"pts":19,"reb":4,"stl":2,"team":{"id":17,"abbreviation":"MIL","city":"Milwaukee","conference":"East","division":"Central","full_name":"Milwaukee Bucks","name":"Bucks"},"turnover":3},{"id":11911006,"ast":1,"blk":1,"dreb":2,"fg3_pct":0,"fg3a":1,"fg3m":0,"fg_pct":0.5,"fga":4,"fgm":2,"ft_pct":0.333,"fta":3,"ftm":1,"game":{"id":845520,"date":"2022-05-03T00:00:00.000Z","home_team_id":2,"home_team_score":109,"period":4,"postseason":true,"season":2021,"status":"Final","time":"","visitor_team_id":17,"visitor_team_score":86},"min":"28","oreb":0,"pf":1,"player":{"id":8,"first_name":"Grayson","height_feet":6,"height_inches":5,"last_name":"Allen","position":"G","team_id":17,"weight_pounds":198},"pts":5,"reb":2,"stl":0,"team":{"id":17,"abbreviation":"MIL","city":"Milwaukee","conference":"East","division":"Central","full_name":"Milwaukee Bucks","name":"Bucks"},"turnover":0},{"id":11911019,"ast":0,"blk":0,"dreb":1,"fg3_pct":0,"fg3a":0,"fg3m":0,"fg_pct":0,"fga":1,"fgm":0,"ft_pct":0,"fta":0,"ftm":0,"game":{"id":845520,"date":"2022-05-03T00:00:00.000Z","home_team_id":2,"home_team_score":109,"period":4,"postseason":true,"season":2021,"status":"Final","time":"","visitor_team_id":17,"visitor_team_score":86},"min":"1:52","oreb":0,"pf":0,"player":{"id":9338307,"first_name":"Malik","height_feet":null,"height_inches":null,"last_name":"Fitts","position":"F","team_id":2,"weight_pounds":null},"pts":0,"reb":1,"stl":0,"team":{"id":2,"abbreviation":"BOS","city":"Boston","conference":"East","division":"Atlantic","full_name":"Boston Celtics","name":"Celtics"},"turnover":0},{"id":11911020,"ast":0,"blk":0,"dreb":1,"fg3_pct":0,"fg3a":1,"fg3m":0,"fg_pct":0,"fga":1,"fgm":0,"ft_pct":1,"fta":2,"ftm":2,"game":{"id":845520,"date":"2022-05-03T00:00:00.000Z","home_team_id":2,"home_team_score":109,"period":4,"postseason":true,"season":2021,"status":"Final","time":"","visitor_team_id":17,"visitor_team_score":86},"min":"2","oreb":0,"pf":0,"player":{"id":17896060,"first_name":"Sam","height_feet":null,"height_inches":null,"last_name":"Hauser","position":"F","team_id":2,"weight_pounds":null},"pts":2,"reb":1,"stl":0,"team":{"id":2,"abbreviation":"BOS","city":"Boston","conference":"East","division":"Atlantic","full_name":"Boston Celtics","name":"Celtics"},"turnover":0},{"id":11911009,"ast":0,"blk":0,"dreb":1,"fg3_pct":0.5,"fg3a":2,"fg3m":1,"fg_pct":0.857,"fga":7,"fgm":6,"ft_pct":null,"fta":0,"ftm":0,"game":{"id":845520,"date":"2022-05-03T00:00:00.000Z","home_team_id":2,"home_team_score":109,"period":4,"postseason":true,"season":2021,"status":"Final","time":"","visitor_team_id":17,"visitor_team_score":86},"min":"25","oreb":0,"pf":1,"player":{"id":105,"first_name":"Pat","height_feet":6,"height_inches":4,"last_name":"Connaughton","position":"G","team_id":17,"weight_pounds":209},"pts":13,"reb":1,"stl":0,"team":{"id":17,"abbreviation":"MIL","city":"Milwaukee","conference":"East","division":"Central","full_name":"Milwaukee Bucks","name":"Bucks"},"turnover":1},{"id":11911008,"ast":1,"blk":0,"dreb":1,"fg3_pct":null,"fg3a":0,"fg3m":0,"fg_pct":1,"fga":1,"fgm":1,"ft_pct":null,"fta":0,"ftm":0,"game":{"id":845520,"date":"2022-05-03T00:00:00.000Z","home_team_id":2,"home_team_score":109,"period":4,"postseason":true,"season":2021,"status":"Final","time":"","visitor_team_id":17,"visitor_team_score":86},"min":"19","oreb":0,"pf":3,"player":{"id":87,"first_name":"Jevon","height_feet":6,"height_inches":2,"last_name":"Carter","position":"G","team_id":17,"weight_pounds":196},"pts":2,"reb":1,"stl":1,"team":{"id":17,"abbreviation":"MIL","city":"Milwaukee","conference":"East","division":"Central","full_name":"Milwaukee Bucks","name":"Bucks"},"turnover":3},{"id":11911013,"ast":0,"blk":0,"dreb":0,"fg3_pct":0,"fg3a":1,"fg3m":0,"fg_pct":0,"fga":1,"fgm":0,"ft_pct":0,"fta":0,"ftm":0,"game":{"id":845520,"date":"2022-05-03T00:00:00.000Z","home_team_id":2,"home_team_score":109,"period":4,"postseason":true,"season":2021,"status":"Final","time":"","visitor_team_id":17,"visitor_team_score":86},"min":"1:52","oreb":0,"pf":0,"player":{"id":11314392,"first_name":"Luca","height_feet":null,"height_inches":null,"last_name":"Vildoza","position":"G","team_id":17,"weight_pounds":null},"pts":0,"reb":0,"stl":0,"team":{"id":17,"abbreviation":"MIL","city":"Milwaukee","conference":"East","division":"Central","full_name":"Milwaukee Bucks","name":"Bucks"},"turnover":0},{"id":11911011,"ast":0,"blk":0,"dreb":1,"fg3_pct":0,"fg3a":0,"fg3m":0,"fg_pct":0,"fga":0,"fgm":0,"ft_pct":0,"fta":2,"ftm":0,"game":{"id":845520,"date":"2022-05-03T00:00:00.000Z","home_team_id":2,"home_team_score":109,"period":4,"postseason":true,"season":2021,"status":"Final","time":"","visitor_team_id":17,"visitor_team_score":86},"min":"1:52","oreb":0,"pf":0,"player":{"id":3547207,"first_name":"Jordan","height_feet":null,"height_inches":null,"last_name":"Nwora","position":"F","team_id":12,"weight_pounds":null},"pts":0,"reb":1,"stl":0,"team":{"id":17,"abbreviation":"MIL","city":"Milwaukee","conference":"East","division":"Central","full_name":"Milwaukee Bucks","name":"Bucks"},"turnover":0},{"id":11911010,"ast":0,"blk":0,"dreb":0,"fg3_pct":0,"fg3a":1,"fg3m":0,"fg_pct":0,"fga":2,"fgm":0,"ft_pct":0,"fta":0,"ftm":0,"game":{"id":845520,"date":"2022-05-03T00:00:00.000Z","home_team_id":2,"home_team_score":109,"period":4,"postseason":true,"season":2021,"status":"Final","time":"","visitor_team_id":17,"visitor_team_score":86},"min":"1:52","oreb":0,"pf":0,"player":{"id":223,"first_name":"Serge","height_feet":6,"height_inches":10,"last_name":"Ibaka","position":"F-C","team_id":17,"weight_pounds":235},"pts":0,"reb":0,"stl":0,"team":{"id":17,"abbreviation":"MIL","city":"Milwaukee","conference":"East","division":"Central","full_name":"Milwaukee Bucks","name":"Bucks"},"turnover":0},{"id":11911007,"ast":0,"blk":0,"dreb":0,"fg3_pct":0,"fg3a":0,"fg3m":0,"fg_pct":0,"fga":0,"fgm":0,"ft_pct":0,"fta":0,"ftm":0,"game":{"id":845520,"date":"2022-05-03T00:00:00.000Z","home_team_id":2,"home_team_score":109,"period":4,"postseason":true,"season":2021,"status":"Final","time":"","visitor_team_id":17,"visitor_team_score":86},"min":"1:52","oreb":0,"pf":1,"player":{"id":2148,"first_name":"Thanasis","height_feet":null,"height_inches":null,"last_name":"Antetokounmpo","position":"","team_id":17,"weight_pounds":null},"pts":0,"reb":0,"stl":0,"team":{"id":17,"abbreviation":"MIL","city":"Milwaukee","conference":"East","division":"Central","full_name":"Milwaukee Bucks","name":"Bucks"},"turnover":0},{"id":11911012,"ast":0,"blk":0,"dreb":1,"fg3_pct":0,"fg3a":0,"fg3m":0,"fg_pct":0,"fga":0,"fgm":0,"ft_pct":0,"fta":0,"ftm":0,"game":{"id":845520,"date":"2022-05-03T00:00:00.000Z","home_team_id":2,"home_team_score":109,"period":4,"postseason":true,"season":2021,"status":"Final","time":"","visitor_team_id":17,"visitor_team_score":86},"min":"1:52","oreb":0,"pf":0,"player":{"id":666930,"first_name":"Rayjon","height_feet":null,"height_inches":null,"last_name":"Tucker","position":"F","team_id":17,"weight_pounds":null},"pts":0,"reb":1,"stl":0,"team":{"id":17,"abbreviation":"MIL","city":"Milwaukee","conference":"East","division":"Central","full_name":"Milwaukee Bucks","name":"Bucks"},"turnover":0},{"id":11911014,"ast":8,"blk":1,"dreb":2,"fg3_pct":0.5,"fg3a":10,"fg3m":5,"fg_pct":0.5,"fga":20,"fgm":10,"ft_pct":0.8,"fta":5,"ftm":4,"game":{"id":845520,"date":"2022-05-03T00:00:00.000Z","home_team_id":2,"home_team_score":109,"period":4,"postseason":true,"season":2021,"status":"Final","time":"","visitor_team_id":17,"visitor_team_score":86},"min":"43","oreb":1,"pf":3,"player":{"id":434,"first_name":"Jayson","height_feet":6,"height_inches":8,"last_name":"Tatum","position":"F","team_id":2,"weight_pounds":208},"pts":29,"reb":3,"stl":3,"team":{"id":2,"abbreviation":"BOS","city":"Boston","conference":"East","division":"Atlantic","full_name":"Boston Celtics","name":"Celtics"},"turnover":4},{"id":11911015,"ast":3,"blk":1,"dreb":11,"fg3_pct":0.2,"fg3a":5,"fg3m":1,"fg_pct":0.444,"fga":9,"fgm":4,"ft_pct":1,"fta":2,"ftm":2,"game":{"id":845520,"date":"2022-05-03T00:00:00.000Z","home_team_id":2,"home_team_score":109,"period":4,"postseason":true,"season":2021,"status":"Final","time":"","visitor_team_id":17,"visitor_team_score":86},"min":"37","oreb":0,"pf":5,"player":{"id":219,"first_name":"Al","height_feet":6,"height_inches":10,"last_name":"Horford","position":"C-F","team_id":2,"weight_pounds":245},"pts":11,"reb":11,"stl":4,"team":{"id":2,"abbreviation":"BOS","city":"Boston","conference":"East","division":"Atlantic","full_name":"Boston Celtics","name":"Celtics"},"turnover":1},{"id":11911016,"ast":1,"blk":2,"dreb":2,"fg3_pct":null,"fg3a":0,"fg3m":0,"fg_pct":0.8,"fga":5,"fgm":4,"ft_pct":1,"fta":2,"ftm":2,"game":{"id":845520,"date":"2022-05-03T00:00:00.000Z","home_team_id":2,"home_team_score":109,"period":4,"postseason":true,"season":2021,"status":"Final","time":"","visitor_team_id":17,"visitor_team_score":86},"min":"25","oreb":2,"pf":5,"player":{"id":476,"first_name":"Robert","height_feet":6,"height_inches":10,"last_name":"Williams III","position":"C-F","team_id":2,"weight_pounds":240},"pts":10,"reb":4,"stl":0,"team":{"id":2,"abbreviation":"BOS","city":"Boston","conference":"East","division":"Atlantic","full_name":"Boston Celtics","name":"Celtics"},"turnover":1},{"id":11911017,"ast":6,"blk":1,"dreb":4,"fg3_pct":0.6,"fg3a":10,"fg3m":6,"fg_pct":0.611,"fga":18,"fgm":11,"ft_pct":1,"fta":2,"ftm":2,"game":{"id":845520,"date":"2022-05-03T00:00:00.000Z","home_team_id":2,"home_team_score":109,"period":4,"postseason":true,"season":2021,"status":"Final","time":"","visitor_team_id":17,"visitor_team_score":86},"min":"38","oreb":2,"pf":1,"player":{"id":70,"first_name":"Jaylen","height_feet":6,"height_inches":7,"last_name":"Brown","position":"G","team_id":2,"weight_pounds":220},"pts":30,"reb":6,"stl":2,"team":{"id":2,"abbreviation":"BOS","city":"Boston","conference":"East","division":"Atlantic","full_name":"Boston Celtics","name":"Celtics"},"turnover":2},{"id":11911018,"ast":5,"blk":0,"dreb":3,"fg3_pct":0,"fg3a":4,"fg3m":0,"fg_pct":0,"fga":6,"fgm":0,"ft_pct":0,"fta":0,"ftm":0,"game":{"id":845520,"date":"2022-05-03T00:00:00.000Z","home_team_id":2,"home_team_score":109,"period":4,"postseason":true,"season":2021,"status":"Final","time":"","visitor_team_id":17,"visitor_team_score":86},"min":"28:27","oreb":1,"pf":5,"player":{"id":473,"first_name":"Derrick","height_feet":6,"height_inches":4,"last_name":"White","position":"G","team_id":2,"weight_pounds":190},"pts":0,"reb":4,"stl":1,"team":{"id":2,"abbreviation":"BOS","city":"Boston","conference":"East","division":"Atlantic","full_name":"Boston Celtics","name":"Celtics"},"turnover":2},{"id":11911027,"ast":2,"blk":0,"dreb":4,"fg3_pct":0.667,"fg3a":9,"fg3m":6,"fg_pct":0.5,"fga":14,"fgm":7,"ft_pct":0.5,"fta":2,"ftm":1,"game":{"id":845520,"date":"2022-05-03T00:00:00.000Z","home_team_id":2,"home_team_score":109,"period":4,"postseason":true,"season":2021,"status":"Final","time":"","visitor_team_id":17,"visitor_team_score":86},"min":"35","oreb":1,"pf":2,"player":{"id":666965,"first_name":"Grant","height_feet":null,"height_inches":null,"last_name":"Williams","position":"F","team_id":2,"weight_pounds":null},"pts":21,"reb":5,"stl":0,"team":{"id":2,"abbreviation":"BOS","city":"Boston","conference":"East","division":"Atlantic","full_name":"Boston Celtics","name":"Celtics"},"turnover":0},{"id":11911024,"ast":3,"blk":0,"dreb":3,"fg3_pct":0.5,"fg3a":4,"fg3m":2,"fg_pct":0.333,"fga":6,"fgm":2,"ft_pct":null,"fta":0,"ftm":0,"game":{"id":845520,"date":"2022-05-03T00:00:00.000Z","home_team_id":2,"home_team_score":109,"period":4,"postseason":true,"season":2021,"status":"Final","time":"","visitor_team_id":17,"visitor_team_score":86},"min":"24","oreb":0,"pf":1,"player":{"id":3547276,"first_name":"Payton","height_feet":null,"height_inches":null,"last_name":"Pritchard","position":"G","team_id":2,"weight_pounds":null},"pts":6,"reb":3,"stl":0,"team":{"id":2,"abbreviation":"BOS","city":"Boston","conference":"East","division":"Atlantic","full_name":"Boston Celtics","name":"Celtics"},"turnover":1},{"id":11911025,"ast":0,"blk":0,"dreb":0,"fg3_pct":0,"fg3a":0,"fg3m":0,"fg_pct":0,"fga":0,"fgm":0,"ft_pct":0,"fta":0,"ftm":0,"game":{"id":845520,"date":"2022-05-03T00:00:00.000Z","home_team_id":2,"home_team_score":109,"period":4,"postseason":true,"season":2021,"status":"Final","time":"","visitor_team_id":17,"visitor_team_score":86},"min":"1:52","oreb":0,"pf":0,"player":{"id":429,"first_name":"Nik","height_feet":6,"height_inches":6,"last_name":"Stauskas","position":"G","team_id":2,"weight_pounds":205},"pts":0,"reb":0,"stl":0,"team":{"id":2,"abbreviation":"BOS","city":"Boston","conference":"East","division":"Atlantic","full_name":"Boston Celtics","name":"Celtics"},"turnover":0},{"id":11911023,"ast":0,"blk":0,"dreb":1,"fg3_pct":0,"fg3a":0,"fg3m":0,"fg_pct":0,"fga":0,"fgm":0,"ft_pct":0,"fta":0,"ftm":0,"game":{"id":845520,"date":"2022-05-03T00:00:00.000Z","home_team_id":2,"home_team_score":109,"period":4,"postseason":true,"season":2021,"status":"Final","time":"","visitor_team_id":17,"visitor_team_score":86},"min":"1:52","oreb":0,"pf":0,"player":{"id":3547250,"first_name":"Aaron","height_feet":null,"height_inches":null,"last_name":"Nesmith","position":"G-F","team_id":12,"weight_pounds":null},"pts":0,"reb":1,"stl":0,"team":{"id":2,"abbreviation":"BOS","city":"Boston","conference":"East","division":"Atlantic","full_name":"Boston Celtics","name":"Celtics"},"turnover":0},{"id":11911021,"ast":0,"blk":0,"dreb":1,"fg3_pct":0,"fg3a":0,"fg3m":0,"fg_pct":0,"fga":0,"fgm":0,"ft_pct":0,"fta":0,"ftm":0,"game":{"id":845520,"date":"2022-05-03T00:00:00.000Z","home_team_id":2,"home_team_score":109,"period":4,"postseason":true,"season":2021,"status":"Final","time":"","visitor_team_id":17,"visitor_team_score":86},"min":"1:52","oreb":0,"pf":1,"player":{"id":261,"first_name":"Luke","height_feet":7,"height_inches":1,"last_name":"Kornet","position":"F-C","team_id":2,"weight_pounds":250},"pts":0,"reb":1,"stl":0,"team":{"id":2,"abbreviation":"BOS","city":"Boston","conference":"East","division":"Atlantic","full_name":"Boston Celtics","name":"Celtics"},"turnover":0},{"id":11911022,"ast":0,"blk":0,"dreb":0,"fg3_pct":0,"fg3a":0,"fg3m":0,"fg_pct":0,"fga":0,"fgm":0,"ft_pct":0,"fta":0,"ftm":0,"game":{"id":845520,"date":"2022-05-03T00:00:00.000Z","home_team_id":2,"home_team_score":109,"period":4,"postseason":true,"season":2021,"status":"Final","time":"","visitor_team_id":17,"visitor_team_score":86},"min":"0:00","oreb":0,"pf":0,"player":{"id":666788,"first_name":"Juwan","height_feet":null,"height_inches":null,"last_name":"Morgan","position":"F","team_id":2,"weight_pounds":null},"pts":0,"reb":0,"stl":0,"team":{"id":2,"abbreviation":"BOS","city":"Boston","conference":"East","division":"Atlantic","full_name":"Boston Celtics","name":"Celtics"},"turnover":0}],"meta":{"total_pages":2,"current_page":1,"next_page":2,"per_page":25,"total_count":27}}