{"data":[{"id":7172484,"ast":4,"blk":0,"dreb":3,"fg3_pct":22.2,"fg3a":9,"fg3m":2,"fg_pct":43.8,"fga":16,"fgm":7,"ft_pct":66.7,"fta":3,"ftm":2,"game":{"id":463448,"date":"2021-08-14T00:00:00.000Z","home_team_id":16,"home_team_score":90,"period":4,"postseason":false,"season":2021,"status":"Final","time":"","visitor_team_id":1,"visitor_team_score":94},"min":"30:35","oreb":0,"pf":2,"player":{"id":5,"first_name":"DeVaughn","height_feet":null,"height_inches":null,"last_name":"Akoon-Purcell","position":"G-F","team_id":1,"weight_pounds":null},"pts":18,"reb":3,"stl":1,"team":{"id":1,"abbreviation":"ATL","city":"Atlanta","conference":"East","division":"Southeast","full_name":"Atlanta Hawks","name":"Hawks"},"turnover":1},{"id":7172485,"ast":3,"blk":1,"dreb":6,"fg3_pct":50,"fg3a":6,"fg3m":3,"fg_pct":60,"fga":15,"fgm":9,"ft_pct":100,"fta":4,"ftm":4,"game":{"id":463448,"date":"2021-08-14T00:00:00.000Z","home_team_id":16,"home_team_score":90,"period":4,"postseason":false,"season":2021,"status":"Final","time":"","visitor_team_id":1,"visitor_team_score":94},"min":"28:52","oreb":1,"pf":1,"player":{"id":17896040,"first_name":"Jalen","height_feet":null,"height_inches":null,"last_name":"Johnson","position":"F","team_id":1,"weight_pounds":null},"pts":25,"reb":7,"stl":2,"team":{"id":1,"abbreviation":"ATL","city":"Atlanta","conference":"East","division":"Southeast","full_name":"Atlanta Hawks","name":"Hawks"},"turnover":4},{"id":7172486,"ast":4,"blk":0,"dreb":2,"fg3_pct":0,"fg3a":0,"fg3m":0,"fg_pct":0,"fga":0,"fgm":0,"ft_pct":0,"fta":0,"ftm":0,"game":{"id":463448,"date":"2021-08-14T00:00:00.000Z","home_team_id":16,"home_team_score":90,"period":4,"postseason":false,"season":2021,"status":"Final","time":"","visitor_team_id":1,"visitor_team_score":94},"min":"14:00","oreb":2,"pf":2,"player":{"id":2106,"first_name":"Eric","height_feet":null,"height_inches":null,"last_name":"Moreland","position":"","team_id":1,"weight_pounds":null},"pts":0,"reb":4,"stl":1,"team":{"id":1,"abbreviation":"ATL","city":"Atlanta","conference":"East","division":"Southeast","full_name":"Atlanta Hawks","name":"Hawks"},"turnover":2},{"id":7172487,"ast":0,"blk":0,"dreb":2,"fg3_pct":0,"fg3a":0,"fg3m":0,"fg_pct":0,"fga":1,"fgm":0,"ft_pct":0,"fta":0,"ftm":0,"game":{"id":463448,"date":"2021-08-14T00:00:00.000Z","home_team_id":16,"home_team_score":90,"period":4,"postseason":false,"season":2021,"status":"Final","time":"","visitor_team_id":1,"visitor_team_score":94},"min":"13:22","oreb":0,"pf":0,"player":{"id":17895724,"first_name":"Ibi","height_feet":null,"height_inches":null,"last_name":"Watson","position":"G","team_id":1,"weight_pounds":null},"pts":0,"reb":2,"stl":0,"team":{"id":1,"abbreviation":"ATL","city":"Atlanta","conference":"East","division":"Southeast","full_name":"Atlanta Hawks","name":"Hawks"},"turnover":1},{"id":7172488,"ast":9,"blk":0,"dreb":3,"fg3_pct":33.3,"fg3a":6,"fg3m":2,"fg_pct":41.2,"fga":17,"fgm":7,"ft_pct":100,"fta":10,"ftm":10,"game":{"id":463448,"date":"2021-08-14T00:00:00.000Z","home_team_id":16,"home_team_score":90,"period":4,"postseason":false,"season":2021,"status":"Final","time":"","visitor_team_id":1,"visitor_team_score":94},"min":"29:57","oreb":1,"pf":3,"player":{"id":3547289,"first_name":"Skylar","height_feet":null,"height_inches":null,"last_name":"Mays","position":"G","team_id":25,"weight_pounds":null},"pts":26,"reb":4,"stl":2,"team":{"id":1,"abbreviation":"ATL","city":"Atlanta","conference":"East","division":"Southeast","full_name":"Atlanta Hawks","name":"Hawks"},"turnover":2},{"id":7172490,"ast":0,"blk":2,"dreb":0,"fg3_pct":0,"fg3a":2,"fg3m":0,"fg_pct":33.3,"fga":3,"fgm":1,"ft_pct":0,"fta":0,"ftm":0,"game":{"id":463448,"date":"2021-08-14T00:00:00.000Z","home_team_id":16,"home_team_score":90,"period":4,"postseason":false,"season":2021,"status":"Final","time":"","visitor_team_id":1,"visitor_team_score":94},"min":"12:10","oreb":0,"pf":3,"player":{"id":17896019,"first_name":"Nahziah","height_feet":null,"height_inches":null,"last_name":"Carter","position":"G","team_id":1,"weight_pounds":null},"pts":2,"reb":0,"stl":1,"team":{"id":1,"abbreviation":"ATL","city":"Atlanta","conference":"East","division":"Southeast","full_name":"Atlanta Hawks","name":"Hawks"},"turnover":1},{"id":7172489,"ast":0,"blk":0,"dreb":0,"fg3_pct":0,"fg3a":0,"fg3m":0,"fg_pct":0,"fga":0,"fgm":0,"ft_pct":0,"fta":0,"ftm":0,"game":{"id":463448,"date":"2021-08-14T00:00:00.000Z","home_team_id":16,"home_team_score":90,"period":4,"postseason":false,"season":2021,"status":"Final","time":"","visitor_team_id":1,"visitor_team_score":94},"min":"0:00","oreb":0,"pf":0,"player":{"id":41,"first_name":"Jordan","height_feet":6,"height_inches":9,"last_name":"Bell","position":"F","team_id":5,"weight_pounds":224},"pts":0,"reb":0,"stl":0,"team":{"id":1,"abbreviation":"ATL","city":"Atlanta","conference":"East","division":"Southeast","full_name":"Atlanta Hawks","name":"Hawks"},"turnover":0},{"id":7172491,"ast":0,"blk":0,"dreb":0,"fg3_pct":0,"fg3a":0,"fg3m":0,"fg_pct":0,"fga":0,"fgm":0,"ft_pct":0,"fta":0,"ftm":0,"game":{"id":463448,"date":"2021-08-14T00:00:00.000Z","home_team_id":16,"home_team_score":90,"period":4,"postseason":false,"season":2021,"status":"Final","time":"","visitor_team_id":1,"visitor_team_score":94},"min":"0:00","oreb":0,"pf":0,"player":{"id":17896029,"first_name":"Sharife","height_feet":null,"height_inches":null,"last_name":"Cooper","position":"G","team_id":1,"weight_pounds":null},"pts":0,"reb":0,"stl":0,"team":{"id":1,"abbreviation":"ATL","city":"Atlanta","conference":"East","division":"Southeast","full_name":"Atlanta Hawks","name":"Hawks"},"turnover":0},{"id":7172493,"ast":1,"blk":1,"dreb":0,"fg3_pct":0,"fg3a":0,"fg3m":0,"fg_pct":0,"fga":1,"fgm":0,"ft_pct":0,"fta":0,"ftm":0,"game":{"id":463448,"date":"2021-08-14T00:00:00.000Z","home_team_id":16,"home_team_score":90,"period":4,"postseason":false,"season":2021,"status":"Final","time":"","visitor_team_id":1,"visitor_team_score":94},"min":"6:16","oreb":1,"pf":1,"player":{"id":17895721,"first_name":"Juwan","height_feet":null,"height_inches":null,"last_name":"Durham","position":"F","team_id":1,"weight_pounds":null},"pts":0,"reb":1,"stl":0,"team":{"id":1,"abbreviation":"ATL","city":"Atlanta","conference":"East","division":"Southeast","full_name":"Atlanta Hawks","name":"Hawks"},"turnover":0},{"id":7172496,"ast":2,"blk":1,"dreb":1,"fg3_pct":0,"fg3a":1,"fg3m":0,"fg_pct":25,"fga":4,"fgm":1,"ft_pct":100,"fta":2,"ftm":2,"game":{"id":463448,"date":"2021-08-14T00:00:00.000Z","home_team_id":16,"home_team_score":90,"period":4,"postseason":false,"season":2021,"status":"Final","time":"","visitor_team_id":1,"visitor_team_score":94},"min":"21:01","oreb":1,"pf":2,"player":{"id":17554004,"first_name":"AJ","height_feet":null,"height_inches":null,"last_name":"Lawson","position":"G","team_id":7,"weight_pounds":null},"pts":4,"reb":2,"stl":0,"team":{"id":1,"abbreviation":"ATL","city":"Atlanta","conference":"East","division":"Southeast","full_name":"Atlanta Hawks","name":"Hawks"},"turnover":1},{"id":7172498,"ast":1,"blk":0,"dreb":4,"fg3_pct":57.1,"fg3a":7,"fg3m":4,"fg_pct":44.4,"fga":9,"fgm":4,"ft_pct":0,"fta":2,"ftm":0,"game":{"id":463448,"date":"2021-08-14T00:00:00.000Z","home_team_id":16,"home_team_score":90,"period":4,"postseason":false,"season":2021,"status":"Final","time":"","visitor_team_id":1,"visitor_team_score":94},"min":"22:00","oreb":2,"pf":5,"player":{"id":666885,"first_name":"Admiral","height_feet":null,"height_inches":null,"last_name":"Schofield","position":"F","team_id":22,"weight_pounds":null},"pts":12,"reb":6,"stl":1,"team":{"id":1,"abbreviation":"ATL","city":"Atlanta","conference":"East","division":"Southeast","full_name":"Atlanta Hawks","name":"Hawks"},"turnover":2},{"id":7172495,"ast":0,"blk":0,"dreb":2,"fg3_pct":50,"fg3a":2,"fg3m":1,"fg_pct":50,"fga":2,"fgm":1,"ft_pct":100,"fta":2,"ftm":2,"game":{"id":463448,"date":"2021-08-14T00:00:00.000Z","home_team_id":16,"home_team_score":90,"period":4,"postseason":false,"season":2021,"status":"Final","time":"","visitor_team_id":1,"visitor_team_score":94},"min":"9:32","oreb":0,"pf":1,"player":{"id":17895723,"first_name":"Justin","height_feet":null,"height_inches":null,"last_name":"Jaworski","position":"G","team_id":1,"weight_pounds":null},"pts":5,"reb":2,"stl":1,"team":{"id":1,"abbreviation":"ATL","city":"Atlanta","conference":"East","division":"Southeast","full_name":"Atlanta Hawks","name":"Hawks"},"turnover":1},{"id":7172492,"ast":0,"blk":0,"dreb":4,"fg3_pct":0,"fg3a":0,"fg3m":0,"fg_pct":33.3,"fga":3,"fgm":1,"ft_pct":0,"fta":0,"ftm":0,"game":{"id":463448,"date":"2021-08-14T00:00:00.000Z","home_team_id":16,"home_team_score":90,"period":4,"postseason":false,"season":2021,"status":"Final","time":"","visitor_team_id":1,"visitor_team_score":94},"min":"12:12","oreb":2,"pf":0,"player":{"id":17895839,"first_name":"Javin","height_feet":null,"height_inches":null,"last_name":"DeLaurier","position":"F","team_id":17,"weight_pounds":null},"pts":2,"reb":6,"stl":1,"team":{"id":1,"abbreviation":"ATL","city":"Atlanta","conference":"East","division":"Southeast","full_name":"Atlanta Hawks","name":"Hawks"},"turnover":1},{"id":7172494,"ast":0,"blk":0,"dreb":0,"fg3_pct":0,"fg3a":0,"fg3m":0,"fg_pct":0,"fga":0,"fgm":0,"ft_pct":0,"fta":0,"ftm":0,"game":{"id":463448,"date":"2021-08-14T00:00:00.000Z","home_team_id":16,"home_team_score":90,"period":4,"postseason":false,"season":2021,"status":"Final","time":"","visitor_team_id":1,"visitor_team_score":94},"min":"0:00","oreb":0,"pf":0,"player":{"id":17895722,"first_name":"Max","height_feet":null,"height_inches":null,"last_name":"Heidegger","position":"G","team_id":1,"weight_pounds":null},"pts":0,"reb":0,"stl":0,"team":{"id":1,"abbreviation":"ATL","city":"Atlanta","conference":"East","division":"Southeast","full_name":"Atlanta Hawks","name":"Hawks"},"turnover":0},{"id":7172497,"ast":0,"blk":0,"dreb":0,"fg3_pct":0,"fg3a":0,"fg3m":0,"fg_pct":0,"fga":0,"fgm":0,"ft_pct":0,"fta":0,"ftm":0,"game":{"id":463448,"date":"2021-08-14T00:00:00.000Z","home_team_id":16,"home_team_score":90,"period":4,"postseason":false,"season":2021,"status":"Final","time":"","visitor_team_id":1,"visitor_team_score":94},"min":"0:00","oreb":0,"pf":0,"player":{"id":666750,"first_name":"Jeremiah","height_feet":null,"height_inches":null,"last_name":"Martin","position":"G","team_id":6,"weight_pounds":null},"pts":0,"reb":0,"stl":0,"team":{"id":1,"abbreviation":"ATL","city":"Atlanta","conference":"East","division":"Southeast","full_name":"Atlanta Hawks","name":"Hawks"},"turnover":0},{"id":7172499,"ast":0,"blk":0,"dreb":0,"fg3_pct":0,"fg3a":1,"fg3m":0,"fg_pct":33.3,"fga":3,"fgm":1,"ft_pct":0,"fta":0,"ftm":0,"game":{"id":463448,"date":"2021-08-14T00:00:00.000Z","home_team_id":16,"home_team_score":90,"period":4,"postseason":false,"season":2021,"status":"Final","time":"","visitor_team_id":1,"visitor_team_score":94},"min":"13:10","oreb":2,"pf":2,"player":{"id":17553998,"first_name":"D.J.","height_feet":null,"height_inches":null,"last_name":"Stewart Jr.","position":"G-F","team_id":27,"weight_pounds":null},"pts":2,"reb":2,"stl":0,"team":{"id":16,"abbreviation":"MIA","city":"Miami","conference":"East","division":"Southeast","full_name":"Miami Heat","name":"Heat"},"turnover":1},{"id":7172500,"ast":2,"blk":0,"dreb":4,"fg3_pct":40,"fg3a":5,"fg3m":2,"fg_pct":28.6,"fga":7,"fgm":2,"ft_pct":0,"fta":0,"ftm":0,"game":{"id":463448,"date":"2021-08-14T00:00:00.000Z","home_team_id":16,"home_team_score":90,"period":4,"postseason":false,"season":2021,"status":"Final","time":"","visitor_team_id":1,"visitor_team_score":94},"min":"26:17","oreb":2,"pf":1,"player":{"id":666821,"first_name":"KZ","height_feet":null,"height_inches":null,"last_name":"Okpala","position":"F","team_id":26,"weight_pounds":null},"pts":6,"reb":6,"stl":0,"team":{"id":16,"abbreviation":"MIA","city":"Miami","conference":"East","division":"Southeast","full_name":"Miami Heat","name":"Heat"},"turnover":1},{"id":7172501,"ast":4,"blk":1,"dreb":3,"fg3_pct":33.3,"fg3a":3,"fg3m":1,"fg_pct":47.1,"fga":17,"fgm":8,"ft_pct":66.7,"fta":6,"ftm":4,"game":{"id":463448,"date":"2021-08-14T00:00:00.000Z","home_team_id":16,"home_team_score":90,"period":4,"postseason":false,"season":2021,"status":"Final","time":"","visitor_team_id":1,"visitor_team_score":94},"min":"27:59","oreb":4,"pf":4,"player":{"id":11891374,"first_name":"Omer","height_feet":null,"height_inches":null,"last_name":"Yurtseven","position":"C","team_id":16,"weight_pounds":null},"pts":21,"reb":7,"stl":0,"team":{"id":16,"abbreviation":"MIA","city":"Miami","conference":"East","division":"Southeast","full_name":"Miami Heat","name":"Heat"},"turnover":4},{"id":7172502,"ast":4,"blk":0,"dreb":2,"fg3_pct":46.2,"fg3a":13,"fg3m":6,"fg_pct":50,"fga":18,"fgm":9,"ft_pct":0,"fta":0,"ftm":0,"game":{"id":463448,"date":"2021-08-14T00:00:00.000Z","home_team_id":16,"home_team_score":90,"period":4,"postseason":false,"season":2021,"status":"Final","time":"","visitor_team_id":1,"visitor_team_score":94},"min":"31:17","oreb":1,"pf":2,"player":{"id":666908,"first_name":"Max","height_feet":null,"height_inches":null,"last_name":"Strus","position":"G","team_id":16,"weight_pounds":null},"pts":24,"reb":3,"stl":2,"team":{"id":16,"abbreviation":"MIA","city":"Miami","conference":"East","division":"Southeast","full_name":"Miami Heat","name":"Heat"},"turnover":3},{"id":7172503,"ast":9,"blk":0,"dreb":8,"fg3_pct":100,"fg3a":2,"fg3m":2,"fg_pct":66.7,"fga":6,"fgm":4,"ft_pct":80,"fta":5,"ftm":4,"game":{"id":463448,"date":"2021-08-14T00:00:00.000Z","home_team_id":16,"home_team_score":90,"period":4,"postseason":false,"season":2021,"status":"Final","time":"","visitor_team_id":1,"visitor_team_score":94},"min":"27:07","oreb":0,"pf":3,"player":{"id":17554002,"first_name":"DeJon","height_feet":null,"height_inches":null,"last_name":"Jarreau","position":"G","team_id":11,"weight_pounds":null},"pts":14,"reb":8,"stl":3,"team":{"id":16,"abbreviation":"MIA","city":"Miami","conference":"East","division":"Southeast","full_name":"Miami Heat","name":"Heat"},"turnover":0},{"id":7172509,"ast":1,"blk":0,"dreb":2,"fg3_pct":16.7,"fg3a":6,"fg3m":1,"fg_pct":25,"fga":12,"fgm":3,"ft_pct":0,"fta":0,"ftm":0,"game":{"id":463448,"date":"2021-08-14T00:00:00.000Z","home_team_id":16,"home_team_score":90,"period":4,"postseason":false,"season":2021,"status":"Final","time":"","visitor_team_id":1,"visitor_team_score":94},"min":"21:57","oreb":0,"pf":1,"player":{"id":17554001,"first_name":"Javonte","height_feet":null,"height_inches":null,"last_name":"Smart","position":"G","team_id":16,"weight_pounds":null},"pts":7,"reb":2,"stl":0,"team":{"id":16,"abbreviation":"MIA","city":"Miami","conference":"East","division":"Southeast","full_name":"Miami Heat","name":"Heat"},"turnover":3},{"id":7172510,"ast":2,"blk":1,"dreb":0,"fg3_pct":50,"fg3a":2,"fg3m":1,"fg_pct":66.7,"fga":6,"fgm":4,"ft_pct":0,"fta":0,"ftm":0,"game":{"id":463448,"date":"2021-08-14T00:00:00.000Z","home_team_id":16,"home_team_score":90,"period":4,"postseason":false,"season":2021,"status":"Final","time":"","visitor_team_id":1,"visitor_team_score":94},"min":"15:03","oreb":0,"pf":1,"player":{"id":17553942,"first_name":"Dru","height_feet":null,"height_inches":null,"last_name":"Smith","position":"G","team_id":16,"weight_pounds":null},"pts":9,"reb":0,"stl":0,"team":{"id":16,"abbreviation":"MIA","city":"Miami","conference":"East","division":"Southeast","full_name":"Miami Heat","name":"Heat"},"turnover":2},{"id":7172507,"ast":1,"blk":0,"dreb":2,"fg3_pct":0,"fg3a":1,"fg3m":0,"fg_pct":25,"fga":4,"fgm":1,"ft_pct":0,"fta":0,"ftm":0,"game":{"id":463448,"date":"2021-08-14T00:00:00.000Z","home_team_id":16,"home_team_score":90,"period":4,"postseason":false,"season":2021,"status":"Final","time":"","visitor_team_id":1,"visitor_team_score":94},"min":"16:50","oreb":0,"pf":2,"player":{"id":17554003,"first_name":"RJ","height_feet":null,"height_inches":null,"last_name":"Nembhard Jr.","position":"G","team_id":6,"weight_pounds":null},"pts":2,"reb":2,"stl":0,"team":{"id":16,"abbreviation":"MIA","city":"Miami","conference":"East","division":"Southeast","full_name":"Miami Heat","name":"Heat"},"turnover":1},{"id":7172506,"ast":2,"blk":0,"dreb":4,"fg3_pct":0,"fg3a":0,"fg3m":0,"fg_pct":100,"fga":1,"fgm":1,"ft_pct":33.3,"fta":3,"ftm":1,"game":{"id":463448,"date":"2021-08-14T00:00:00.000Z","home_team_id":16,"home_team_score":90,"period":4,"postseason":false,"season":2021,"status":"Final","time":"","visitor_team_id":1,"visitor_team_score":94},"min":"11:49","oreb":4,"pf":4,"player":{"id":17620634,"first_name":"Brandon","height_feet":null,"height_inches":null,"last_name":"McCoy","position":"","team_id":16,"weight_pounds":null},"pts":3,"reb":8,"stl":0,"team":{"id":16,"abbreviation":"MIA","city":"Miami","conference":"East","division":"Southeast","full_name":"Miami Heat","name":"Heat"},"turnover":1},{"id":7172508,"ast":0,"blk":0,"dreb":1,"fg3_pct":0,"fg3a":3,"fg3m":0,"fg_pct":20,"fga":5,"fgm":1,"ft_pct":0,"fta":0,"ftm":0,"game":{"id":463448,"date":"2021-08-14T00:00:00.000Z","home_team_id":16,"home_team_score":90,"period":4,"postseason":false,"season":2021,"status":"Final","time":"","visitor_team_id":1,"visitor_team_score":94},"min":"8:30","oreb":2,"pf":1,"player":{"id":17553941,"first_name":"Micah","height_feet":null,"height_inches":null,"last_name":"Potter","position":"F-C","team_id":16,"weight_pounds":null},"pts":2,"reb":3,"stl":2,"team":{"id":16,"abbreviation":"MIA","city":"Miami","conference":"East","division":"Southeast","full_name":"Miami Heat","name":"Heat"},"turnover":2}],"meta":{"total_pages":2,"current_page":1,"next_page":2,"per_page":25,"total_count":29}}