{"data":[{"id":7206755,"ast":1,"blk":0,"dreb":2,"fg3_pct":12.5,"fg3a":8,"fg3m":1,"fg_pct":35.3,"fga":17,"fgm":6,"ft_pct":83.3,"fta":6,"ftm":5,"game":{"id":465593,"date":"2021-08-15T00:00:00.000Z","home_team_id":30,"home_team_score":93,"period":4,"postseason":false,"season":2021,"status":"Final","time":"","visitor_team_id":17,"visitor_team_score":83},"min":"31:15","oreb":1,"pf":2,"player":{"id":3547207,"first_name":"Jordan","height_feet":null,"height_inches":null,"last_name":"Nwora","position":"F","team_id":12,"weight_pounds":null},"pts":18,"reb":3,"stl":3,"team":{"id":17,"abbreviation":"MIL","city":"Milwaukee","conference":"East","division":"Central","full_name":"Milwaukee Bucks","name":"Bucks"},"turnover":7},{"id":7206756,"ast":2,"blk":0,"dreb":7,"fg3_pct":50,"fg3a":4,"fg3m":2,"fg_pct":50,"fga":14,"fgm":7,"ft_pct":100,"fta":2,"ftm":2,"game":{"id":465593,"date":"2021-08-15T00:00:00.000Z","home_team_id":30,"home_team_score":93,"period":4,"postseason":false,"season":2021,"status":"Final","time":"","visitor_team_id":17,"visitor_team_score":83},"min":"29:54","oreb":2,"pf":2,"player":{"id":3547163,"first_name":"Mamadi","height_feet":null,"height_inches":null,"last_name":"Diakite","position":"F","team_id":6,"weight_pounds":null},"pts":18,"reb":9,"stl":3,"team":{"id":17,"abbreviation":"MIL","city":"Milwaukee","conference":"East","division":"Central","full_name":"Milwaukee Bucks","name":"Bucks"},"turnover":2},{"id":7206757,"ast":5,"blk":0,"dreb":7,"fg3_pct":0,"fg3a":2,"fg3m":0,"fg_pct":36.4,"fga":11,"fgm":4,"ft_pct":100,"fta":3,"ftm":3,"game":{"id":465593,"date":"2021-08-15T00:00:00.000Z","home_team_id":30,"home_team_score":93,"period":4,"postseason":false,"season":2021,"status":"Final","time":"","visitor_team_id":17,"visitor_team_score":83},"min":"26:48","oreb":3,"pf":0,"player":{"id":17896059,"first_name":"Sandro","height_feet":null,"height_inches":null,"last_name":"Mamukelashvili","position":"F","team_id":27,"weight_pounds":null},"pts":11,"reb":10,"stl":4,"team":{"id":17,"abbreviation":"MIL","city":"Milwaukee","conference":"East","division":"Central","full_name":"Milwaukee Bucks","name":"Bucks"},"turnover":2},{"id":7206758,"ast":3,"blk":0,"dreb":1,"fg3_pct":0,"fg3a":1,"fg3m":0,"fg_pct":20,"fga":5,"fgm":1,"ft_pct":0,"fta":0,"ftm":0,"game":{"id":465593,"date":"2021-08-15T00:00:00.000Z","home_team_id":30,"home_team_score":93,"period":4,"postseason":false,"season":2021,"status":"Final","time":"","visitor_team_id":17,"visitor_team_score":83},"min":"19:16","oreb":0,"pf":3,"player":{"id":370,"first_name":"Theo","height_feet":6,"height_inches":6,"last_name":"Pinson","position":"G-F","team_id":7,"weight_pounds":218},"pts":2,"reb":1,"stl":0,"team":{"id":17,"abbreviation":"MIL","city":"Milwaukee","conference":"East","division":"Central","full_name":"Milwaukee Bucks","name":"Bucks"},"turnover":1},{"id":7206759,"ast":5,"blk":0,"dreb":1,"fg3_pct":66.7,"fg3a":3,"fg3m":2,"fg_pct":80,"fga":5,"fgm":4,"ft_pct":0,"fta":0,"ftm":0,"game":{"id":465593,"date":"2021-08-15T00:00:00.000Z","home_team_id":30,"home_team_score":93,"period":4,"postseason":false,"season":2021,"status":"Final","time":"","visitor_team_id":17,"visitor_team_score":83},"min":"24:44","oreb":1,"pf":2,"player":{"id":17896092,"first_name":"Jalen","height_feet":null,"height_inches":null,"last_name":"Crutcher","position":"G","team_id":17,"weight_pounds":null},"pts":10,"reb":2,"stl":0,"team":{"id":17,"abbreviation":"MIL","city":"Milwaukee","conference":"East","division":"Central","full_name":"Milwaukee Bucks","name":"Bucks"},"turnover":0},{"id":7206761,"ast":0,"blk":0,"dreb":3,"fg3_pct":0,"fg3a":2,"fg3m":0,"fg_pct":60,"fga":5,"fgm":3,"ft_pct":100,"fta":2,"ftm":2,"game":{"id":465593,"date":"2021-08-15T00:00:00.000Z","home_team_id":30,"home_team_score":93,"period":4,"postseason":false,"season":2021,"status":"Final","time":"","visitor_team_id":17,"visitor_team_score":83},"min":"12:56","oreb":0,"pf":4,"player":{"id":17895750,"first_name":"Steven","height_feet":null,"height_inches":null,"last_name":"Enoch","position":"F","team_id":17,"weight_pounds":null},"pts":8,"reb":3,"stl":0,"team":{"id":17,"abbreviation":"MIL","city":"Milwaukee","conference":"East","division":"Central","full_name":"Milwaukee Bucks","name":"Bucks"},"turnover":1},{"id":7206762,"ast":2,"blk":1,"dreb":3,"fg3_pct":0,"fg3a":2,"fg3m":0,"fg_pct":25,"fga":4,"fgm":1,"ft_pct":0,"fta":2,"ftm":0,"game":{"id":465593,"date":"2021-08-15T00:00:00.000Z","home_team_id":30,"home_team_score":93,"period":4,"postseason":false,"season":2021,"status":"Final","time":"","visitor_team_id":17,"visitor_team_score":83},"min":"13:51","oreb":0,"pf":3,"player":{"id":50823,"first_name":"Jemerrio","height_feet":null,"height_inches":null,"last_name":"Jones","position":"F","team_id":14,"weight_pounds":null},"pts":2,"reb":3,"stl":1,"team":{"id":17,"abbreviation":"MIL","city":"Milwaukee","conference":"East","division":"Central","full_name":"Milwaukee Bucks","name":"Bucks"},"turnover":1},{"id":7206781,"ast":2,"blk":2,"dreb":0,"fg3_pct":0,"fg3a":2,"fg3m":0,"fg_pct":0,"fga":3,"fgm":0,"ft_pct":0,"fta":0,"ftm":0,"game":{"id":465593,"date":"2021-08-15T00:00:00.000Z","home_team_id":30,"home_team_score":93,"period":4,"postseason":false,"season":2021,"status":"Final","time":"","visitor_team_id":17,"visitor_team_score":83},"min":"14:27","oreb":0,"pf":4,"player":{"id":17896103,"first_name":"Jay","height_feet":null,"height_inches":null,"last_name":"Huff","position":"F-C","team_id":30,"weight_pounds":null},"pts":0,"reb":0,"stl":0,"team":{"id":30,"abbreviation":"WAS","city":"Washington","conference":"East","division":"Southeast","full_name":"Washington Wizards","name":"Wizards"},"turnover":0},{"id":7206782,"ast":4,"blk":0,"dreb":4,"fg3_pct":33.3,"fg3a":3,"fg3m":1,"fg_pct":42.9,"fga":7,"fgm":3,"ft_pct":87.5,"fta":8,"ftm":7,"game":{"id":465593,"date":"2021-08-15T00:00:00.000Z","home_team_id":30,"home_team_score":93,"period":4,"postseason":false,"season":2021,"status":"Final","time":"","visitor_team_id":17,"visitor_team_score":83},"min":"17:20","oreb":1,"pf":2,"player":{"id":3547291,"first_name":"Mason","height_feet":null,"height_inches":null,"last_name":"Jones","position":"G","team_id":14,"weight_pounds":null},"pts":14,"reb":5,"stl":3,"team":{"id":30,"abbreviation":"WAS","city":"Washington","conference":"East","division":"Southeast","full_name":"Washington Wizards","name":"Wizards"},"turnover":2},{"id":7206779,"ast":0,"blk":0,"dreb":0,"fg3_pct":0,"fg3a":0,"fg3m":0,"fg_pct":0,"fga":0,"fgm":0,"ft_pct":0,"fta":0,"ftm":0,"game":{"id":465593,"date":"2021-08-15T00:00:00.000Z","home_team_id":30,"home_team_score":93,"period":4,"postseason":false,"season":2021,"status":"Final","time":"","visitor_team_id":17,"visitor_team_score":83},"min":"0:00","oreb":0,"pf":0,"player":{"id":666630,"first_name":"Dewan","height_feet":null,"height_inches":null,"last_name":"Hernandez","position":"C","team_id":30,"weight_pounds":null},"pts":0,"reb":0,"stl":0,"team":{"id":30,"abbreviation":"WAS","city":"Washington","conference":"East","division":"Southeast","full_name":"Washington Wizards","name":"Wizards"},"turnover":0},{"id":7206768,"ast":1,"blk":0,"dreb":3,"fg3_pct":66.7,"fg3a":3,"fg3m":2,"fg_pct":75,"fga":4,"fgm":3,"ft_pct":0,"fta":0,"ftm":0,"game":{"id":465593,"date":"2021-08-15T00:00:00.000Z","home_team_id":30,"home_team_score":93,"period":4,"postseason":false,"season":2021,"status":"Final","time":"","visitor_team_id":17,"visitor_team_score":83},"min":"13:23","oreb":0,"pf":0,"player":{"id":17895753,"first_name":"DMitrik","height_feet":null,"height_inches":null,"last_name":"Trice","position":"G","team_id":17,"weight_pounds":null},"pts":8,"reb":3,"stl":0,"team":{"id":17,"abbreviation":"MIL","city":"Milwaukee","conference":"East","division":"Central","full_name":"Milwaukee Bucks","name":"Bucks"},"turnover":2},{"id":7206769,"ast":1,"blk":0,"dreb":4,"fg3_pct":0,"fg3a":0,"fg3m":0,"fg_pct":33.3,"fga":3,"fgm":1,"ft_pct":0,"fta":2,"ftm":0,"game":{"id":465593,"date":"2021-08-15T00:00:00.000Z","home_team_id":30,"home_team_score":93,"period":4,"postseason":false,"season":2021,"status":"Final","time":"","visitor_team_id":17,"visitor_team_score":83},"min":"10:58","oreb":2,"pf":0,"player":{"id":17895754,"first_name":"Tyree","height_feet":null,"height_inches":null,"last_name":"White","position":"F","team_id":17,"weight_pounds":null},"pts":2,"reb":6,"stl":1,"team":{"id":17,"abbreviation":"MIL","city":"Milwaukee","conference":"East","division":"Central","full_name":"Milwaukee Bucks","name":"Bucks"},"turnover":1},{"id":7206767,"ast":1,"blk":0,"dreb":0,"fg3_pct":0,"fg3a":2,"fg3m":0,"fg_pct":0,"fga":3,"fgm":0,"ft_pct":0,"fta":0,"ftm":0,"game":{"id":465593,"date":"2021-08-15T00:00:00.000Z","home_team_id":30,"home_team_score":93,"period":4,"postseason":false,"season":2021,"status":"Final","time":"","visitor_team_id":17,"visitor_team_score":83},"min":"8:27","oreb":0,"pf":1,"player":{"id":17895752,"first_name":"Mike","height_feet":null,"height_inches":null,"last_name":"Smith","position":"G","team_id":17,"weight_pounds":null},"pts":0,"reb":0,"stl":0,"team":{"id":17,"abbreviation":"MIL","city":"Milwaukee","conference":"East","division":"Central","full_name":"Milwaukee Bucks","name":"Bucks"},"turnover":1},{"id":7206760,"ast":0,"blk":0,"dreb":0,"fg3_pct":0,"fg3a":0,"fg3m":0,"fg_pct":66.7,"fga":3,"fgm":2,"ft_pct":0,"fta":0,"ftm":0,"game":{"id":465593,"date":"2021-08-15T00:00:00.000Z","home_team_id":30,"home_team_score":93,"period":4,"postseason":false,"season":2021,"status":"Final","time":"","visitor_team_id":17,"visitor_team_score":83},"min":"8:28","oreb":0,"pf":0,"player":{"id":17895963,"first_name":"Paul","height_feet":null,"height_inches":null,"last_name":"Eboua","position":"F","team_id":17,"weight_pounds":null},"pts":4,"reb":0,"stl":0,"team":{"id":17,"abbreviation":"MIL","city":"Milwaukee","conference":"East","division":"Central","full_name":"Milwaukee Bucks","name":"Bucks"},"turnover":1},{"id":7206763,"ast":0,"blk":0,"dreb":0,"fg3_pct":0,"fg3a":0,"fg3m":0,"fg_pct":0,"fga":0,"fgm":0,"ft_pct":0,"fta":0,"ftm":0,"game":{"id":465593,"date":"2021-08-15T00:00:00.000Z","home_team_id":30,"home_team_score":93,"period":4,"postseason":false,"season":2021,"status":"Final","time":"","visitor_team_id":17,"visitor_team_score":83},"min":"0:00","oreb":0,"pf":0,"player":{"id":18170939,"first_name":"Georgios","height_feet":null,"height_inches":null,"last_name":"Kalaitzakis","position":"F","team_id":21,"weight_pounds":null},"pts":0,"reb":0,"stl":0,"team":{"id":17,"abbreviation":"MIL","city":"Milwaukee","conference":"East","division":"Central","full_name":"Milwaukee Bucks","name":"Bucks"},"turnover":0},{"id":7206764,"ast":0,"blk":0,"dreb":0,"fg3_pct":0,"fg3a":0,"fg3m":0,"fg_pct":0,"fga":0,"fgm":0,"ft_pct":0,"fta":0,"ftm":0,"game":{"id":465593,"date":"2021-08-15T00:00:00.000Z","home_team_id":30,"home_team_score":93,"period":4,"postseason":false,"season":2021,"status":"Final","time":"","visitor_team_id":17,"visitor_team_score":83},"min":"0:00","oreb":0,"pf":0,"player":{"id":17895996,"first_name":"E.J.","height_feet":null,"height_inches":null,"last_name":"Montgomery","position":"F","team_id":17,"weight_pounds":null},"pts":0,"reb":0,"stl":0,"team":{"id":17,"abbreviation":"MIL","city":"Milwaukee","conference":"East","division":"Central","full_name":"Milwaukee Bucks","name":"Bucks"},"turnover":0},{"id":7206765,"ast":0,"blk":0,"dreb":0,"fg3_pct":0,"fg3a":0,"fg3m":0,"fg_pct":0,"fga":0,"fgm":0,"ft_pct":0,"fta":0,"ftm":0,"game":{"id":465593,"date":"2021-08-15T00:00:00.000Z","home_team_id":30,"home_team_score":93,"period":4,"postseason":false,"season":2021,"status":"Final","time":"","visitor_team_id":17,"visitor_team_score":83},"min":"0:00","oreb":0,"pf":0,"player":{"id":17895751,"first_name":"John","height_feet":null,"height_inches":null,"last_name":"Mooney","position":"F","team_id":17,"weight_pounds":null},"pts":0,"reb":0,"stl":0,"team":{"id":17,"abbreviation":"MIL","city":"Milwaukee","conference":"East","division":"Central","full_name":"Milwaukee Bucks","name":"Bucks"},"turnover":0},{"id":7206766,"ast":0,"blk":0,"dreb":0,"fg3_pct":0,"fg3a":0,"fg3m":0,"fg_pct":0,"fga":0,"fgm":0,"ft_pct":0,"fta":0,"ftm":0,"game":{"id":465593,"date":"2021-08-15T00:00:00.000Z","home_team_id":30,"home_team_score":93,"period":4,"postseason":false,"season":2021,"status":"Final","time":"","visitor_team_id":17,"visitor_team_score":83},"min":"0:00","oreb":0,"pf":0,"player":{"id":17895903,"first_name":"Brandon","height_feet":null,"height_inches":null,"last_name":"Randolph","position":"G-F","team_id":17,"weight_pounds":null},"pts":0,"reb":0,"stl":0,"team":{"id":17,"abbreviation":"MIL","city":"Milwaukee","conference":"East","division":"Central","full_name":"Milwaukee Bucks","name":"Bucks"},"turnover":0},{"id":7206770,"ast":0,"blk":2,"dreb":2,"fg3_pct":57.1,"fg3a":7,"fg3m":4,"fg_pct":58.3,"fga":12,"fgm":7,"ft_pct":0,"fta":0,"ftm":0,"game":{"id":465593,"date":"2021-08-15T00:00:00.000Z","home_team_id":30,"home_team_score":93,"period":4,"postseason":false,"season":2021,"status":"Final","time":"","visitor_team_id":17,"visitor_team_score":83},"min":"23:04","oreb":1,"pf":3,"player":{"id":17896045,"first_name":"Corey","height_feet":null,"height_inches":null,"last_name":"Kispert","position":"F","team_id":30,"weight_pounds":null},"pts":18,"reb":3,"stl":0,"team":{"id":30,"abbreviation":"WAS","city":"Washington","conference":"East","division":"Southeast","full_name":"Washington Wizards","name":"Wizards"},"turnover":2},{"id":7206771,"ast":1,"blk":2,"dreb":5,"fg3_pct":33.3,"fg3a":6,"fg3m":2,"fg_pct":33.3,"fga":9,"fgm":3,"ft_pct":0,"fta":0,"ftm":0,"game":{"id":465593,"date":"2021-08-15T00:00:00.000Z","home_team_id":30,"home_team_score":93,"period":4,"postseason":false,"season":2021,"status":"Final","time":"","visitor_team_id":17,"visitor_team_score":83},"min":"23:04","oreb":2,"pf":2,"player":{"id":17895967,"first_name":"Isaiah","height_feet":null,"height_inches":null,"last_name":"Todd","position":"F","team_id":30,"weight_pounds":null},"pts":8,"reb":7,"stl":1,"team":{"id":30,"abbreviation":"WAS","city":"Washington","conference":"East","division":"Southeast","full_name":"Washington Wizards","name":"Wizards"},"turnover":3},{"id":7206772,"ast":0,"blk":1,"dreb":2,"fg3_pct":100,"fg3a":1,"fg3m":1,"fg_pct":50,"fga":6,"fgm":3,"ft_pct":85.7,"fta":7,"ftm":6,"game":{"id":465593,"date":"2021-08-15T00:00:00.000Z","home_team_id":30,"home_team_score":93,"period":4,"postseason":false,"season":2021,"status":"Final","time":"","visitor_team_id":17,"visitor_team_score":83},"min":"8:24","oreb":1,"pf":0,"player":{"id":17895725,"first_name":"Jaime","height_feet":null,"height_inches":null,"last_name":"Echenique","position":"C","team_id":30,"weight_pounds":null},"pts":13,"reb":3,"stl":0,"team":{"id":30,"abbreviation":"WAS","city":"Washington","conference":"East","division":"Southeast","full_name":"Washington Wizards","name":"Wizards"},"turnover":1},{"id":7206773,"ast":5,"blk":2,"dreb":5,"fg3_pct":16.7,"fg3a":6,"fg3m":1,"fg_pct":43.8,"fga":16,"fgm":7,"ft_pct":0,"fta":0,"ftm":0,"game":{"id":465593,"date":"2021-08-15T00:00:00.000Z","home_team_id":30,"home_team_score":93,"period":4,"postseason":false,"season":2021,"status":"Final","time":"","visitor_team_id":17,"visitor_team_score":83},"min":"28:06","oreb":3,"pf":2,"player":{"id":12044014,"first_name":"Caleb","height_feet":null,"height_inches":null,"last_name":"Homesley","position":"G","team_id":30,"weight_pounds":null},"pts":15,"reb":8,"stl":0,"team":{"id":30,"abbreviation":"WAS","city":"Washington","conference":"East","division":"Southeast","full_name":"Washington Wizards","name":"Wizards"},"turnover":4},{"id":7206774,"ast":3,"blk":0,"dreb":4,"fg3_pct":0,"fg3a":1,"fg3m":0,"fg_pct":75,"fga":4,"fgm":3,"ft_pct":0,"fta":0,"ftm":0,"game":{"id":465593,"date":"2021-08-15T00:00:00.000Z","home_team_id":30,"home_team_score":93,"period":4,"postseason":false,"season":2021,"status":"Final","time":"","visitor_team_id":17,"visitor_team_score":83},"min":"11:46","oreb":0,"pf":2,"player":{"id":18039569,"first_name":"Xavier","height_feet":null,"height_inches":null,"last_name":"Rathan-Mayes","position":"","team_id":30,"weight_pounds":null},"pts":6,"reb":4,"stl":0,"team":{"id":30,"abbreviation":"WAS","city":"Washington","conference":"East","division":"Southeast","full_name":"Washington Wizards","name":"Wizards"},"turnover":0},{"id":7206775,"ast":2,"blk":0,"dreb":1,"fg3_pct":0,"fg3a":0,"fg3m":0,"fg_pct":0,"fga":1,"fgm":0,"ft_pct":0,"fta":0,"ftm":0,"game":{"id":465593,"date":"2021-08-15T00:00:00.000Z","home_team_id":30,"home_team_score":93,"period":4,"postseason":false,"season":2021,"status":"Final","time":"","visitor_team_id":17,"visitor_team_score":83},"min":"15:53","oreb":0,"pf":1,"player":{"id":666453,"first_name":"Marques","height_feet":null,"height_inches":null,"last_name":"Bolden","position":"C","team_id":29,"weight_pounds":null},"pts":0,"reb":1,"stl":1,"team":{"id":30,"abbreviation":"WAS","city":"Washington","conference":"East","division":"Southeast","full_name":"Washington Wizards","name":"Wizards"},"turnover":0},{"id":7206777,"ast":2,"blk":0,"dreb":0,"fg3_pct":0,"fg3a":2,"fg3m":0,"fg_pct":33.3,"fga":3,"fgm":1,"ft_pct":0,"fta":0,"ftm":0,"game":{"id":465593,"date":"2021-08-15T00:00:00.000Z","home_team_id":30,"home_team_score":93,"period":4,"postseason":false,"season":2021,"status":"Final","time":"","visitor_team_id":17,"visitor_team_score":83},"min":"10:54","oreb":0,"pf":0,"player":{"id":18041884,"first_name":"Asante","height_feet":null,"height_inches":null,"last_name":"Gist","position":"","team_id":30,"weight_pounds":null},"pts":2,"reb":0,"stl":0,"team":{"id":30,"abbreviation":"WAS","city":"Washington","conference":"East","division":"Southeast","full_name":"Washington Wizards","name":"Wizards"},"turnover":2}],"meta":{"total_pages":2,"current_page":1,"next_page":2,"per_page":25,"total_count":28}}