{"data":[{"id":11831202,"ast":4,"blk":1,"dreb":7,"fg3_pct":0.5,"fg3a":2,"fg3m":1,"fg_pct":0.571,"fga":21,"fgm":12,"ft_pct":0.917,"fta":12,"ftm":11,"game":{"id":839444,"date":"2022-04-24T00:00:00.000Z","home_team_id":1,"home_team_score":86,"period":4,"postseason":true,"season":2021,"status":"Final","time":"","visitor_team_id":16,"visitor_team_score":110},"min":"36","oreb":3,"pf":1,"player":{"id":79,"first_name":"Jimmy","height_feet":6,"height_inches":8,"last_name":"Butler","position":"G-F","team_id":16,"weight_pounds":232},"pts":36,"reb":10,"stl":4,"team":{"id":16,"abbreviation":"MIA","city":"Miami","conference":"East","division":"Southeast","full_name":"Miami Heat","name":"Heat"},"turnover":0},{"id":11831203,"ast":3,"blk":0,"dreb":5,"fg3_pct":0.5,"fg3a":4,"fg3m":2,"fg_pct":0.714,"fga":7,"fgm":5,"ft_pct":1,"fta":2,"ftm":2,"game":{"id":839444,"date":"2022-04-24T00:00:00.000Z","home_team_id":1,"home_team_score":86,"period":4,"postseason":true,"season":2021,"status":"Final","time":"","visitor_team_id":16,"visitor_team_score":110},"min":"28","oreb":3,"pf":1,"player":{"id":450,"first_name":"PJ","height_feet":6,"height_inches":6,"last_name":"Tucker","position":"F","team_id":23,"weight_pounds":245},"pts":14,"reb":8,"stl":0,"team":{"id":16,"abbreviation":"MIA","city":"Miami","conference":"East","division":"Southeast","full_name":"Miami Heat","name":"Heat"},"turnover":0},{"id":11831204,"ast":1,"blk":0,"dreb":4,"fg3_pct":null,"fg3a":0,"fg3m":0,"fg_pct":0.545,"fga":11,"fgm":6,"ft_pct":0.667,"fta":3,"ftm":2,"game":{"id":839444,"date":"2022-04-24T00:00:00.000Z","home_team_id":1,"home_team_score":86,"period":4,"postseason":true,"season":2021,"status":"Final","time":"","visitor_team_id":16,"visitor_team_score":110},"min":"30","oreb":4,"pf":4,"player":{"id":4,"first_name":"Bam","height_feet":6,"height_inches":10,"last_name":"Adebayo","position":"C-F","team_id":16,"weight_pounds":255},"pts":14,"reb":8,"stl":0,"team":{"id":16,"abbreviation":"MIA","city":"Miami","conference":"East","division":"Southeast","full_name":"Miami Heat","name":"Heat"},"turnover":1},{"id":11831205,"ast":3,"blk":0,"dreb":3,"fg3_pct":0.286,"fg3a":14,"fg3m":4,"fg_pct":0.25,"fga":16,"fgm":4,"ft_pct":null,"fta":0,"ftm":0,"game":{"id":839444,"date":"2022-04-24T00:00:00.000Z","home_team_id":1,"home_team_score":86,"period":4,"postseason":true,"season":2021,"status":"Final","time":"","visitor_team_id":16,"visitor_team_score":110},"min":"36","oreb":2,"pf":3,"player":{"id":666908,"first_name":"Max","height_feet":null,"height_inches":null,"last_name":"Strus","position":"G","team_id":16,"weight_pounds":null},"pts":12,"reb":5,"stl":1,"team":{"id":16,"abbreviation":"MIA","city":"Miami","conference":"East","division":"Southeast","full_name":"Miami Heat","name":"Heat"},"turnover":1},{"id":11831206,"ast":4,"blk":0,"dreb":2,"fg3_pct":0.5,"fg3a":6,"fg3m":3,"fg_pct":0.444,"fga":9,"fgm":4,"ft_pct":null,"fta":0,"ftm":0,"game":{"id":839444,"date":"2022-04-24T00:00:00.000Z","home_team_id":1,"home_team_score":86,"period":4,"postseason":true,"season":2021,"status":"Final","time":"","visitor_team_id":16,"visitor_team_score":110},"min":"27","oreb":1,"pf":3,"player":{"id":1603383,"first_name":"Gabe","height_feet":null,"height_inches":null,"last_name":"Vincent","position":"G","team_id":16,"weight_pounds":null},"pts":11,"reb":3,"stl":1,"team":{"id":16,"abbreviation":"MIA","city":"Miami","conference":"East","division":"Southeast","full_name":"Miami Heat","name":"Heat"},"turnover":0},{"id":11831209,"ast":1,"blk":0,"dreb":3,"fg3_pct":0,"fg3a":5,"fg3m":0,"fg_pct":0.125,"fga":8,"fgm":1,"ft_pct":0.5,"fta":2,"ftm":1,"game":{"id":839444,"date":"2022-04-24T00:00:00.000Z","home_team_id":1,"home_team_score":86,"period":4,"postseason":true,"season":2021,"status":"Final","time":"","visitor_team_id":16,"visitor_team_score":110},"min":"21","oreb":0,"pf":0,"player":{"id":666633,"first_name":"Tyler","height_feet":null,"height_inches":null,"last_name":"Herro","position":"G","team_id":16,"weight_pounds":null},"pts":3,"reb":3,"stl":1,"team":{"id":16,"abbreviation":"MIA","city":"Miami","conference":"East","division":"Southeast","full_name":"Miami Heat","name":"Heat"},"turnover":0},{"id":11831207,"ast":0,"blk":0,"dreb":0,"fg3_pct":null,"fg3a":0,"fg3m":0,"fg_pct":1,"fga":1,"fgm":1,"ft_pct":1,"fta":1,"ftm":1,"game":{"id":839444,"date":"2022-04-24T00:00:00.000Z","home_team_id":1,"home_team_score":86,"period":4,"postseason":true,"season":2021,"status":"Final","time":"","visitor_team_id":16,"visitor_team_score":110},"min":"4","oreb":0,"pf":2,"player":{"id":120,"first_name":"Dewayne","height_feet":7,"height_inches":0,"last_name":"Dedmon","position":"C","team_id":23,"weight_pounds":245},"pts":3,"reb":0,"stl":0,"team":{"id":16,"abbreviation":"MIA","city":"Miami","conference":"East","division":"Southeast","full_name":"Miami Heat","name":"Heat"},"turnover":0},{"id":11831211,"ast":0,"blk":0,"dreb":1,"fg3_pct":0.25,"fg3a":4,"fg3m":1,"fg_pct":0.167,"fga":6,"fgm":1,"ft_pct":null,"fta":0,"ftm":0,"game":{"id":839444,"date":"2022-04-24T00:00:00.000Z","home_team_id":1,"home_team_score":86,"period":4,"postseason":true,"season":2021,"status":"Final","time":"","visitor_team_id":16,"visitor_team_score":110},"min":"19","oreb":1,"pf":4,"player":{"id":666747,"first_name":"Caleb","height_feet":null,"height_inches":null,"last_name":"Martin","position":"F","team_id":16,"weight_pounds":null},"pts":3,"reb":2,"stl":1,"team":{"id":16,"abbreviation":"MIA","city":"Miami","conference":"East","division":"Southeast","full_name":"Miami Heat","name":"Heat"},"turnover":2},{"id":11831214,"ast":0,"blk":0,"dreb":1,"fg3_pct":1,"fg3a":1,"fg3m":1,"fg_pct":1,"fga":1,"fgm":1,"ft_pct":null,"fta":0,"ftm":0,"game":{"id":839444,"date":"2022-04-24T00:00:00.000Z","home_team_id":1,"home_team_score":86,"period":4,"postseason":true,"season":2021,"status":"Final","time":"","visitor_team_id":16,"visitor_team_score":110},"min":"9","oreb":0,"pf":1,"player":{"id":397,"first_name":"Duncan","height_feet":6,"height_inches":8,"last_name":"Robinson","position":"F","team_id":16,"weight_pounds":210},"pts":3,"reb":1,"stl":0,"team":{"id":16,"abbreviation":"MIA","city":"Miami","conference":"East","division":"Southeast","full_name":"Miami Heat","name":"Heat"},"turnover":0},{"id":11831213,"ast":4,"blk":0,"dreb":7,"fg3_pct":0,"fg3a":5,"fg3m":0,"fg_pct":0.3,"fga":10,"fgm":3,"ft_pct":null,"fta":0,"ftm":0,"game":{"id":839444,"date":"2022-04-24T00:00:00.000Z","home_team_id":1,"home_team_score":86,"period":4,"postseason":true,"season":2021,"status":"Final","time":"","visitor_team_id":16,"visitor_team_score":110},"min":"23","oreb":1,"pf":4,"player":{"id":357,"first_name":"Victor","height_feet":6,"height_inches":4,"last_name":"Oladipo","position":"G","team_id":16,"weight_pounds":210},"pts":6,"reb":8,"stl":0,"team":{"id":16,"abbreviation":"MIA","city":"Miami","conference":"East","division":"Southeast","full_name":"Miami Heat","name":"Heat"},"turnover":1},{"id":11831210,"ast":1,"blk":0,"dreb":0,"fg3_pct":1,"fg3a":1,"fg3m":1,"fg_pct":1,"fga":1,"fgm":1,"ft_pct":null,"fta":0,"ftm":0,"game":{"id":839444,"date":"2022-04-24T00:00:00.000Z","home_team_id":1,"home_team_score":86,"period":4,"postseason":true,"season":2021,"status":"Final","time":"","visitor_team_id":16,"visitor_team_score":110},"min":"3","oreb":0,"pf":0,"player":{"id":3092,"first_name":"Haywood","height_feet":6,"height_inches":7,"last_name":"Highsmith","position":"","team_id":16,"weight_pounds":220},"pts":3,"reb":0,"stl":0,"team":{"id":16,"abbreviation":"MIA","city":"Miami","conference":"East","division":"Southeast","full_name":"Miami Heat","name":"Heat"},"turnover":1},{"id":11831208,"ast":0,"blk":0,"dreb":0,"fg3_pct":0,"fg3a":0,"fg3m":0,"fg_pct":0,"fga":0,"fgm":0,"ft_pct":0,"fta":0,"ftm":0,"game":{"id":839444,"date":"2022-04-24T00:00:00.000Z","home_team_id":1,"home_team_score":86,"period":4,"postseason":true,"season":2021,"status":"Final","time":"","visitor_team_id":16,"visitor_team_score":110},"min":"0:00","oreb":0,"pf":0,"player":{"id":203,"first_name":"Udonis","height_feet":6,"height_inches":8,"last_name":"Haslem","position":"F","team_id":16,"weight_pounds":235},"pts":0,"reb":0,"stl":0,"team":{"id":16,"abbreviation":"MIA","city":"Miami","conference":"East","division":"Southeast","full_name":"Miami Heat","name":"Heat"},"turnover":0},{"id":11831212,"ast":0,"blk":0,"dreb":0,"fg3_pct":0,"fg3a":0,"fg3m":0,"fg_pct":0,"fga":0,"fgm":0,"ft_pct":0,"fta":0,"ftm":0,"game":{"id":839444,"date":"2022-04-24T00:00:00.000Z","home_team_id":1,"home_team_score":86,"period":4,"postseason":true,"season":2021,"status":"Final","time":"","visitor_team_id":16,"visitor_team_score":110},"min":"0:00","oreb":0,"pf":0,"player":{"id":329,"first_name":"Markieff","height_feet":null,"height_inches":null,"last_name":"Morris","position":"F","team_id":7,"weight_pounds":null},"pts":0,"reb":0,"stl":0,"team":{"id":16,"abbreviation":"MIA","city":"Miami","conference":"East","division":"Southeast","full_name":"Miami Heat","name":"Heat"},"turnover":0},{"id":11831217,"ast":1,"blk":1,"dreb":2,"fg3_pct":0.5,"fg3a":4,"fg3m":2,"fg_pct":0.5,"fga":8,"fgm":4,"ft_pct":0.5,"fta":2,"ftm":1,"game":{"id":839444,"date":"2022-04-24T00:00:00.000Z","home_team_id":1,"home_team_score":86,"period":4,"postseason":true,"season":2021,"status":"Final","time":"","visitor_team_id":16,"visitor_team_score":110},"min":"22","oreb":0,"pf":5,"player":{"id":101,"first_name":"John","height_feet":6,"height_inches":10,"last_name":"Collins","position":"F-C","team_id":1,"weight_pounds":235},"pts":11,"reb":2,"stl":0,"team":{"id":1,"abbreviation":"ATL","city":"Atlanta","conference":"East","division":"Southeast","full_name":"Atlanta Hawks","name":"Hawks"},"turnover":2},{"id":11831218,"ast":0,"blk":0,"dreb":5,"fg3_pct":null,"fg3a":0,"fg3m":0,"fg_pct":0.25,"fga":4,"fgm":1,"ft_pct":null,"fta":0,"ftm":0,"game":{"id":839444,"date":"2022-04-24T00:00:00.000Z","home_team_id":1,"home_team_score":86,"period":4,"postseason":true,"season":2021,"status":"Final","time":"","visitor_team_id":16,"visitor_team_score":110},"min":"21","oreb":2,"pf":0,"player":{"id":83,"first_name":"Clint","height_feet":6,"height_inches":10,"last_name":"Capela","position":"C","team_id":1,"weight_pounds":240},"pts":2,"reb":7,"stl":0,"team":{"id":1,"abbreviation":"ATL","city":"Atlanta","conference":"East","division":"Southeast","full_name":"Atlanta Hawks","name":"Hawks"},"turnover":0},{"id":11831219,"ast":4,"blk":0,"dreb":3,"fg3_pct":0.2,"fg3a":5,"fg3m":1,"fg_pct":0.143,"fga":7,"fgm":1,"ft_pct":0.5,"fta":2,"ftm":1,"game":{"id":839444,"date":"2022-04-24T00:00:00.000Z","home_team_id":1,"home_team_score":86,"period":4,"postseason":true,"season":2021,"status":"Final","time":"","visitor_team_id":16,"visitor_team_score":110},"min":"30","oreb":0,"pf":1,"player":{"id":221,"first_name":"Kevin","height_feet":6,"height_inches":7,"last_name":"Huerter","position":"G","team_id":26,"weight_pounds":190},"pts":4,"reb":3,"stl":0,"team":{"id":1,"abbreviation":"ATL","city":"Atlanta","conference":"East","division":"Southeast","full_name":"Atlanta Hawks","name":"Hawks"},"turnover":4},{"id":11831220,"ast":5,"blk":0,"dreb":1,"fg3_pct":0.3,"fg3a":10,"fg3m":3,"fg_pct":0.273,"fga":11,"fgm":3,"ft_pct":0,"fta":1,"ftm":0,"game":{"id":839444,"date":"2022-04-24T00:00:00.000Z","home_team_id":1,"home_team_score":86,"period":4,"postseason":true,"season":2021,"status":"Final","time":"","visitor_team_id":16,"visitor_team_score":110},"min":"36","oreb":0,"pf":3,"player":{"id":490,"first_name":"Trae","height_feet":6,"height_inches":2,"last_name":"Young","position":"G","team_id":1,"weight_pounds":180},"pts":9,"reb":1,"stl":0,"team":{"id":1,"abbreviation":"ATL","city":"Atlanta","conference":"East","division":"Southeast","full_name":"Atlanta Hawks","name":"Hawks"},"turnover":5},{"id":11831229,"ast":2,"blk":1,"dreb":4,"fg3_pct":0.333,"fg3a":3,"fg3m":1,"fg_pct":0.333,"fga":6,"fgm":2,"ft_pct":0.5,"fta":4,"ftm":2,"game":{"id":839444,"date":"2022-04-24T00:00:00.000Z","home_team_id":1,"home_team_score":86,"period":4,"postseason":true,"season":2021,"status":"Final","time":"","visitor_team_id":16,"visitor_team_score":110},"min":"26","oreb":3,"pf":0,"player":{"id":487,"first_name":"Delon","height_feet":6,"height_inches":5,"last_name":"Wright","position":"G","team_id":30,"weight_pounds":183},"pts":7,"reb":7,"stl":0,"team":{"id":1,"abbreviation":"ATL","city":"Atlanta","conference":"East","division":"Southeast","full_name":"Atlanta Hawks","name":"Hawks"},"turnover":0},{"id":11831221,"ast":1,"blk":0,"dreb":3,"fg3_pct":0,"fg3a":3,"fg3m":0,"fg_pct":0.167,"fga":6,"fgm":1,"ft_pct":0.5,"fta":4,"ftm":2,"game":{"id":839444,"date":"2022-04-24T00:00:00.000Z","home_team_id":1,"home_team_score":86,"period":4,"postseason":true,"season":2021,"status":"Final","time":"","visitor_team_id":16,"visitor_team_score":110},"min":"21","oreb":1,"pf":3,"player":{"id":53,"first_name":"Bogdan","height_feet":6,"height_inches":6,"last_name":"Bogdanovic","position":"G","team_id":1,"weight_pounds":205},"pts":4,"reb":4,"stl":0,"team":{"id":1,"abbreviation":"ATL","city":"Atlanta","conference":"East","division":"Southeast","full_name":"Atlanta Hawks","name":"Hawks"},"turnover":0},{"id":11831215,"ast":1,"blk":0,"dreb":0,"fg3_pct":null,"fg3a":0,"fg3m":0,"fg_pct":1,"fga":1,"fgm":1,"ft_pct":0,"fta":1,"ftm":0,"game":{"id":839444,"date":"2022-04-24T00:00:00.000Z","home_team_id":1,"home_team_score":86,"period":4,"postseason":true,"season":2021,"status":"Final","time":"","visitor_team_id":16,"visitor_team_score":110},"min":"3","oreb":0,"pf":0,"player":{"id":11891374,"first_name":"Omer","height_feet":null,"height_inches":null,"last_name":"Yurtseven","position":"C","team_id":16,"weight_pounds":null},"pts":2,"reb":0,"stl":0,"team":{"id":16,"abbreviation":"MIA","city":"Miami","conference":"East","division":"Southeast","full_name":"Miami Heat","name":"Heat"},"turnover":0},{"id":11831216,"ast":1,"blk":0,"dreb":2,"fg3_pct":0.667,"fg3a":6,"fg3m":4,"fg_pct":0.692,"fga":13,"fgm":9,"ft_pct":0.5,"fta":4,"ftm":2,"game":{"id":839444,"date":"2022-04-24T00:00:00.000Z","home_team_id":1,"home_team_score":86,"period":4,"postseason":true,"season":2021,"status":"Final","time":"","visitor_team_id":16,"visitor_team_score":110},"min":"30","oreb":1,"pf":2,"player":{"id":666656,"first_name":"De'Andre","height_feet":null,"height_inches":null,"last_name":"Hunter","position":"F","team_id":1,"weight_pounds":null},"pts":24,"reb":3,"stl":0,"team":{"id":1,"abbreviation":"ATL","city":"Atlanta","conference":"East","division":"Southeast","full_name":"Atlanta Hawks","name":"Hawks"},"turnover":1},{"id":11831223,"ast":1,"blk":0,"dreb":6,"fg3_pct":0,"fg3a":4,"fg3m":0,"fg_pct":0.444,"fga":9,"fgm":4,"ft_pct":1,"fta":1,"ftm":1,"game":{"id":839444,"date":"2022-04-24T00:00:00.000Z","home_team_id":1,"home_team_score":86,"period":4,"postseason":true,"season":2021,"status":"Final","time":"","visitor_team_id":16,"visitor_team_score":110},"min":"15","oreb":1,"pf":2,"player":{"id":167,"first_name":"Danilo","height_feet":6,"height_inches":10,"last_name":"Gallinari","position":"F","team_id":2,"weight_pounds":225},"pts":9,"reb":7,"stl":0,"team":{"id":1,"abbreviation":"ATL","city":"Atlanta","conference":"East","division":"Southeast","full_name":"Atlanta Hawks","name":"Hawks"},"turnover":0},{"id":11831228,"ast":0,"blk":1,"dreb":2,"fg3_pct":null,"fg3a":0,"fg3m":0,"fg_pct":0.5,"fga":2,"fgm":1,"ft_pct":1,"fta":2,"ftm":2,"game":{"id":839444,"date":"2022-04-24T00:00:00.000Z","home_team_id":1,"home_team_score":86,"period":4,"postseason":true,"season":2021,"status":"Final","time":"","visitor_team_id":16,"visitor_team_score":110},"min":"19","oreb":3,"pf":4,"player":{"id":3547244,"first_name":"Onyeka","height_feet":null,"height_inches":null,"last_name":"Okongwu","position":"F-C","team_id":1,"weight_pounds":null},"pts":4,"reb":5,"stl":0,"team":{"id":1,"abbreviation":"ATL","city":"Atlanta","conference":"East","division":"Southeast","full_name":"Atlanta Hawks","name":"Hawks"},"turnover":2},{"id":11831224,"ast":0,"blk":0,"dreb":0,"fg3_pct":0,"fg3a":0,"fg3m":0,"fg_pct":0,"fga":2,"fgm":0,"ft_pct":0,"fta":0,"ftm":0,"game":{"id":839444,"date":"2022-04-24T00:00:00.000Z","home_team_id":1,"home_team_score":86,"period":4,"postseason":true,"season":2021,"status":"Final","time":"","visitor_team_id":16,"visitor_team_score":110},"min":"4:16","oreb":0,"pf":0,"player":{"id":17896040,"first_name":"Jalen","height_feet":null,"height_inches":null,"last_name":"Johnson","position":"F","team_id":1,"weight_pounds":null},"pts":0,"reb":0,"stl":0,"team":{"id":1,"abbreviation":"ATL","city":"Atlanta","conference":"East","division":"Southeast","full_name":"Atlanta Hawks","name":"Hawks"},"turnover":1},{"id":11831227,"ast":1,"blk":0,"dreb":0,"fg3_pct":0,"fg3a":0,"fg3m":0,"fg_pct":0,"fga":0,"fgm":0,"ft_pct":0,"fta":0,"ftm":0,"game":{"id":839444,"date":"2022-04-24T00:00:00.000Z","home_team_id":1,"home_team_score":86,"period":4,"postseason":true,"season":2021,"status":"Final","time":"","visitor_team_id":16,"visitor_team_score":110},"min":"4:16","oreb":0,"pf":1,"player":{"id":3547289,"first_name":"Skylar","height_feet":null,"height_inches":null,"last_name":"Mays","position":"G","team_id":25,"weight_pounds":null},"pts":0,"reb":0,"stl":1,"team":{"id":1,"abbreviation":"ATL","city":"Atlanta","conference":"East","division":"Southeast","full_name":"Atlanta Hawks","name":"Hawks"},"turnover":0}],"meta":{"total_pages":2,"current_page":1,"next_page":2,"per_page":25,"total_count":28}}