{"data":[{"id":11966991,"ast":2,"blk":0,"dreb":4,"fg3_pct":0.5,"fg3a":6,"fg3m":3,"fg_pct":0.333,"fga":9,"fgm":3,"ft_pct":null,"fta":0,"ftm":0,"game":{"id":849550,"date":"2022-05-11T00:00:00.000Z","home_team_id":2,"home_team_score":107,"period":4,"postseason":true,"season":2021,"status":"Final","time":"","visitor_team_id":17,"visitor_team_score":110},"min":"37","oreb":3,"pf":0,"player":{"id":301,"first_name":"Wesley","height_feet":null,"height_inches":null,"last_name":"Matthews","position":"G-F","team_id":17,"weight_pounds":null},"pts":9,"reb":7,"stl":1,"team":{"id":17,"abbreviation":"MIL","city":"Milwaukee","conference":"East","division":"Central","full_name":"Milwaukee Bucks","name":"Bucks"},"turnover":0},{"id":11966992,"ast":3,"blk":1,"dreb":9,"fg3_pct":0.4,"fg3a":5,"fg3m":2,"fg_pct":0.593,"fga":27,"fgm":16,"ft_pct":0.6,"fta":10,"ftm":6,"game":{"id":849550,"date":"2022-05-11T00:00:00.000Z","home_team_id":2,"home_team_score":107,"period":4,"postseason":true,"season":2021,"status":"Final","time":"","visitor_team_id":17,"visitor_team_score":110},"min":"40","oreb":2,"pf":4,"player":{"id":15,"first_name":"Giannis","height_feet":6,"height_inches":11,"last_name":"Antetokounmpo","position":"F","team_id":17,"weight_pounds":242},"pts":40,"reb":11,"stl":1,"team":{"id":17,"abbreviation":"MIL","city":"Milwaukee","conference":"East","division":"Central","full_name":"Milwaukee Bucks","name":"Bucks"},"turnover":7},{"id":11966993,"ast":2,"blk":0,"dreb":1,"fg3_pct":0,"fg3a":2,"fg3m":0,"fg_pct":0.25,"fga":4,"fgm":1,"ft_pct":null,"fta":0,"ftm":0,"game":{"id":849550,"date":"2022-05-11T00:00:00.000Z","home_team_id":2,"home_team_score":107,"period":4,"postseason":true,"season":2021,"status":"Final","time":"","visitor_team_id":17,"visitor_team_score":110},"min":"20","oreb":2,"pf":1,"player":{"id":283,"first_name":"Brook","height_feet":7,"height_inches":0,"last_name":"Lopez","position":"C","team_id":17,"weight_pounds":270},"pts":2,"reb":3,"stl":0,"team":{"id":17,"abbreviation":"MIL","city":"Milwaukee","conference":"East","division":"Central","full_name":"Milwaukee Bucks","name":"Bucks"},"turnover":0},{"id":11966994,"ast":5,"blk":1,"dreb":1,"fg3_pct":0.5,"fg3a":2,"fg3m":1,"fg_pct":0.429,"fga":7,"fgm":3,"ft_pct":1,"fta":1,"ftm":1,"game":{"id":849550,"date":"2022-05-11T00:00:00.000Z","home_team_id":2,"home_team_score":107,"period":4,"postseason":true,"season":2021,"status":"Final","time":"","visitor_team_id":17,"visitor_team_score":110},"min":"30","oreb":1,"pf":2,"player":{"id":8,"first_name":"Grayson","height_feet":6,"height_inches":5,"last_name":"Allen","position":"G","team_id":17,"weight_pounds":198},"pts":8,"reb":2,"stl":0,"team":{"id":17,"abbreviation":"MIL","city":"Milwaukee","conference":"East","division":"Central","full_name":"Milwaukee Bucks","name":"Bucks"},"turnover":3},{"id":11966995,"ast":8,"blk":2,"dreb":7,"fg3_pct":0.571,"fg3a":7,"fg3m":4,"fg_pct":0.375,"fga":24,"fgm":9,"ft_pct":1,"fta":2,"ftm":2,"game":{"id":849550,"date":"2022-05-11T00:00:00.000Z","home_team_id":2,"home_team_score":107,"period":4,"postseason":true,"season":2021,"status":"Final","time":"","visitor_team_id":17,"visitor_team_score":110},"min":"41","oreb":1,"pf":2,"player":{"id":214,"first_name":"Jrue","height_feet":6,"height_inches":4,"last_name":"Holiday","position":"G","team_id":17,"weight_pounds":205},"pts":24,"reb":8,"stl":1,"team":{"id":17,"abbreviation":"MIL","city":"Milwaukee","conference":"East","division":"Central","full_name":"Milwaukee Bucks","name":"Bucks"},"turnover":2},{"id":11966998,"ast":0,"blk":1,"dreb":0,"fg3_pct":0.6,"fg3a":5,"fg3m":3,"fg_pct":0.571,"fga":7,"fgm":4,"ft_pct":1,"fta":2,"ftm":2,"game":{"id":849550,"date":"2022-05-11T00:00:00.000Z","home_team_id":2,"home_team_score":107,"period":4,"postseason":true,"season":2021,"status":"Final","time":"","visitor_team_id":17,"visitor_team_score":110},"min":"31","oreb":1,"pf":0,"player":{"id":105,"first_name":"Pat","height_feet":6,"height_inches":4,"last_name":"Connaughton","position":"G","team_id":17,"weight_pounds":209},"pts":13,"reb":1,"stl":1,"team":{"id":17,"abbreviation":"MIL","city":"Milwaukee","conference":"East","division":"Central","full_name":"Milwaukee Bucks","name":"Bucks"},"turnover":1},{"id":11966999,"ast":0,"blk":0,"dreb":2,"fg3_pct":0,"fg3a":0,"fg3m":0,"fg_pct":0,"fga":0,"fgm":0,"ft_pct":0,"fta":0,"ftm":0,"game":{"id":849550,"date":"2022-05-11T00:00:00.000Z","home_team_id":2,"home_team_score":107,"period":4,"postseason":true,"season":2021,"status":"Final","time":"","visitor_team_id":17,"visitor_team_score":110},"min":"12:36","oreb":0,"pf":2,"player":{"id":211,"first_name":"George","height_feet":6,"height_inches":3,"last_name":"Hill","position":"G","team_id":12,"weight_pounds":188},"pts":0,"reb":2,"stl":0,"team":{"id":17,"abbreviation":"MIL","city":"Milwaukee","conference":"East","division":"Central","full_name":"Milwaukee Bucks","name":"Bucks"},"turnover":0},{"id":11966996,"ast":0,"blk":0,"dreb":0,"fg3_pct":0,"fg3a":0,"fg3m":0,"fg_pct":0,"fga":0,"fgm":0,"ft_pct":0,"fta":0,"ftm":0,"game":{"id":849550,"date":"2022-05-11T00:00:00.000Z","home_team_id":2,"home_team_score":107,"period":4,"postseason":true,"season":2021,"status":"Final","time":"","visitor_team_id":17,"visitor_team_score":110},"min":"0:00","oreb":0,"pf":0,"player":{"id":2148,"first_name":"Thanasis","height_feet":null,"height_inches":null,"last_name":"Antetokounmpo","position":"","team_id":17,"weight_pounds":null},"pts":0,"reb":0,"stl":0,"team":{"id":17,"abbreviation":"MIL","city":"Milwaukee","conference":"East","division":"Central","full_name":"Milwaukee Bucks","name":"Bucks"},"turnover":0},{"id":11966997,"ast":0,"blk":0,"dreb":0,"fg3_pct":0,"fg3a":0,"fg3m":0,"fg_pct":0,"fga":0,"fgm":0,"ft_pct":0,"fta":0,"ftm":0,"game":{"id":849550,"date":"2022-05-11T00:00:00.000Z","home_team_id":2,"home_team_score":107,"period":4,"postseason":true,"season":2021,"status":"Final","time":"","visitor_team_id":17,"visitor_team_score":110},"min":"0:00","oreb":0,"pf":0,"player":{"id":87,"first_name":"Jevon","height_feet":6,"height_inches":2,"last_name":"Carter","position":"G","team_id":17,"weight_pounds":196},"pts":0,"reb":0,"stl":0,"team":{"id":17,"abbreviation":"MIL","city":"Milwaukee","conference":"East","division":"Central","full_name":"Milwaukee Bucks","name":"Bucks"},"turnover":0},{"id":11967000,"ast":0,"blk":0,"dreb":0,"fg3_pct":0,"fg3a":0,"fg3m":0,"fg_pct":0,"fga":0,"fgm":0,"ft_pct":0,"fta":0,"ftm":0,"game":{"id":849550,"date":"2022-05-11T00:00:00.000Z","home_team_id":2,"home_team_score":107,"period":4,"postseason":true,"season":2021,"status":"Final","time":"","visitor_team_id":17,"visitor_team_score":110},"min":"0:00","oreb":0,"pf":0,"player":{"id":223,"first_name":"Serge","height_feet":6,"height_inches":10,"last_name":"Ibaka","position":"F-C","team_id":17,"weight_pounds":235},"pts":0,"reb":0,"stl":0,"team":{"id":17,"abbreviation":"MIL","city":"Milwaukee","conference":"East","division":"Central","full_name":"Milwaukee Bucks","name":"Bucks"},"turnover":0},{"id":11967001,"ast":0,"blk":0,"dreb":0,"fg3_pct":0,"fg3a":0,"fg3m":0,"fg_pct":0,"fga":0,"fgm":0,"ft_pct":0,"fta":0,"ftm":0,"game":{"id":849550,"date":"2022-05-11T00:00:00.000Z","home_team_id":2,"home_team_score":107,"period":4,"postseason":true,"season":2021,"status":"Final","time":"","visitor_team_id":17,"visitor_team_score":110},"min":"0:00","oreb":0,"pf":0,"player":{"id":3547207,"first_name":"Jordan","height_feet":null,"height_inches":null,"last_name":"Nwora","position":"F","team_id":12,"weight_pounds":null},"pts":0,"reb":0,"stl":0,"team":{"id":17,"abbreviation":"MIL","city":"Milwaukee","conference":"East","division":"Central","full_name":"Milwaukee Bucks","name":"Bucks"},"turnover":0},{"id":11967002,"ast":2,"blk":0,"dreb":8,"fg3_pct":0,"fg3a":2,"fg3m":0,"fg_pct":0.286,"fga":14,"fgm":4,"ft_pct":1,"fta":6,"ftm":6,"game":{"id":849550,"date":"2022-05-11T00:00:00.000Z","home_team_id":2,"home_team_score":107,"period":4,"postseason":true,"season":2021,"status":"Final","time":"","visitor_team_id":17,"visitor_team_score":110},"min":"28","oreb":7,"pf":3,"player":{"id":377,"first_name":"Bobby","height_feet":6,"height_inches":11,"last_name":"Portis","position":"F","team_id":17,"weight_pounds":250},"pts":14,"reb":15,"stl":1,"team":{"id":17,"abbreviation":"MIL","city":"Milwaukee","conference":"East","division":"Central","full_name":"Milwaukee Bucks","name":"Bucks"},"turnover":0},{"id":11967003,"ast":0,"blk":0,"dreb":0,"fg3_pct":0,"fg3a":0,"fg3m":0,"fg_pct":0,"fga":0,"fgm":0,"ft_pct":0,"fta":0,"ftm":0,"game":{"id":849550,"date":"2022-05-11T00:00:00.000Z","home_team_id":2,"home_team_score":107,"period":4,"postseason":true,"season":2021,"status":"Final","time":"","visitor_team_id":17,"visitor_team_score":110},"min":"0:00","oreb":0,"pf":0,"player":{"id":666930,"first_name":"Rayjon","height_feet":null,"height_inches":null,"last_name":"Tucker","position":"F","team_id":17,"weight_pounds":null},"pts":0,"reb":0,"stl":0,"team":{"id":17,"abbreviation":"MIL","city":"Milwaukee","conference":"East","division":"Central","full_name":"Milwaukee Bucks","name":"Bucks"},"turnover":0},{"id":11967004,"ast":0,"blk":0,"dreb":0,"fg3_pct":0,"fg3a":0,"fg3m":0,"fg_pct":0,"fga":0,"fgm":0,"ft_pct":0,"fta":0,"ftm":0,"game":{"id":849550,"date":"2022-05-11T00:00:00.000Z","home_team_id":2,"home_team_score":107,"period":4,"postseason":true,"season":2021,"status":"Final","time":"","visitor_team_id":17,"visitor_team_score":110},"min":"0:00","oreb":0,"pf":0,"player":{"id":11314392,"first_name":"Luca","height_feet":null,"height_inches":null,"last_name":"Vildoza","position":"G","team_id":17,"weight_pounds":null},"pts":0,"reb":0,"stl":0,"team":{"id":17,"abbreviation":"MIL","city":"Milwaukee","conference":"East","division":"Central","full_name":"Milwaukee Bucks","name":"Bucks"},"turnover":0},{"id":11967005,"ast":4,"blk":1,"dreb":5,"fg3_pct":0.182,"fg3a":11,"fg3m":2,"fg_pct":0.414,"fga":29,"fgm":12,"ft_pct":0.889,"fta":9,"ftm":8,"game":{"id":849550,"date":"2022-05-11T00:00:00.000Z","home_team_id":2,"home_team_score":107,"period":4,"postseason":true,"season":2021,"status":"Final","time":"","visitor_team_id":17,"visitor_team_score":110},"min":"42","oreb":1,"pf":3,"player":{"id":434,"first_name":"Jayson","height_feet":6,"height_inches":8,"last_name":"Tatum","position":"F","team_id":2,"weight_pounds":208},"pts":34,"reb":6,"stl":1,"team":{"id":2,"abbreviation":"BOS","city":"Boston","conference":"East","division":"Atlantic","full_name":"Boston Celtics","name":"Celtics"},"turnover":1},{"id":11967006,"ast":1,"blk":0,"dreb":1,"fg3_pct":0,"fg3a":2,"fg3m":0,"fg_pct":0,"fga":3,"fgm":0,"ft_pct":0,"fta":0,"ftm":0,"game":{"id":849550,"date":"2022-05-11T00:00:00.000Z","home_team_id":2,"home_team_score":107,"period":4,"postseason":true,"season":2021,"status":"Final","time":"","visitor_team_id":17,"visitor_team_score":110},"min":"30:36","oreb":1,"pf":4,"player":{"id":666965,"first_name":"Grant","height_feet":null,"height_inches":null,"last_name":"Williams","position":"F","team_id":2,"weight_pounds":null},"pts":0,"reb":2,"stl":0,"team":{"id":2,"abbreviation":"BOS","city":"Boston","conference":"East","division":"Atlantic","full_name":"Boston Celtics","name":"Celtics"},"turnover":2},{"id":11967007,"ast":6,"blk":1,"dreb":7,"fg3_pct":0,"fg3a":2,"fg3m":0,"fg_pct":0.571,"fga":7,"fgm":4,"ft_pct":null,"fta":0,"ftm":0,"game":{"id":849550,"date":"2022-05-11T00:00:00.000Z","home_team_id":2,"home_team_score":107,"period":4,"postseason":true,"season":2021,"status":"Final","time":"","visitor_team_id":17,"visitor_team_score":110},"min":"41","oreb":1,"pf":3,"player":{"id":219,"first_name":"Al","height_feet":6,"height_inches":10,"last_name":"Horford","position":"C-F","team_id":2,"weight_pounds":245},"pts":8,"reb":8,"stl":3,"team":{"id":2,"abbreviation":"BOS","city":"Boston","conference":"East","division":"Atlantic","full_name":"Boston Celtics","name":"Celtics"},"turnover":1},{"id":11967008,"ast":6,"blk":1,"dreb":6,"fg3_pct":0.429,"fg3a":7,"fg3m":3,"fg_pct":0.474,"fga":19,"fgm":9,"ft_pct":0.833,"fta":6,"ftm":5,"game":{"id":849550,"date":"2022-05-11T00:00:00.000Z","home_team_id":2,"home_team_score":107,"period":4,"postseason":true,"season":2021,"status":"Final","time":"","visitor_team_id":17,"visitor_team_score":110},"min":"35","oreb":2,"pf":3,"player":{"id":70,"first_name":"Jaylen","height_feet":6,"height_inches":7,"last_name":"Brown","position":"G","team_id":2,"weight_pounds":220},"pts":26,"reb":8,"stl":0,"team":{"id":2,"abbreviation":"BOS","city":"Boston","conference":"East","division":"Atlantic","full_name":"Boston Celtics","name":"Celtics"},"turnover":2},{"id":11967009,"ast":1,"blk":1,"dreb":4,"fg3_pct":0.6,"fg3a":5,"fg3m":3,"fg_pct":0.545,"fga":11,"fgm":6,"ft_pct":null,"fta":0,"ftm":0,"game":{"id":849550,"date":"2022-05-11T00:00:00.000Z","home_team_id":2,"home_team_score":107,"period":4,"postseason":true,"season":2021,"status":"Final","time":"","visitor_team_id":17,"visitor_team_score":110},"min":"38","oreb":0,"pf":2,"player":{"id":420,"first_name":"Marcus","height_feet":6,"height_inches":4,"last_name":"Smart","position":"G","team_id":2,"weight_pounds":220},"pts":15,"reb":4,"stl":2,"team":{"id":2,"abbreviation":"BOS","city":"Boston","conference":"East","division":"Atlantic","full_name":"Boston Celtics","name":"Celtics"},"turnover":3},{"id":11967017,"ast":6,"blk":2,"dreb":5,"fg3_pct":0.5,"fg3a":2,"fg3m":1,"fg_pct":0.8,"fga":5,"fgm":4,"ft_pct":null,"fta":0,"ftm":0,"game":{"id":849550,"date":"2022-05-11T00:00:00.000Z","home_team_id":2,"home_team_score":107,"period":4,"postseason":true,"season":2021,"status":"Final","time":"","visitor_team_id":17,"visitor_team_score":110},"min":"32","oreb":0,"pf":2,"player":{"id":473,"first_name":"Derrick","height_feet":6,"height_inches":4,"last_name":"White","position":"G","team_id":2,"weight_pounds":190},"pts":9,"reb":5,"stl":0,"team":{"id":2,"abbreviation":"BOS","city":"Boston","conference":"East","division":"Atlantic","full_name":"Boston Celtics","name":"Celtics"},"turnover":1},{"id":11967016,"ast":0,"blk":1,"dreb":1,"fg3_pct":1,"fg3a":1,"fg3m":1,"fg_pct":1,"fga":5,"fgm":5,"ft_pct":null,"fta":0,"ftm":0,"game":{"id":849550,"date":"2022-05-11T00:00:00.000Z","home_team_id":2,"home_team_score":107,"period":4,"postseason":true,"season":2021,"status":"Final","time":"","visitor_team_id":17,"visitor_team_score":110},"min":"11","oreb":0,"pf":2,"player":{"id":439,"first_name":"Daniel","height_feet":6,"height_inches":8,"last_name":"Theis","position":"F","team_id":12,"weight_pounds":243},"pts":11,"reb":1,"stl":0,"team":{"id":2,"abbreviation":"BOS","city":"Boston","conference":"East","division":"Atlantic","full_name":"Boston Celtics","name":"Celtics"},"turnover":0},{"id":11967014,"ast":1,"blk":0,"dreb":2,"fg3_pct":0,"fg3a":1,"fg3m":0,"fg_pct":0.667,"fga":3,"fgm":2,"ft_pct":null,"fta":0,"ftm":0,"game":{"id":849550,"date":"2022-05-11T00:00:00.000Z","home_team_id":2,"home_team_score":107,"period":4,"postseason":true,"season":2021,"status":"Final","time":"","visitor_team_id":17,"visitor_team_score":110},"min":"10","oreb":0,"pf":0,"player":{"id":3547276,"first_name":"Payton","height_feet":null,"height_inches":null,"last_name":"Pritchard","position":"G","team_id":2,"weight_pounds":null},"pts":4,"reb":2,"stl":0,"team":{"id":2,"abbreviation":"BOS","city":"Boston","conference":"East","division":"Atlantic","full_name":"Boston Celtics","name":"Celtics"},"turnover":0},{"id":11967010,"ast":0,"blk":0,"dreb":0,"fg3_pct":0,"fg3a":0,"fg3m":0,"fg_pct":0,"fga":0,"fgm":0,"ft_pct":0,"fta":0,"ftm":0,"game":{"id":849550,"date":"2022-05-11T00:00:00.000Z","home_team_id":2,"home_team_score":107,"period":4,"postseason":true,"season":2021,"status":"Final","time":"","visitor_team_id":17,"visitor_team_score":110},"min":"0:00","oreb":0,"pf":0,"player":{"id":9338307,"first_name":"Malik","height_feet":null,"height_inches":null,"last_name":"Fitts","position":"F","team_id":2,"weight_pounds":null},"pts":0,"reb":0,"stl":0,"team":{"id":2,"abbreviation":"BOS","city":"Boston","conference":"East","division":"Atlantic","full_name":"Boston Celtics","name":"Celtics"},"turnover":0},{"id":11967011,"ast":0,"blk":0,"dreb":0,"fg3_pct":0,"fg3a":0,"fg3m":0,"fg_pct":0,"fga":0,"fgm":0,"ft_pct":0,"fta":0,"ftm":0,"game":{"id":849550,"date":"2022-05-11T00:00:00.000Z","home_team_id":2,"home_team_score":107,"period":4,"postseason":true,"season":2021,"status":"Final","time":"","visitor_team_id":17,"visitor_team_score":110},"min":"0:00","oreb":0,"pf":0,"player":{"id":261,"first_name":"Luke","height_feet":7,"height_inches":1,"last_name":"Kornet","position":"F-C","team_id":2,"weight_pounds":250},"pts":0,"reb":0,"stl":0,"team":{"id":2,"abbreviation":"BOS","city":"Boston","conference":"East","division":"Atlantic","full_name":"Boston Celtics","name":"Celtics"},"turnover":0},{"id":11967012,"ast":0,"blk":0,"dreb":0,"fg3_pct":0,"fg3a":0,"fg3m":0,"fg_pct":0,"fga":0,"fgm":0,"ft_pct":0,"fta":0,"ftm":0,"game":{"id":849550,"date":"2022-05-11T00:00:00.000Z","home_team_id":2,"home_team_score":107,"period":4,"postseason":true,"season":2021,"status":"Final","time":"","visitor_team_id":17,"visitor_team_score":110},"min":"0:00","oreb":0,"pf":0,"player":{"id":666788,"first_name":"Juwan","height_feet":null,"height_inches":null,"last_name":"Morgan","position":"F","team_id":2,"weight_pounds":null},"pts":0,"reb":0,"stl":0,"team":{"id":2,"abbreviation":"BOS","city":"Boston","conference":"East","division":"Atlantic","full_name":"Boston Celtics","name":"Celtics"},"turnover":0}],"meta":{"total_pages":2,"current_page":1,"next_page":2,"per_page":25,"total_count":27}}