{"data":[{"id":7116235,"ast":0,"blk":0,"dreb":0,"fg3_pct":0,"fg3a":0,"fg3m":0,"fg_pct":0,"fga":0,"fgm":0,"ft_pct":0,"fta":0,"ftm":0,"game":{"id":459132,"date":"2021-08-12T00:00:00.000Z","home_team_id":1,"home_team_score":88,"period":5,"postseason":false,"season":2021,"status":"Final","time":"","visitor_team_id":23,"visitor_team_score":96},"min":"0:00","oreb":0,"pf":0,"player":{"id":17895839,"first_name":"Javin","height_feet":null,"height_inches":null,"last_name":"DeLaurier","position":"F","team_id":17,"weight_pounds":null},"pts":0,"reb":0,"stl":0,"team":{"id":1,"abbreviation":"ATL","city":"Atlanta","conference":"East","division":"Southeast","full_name":"Atlanta Hawks","name":"Hawks"},"turnover":0},{"id":7116215,"ast":2,"blk":0,"dreb":1,"fg3_pct":0,"fg3a":3,"fg3m":0,"fg_pct":33.3,"fga":9,"fgm":3,"ft_pct":50,"fta":2,"ftm":1,"game":{"id":459132,"date":"2021-08-12T00:00:00.000Z","home_team_id":1,"home_team_score":88,"period":5,"postseason":false,"season":2021,"status":"Final","time":"","visitor_team_id":23,"visitor_team_score":96},"min":"28:47","oreb":1,"pf":2,"player":{"id":17896025,"first_name":"Jaden","height_feet":null,"height_inches":null,"last_name":"Springer","position":"G","team_id":23,"weight_pounds":null},"pts":7,"reb":2,"stl":1,"team":{"id":23,"abbreviation":"PHI","city":"Philadelphia","conference":"East","division":"Atlantic","full_name":"Philadelphia 76ers","name":"76ers"},"turnover":1},{"id":7116216,"ast":3,"blk":1,"dreb":6,"fg3_pct":0,"fg3a":1,"fg3m":0,"fg_pct":57.1,"fga":14,"fgm":8,"ft_pct":80,"fta":5,"ftm":4,"game":{"id":459132,"date":"2021-08-12T00:00:00.000Z","home_team_id":1,"home_team_score":88,"period":5,"postseason":false,"season":2021,"status":"Final","time":"","visitor_team_id":23,"visitor_team_score":96},"min":"30:54","oreb":6,"pf":3,"player":{"id":3547270,"first_name":"Paul","height_feet":null,"height_inches":null,"last_name":"Reed","position":"F","team_id":23,"weight_pounds":null},"pts":20,"reb":12,"stl":2,"team":{"id":23,"abbreviation":"PHI","city":"Philadelphia","conference":"East","division":"Atlantic","full_name":"Philadelphia 76ers","name":"76ers"},"turnover":1},{"id":7116217,"ast":2,"blk":2,"dreb":3,"fg3_pct":0,"fg3a":1,"fg3m":0,"fg_pct":57.1,"fga":7,"fgm":4,"ft_pct":0,"fta":0,"ftm":0,"game":{"id":459132,"date":"2021-08-12T00:00:00.000Z","home_team_id":1,"home_team_score":88,"period":5,"postseason":false,"season":2021,"status":"Final","time":"","visitor_team_id":23,"visitor_team_score":96},"min":"23:47","oreb":3,"pf":3,"player":{"id":17895941,"first_name":"Filip","height_feet":null,"height_inches":null,"last_name":"Petrusev","position":"C","team_id":23,"weight_pounds":null},"pts":8,"reb":6,"stl":1,"team":{"id":23,"abbreviation":"PHI","city":"Philadelphia","conference":"East","division":"Atlantic","full_name":"Philadelphia 76ers","name":"76ers"},"turnover":0},{"id":7116218,"ast":4,"blk":0,"dreb":5,"fg3_pct":38.5,"fg3a":13,"fg3m":5,"fg_pct":40,"fga":15,"fgm":6,"ft_pct":100,"fta":4,"ftm":4,"game":{"id":459132,"date":"2021-08-12T00:00:00.000Z","home_team_id":1,"home_team_score":88,"period":5,"postseason":false,"season":2021,"status":"Final","time":"","visitor_team_id":23,"visitor_team_score":96},"min":"36:03","oreb":0,"pf":2,"player":{"id":3547272,"first_name":"Isaiah","height_feet":null,"height_inches":null,"last_name":"Joe","position":"G","team_id":21,"weight_pounds":null},"pts":21,"reb":5,"stl":1,"team":{"id":23,"abbreviation":"PHI","city":"Philadelphia","conference":"East","division":"Atlantic","full_name":"Philadelphia 76ers","name":"76ers"},"turnover":3},{"id":7116219,"ast":5,"blk":2,"dreb":6,"fg3_pct":12.5,"fg3a":8,"fg3m":1,"fg_pct":47.8,"fga":23,"fgm":11,"ft_pct":100,"fta":8,"ftm":8,"game":{"id":459132,"date":"2021-08-12T00:00:00.000Z","home_team_id":1,"home_team_score":88,"period":5,"postseason":false,"season":2021,"status":"Final","time":"","visitor_team_id":23,"visitor_team_score":96},"min":"33:25","oreb":0,"pf":3,"player":{"id":3547254,"first_name":"Tyrese","height_feet":null,"height_inches":null,"last_name":"Maxey","position":"G","team_id":23,"weight_pounds":null},"pts":31,"reb":6,"stl":1,"team":{"id":23,"abbreviation":"PHI","city":"Philadelphia","conference":"East","division":"Atlantic","full_name":"Philadelphia 76ers","name":"76ers"},"turnover":1},{"id":7116222,"ast":1,"blk":1,"dreb":3,"fg3_pct":0,"fg3a":1,"fg3m":0,"fg_pct":33.3,"fga":3,"fgm":1,"ft_pct":0,"fta":0,"ftm":0,"game":{"id":459132,"date":"2021-08-12T00:00:00.000Z","home_team_id":1,"home_team_score":88,"period":5,"postseason":false,"season":2021,"status":"Final","time":"","visitor_team_id":23,"visitor_team_score":96},"min":"14:30","oreb":0,"pf":1,"player":{"id":17896053,"first_name":"Aaron","height_feet":null,"height_inches":null,"last_name":"Henry","position":"G","team_id":23,"weight_pounds":null},"pts":2,"reb":3,"stl":0,"team":{"id":23,"abbreviation":"PHI","city":"Philadelphia","conference":"East","division":"Atlantic","full_name":"Philadelphia 76ers","name":"76ers"},"turnover":0},{"id":7116228,"ast":1,"blk":1,"dreb":1,"fg3_pct":0,"fg3a":3,"fg3m":0,"fg_pct":0,"fga":4,"fgm":0,"ft_pct":50,"fta":2,"ftm":1,"game":{"id":459132,"date":"2021-08-12T00:00:00.000Z","home_team_id":1,"home_team_score":88,"period":5,"postseason":false,"season":2021,"status":"Final","time":"","visitor_team_id":23,"visitor_team_score":96},"min":"18:15","oreb":0,"pf":3,"player":{"id":666930,"first_name":"Rayjon","height_feet":null,"height_inches":null,"last_name":"Tucker","position":"F","team_id":17,"weight_pounds":null},"pts":1,"reb":1,"stl":0,"team":{"id":23,"abbreviation":"PHI","city":"Philadelphia","conference":"East","division":"Atlantic","full_name":"Philadelphia 76ers","name":"76ers"},"turnover":1},{"id":7116227,"ast":0,"blk":0,"dreb":1,"fg3_pct":0,"fg3a":2,"fg3m":0,"fg_pct":0,"fga":2,"fgm":0,"ft_pct":0,"fta":0,"ftm":0,"game":{"id":459132,"date":"2021-08-12T00:00:00.000Z","home_team_id":1,"home_team_score":88,"period":5,"postseason":false,"season":2021,"status":"Final","time":"","visitor_team_id":23,"visitor_team_score":96},"min":"7:58","oreb":0,"pf":0,"player":{"id":666840,"first_name":"Lamar","height_feet":null,"height_inches":null,"last_name":"Peters","position":"G","team_id":23,"weight_pounds":null},"pts":0,"reb":1,"stl":1,"team":{"id":23,"abbreviation":"PHI","city":"Philadelphia","conference":"East","division":"Atlantic","full_name":"Philadelphia 76ers","name":"76ers"},"turnover":0},{"id":7116236,"ast":0,"blk":0,"dreb":0,"fg3_pct":0,"fg3a":0,"fg3m":0,"fg_pct":0,"fga":0,"fgm":0,"ft_pct":0,"fta":0,"ftm":0,"game":{"id":459132,"date":"2021-08-12T00:00:00.000Z","home_team_id":1,"home_team_score":88,"period":5,"postseason":false,"season":2021,"status":"Final","time":"","visitor_team_id":23,"visitor_team_score":96},"min":"0:00","oreb":0,"pf":0,"player":{"id":17895721,"first_name":"Juwan","height_feet":null,"height_inches":null,"last_name":"Durham","position":"F","team_id":1,"weight_pounds":null},"pts":0,"reb":0,"stl":0,"team":{"id":1,"abbreviation":"ATL","city":"Atlanta","conference":"East","division":"Southeast","full_name":"Atlanta Hawks","name":"Hawks"},"turnover":0},{"id":7116223,"ast":1,"blk":0,"dreb":3,"fg3_pct":50,"fg3a":2,"fg3m":1,"fg_pct":66.7,"fga":3,"fgm":2,"ft_pct":100,"fta":1,"ftm":1,"game":{"id":459132,"date":"2021-08-12T00:00:00.000Z","home_team_id":1,"home_team_score":88,"period":5,"postseason":false,"season":2021,"status":"Final","time":"","visitor_team_id":23,"visitor_team_score":96},"min":"12:54","oreb":1,"pf":1,"player":{"id":17896007,"first_name":"Braxton","height_feet":null,"height_inches":null,"last_name":"Key","position":"G","team_id":9,"weight_pounds":null},"pts":6,"reb":4,"stl":0,"team":{"id":23,"abbreviation":"PHI","city":"Philadelphia","conference":"East","division":"Atlantic","full_name":"Philadelphia 76ers","name":"76ers"},"turnover":1},{"id":7116226,"ast":0,"blk":0,"dreb":1,"fg3_pct":0,"fg3a":1,"fg3m":0,"fg_pct":0,"fga":1,"fgm":0,"ft_pct":0,"fta":0,"ftm":0,"game":{"id":459132,"date":"2021-08-12T00:00:00.000Z","home_team_id":1,"home_team_score":88,"period":5,"postseason":false,"season":2021,"status":"Final","time":"","visitor_team_id":23,"visitor_team_score":96},"min":"3:25","oreb":0,"pf":1,"player":{"id":17895968,"first_name":"Daishen","height_feet":null,"height_inches":null,"last_name":"Nix","position":"F","team_id":11,"weight_pounds":null},"pts":0,"reb":1,"stl":0,"team":{"id":23,"abbreviation":"PHI","city":"Philadelphia","conference":"East","division":"Atlantic","full_name":"Philadelphia 76ers","name":"76ers"},"turnover":1},{"id":7116220,"ast":0,"blk":0,"dreb":0,"fg3_pct":0,"fg3a":0,"fg3m":0,"fg_pct":0,"fga":0,"fgm":0,"ft_pct":0,"fta":0,"ftm":0,"game":{"id":459132,"date":"2021-08-12T00:00:00.000Z","home_team_id":1,"home_team_score":88,"period":5,"postseason":false,"season":2021,"status":"Final","time":"","visitor_team_id":23,"visitor_team_score":96},"min":"0:00","oreb":0,"pf":0,"player":{"id":17896102,"first_name":"Mitch","height_feet":null,"height_inches":null,"last_name":"Ballock","position":"G","team_id":6,"weight_pounds":null},"pts":0,"reb":0,"stl":0,"team":{"id":23,"abbreviation":"PHI","city":"Philadelphia","conference":"East","division":"Atlantic","full_name":"Philadelphia 76ers","name":"76ers"},"turnover":0},{"id":7116221,"ast":0,"blk":0,"dreb":0,"fg3_pct":0,"fg3a":0,"fg3m":0,"fg_pct":0,"fga":0,"fgm":0,"ft_pct":0,"fta":0,"ftm":0,"game":{"id":459132,"date":"2021-08-12T00:00:00.000Z","home_team_id":1,"home_team_score":88,"period":5,"postseason":false,"season":2021,"status":"Final","time":"","visitor_team_id":23,"visitor_team_score":96},"min":"0:00","oreb":0,"pf":0,"player":{"id":17895854,"first_name":"Charles","height_feet":null,"height_inches":null,"last_name":"Bassey","position":"G","team_id":27,"weight_pounds":null},"pts":0,"reb":0,"stl":0,"team":{"id":23,"abbreviation":"PHI","city":"Philadelphia","conference":"East","division":"Atlantic","full_name":"Philadelphia 76ers","name":"76ers"},"turnover":0},{"id":7116224,"ast":0,"blk":0,"dreb":0,"fg3_pct":0,"fg3a":0,"fg3m":0,"fg_pct":0,"fga":0,"fgm":0,"ft_pct":0,"fta":0,"ftm":0,"game":{"id":459132,"date":"2021-08-12T00:00:00.000Z","home_team_id":1,"home_team_score":88,"period":5,"postseason":false,"season":2021,"status":"Final","time":"","visitor_team_id":23,"visitor_team_score":96},"min":"0:00","oreb":0,"pf":0,"player":{"id":299,"first_name":"Frank","height_feet":5,"height_inches":11,"last_name":"Mason","position":"G","team_id":23,"weight_pounds":190},"pts":0,"reb":0,"stl":0,"team":{"id":23,"abbreviation":"PHI","city":"Philadelphia","conference":"East","division":"Atlantic","full_name":"Philadelphia 76ers","name":"76ers"},"turnover":0},{"id":7116225,"ast":0,"blk":0,"dreb":0,"fg3_pct":0,"fg3a":0,"fg3m":0,"fg_pct":0,"fga":0,"fgm":0,"ft_pct":0,"fta":0,"ftm":0,"game":{"id":459132,"date":"2021-08-12T00:00:00.000Z","home_team_id":1,"home_team_score":88,"period":5,"postseason":false,"season":2021,"status":"Final","time":"","visitor_team_id":23,"visitor_team_score":96},"min":"0:00","oreb":0,"pf":0,"player":{"id":17895865,"first_name":"Charles","height_feet":null,"height_inches":null,"last_name":"Matthews","position":"F","team_id":23,"weight_pounds":null},"pts":0,"reb":0,"stl":0,"team":{"id":23,"abbreviation":"PHI","city":"Philadelphia","conference":"East","division":"Atlantic","full_name":"Philadelphia 76ers","name":"76ers"},"turnover":0},{"id":7116229,"ast":1,"blk":0,"dreb":3,"fg3_pct":50,"fg3a":4,"fg3m":2,"fg_pct":50,"fga":10,"fgm":5,"ft_pct":0,"fta":0,"ftm":0,"game":{"id":459132,"date":"2021-08-12T00:00:00.000Z","home_team_id":1,"home_team_score":88,"period":5,"postseason":false,"season":2021,"status":"Final","time":"","visitor_team_id":23,"visitor_team_score":96},"min":"25:46","oreb":2,"pf":2,"player":{"id":5,"first_name":"DeVaughn","height_feet":null,"height_inches":null,"last_name":"Akoon-Purcell","position":"G-F","team_id":1,"weight_pounds":null},"pts":12,"reb":5,"stl":0,"team":{"id":1,"abbreviation":"ATL","city":"Atlanta","conference":"East","division":"Southeast","full_name":"Atlanta Hawks","name":"Hawks"},"turnover":2},{"id":7116230,"ast":2,"blk":1,"dreb":9,"fg3_pct":33.3,"fg3a":3,"fg3m":1,"fg_pct":46.2,"fga":13,"fgm":6,"ft_pct":0,"fta":0,"ftm":0,"game":{"id":459132,"date":"2021-08-12T00:00:00.000Z","home_team_id":1,"home_team_score":88,"period":5,"postseason":false,"season":2021,"status":"Final","time":"","visitor_team_id":23,"visitor_team_score":96},"min":"28:11","oreb":2,"pf":3,"player":{"id":17896040,"first_name":"Jalen","height_feet":null,"height_inches":null,"last_name":"Johnson","position":"F","team_id":1,"weight_pounds":null},"pts":13,"reb":11,"stl":0,"team":{"id":1,"abbreviation":"ATL","city":"Atlanta","conference":"East","division":"Southeast","full_name":"Atlanta Hawks","name":"Hawks"},"turnover":0},{"id":7116231,"ast":0,"blk":0,"dreb":1,"fg3_pct":0,"fg3a":0,"fg3m":0,"fg_pct":100,"fga":2,"fgm":2,"ft_pct":0,"fta":0,"ftm":0,"game":{"id":459132,"date":"2021-08-12T00:00:00.000Z","home_team_id":1,"home_team_score":88,"period":5,"postseason":false,"season":2021,"status":"Final","time":"","visitor_team_id":23,"visitor_team_score":96},"min":"10:06","oreb":1,"pf":1,"player":{"id":41,"first_name":"Jordan","height_feet":6,"height_inches":9,"last_name":"Bell","position":"F","team_id":5,"weight_pounds":224},"pts":4,"reb":2,"stl":1,"team":{"id":1,"abbreviation":"ATL","city":"Atlanta","conference":"East","division":"Southeast","full_name":"Atlanta Hawks","name":"Hawks"},"turnover":2},{"id":7116232,"ast":2,"blk":1,"dreb":3,"fg3_pct":25,"fg3a":8,"fg3m":2,"fg_pct":53.3,"fga":15,"fgm":8,"ft_pct":100,"fta":2,"ftm":2,"game":{"id":459132,"date":"2021-08-12T00:00:00.000Z","home_team_id":1,"home_team_score":88,"period":5,"postseason":false,"season":2021,"status":"Final","time":"","visitor_team_id":23,"visitor_team_score":96},"min":"25:56","oreb":0,"pf":1,"player":{"id":3547289,"first_name":"Skylar","height_feet":null,"height_inches":null,"last_name":"Mays","position":"G","team_id":25,"weight_pounds":null},"pts":20,"reb":3,"stl":1,"team":{"id":1,"abbreviation":"ATL","city":"Atlanta","conference":"East","division":"Southeast","full_name":"Atlanta Hawks","name":"Hawks"},"turnover":1},{"id":7116233,"ast":12,"blk":0,"dreb":1,"fg3_pct":0,"fg3a":4,"fg3m":0,"fg_pct":50,"fga":18,"fgm":9,"ft_pct":75,"fta":4,"ftm":3,"game":{"id":459132,"date":"2021-08-12T00:00:00.000Z","home_team_id":1,"home_team_score":88,"period":5,"postseason":false,"season":2021,"status":"Final","time":"","visitor_team_id":23,"visitor_team_score":96},"min":"33:22","oreb":0,"pf":3,"player":{"id":17896029,"first_name":"Sharife","height_feet":null,"height_inches":null,"last_name":"Cooper","position":"G","team_id":1,"weight_pounds":null},"pts":21,"reb":1,"stl":0,"team":{"id":1,"abbreviation":"ATL","city":"Atlanta","conference":"East","division":"Southeast","full_name":"Atlanta Hawks","name":"Hawks"},"turnover":5},{"id":7116241,"ast":1,"blk":1,"dreb":4,"fg3_pct":0,"fg3a":0,"fg3m":0,"fg_pct":100,"fga":1,"fgm":1,"ft_pct":0,"fta":0,"ftm":0,"game":{"id":459132,"date":"2021-08-12T00:00:00.000Z","home_team_id":1,"home_team_score":88,"period":5,"postseason":false,"season":2021,"status":"Final","time":"","visitor_team_id":23,"visitor_team_score":96},"min":"13:49","oreb":1,"pf":2,"player":{"id":2106,"first_name":"Eric","height_feet":null,"height_inches":null,"last_name":"Moreland","position":"","team_id":1,"weight_pounds":null},"pts":2,"reb":5,"stl":1,"team":{"id":1,"abbreviation":"ATL","city":"Atlanta","conference":"East","division":"Southeast","full_name":"Atlanta Hawks","name":"Hawks"},"turnover":2},{"id":7116237,"ast":0,"blk":0,"dreb":1,"fg3_pct":50,"fg3a":2,"fg3m":1,"fg_pct":25,"fga":4,"fgm":1,"ft_pct":0,"fta":0,"ftm":0,"game":{"id":459132,"date":"2021-08-12T00:00:00.000Z","home_team_id":1,"home_team_score":88,"period":5,"postseason":false,"season":2021,"status":"Final","time":"","visitor_team_id":23,"visitor_team_score":96},"min":"11:43","oreb":0,"pf":3,"player":{"id":17895722,"first_name":"Max","height_feet":null,"height_inches":null,"last_name":"Heidegger","position":"G","team_id":1,"weight_pounds":null},"pts":3,"reb":1,"stl":0,"team":{"id":1,"abbreviation":"ATL","city":"Atlanta","conference":"East","division":"Southeast","full_name":"Atlanta Hawks","name":"Hawks"},"turnover":0},{"id":7116238,"ast":0,"blk":0,"dreb":0,"fg3_pct":0,"fg3a":0,"fg3m":0,"fg_pct":0,"fga":0,"fgm":0,"ft_pct":0,"fta":0,"ftm":0,"game":{"id":459132,"date":"2021-08-12T00:00:00.000Z","home_team_id":1,"home_team_score":88,"period":5,"postseason":false,"season":2021,"status":"Final","time":"","visitor_team_id":23,"visitor_team_score":96},"min":"0:00","oreb":0,"pf":0,"player":{"id":17895723,"first_name":"Justin","height_feet":null,"height_inches":null,"last_name":"Jaworski","position":"G","team_id":1,"weight_pounds":null},"pts":0,"reb":0,"stl":0,"team":{"id":1,"abbreviation":"ATL","city":"Atlanta","conference":"East","division":"Southeast","full_name":"Atlanta Hawks","name":"Hawks"},"turnover":0},{"id":7116240,"ast":0,"blk":0,"dreb":0,"fg3_pct":0,"fg3a":0,"fg3m":0,"fg_pct":0,"fga":0,"fgm":0,"ft_pct":0,"fta":0,"ftm":0,"game":{"id":459132,"date":"2021-08-12T00:00:00.000Z","home_team_id":1,"home_team_score":88,"period":5,"postseason":false,"season":2021,"status":"Final","time":"","visitor_team_id":23,"visitor_team_score":96},"min":"0:00","oreb":0,"pf":0,"player":{"id":666750,"first_name":"Jeremiah","height_feet":null,"height_inches":null,"last_name":"Martin","position":"G","team_id":6,"weight_pounds":null},"pts":0,"reb":0,"stl":0,"team":{"id":1,"abbreviation":"ATL","city":"Atlanta","conference":"East","division":"Southeast","full_name":"Atlanta Hawks","name":"Hawks"},"turnover":0}],"meta":{"total_pages":2,"current_page":1,"next_page":2,"per_page":25,"total_count":29}}