{"data":[{"id":11433987,"ast":3,"blk":0,"dreb":7,"fg3_pct":0.8,"fg3a":10,"fg3m":8,"fg_pct":0.679,"fga":28,"fgm":19,"ft_pct":0.818,"fta":11,"ftm":9,"game":{"id":474573,"date":"2022-04-02T00:00:00.000Z","home_team_id":1,"home_team_score":122,"period":4,"postseason":false,"season":2021,"status":"Final","time":"","visitor_team_id":3,"visitor_team_score":115},"min":"42","oreb":0,"pf":1,"player":{"id":140,"first_name":"Kevin","height_feet":6,"height_inches":9,"last_name":"Durant","position":"F","team_id":24,"weight_pounds":240},"pts":55,"reb":7,"stl":1,"team":{"id":3,"abbreviation":"BKN","city":"Brooklyn","conference":"East","division":"Atlantic","full_name":"Brooklyn Nets","name":"Nets"},"turnover":4},{"id":11433988,"ast":0,"blk":1,"dreb":3,"fg3_pct":0.5,"fg3a":4,"fg3m":2,"fg_pct":0.5,"fga":6,"fgm":3,"ft_pct":1,"fta":1,"ftm":1,"game":{"id":474573,"date":"2022-04-02T00:00:00.000Z","home_team_id":1,"home_team_score":122,"period":4,"postseason":false,"season":2021,"status":"Final","time":"","visitor_team_id":3,"visitor_team_score":115},"min":"19","oreb":0,"pf":4,"player":{"id":17896044,"first_name":"Kessler","height_feet":null,"height_inches":null,"last_name":"Edwards","position":"F","team_id":26,"weight_pounds":null},"pts":9,"reb":3,"stl":0,"team":{"id":3,"abbreviation":"BKN","city":"Brooklyn","conference":"East","division":"Atlantic","full_name":"Brooklyn Nets","name":"Nets"},"turnover":0},{"id":11433989,"ast":1,"blk":1,"dreb":7,"fg3_pct":null,"fg3a":0,"fg3m":0,"fg_pct":0.364,"fga":11,"fgm":4,"ft_pct":null,"fta":0,"ftm":0,"game":{"id":474573,"date":"2022-04-02T00:00:00.000Z","home_team_id":1,"home_team_score":122,"period":4,"postseason":false,"season":2021,"status":"Final","time":"","visitor_team_id":3,"visitor_team_score":115},"min":"18","oreb":6,"pf":2,"player":{"id":137,"first_name":"Andre","height_feet":6,"height_inches":11,"last_name":"Drummond","position":"C","team_id":5,"weight_pounds":279},"pts":8,"reb":13,"stl":2,"team":{"id":3,"abbreviation":"BKN","city":"Brooklyn","conference":"East","division":"Atlantic","full_name":"Brooklyn Nets","name":"Nets"},"turnover":1},{"id":11433990,"ast":1,"blk":0,"dreb":1,"fg3_pct":0,"fg3a":5,"fg3m":0,"fg_pct":0,"fga":7,"fgm":0,"ft_pct":0,"fta":0,"ftm":0,"game":{"id":474573,"date":"2022-04-02T00:00:00.000Z","home_team_id":1,"home_team_score":122,"period":4,"postseason":false,"season":2021,"status":"Final","time":"","visitor_team_id":3,"visitor_team_score":115},"min":"30:31","oreb":0,"pf":4,"player":{"id":319,"first_name":"Patty","height_feet":6,"height_inches":0,"last_name":"Mills","position":"G","team_id":3,"weight_pounds":180},"pts":0,"reb":1,"stl":0,"team":{"id":3,"abbreviation":"BKN","city":"Brooklyn","conference":"East","division":"Atlantic","full_name":"Brooklyn Nets","name":"Nets"},"turnover":2},{"id":11433991,"ast":6,"blk":0,"dreb":2,"fg3_pct":0.5,"fg3a":14,"fg3m":7,"fg_pct":0.375,"fga":32,"fgm":12,"ft_pct":null,"fta":0,"ftm":0,"game":{"id":474573,"date":"2022-04-02T00:00:00.000Z","home_team_id":1,"home_team_score":122,"period":4,"postseason":false,"season":2021,"status":"Final","time":"","visitor_team_id":3,"visitor_team_score":115},"min":"44","oreb":0,"pf":5,"player":{"id":228,"first_name":"Kyrie","height_feet":6,"height_inches":3,"last_name":"Irving","position":"G","team_id":7,"weight_pounds":193},"pts":31,"reb":2,"stl":1,"team":{"id":3,"abbreviation":"BKN","city":"Brooklyn","conference":"East","division":"Atlantic","full_name":"Brooklyn Nets","name":"Nets"},"turnover":2},{"id":11433999,"ast":2,"blk":0,"dreb":8,"fg3_pct":0,"fg3a":1,"fg3m":0,"fg_pct":0.143,"fga":7,"fgm":1,"ft_pct":0.6,"fta":5,"ftm":3,"game":{"id":474573,"date":"2022-04-02T00:00:00.000Z","home_team_id":1,"home_team_score":122,"period":4,"postseason":false,"season":2021,"status":"Final","time":"","visitor_team_id":3,"visitor_team_score":115},"min":"24","oreb":0,"pf":4,"player":{"id":17896048,"first_name":"Cam","height_feet":null,"height_inches":null,"last_name":"Thomas","position":"G","team_id":3,"weight_pounds":null},"pts":5,"reb":8,"stl":1,"team":{"id":3,"abbreviation":"BKN","city":"Brooklyn","conference":"East","division":"Atlantic","full_name":"Brooklyn Nets","name":"Nets"},"turnover":2},{"id":11433993,"ast":1,"blk":1,"dreb":5,"fg3_pct":null,"fg3a":0,"fg3m":0,"fg_pct":0.5,"fga":4,"fgm":2,"ft_pct":null,"fta":0,"ftm":0,"game":{"id":474573,"date":"2022-04-02T00:00:00.000Z","home_team_id":1,"home_team_score":122,"period":4,"postseason":false,"season":2021,"status":"Final","time":"","visitor_team_id":3,"visitor_team_score":115},"min":"24","oreb":2,"pf":3,"player":{"id":666508,"first_name":"Nicolas","height_feet":null,"height_inches":null,"last_name":"Claxton","position":"F-C","team_id":3,"weight_pounds":null},"pts":4,"reb":7,"stl":0,"team":{"id":3,"abbreviation":"BKN","city":"Brooklyn","conference":"East","division":"Atlantic","full_name":"Brooklyn Nets","name":"Nets"},"turnover":0},{"id":11433997,"ast":3,"blk":0,"dreb":7,"fg3_pct":0,"fg3a":2,"fg3m":0,"fg_pct":0.333,"fga":3,"fgm":1,"ft_pct":0.5,"fta":2,"ftm":1,"game":{"id":474573,"date":"2022-04-02T00:00:00.000Z","home_team_id":1,"home_team_score":122,"period":4,"postseason":false,"season":2021,"status":"Final","time":"","visitor_team_id":3,"visitor_team_score":115},"min":"31","oreb":2,"pf":4,"player":{"id":242,"first_name":"James","height_feet":6,"height_inches":8,"last_name":"Johnson","position":"F","team_id":12,"weight_pounds":240},"pts":3,"reb":9,"stl":0,"team":{"id":3,"abbreviation":"BKN","city":"Brooklyn","conference":"East","division":"Atlantic","full_name":"Brooklyn Nets","name":"Nets"},"turnover":2},{"id":11433996,"ast":0,"blk":0,"dreb":2,"fg3_pct":0,"fg3a":1,"fg3m":0,"fg_pct":0,"fga":1,"fgm":0,"ft_pct":0,"fta":0,"ftm":0,"game":{"id":474573,"date":"2022-04-02T00:00:00.000Z","home_team_id":1,"home_team_score":122,"period":4,"postseason":false,"season":2021,"status":"Final","time":"","visitor_team_id":3,"visitor_team_score":115},"min":"6:01","oreb":0,"pf":2,"player":{"id":189,"first_name":"Blake","height_feet":6,"height_inches":10,"last_name":"Griffin","position":"F","team_id":2,"weight_pounds":250},"pts":0,"reb":2,"stl":0,"team":{"id":3,"abbreviation":"BKN","city":"Brooklyn","conference":"East","division":"Atlantic","full_name":"Brooklyn Nets","name":"Nets"},"turnover":0},{"id":11433992,"ast":0,"blk":0,"dreb":0,"fg3_pct":0,"fg3a":0,"fg3m":0,"fg_pct":0,"fga":0,"fgm":0,"ft_pct":0,"fta":0,"ftm":0,"game":{"id":474573,"date":"2022-04-02T00:00:00.000Z","home_team_id":1,"home_team_score":122,"period":4,"postseason":false,"season":2021,"status":"Final","time":"","visitor_team_id":3,"visitor_team_score":115},"min":"0:00","oreb":0,"pf":0,"player":{"id":6,"first_name":"LaMarcus","height_feet":6,"height_inches":11,"last_name":"Aldridge","position":"F","team_id":3,"weight_pounds":260},"pts":0,"reb":0,"stl":0,"team":{"id":3,"abbreviation":"BKN","city":"Brooklyn","conference":"East","division":"Atlantic","full_name":"Brooklyn Nets","name":"Nets"},"turnover":0},{"id":11433994,"ast":0,"blk":0,"dreb":0,"fg3_pct":0,"fg3a":0,"fg3m":0,"fg_pct":0,"fga":0,"fgm":0,"ft_pct":0,"fta":0,"ftm":0,"game":{"id":474573,"date":"2022-04-02T00:00:00.000Z","home_team_id":1,"home_team_score":122,"period":4,"postseason":false,"season":2021,"status":"Final","time":"","visitor_team_id":3,"visitor_team_score":115},"min":"","oreb":0,"pf":0,"player":{"id":114,"first_name":"Seth","height_feet":6,"height_inches":2,"last_name":"Curry","position":"G","team_id":3,"weight_pounds":185},"pts":0,"reb":0,"stl":0,"team":{"id":3,"abbreviation":"BKN","city":"Brooklyn","conference":"East","division":"Atlantic","full_name":"Brooklyn Nets","name":"Nets"},"turnover":0},{"id":11433995,"ast":0,"blk":0,"dreb":0,"fg3_pct":0,"fg3a":0,"fg3m":0,"fg_pct":0,"fga":0,"fgm":0,"ft_pct":0,"fta":0,"ftm":0,"game":{"id":474573,"date":"2022-04-02T00:00:00.000Z","home_team_id":1,"home_team_score":122,"period":4,"postseason":false,"season":2021,"status":"Final","time":"","visitor_team_id":3,"visitor_team_score":115},"min":"0:00","oreb":0,"pf":0,"player":{"id":17896049,"first_name":"David","height_feet":null,"height_inches":null,"last_name":"Duke Jr.","position":"G","team_id":3,"weight_pounds":null},"pts":0,"reb":0,"stl":0,"team":{"id":3,"abbreviation":"BKN","city":"Brooklyn","conference":"East","division":"Atlantic","full_name":"Brooklyn Nets","name":"Nets"},"turnover":0},{"id":11433998,"ast":0,"blk":0,"dreb":0,"fg3_pct":0,"fg3a":0,"fg3m":0,"fg_pct":0,"fga":0,"fgm":0,"ft_pct":0,"fta":0,"ftm":0,"game":{"id":474573,"date":"2022-04-02T00:00:00.000Z","home_team_id":1,"home_team_score":122,"period":4,"postseason":false,"season":2021,"status":"Final","time":"","visitor_team_id":3,"visitor_team_score":115},"min":"0:00","oreb":0,"pf":0,"player":{"id":17896038,"first_name":"Day'Ron","height_feet":null,"height_inches":null,"last_name":"Sharpe","position":"C","team_id":3,"weight_pounds":null},"pts":0,"reb":0,"stl":0,"team":{"id":3,"abbreviation":"BKN","city":"Brooklyn","conference":"East","division":"Atlantic","full_name":"Brooklyn Nets","name":"Nets"},"turnover":0},{"id":11434000,"ast":1,"blk":0,"dreb":3,"fg3_pct":0.25,"fg3a":4,"fg3m":1,"fg_pct":0.375,"fga":8,"fgm":3,"ft_pct":0.8,"fta":5,"ftm":4,"game":{"id":474573,"date":"2022-04-02T00:00:00.000Z","home_team_id":1,"home_team_score":122,"period":4,"postseason":false,"season":2021,"status":"Final","time":"","visitor_team_id":3,"visitor_team_score":115},"min":"22","oreb":1,"pf":3,"player":{"id":288,"first_name":"Timothe","height_feet":6,"height_inches":6,"last_name":"Luwawu-Cabarrot","position":"G-F","team_id":1,"weight_pounds":210},"pts":11,"reb":4,"stl":1,"team":{"id":1,"abbreviation":"ATL","city":"Atlanta","conference":"East","division":"Southeast","full_name":"Atlanta Hawks","name":"Hawks"},"turnover":0},{"id":11434001,"ast":2,"blk":0,"dreb":9,"fg3_pct":0.5,"fg3a":2,"fg3m":1,"fg_pct":0.571,"fga":7,"fgm":4,"ft_pct":0.75,"fta":8,"ftm":6,"game":{"id":474573,"date":"2022-04-02T00:00:00.000Z","home_team_id":1,"home_team_score":122,"period":4,"postseason":false,"season":2021,"status":"Final","time":"","visitor_team_id":3,"visitor_team_score":115},"min":"27","oreb":1,"pf":4,"player":{"id":666656,"first_name":"De'Andre","height_feet":null,"height_inches":null,"last_name":"Hunter","position":"F","team_id":1,"weight_pounds":null},"pts":15,"reb":10,"stl":0,"team":{"id":1,"abbreviation":"ATL","city":"Atlanta","conference":"East","division":"Southeast","full_name":"Atlanta Hawks","name":"Hawks"},"turnover":0},{"id":11434003,"ast":0,"blk":0,"dreb":4,"fg3_pct":0.143,"fg3a":7,"fg3m":1,"fg_pct":0.2,"fga":10,"fgm":2,"ft_pct":null,"fta":0,"ftm":0,"game":{"id":474573,"date":"2022-04-02T00:00:00.000Z","home_team_id":1,"home_team_score":122,"period":4,"postseason":false,"season":2021,"status":"Final","time":"","visitor_team_id":3,"visitor_team_score":115},"min":"30","oreb":0,"pf":3,"player":{"id":221,"first_name":"Kevin","height_feet":6,"height_inches":7,"last_name":"Huerter","position":"G","team_id":26,"weight_pounds":190},"pts":5,"reb":4,"stl":0,"team":{"id":1,"abbreviation":"ATL","city":"Atlanta","conference":"East","division":"Southeast","full_name":"Atlanta Hawks","name":"Hawks"},"turnover":1},{"id":11434004,"ast":10,"blk":0,"dreb":5,"fg3_pct":0.444,"fg3a":9,"fg3m":4,"fg_pct":0.417,"fga":24,"fgm":10,"ft_pct":0.857,"fta":14,"ftm":12,"game":{"id":474573,"date":"2022-04-02T00:00:00.000Z","home_team_id":1,"home_team_score":122,"period":4,"postseason":false,"season":2021,"status":"Final","time":"","visitor_team_id":3,"visitor_team_score":115},"min":"35","oreb":1,"pf":2,"player":{"id":490,"first_name":"Trae","height_feet":6,"height_inches":2,"last_name":"Young","position":"G","team_id":1,"weight_pounds":180},"pts":36,"reb":6,"stl":0,"team":{"id":1,"abbreviation":"ATL","city":"Atlanta","conference":"East","division":"Southeast","full_name":"Atlanta Hawks","name":"Hawks"},"turnover":3},{"id":11434005,"ast":2,"blk":0,"dreb":1,"fg3_pct":0,"fg3a":6,"fg3m":0,"fg_pct":0.333,"fga":9,"fgm":3,"ft_pct":1,"fta":2,"ftm":2,"game":{"id":474573,"date":"2022-04-02T00:00:00.000Z","home_team_id":1,"home_team_score":122,"period":4,"postseason":false,"season":2021,"status":"Final","time":"","visitor_team_id":3,"visitor_team_score":115},"min":"24","oreb":0,"pf":2,"player":{"id":53,"first_name":"Bogdan","height_feet":6,"height_inches":6,"last_name":"Bogdanovic","position":"G","team_id":1,"weight_pounds":205},"pts":8,"reb":1,"stl":2,"team":{"id":1,"abbreviation":"ATL","city":"Atlanta","conference":"East","division":"Southeast","full_name":"Atlanta Hawks","name":"Hawks"},"turnover":1},{"id":11434010,"ast":0,"blk":2,"dreb":5,"fg3_pct":null,"fg3a":0,"fg3m":0,"fg_pct":0.5,"fga":2,"fgm":1,"ft_pct":0.667,"fta":6,"ftm":4,"game":{"id":474573,"date":"2022-04-02T00:00:00.000Z","home_team_id":1,"home_team_score":122,"period":4,"postseason":false,"season":2021,"status":"Final","time":"","visitor_team_id":3,"visitor_team_score":115},"min":"18","oreb":1,"pf":1,"player":{"id":3547244,"first_name":"Onyeka","height_feet":null,"height_inches":null,"last_name":"Okongwu","position":"F-C","team_id":1,"weight_pounds":null},"pts":6,"reb":6,"stl":2,"team":{"id":1,"abbreviation":"ATL","city":"Atlanta","conference":"East","division":"Southeast","full_name":"Atlanta Hawks","name":"Hawks"},"turnover":0},{"id":11434012,"ast":1,"blk":1,"dreb":3,"fg3_pct":0.5,"fg3a":6,"fg3m":3,"fg_pct":0.5,"fga":6,"fgm":3,"ft_pct":null,"fta":0,"ftm":0,"game":{"id":474573,"date":"2022-04-02T00:00:00.000Z","home_team_id":1,"home_team_score":122,"period":4,"postseason":false,"season":2021,"status":"Final","time":"","visitor_team_id":3,"visitor_team_score":115},"min":"17","oreb":1,"pf":0,"player":{"id":487,"first_name":"Delon","height_feet":6,"height_inches":5,"last_name":"Wright","position":"G","team_id":30,"weight_pounds":183},"pts":9,"reb":4,"stl":2,"team":{"id":1,"abbreviation":"ATL","city":"Atlanta","conference":"East","division":"Southeast","full_name":"Atlanta Hawks","name":"Hawks"},"turnover":0},{"id":11434011,"ast":0,"blk":0,"dreb":1,"fg3_pct":0.5,"fg3a":2,"fg3m":1,"fg_pct":0.2,"fga":5,"fgm":1,"ft_pct":0.833,"fta":6,"ftm":5,"game":{"id":474573,"date":"2022-04-02T00:00:00.000Z","home_team_id":1,"home_team_score":122,"period":4,"postseason":false,"season":2021,"status":"Final","time":"","visitor_team_id":3,"visitor_team_score":115},"min":"13","oreb":1,"pf":0,"player":{"id":481,"first_name":"Lou","height_feet":6,"height_inches":1,"last_name":"Williams","position":"G","team_id":1,"weight_pounds":175},"pts":8,"reb":2,"stl":0,"team":{"id":1,"abbreviation":"ATL","city":"Atlanta","conference":"East","division":"Southeast","full_name":"Atlanta Hawks","name":"Hawks"},"turnover":1},{"id":11434002,"ast":1,"blk":1,"dreb":8,"fg3_pct":null,"fg3a":0,"fg3m":0,"fg_pct":0.667,"fga":6,"fgm":4,"ft_pct":0.25,"fta":4,"ftm":1,"game":{"id":474573,"date":"2022-04-02T00:00:00.000Z","home_team_id":1,"home_team_score":122,"period":4,"postseason":false,"season":2021,"status":"Final","time":"","visitor_team_id":3,"visitor_team_score":115},"min":"30","oreb":4,"pf":2,"player":{"id":83,"first_name":"Clint","height_feet":6,"height_inches":10,"last_name":"Capela","position":"C","team_id":1,"weight_pounds":240},"pts":9,"reb":12,"stl":2,"team":{"id":1,"abbreviation":"ATL","city":"Atlanta","conference":"East","division":"Southeast","full_name":"Atlanta Hawks","name":"Hawks"},"turnover":0},{"id":11434006,"ast":0,"blk":0,"dreb":0,"fg3_pct":0,"fg3a":0,"fg3m":0,"fg_pct":0,"fga":0,"fgm":0,"ft_pct":0,"fta":0,"ftm":0,"game":{"id":474573,"date":"2022-04-02T00:00:00.000Z","home_team_id":1,"home_team_score":122,"period":4,"postseason":false,"season":2021,"status":"Final","time":"","visitor_team_id":3,"visitor_team_score":115},"min":"0:00","oreb":0,"pf":0,"player":{"id":129,"first_name":"Gorgui","height_feet":6,"height_inches":11,"last_name":"Dieng","position":"C","team_id":27,"weight_pounds":252},"pts":0,"reb":0,"stl":0,"team":{"id":1,"abbreviation":"ATL","city":"Atlanta","conference":"East","division":"Southeast","full_name":"Atlanta Hawks","name":"Hawks"},"turnover":0},{"id":11434008,"ast":0,"blk":0,"dreb":0,"fg3_pct":0,"fg3a":0,"fg3m":0,"fg_pct":0,"fga":0,"fgm":0,"ft_pct":0,"fta":0,"ftm":0,"game":{"id":474573,"date":"2022-04-02T00:00:00.000Z","home_team_id":1,"home_team_score":122,"period":4,"postseason":false,"season":2021,"status":"Final","time":"","visitor_team_id":3,"visitor_team_score":115},"min":"0:00","oreb":0,"pf":0,"player":{"id":259,"first_name":"Kevin","height_feet":6,"height_inches":9,"last_name":"Knox","position":"F","team_id":25,"weight_pounds":215},"pts":0,"reb":0,"stl":0,"team":{"id":1,"abbreviation":"ATL","city":"Atlanta","conference":"East","division":"Southeast","full_name":"Atlanta Hawks","name":"Hawks"},"turnover":0},{"id":11434009,"ast":0,"blk":0,"dreb":0,"fg3_pct":0,"fg3a":0,"fg3m":0,"fg_pct":0,"fga":0,"fgm":0,"ft_pct":0,"fta":0,"ftm":0,"game":{"id":474573,"date":"2022-04-02T00:00:00.000Z","home_team_id":1,"home_team_score":122,"period":4,"postseason":false,"season":2021,"status":"Final","time":"","visitor_team_id":3,"visitor_team_score":115},"min":"0:00","oreb":0,"pf":0,"player":{"id":3547289,"first_name":"Skylar","height_feet":null,"height_inches":null,"last_name":"Mays","position":"G","team_id":25,"weight_pounds":null},"pts":0,"reb":0,"stl":0,"team":{"id":1,"abbreviation":"ATL","city":"Atlanta","conference":"East","division":"Southeast","full_name":"Atlanta Hawks","name":"Hawks"},"turnover":0}],"meta":{"total_pages":2,"current_page":1,"next_page":2,"per_page":25,"total_count":26}}