{"data":[{"id":11933596,"ast":3,"blk":4,"dreb":1,"fg3_pct":0,"fg3a":6,"fg3m":0,"fg_pct":0.211,"fga":19,"fgm":4,"ft_pct":0.667,"fta":3,"ftm":2,"game":{"id":847246,"date":"2022-05-07T00:00:00.000Z","home_team_id":17,"home_team_score":103,"period":4,"postseason":true,"season":2021,"status":"Final","time":"","visitor_team_id":2,"visitor_team_score":101},"min":"41","oreb":0,"pf":1,"player":{"id":434,"first_name":"Jayson","height_feet":6,"height_inches":8,"last_name":"Tatum","position":"F","team_id":2,"weight_pounds":208},"pts":10,"reb":1,"stl":1,"team":{"id":2,"abbreviation":"BOS","city":"Boston","conference":"East","division":"Atlantic","full_name":"Boston Celtics","name":"Celtics"},"turnover":3},{"id":11933597,"ast":5,"blk":2,"dreb":13,"fg3_pct":0.571,"fg3a":7,"fg3m":4,"fg_pct":0.529,"fga":17,"fgm":9,"ft_pct":null,"fta":0,"ftm":0,"game":{"id":847246,"date":"2022-05-07T00:00:00.000Z","home_team_id":17,"home_team_score":103,"period":4,"postseason":true,"season":2021,"status":"Final","time":"","visitor_team_id":2,"visitor_team_score":101},"min":"39","oreb":3,"pf":4,"player":{"id":219,"first_name":"Al","height_feet":6,"height_inches":10,"last_name":"Horford","position":"C-F","team_id":2,"weight_pounds":245},"pts":22,"reb":16,"stl":0,"team":{"id":2,"abbreviation":"BOS","city":"Boston","conference":"East","division":"Atlantic","full_name":"Boston Celtics","name":"Celtics"},"turnover":0},{"id":11933599,"ast":4,"blk":1,"dreb":12,"fg3_pct":0.2,"fg3a":5,"fg3m":1,"fg_pct":0.5,"fga":16,"fgm":8,"ft_pct":0.909,"fta":11,"ftm":10,"game":{"id":847246,"date":"2022-05-07T00:00:00.000Z","home_team_id":17,"home_team_score":103,"period":4,"postseason":true,"season":2021,"status":"Final","time":"","visitor_team_id":2,"visitor_team_score":101},"min":"40","oreb":0,"pf":3,"player":{"id":70,"first_name":"Jaylen","height_feet":6,"height_inches":7,"last_name":"Brown","position":"G","team_id":2,"weight_pounds":220},"pts":27,"reb":12,"stl":0,"team":{"id":2,"abbreviation":"BOS","city":"Boston","conference":"East","division":"Atlantic","full_name":"Boston Celtics","name":"Celtics"},"turnover":4},{"id":11933600,"ast":2,"blk":0,"dreb":1,"fg3_pct":0.25,"fg3a":4,"fg3m":1,"fg_pct":0.125,"fga":8,"fgm":1,"ft_pct":0.75,"fta":8,"ftm":6,"game":{"id":847246,"date":"2022-05-07T00:00:00.000Z","home_team_id":17,"home_team_score":103,"period":4,"postseason":true,"season":2021,"status":"Final","time":"","visitor_team_id":2,"visitor_team_score":101},"min":"29","oreb":1,"pf":3,"player":{"id":420,"first_name":"Marcus","height_feet":6,"height_inches":4,"last_name":"Smart","position":"G","team_id":2,"weight_pounds":220},"pts":9,"reb":2,"stl":1,"team":{"id":2,"abbreviation":"BOS","city":"Boston","conference":"East","division":"Atlantic","full_name":"Boston Celtics","name":"Celtics"},"turnover":3},{"id":11933601,"ast":2,"blk":3,"dreb":4,"fg3_pct":0.167,"fg3a":6,"fg3m":1,"fg_pct":0.222,"fga":9,"fgm":2,"ft_pct":1,"fta":4,"ftm":4,"game":{"id":847246,"date":"2022-05-07T00:00:00.000Z","home_team_id":17,"home_team_score":103,"period":4,"postseason":true,"season":2021,"status":"Final","time":"","visitor_team_id":2,"visitor_team_score":101},"min":"34","oreb":2,"pf":5,"player":{"id":666965,"first_name":"Grant","height_feet":null,"height_inches":null,"last_name":"Williams","position":"F","team_id":2,"weight_pounds":null},"pts":9,"reb":6,"stl":0,"team":{"id":2,"abbreviation":"BOS","city":"Boston","conference":"East","division":"Atlantic","full_name":"Boston Celtics","name":"Celtics"},"turnover":1},{"id":11933602,"ast":0,"blk":0,"dreb":0,"fg3_pct":0,"fg3a":0,"fg3m":0,"fg_pct":0,"fga":0,"fgm":0,"ft_pct":0,"fta":0,"ftm":0,"game":{"id":847246,"date":"2022-05-07T00:00:00.000Z","home_team_id":17,"home_team_score":103,"period":4,"postseason":true,"season":2021,"status":"Final","time":"","visitor_team_id":2,"visitor_team_score":101},"min":"0:00","oreb":0,"pf":0,"player":{"id":9338307,"first_name":"Malik","height_feet":null,"height_inches":null,"last_name":"Fitts","position":"F","team_id":2,"weight_pounds":null},"pts":0,"reb":0,"stl":0,"team":{"id":2,"abbreviation":"BOS","city":"Boston","conference":"East","division":"Atlantic","full_name":"Boston Celtics","name":"Celtics"},"turnover":0},{"id":11933603,"ast":0,"blk":0,"dreb":0,"fg3_pct":0,"fg3a":0,"fg3m":0,"fg_pct":0,"fga":0,"fgm":0,"ft_pct":0,"fta":0,"ftm":0,"game":{"id":847246,"date":"2022-05-07T00:00:00.000Z","home_team_id":17,"home_team_score":103,"period":4,"postseason":true,"season":2021,"status":"Final","time":"","visitor_team_id":2,"visitor_team_score":101},"min":"0:00","oreb":0,"pf":0,"player":{"id":261,"first_name":"Luke","height_feet":7,"height_inches":1,"last_name":"Kornet","position":"F-C","team_id":2,"weight_pounds":250},"pts":0,"reb":0,"stl":0,"team":{"id":2,"abbreviation":"BOS","city":"Boston","conference":"East","division":"Atlantic","full_name":"Boston Celtics","name":"Celtics"},"turnover":0},{"id":11933604,"ast":0,"blk":0,"dreb":0,"fg3_pct":0,"fg3a":0,"fg3m":0,"fg_pct":0,"fga":0,"fgm":0,"ft_pct":0,"fta":0,"ftm":0,"game":{"id":847246,"date":"2022-05-07T00:00:00.000Z","home_team_id":17,"home_team_score":103,"period":4,"postseason":true,"season":2021,"status":"Final","time":"","visitor_team_id":2,"visitor_team_score":101},"min":"0:00","oreb":0,"pf":0,"player":{"id":666788,"first_name":"Juwan","height_feet":null,"height_inches":null,"last_name":"Morgan","position":"F","team_id":2,"weight_pounds":null},"pts":0,"reb":0,"stl":0,"team":{"id":2,"abbreviation":"BOS","city":"Boston","conference":"East","division":"Atlantic","full_name":"Boston Celtics","name":"Celtics"},"turnover":0},{"id":11933605,"ast":0,"blk":0,"dreb":0,"fg3_pct":0,"fg3a":0,"fg3m":0,"fg_pct":0,"fga":0,"fgm":0,"ft_pct":0,"fta":0,"ftm":0,"game":{"id":847246,"date":"2022-05-07T00:00:00.000Z","home_team_id":17,"home_team_score":103,"period":4,"postseason":true,"season":2021,"status":"Final","time":"","visitor_team_id":2,"visitor_team_score":101},"min":"0:00","oreb":0,"pf":0,"player":{"id":3547250,"first_name":"Aaron","height_feet":null,"height_inches":null,"last_name":"Nesmith","position":"G-F","team_id":12,"weight_pounds":null},"pts":0,"reb":0,"stl":0,"team":{"id":2,"abbreviation":"BOS","city":"Boston","conference":"East","division":"Atlantic","full_name":"Boston Celtics","name":"Celtics"},"turnover":0},{"id":11933609,"ast":0,"blk":0,"dreb":2,"fg3_pct":0.667,"fg3a":3,"fg3m":2,"fg_pct":0.5,"fga":6,"fgm":3,"ft_pct":0.75,"fta":8,"ftm":6,"game":{"id":847246,"date":"2022-05-07T00:00:00.000Z","home_team_id":17,"home_team_score":103,"period":4,"postseason":true,"season":2021,"status":"Final","time":"","visitor_team_id":2,"visitor_team_score":101},"min":"21","oreb":0,"pf":0,"player":{"id":473,"first_name":"Derrick","height_feet":6,"height_inches":4,"last_name":"White","position":"G","team_id":2,"weight_pounds":190},"pts":14,"reb":2,"stl":1,"team":{"id":2,"abbreviation":"BOS","city":"Boston","conference":"East","division":"Atlantic","full_name":"Boston Celtics","name":"Celtics"},"turnover":0},{"id":11933606,"ast":3,"blk":0,"dreb":1,"fg3_pct":0,"fg3a":2,"fg3m":0,"fg_pct":0,"fga":3,"fgm":0,"ft_pct":0,"fta":0,"ftm":0,"game":{"id":847246,"date":"2022-05-07T00:00:00.000Z","home_team_id":17,"home_team_score":103,"period":4,"postseason":true,"season":2021,"status":"Final","time":"","visitor_team_id":2,"visitor_team_score":101},"min":"10:37","oreb":1,"pf":2,"player":{"id":3547276,"first_name":"Payton","height_feet":null,"height_inches":null,"last_name":"Pritchard","position":"G","team_id":2,"weight_pounds":null},"pts":0,"reb":2,"stl":0,"team":{"id":2,"abbreviation":"BOS","city":"Boston","conference":"East","division":"Atlantic","full_name":"Boston Celtics","name":"Celtics"},"turnover":0},{"id":11933608,"ast":0,"blk":0,"dreb":1,"fg3_pct":0,"fg3a":0,"fg3m":0,"fg_pct":0,"fga":0,"fgm":0,"ft_pct":0,"fta":0,"ftm":0,"game":{"id":847246,"date":"2022-05-07T00:00:00.000Z","home_team_id":17,"home_team_score":103,"period":4,"postseason":true,"season":2021,"status":"Final","time":"","visitor_team_id":2,"visitor_team_score":101},"min":"2:17","oreb":0,"pf":1,"player":{"id":439,"first_name":"Daniel","height_feet":6,"height_inches":8,"last_name":"Theis","position":"F","team_id":12,"weight_pounds":243},"pts":0,"reb":1,"stl":0,"team":{"id":2,"abbreviation":"BOS","city":"Boston","conference":"East","division":"Atlantic","full_name":"Boston Celtics","name":"Celtics"},"turnover":1},{"id":11933607,"ast":0,"blk":0,"dreb":0,"fg3_pct":0,"fg3a":0,"fg3m":0,"fg_pct":0,"fga":0,"fgm":0,"ft_pct":0,"fta":0,"ftm":0,"game":{"id":847246,"date":"2022-05-07T00:00:00.000Z","home_team_id":17,"home_team_score":103,"period":4,"postseason":true,"season":2021,"status":"Final","time":"","visitor_team_id":2,"visitor_team_score":101},"min":"0:00","oreb":0,"pf":0,"player":{"id":429,"first_name":"Nik","height_feet":6,"height_inches":6,"last_name":"Stauskas","position":"G","team_id":2,"weight_pounds":205},"pts":0,"reb":0,"stl":0,"team":{"id":2,"abbreviation":"BOS","city":"Boston","conference":"East","division":"Atlantic","full_name":"Boston Celtics","name":"Celtics"},"turnover":0},{"id":11933610,"ast":0,"blk":0,"dreb":1,"fg3_pct":0.5,"fg3a":2,"fg3m":1,"fg_pct":0.2,"fga":5,"fgm":1,"ft_pct":null,"fta":0,"ftm":0,"game":{"id":847246,"date":"2022-05-07T00:00:00.000Z","home_team_id":17,"home_team_score":103,"period":4,"postseason":true,"season":2021,"status":"Final","time":"","visitor_team_id":2,"visitor_team_score":101},"min":"32","oreb":3,"pf":4,"player":{"id":301,"first_name":"Wesley","height_feet":null,"height_inches":null,"last_name":"Matthews","position":"G-F","team_id":17,"weight_pounds":null},"pts":3,"reb":4,"stl":0,"team":{"id":17,"abbreviation":"MIL","city":"Milwaukee","conference":"East","division":"Central","full_name":"Milwaukee Bucks","name":"Bucks"},"turnover":0},{"id":11933611,"ast":8,"blk":2,"dreb":10,"fg3_pct":0.167,"fg3a":6,"fg3m":1,"fg_pct":0.533,"fga":30,"fgm":16,"ft_pct":0.75,"fta":12,"ftm":9,"game":{"id":847246,"date":"2022-05-07T00:00:00.000Z","home_team_id":17,"home_team_score":103,"period":4,"postseason":true,"season":2021,"status":"Final","time":"","visitor_team_id":2,"visitor_team_score":101},"min":"39","oreb":2,"pf":4,"player":{"id":15,"first_name":"Giannis","height_feet":6,"height_inches":11,"last_name":"Antetokounmpo","position":"F","team_id":17,"weight_pounds":242},"pts":42,"reb":12,"stl":2,"team":{"id":17,"abbreviation":"MIL","city":"Milwaukee","conference":"East","division":"Central","full_name":"Milwaukee Bucks","name":"Bucks"},"turnover":3},{"id":11933612,"ast":2,"blk":0,"dreb":7,"fg3_pct":null,"fg3a":0,"fg3m":0,"fg_pct":0.5,"fga":10,"fgm":5,"ft_pct":1,"fta":3,"ftm":3,"game":{"id":847246,"date":"2022-05-07T00:00:00.000Z","home_team_id":17,"home_team_score":103,"period":4,"postseason":true,"season":2021,"status":"Final","time":"","visitor_team_id":2,"visitor_team_score":101},"min":"29","oreb":3,"pf":4,"player":{"id":283,"first_name":"Brook","height_feet":7,"height_inches":0,"last_name":"Lopez","position":"C","team_id":17,"weight_pounds":270},"pts":13,"reb":10,"stl":2,"team":{"id":17,"abbreviation":"MIL","city":"Milwaukee","conference":"East","division":"Central","full_name":"Milwaukee Bucks","name":"Bucks"},"turnover":1},{"id":11933613,"ast":4,"blk":0,"dreb":3,"fg3_pct":0,"fg3a":3,"fg3m":0,"fg_pct":0,"fga":3,"fgm":0,"ft_pct":0,"fta":0,"ftm":0,"game":{"id":847246,"date":"2022-05-07T00:00:00.000Z","home_team_id":17,"home_team_score":103,"period":4,"postseason":true,"season":2021,"status":"Final","time":"","visitor_team_id":2,"visitor_team_score":101},"min":"25:26","oreb":1,"pf":4,"player":{"id":8,"first_name":"Grayson","height_feet":6,"height_inches":5,"last_name":"Allen","position":"G","team_id":17,"weight_pounds":198},"pts":0,"reb":4,"stl":0,"team":{"id":17,"abbreviation":"MIL","city":"Milwaukee","conference":"East","division":"Central","full_name":"Milwaukee Bucks","name":"Bucks"},"turnover":1},{"id":11933614,"ast":3,"blk":1,"dreb":6,"fg3_pct":0.3,"fg3a":10,"fg3m":3,"fg_pct":0.367,"fga":30,"fgm":11,"ft_pct":null,"fta":0,"ftm":0,"game":{"id":847246,"date":"2022-05-07T00:00:00.000Z","home_team_id":17,"home_team_score":103,"period":4,"postseason":true,"season":2021,"status":"Final","time":"","visitor_team_id":2,"visitor_team_score":101},"min":"43","oreb":1,"pf":3,"player":{"id":214,"first_name":"Jrue","height_feet":6,"height_inches":4,"last_name":"Holiday","position":"G","team_id":17,"weight_pounds":205},"pts":25,"reb":7,"stl":3,"team":{"id":17,"abbreviation":"MIL","city":"Milwaukee","conference":"East","division":"Central","full_name":"Milwaukee Bucks","name":"Bucks"},"turnover":3},{"id":11933621,"ast":1,"blk":1,"dreb":4,"fg3_pct":0.25,"fg3a":4,"fg3m":1,"fg_pct":0.333,"fga":9,"fgm":3,"ft_pct":1,"fta":2,"ftm":2,"game":{"id":847246,"date":"2022-05-07T00:00:00.000Z","home_team_id":17,"home_team_score":103,"period":4,"postseason":true,"season":2021,"status":"Final","time":"","visitor_team_id":2,"visitor_team_score":101},"min":"26","oreb":3,"pf":3,"player":{"id":377,"first_name":"Bobby","height_feet":6,"height_inches":11,"last_name":"Portis","position":"F","team_id":17,"weight_pounds":250},"pts":9,"reb":7,"stl":1,"team":{"id":17,"abbreviation":"MIL","city":"Milwaukee","conference":"East","division":"Central","full_name":"Milwaukee Bucks","name":"Bucks"},"turnover":2},{"id":11933617,"ast":1,"blk":0,"dreb":8,"fg3_pct":0.375,"fg3a":8,"fg3m":3,"fg_pct":0.4,"fga":10,"fgm":4,"ft_pct":null,"fta":0,"ftm":0,"game":{"id":847246,"date":"2022-05-07T00:00:00.000Z","home_team_id":17,"home_team_score":103,"period":4,"postseason":true,"season":2021,"status":"Final","time":"","visitor_team_id":2,"visitor_team_score":101},"min":"33","oreb":0,"pf":3,"player":{"id":105,"first_name":"Pat","height_feet":6,"height_inches":4,"last_name":"Connaughton","position":"G","team_id":17,"weight_pounds":209},"pts":11,"reb":8,"stl":0,"team":{"id":17,"abbreviation":"MIL","city":"Milwaukee","conference":"East","division":"Central","full_name":"Milwaukee Bucks","name":"Bucks"},"turnover":0},{"id":11933618,"ast":1,"blk":0,"dreb":0,"fg3_pct":0,"fg3a":1,"fg3m":0,"fg_pct":0,"fga":1,"fgm":0,"ft_pct":0,"fta":0,"ftm":0,"game":{"id":847246,"date":"2022-05-07T00:00:00.000Z","home_team_id":17,"home_team_score":103,"period":4,"postseason":true,"season":2021,"status":"Final","time":"","visitor_team_id":2,"visitor_team_score":101},"min":"10:52","oreb":0,"pf":1,"player":{"id":211,"first_name":"George","height_feet":6,"height_inches":3,"last_name":"Hill","position":"G","team_id":12,"weight_pounds":188},"pts":0,"reb":0,"stl":0,"team":{"id":17,"abbreviation":"MIL","city":"Milwaukee","conference":"East","division":"Central","full_name":"Milwaukee Bucks","name":"Bucks"},"turnover":0},{"id":11933616,"ast":0,"blk":0,"dreb":1,"fg3_pct":0,"fg3a":0,"fg3m":0,"fg_pct":0,"fga":1,"fgm":0,"ft_pct":0,"fta":0,"ftm":0,"game":{"id":847246,"date":"2022-05-07T00:00:00.000Z","home_team_id":17,"home_team_score":103,"period":4,"postseason":true,"season":2021,"status":"Final","time":"","visitor_team_id":2,"visitor_team_score":101},"min":"2:18","oreb":0,"pf":0,"player":{"id":87,"first_name":"Jevon","height_feet":6,"height_inches":2,"last_name":"Carter","position":"G","team_id":17,"weight_pounds":196},"pts":0,"reb":1,"stl":0,"team":{"id":17,"abbreviation":"MIL","city":"Milwaukee","conference":"East","division":"Central","full_name":"Milwaukee Bucks","name":"Bucks"},"turnover":0},{"id":11933615,"ast":0,"blk":0,"dreb":0,"fg3_pct":0,"fg3a":0,"fg3m":0,"fg_pct":0,"fga":0,"fgm":0,"ft_pct":0,"fta":0,"ftm":0,"game":{"id":847246,"date":"2022-05-07T00:00:00.000Z","home_team_id":17,"home_team_score":103,"period":4,"postseason":true,"season":2021,"status":"Final","time":"","visitor_team_id":2,"visitor_team_score":101},"min":"0:00","oreb":0,"pf":0,"player":{"id":2148,"first_name":"Thanasis","height_feet":null,"height_inches":null,"last_name":"Antetokounmpo","position":"","team_id":17,"weight_pounds":null},"pts":0,"reb":0,"stl":0,"team":{"id":17,"abbreviation":"MIL","city":"Milwaukee","conference":"East","division":"Central","full_name":"Milwaukee Bucks","name":"Bucks"},"turnover":0},{"id":11933619,"ast":0,"blk":0,"dreb":0,"fg3_pct":0,"fg3a":0,"fg3m":0,"fg_pct":0,"fga":0,"fgm":0,"ft_pct":0,"fta":0,"ftm":0,"game":{"id":847246,"date":"2022-05-07T00:00:00.000Z","home_team_id":17,"home_team_score":103,"period":4,"postseason":true,"season":2021,"status":"Final","time":"","visitor_team_id":2,"visitor_team_score":101},"min":"0:00","oreb":0,"pf":0,"player":{"id":223,"first_name":"Serge","height_feet":6,"height_inches":10,"last_name":"Ibaka","position":"F-C","team_id":17,"weight_pounds":235},"pts":0,"reb":0,"stl":0,"team":{"id":17,"abbreviation":"MIL","city":"Milwaukee","conference":"East","division":"Central","full_name":"Milwaukee Bucks","name":"Bucks"},"turnover":0},{"id":11933620,"ast":0,"blk":0,"dreb":0,"fg3_pct":0,"fg3a":0,"fg3m":0,"fg_pct":0,"fga":0,"fgm":0,"ft_pct":0,"fta":0,"ftm":0,"game":{"id":847246,"date":"2022-05-07T00:00:00.000Z","home_team_id":17,"home_team_score":103,"period":4,"postseason":true,"season":2021,"status":"Final","time":"","visitor_team_id":2,"visitor_team_score":101},"min":"0:00","oreb":0,"pf":0,"player":{"id":3547207,"first_name":"Jordan","height_feet":null,"height_inches":null,"last_name":"Nwora","position":"F","team_id":12,"weight_pounds":null},"pts":0,"reb":0,"stl":0,"team":{"id":17,"abbreviation":"MIL","city":"Milwaukee","conference":"East","division":"Central","full_name":"Milwaukee Bucks","name":"Bucks"},"turnover":0}],"meta":{"total_pages":2,"current_page":1,"next_page":2,"per_page":25,"total_count":28}}