{"data":[{"id":11733430,"ast":0,"blk":0,"dreb":5,"fg3_pct":0.333,"fg3a":3,"fg3m":1,"fg_pct":0.417,"fga":12,"fgm":5,"ft_pct":1,"fta":6,"ftm":6,"game":{"id":832820,"date":"2022-04-17T00:00:00.000Z","home_team_id":16,"home_team_score":115,"period":4,"postseason":true,"season":2021,"status":"Final","time":"","visitor_team_id":1,"visitor_team_score":91},"min":"29","oreb":0,"pf":2,"player":{"id":167,"first_name":"Danilo","height_feet":6,"height_inches":10,"last_name":"Gallinari","position":"F","team_id":2,"weight_pounds":225},"pts":17,"reb":5,"stl":0,"team":{"id":1,"abbreviation":"ATL","city":"Atlanta","conference":"East","division":"Southeast","full_name":"Atlanta Hawks","name":"Hawks"},"turnover":1},{"id":11733431,"ast":1,"blk":1,"dreb":4,"fg3_pct":null,"fg3a":0,"fg3m":0,"fg_pct":0.333,"fga":3,"fgm":1,"ft_pct":0.5,"fta":2,"ftm":1,"game":{"id":832820,"date":"2022-04-17T00:00:00.000Z","home_team_id":16,"home_team_score":115,"period":4,"postseason":true,"season":2021,"status":"Final","time":"","visitor_team_id":1,"visitor_team_score":91},"min":"21","oreb":3,"pf":4,"player":{"id":3547244,"first_name":"Onyeka","height_feet":null,"height_inches":null,"last_name":"Okongwu","position":"F-C","team_id":1,"weight_pounds":null},"pts":3,"reb":7,"stl":0,"team":{"id":1,"abbreviation":"ATL","city":"Atlanta","conference":"East","division":"Southeast","full_name":"Atlanta Hawks","name":"Hawks"},"turnover":0},{"id":11733432,"ast":2,"blk":1,"dreb":0,"fg3_pct":0.333,"fg3a":6,"fg3m":2,"fg_pct":0.375,"fga":8,"fgm":3,"ft_pct":null,"fta":0,"ftm":0,"game":{"id":832820,"date":"2022-04-17T00:00:00.000Z","home_team_id":16,"home_team_score":115,"period":4,"postseason":true,"season":2021,"status":"Final","time":"","visitor_team_id":1,"visitor_team_score":91},"min":"23","oreb":1,"pf":2,"player":{"id":221,"first_name":"Kevin","height_feet":6,"height_inches":7,"last_name":"Huerter","position":"G","team_id":26,"weight_pounds":190},"pts":8,"reb":1,"stl":1,"team":{"id":1,"abbreviation":"ATL","city":"Atlanta","conference":"East","division":"Southeast","full_name":"Atlanta Hawks","name":"Hawks"},"turnover":2},{"id":11733433,"ast":4,"blk":0,"dreb":5,"fg3_pct":0,"fg3a":7,"fg3m":0,"fg_pct":0.083,"fga":12,"fgm":1,"ft_pct":0.857,"fta":7,"ftm":6,"game":{"id":832820,"date":"2022-04-17T00:00:00.000Z","home_team_id":16,"home_team_score":115,"period":4,"postseason":true,"season":2021,"status":"Final","time":"","visitor_team_id":1,"visitor_team_score":91},"min":"28","oreb":1,"pf":1,"player":{"id":490,"first_name":"Trae","height_feet":6,"height_inches":2,"last_name":"Young","position":"G","team_id":1,"weight_pounds":180},"pts":8,"reb":6,"stl":2,"team":{"id":1,"abbreviation":"ATL","city":"Atlanta","conference":"East","division":"Southeast","full_name":"Atlanta Hawks","name":"Hawks"},"turnover":6},{"id":11733441,"ast":6,"blk":0,"dreb":1,"fg3_pct":0.25,"fg3a":4,"fg3m":1,"fg_pct":0.333,"fga":6,"fgm":2,"ft_pct":null,"fta":0,"ftm":0,"game":{"id":832820,"date":"2022-04-17T00:00:00.000Z","home_team_id":16,"home_team_score":115,"period":4,"postseason":true,"season":2021,"status":"Final","time":"","visitor_team_id":1,"visitor_team_score":91},"min":"21","oreb":1,"pf":0,"player":{"id":487,"first_name":"Delon","height_feet":6,"height_inches":5,"last_name":"Wright","position":"G","team_id":30,"weight_pounds":183},"pts":5,"reb":2,"stl":2,"team":{"id":1,"abbreviation":"ATL","city":"Atlanta","conference":"East","division":"Southeast","full_name":"Atlanta Hawks","name":"Hawks"},"turnover":1},{"id":11733446,"ast":9,"blk":0,"dreb":4,"fg3_pct":0.5,"fg3a":4,"fg3m":2,"fg_pct":0.5,"fga":8,"fgm":4,"ft_pct":null,"fta":0,"ftm":0,"game":{"id":832820,"date":"2022-04-17T00:00:00.000Z","home_team_id":16,"home_team_score":115,"period":4,"postseason":true,"season":2021,"status":"Final","time":"","visitor_team_id":1,"visitor_team_score":91},"min":"29","oreb":0,"pf":1,"player":{"id":286,"first_name":"Kyle","height_feet":6,"height_inches":1,"last_name":"Lowry","position":"G","team_id":16,"weight_pounds":196},"pts":10,"reb":4,"stl":2,"team":{"id":16,"abbreviation":"MIA","city":"Miami","conference":"East","division":"Southeast","full_name":"Miami Heat","name":"Heat"},"turnover":0},{"id":11733449,"ast":5,"blk":0,"dreb":5,"fg3_pct":0,"fg3a":4,"fg3m":0,"fg_pct":0.273,"fga":11,"fgm":3,"ft_pct":null,"fta":0,"ftm":0,"game":{"id":832820,"date":"2022-04-17T00:00:00.000Z","home_team_id":16,"home_team_score":115,"period":4,"postseason":true,"season":2021,"status":"Final","time":"","visitor_team_id":1,"visitor_team_score":91},"min":"23","oreb":0,"pf":2,"player":{"id":666633,"first_name":"Tyler","height_feet":null,"height_inches":null,"last_name":"Herro","position":"G","team_id":16,"weight_pounds":null},"pts":6,"reb":5,"stl":2,"team":{"id":16,"abbreviation":"MIA","city":"Miami","conference":"East","division":"Southeast","full_name":"Miami Heat","name":"Heat"},"turnover":5},{"id":11733447,"ast":3,"blk":0,"dreb":3,"fg3_pct":0,"fg3a":1,"fg3m":0,"fg_pct":0.5,"fga":4,"fgm":2,"ft_pct":1,"fta":1,"ftm":1,"game":{"id":832820,"date":"2022-04-17T00:00:00.000Z","home_team_id":16,"home_team_score":115,"period":4,"postseason":true,"season":2021,"status":"Final","time":"","visitor_team_id":1,"visitor_team_score":91},"min":"15","oreb":2,"pf":3,"player":{"id":120,"first_name":"Dewayne","height_feet":7,"height_inches":0,"last_name":"Dedmon","position":"C","team_id":23,"weight_pounds":245},"pts":5,"reb":5,"stl":1,"team":{"id":16,"abbreviation":"MIA","city":"Miami","conference":"East","division":"Southeast","full_name":"Miami Heat","name":"Heat"},"turnover":1},{"id":11733454,"ast":0,"blk":0,"dreb":1,"fg3_pct":0.889,"fg3a":9,"fg3m":8,"fg_pct":0.9,"fga":10,"fgm":9,"ft_pct":1,"fta":1,"ftm":1,"game":{"id":832820,"date":"2022-04-17T00:00:00.000Z","home_team_id":16,"home_team_score":115,"period":4,"postseason":true,"season":2021,"status":"Final","time":"","visitor_team_id":1,"visitor_team_score":91},"min":"23","oreb":0,"pf":2,"player":{"id":397,"first_name":"Duncan","height_feet":6,"height_inches":8,"last_name":"Robinson","position":"F","team_id":16,"weight_pounds":210},"pts":27,"reb":1,"stl":0,"team":{"id":16,"abbreviation":"MIA","city":"Miami","conference":"East","division":"Southeast","full_name":"Miami Heat","name":"Heat"},"turnover":0},{"id":11733455,"ast":7,"blk":1,"dreb":2,"fg3_pct":0.286,"fg3a":7,"fg3m":2,"fg_pct":0.375,"fga":8,"fgm":3,"ft_pct":null,"fta":0,"ftm":0,"game":{"id":832820,"date":"2022-04-17T00:00:00.000Z","home_team_id":16,"home_team_score":115,"period":4,"postseason":true,"season":2021,"status":"Final","time":"","visitor_team_id":1,"visitor_team_score":91},"min":"25","oreb":1,"pf":4,"player":{"id":1603383,"first_name":"Gabe","height_feet":null,"height_inches":null,"last_name":"Vincent","position":"G","team_id":16,"weight_pounds":null},"pts":8,"reb":3,"stl":0,"team":{"id":16,"abbreviation":"MIA","city":"Miami","conference":"East","division":"Southeast","full_name":"Miami Heat","name":"Heat"},"turnover":1},{"id":11733451,"ast":0,"blk":0,"dreb":1,"fg3_pct":0,"fg3a":1,"fg3m":0,"fg_pct":0.5,"fga":2,"fgm":1,"ft_pct":null,"fta":0,"ftm":0,"game":{"id":832820,"date":"2022-04-17T00:00:00.000Z","home_team_id":16,"home_team_score":115,"period":4,"postseason":true,"season":2021,"status":"Final","time":"","visitor_team_id":1,"visitor_team_score":91},"min":"5","oreb":0,"pf":0,"player":{"id":666747,"first_name":"Caleb","height_feet":null,"height_inches":null,"last_name":"Martin","position":"F","team_id":16,"weight_pounds":null},"pts":2,"reb":1,"stl":1,"team":{"id":16,"abbreviation":"MIA","city":"Miami","conference":"East","division":"Southeast","full_name":"Miami Heat","name":"Heat"},"turnover":0},{"id":11733450,"ast":0,"blk":0,"dreb":1,"fg3_pct":0,"fg3a":0,"fg3m":0,"fg_pct":0,"fga":0,"fgm":0,"ft_pct":0,"fta":0,"ftm":0,"game":{"id":832820,"date":"2022-04-17T00:00:00.000Z","home_team_id":16,"home_team_score":115,"period":4,"postseason":true,"season":2021,"status":"Final","time":"","visitor_team_id":1,"visitor_team_score":91},"min":"4:58","oreb":0,"pf":0,"player":{"id":3092,"first_name":"Haywood","height_feet":6,"height_inches":7,"last_name":"Highsmith","position":"","team_id":16,"weight_pounds":220},"pts":0,"reb":1,"stl":0,"team":{"id":16,"abbreviation":"MIA","city":"Miami","conference":"East","division":"Southeast","full_name":"Miami Heat","name":"Heat"},"turnover":1},{"id":11733456,"ast":0,"blk":0,"dreb":1,"fg3_pct":0,"fg3a":1,"fg3m":0,"fg_pct":0.667,"fga":3,"fgm":2,"ft_pct":0.5,"fta":2,"ftm":1,"game":{"id":832820,"date":"2022-04-17T00:00:00.000Z","home_team_id":16,"home_team_score":115,"period":4,"postseason":true,"season":2021,"status":"Final","time":"","visitor_team_id":1,"visitor_team_score":91},"min":"5","oreb":0,"pf":1,"player":{"id":11891374,"first_name":"Omer","height_feet":null,"height_inches":null,"last_name":"Yurtseven","position":"C","team_id":16,"weight_pounds":null},"pts":5,"reb":1,"stl":0,"team":{"id":16,"abbreviation":"MIA","city":"Miami","conference":"East","division":"Southeast","full_name":"Miami Heat","name":"Heat"},"turnover":0},{"id":11733448,"ast":0,"blk":0,"dreb":0,"fg3_pct":0,"fg3a":0,"fg3m":0,"fg_pct":0,"fga":0,"fgm":0,"ft_pct":0,"fta":0,"ftm":0,"game":{"id":832820,"date":"2022-04-17T00:00:00.000Z","home_team_id":16,"home_team_score":115,"period":4,"postseason":true,"season":2021,"status":"Final","time":"","visitor_team_id":1,"visitor_team_score":91},"min":"0:00","oreb":0,"pf":0,"player":{"id":203,"first_name":"Udonis","height_feet":6,"height_inches":8,"last_name":"Haslem","position":"F","team_id":16,"weight_pounds":235},"pts":0,"reb":0,"stl":0,"team":{"id":16,"abbreviation":"MIA","city":"Miami","conference":"East","division":"Southeast","full_name":"Miami Heat","name":"Heat"},"turnover":0},{"id":11733452,"ast":0,"blk":0,"dreb":0,"fg3_pct":0,"fg3a":0,"fg3m":0,"fg_pct":0,"fga":0,"fgm":0,"ft_pct":0,"fta":0,"ftm":0,"game":{"id":832820,"date":"2022-04-17T00:00:00.000Z","home_team_id":16,"home_team_score":115,"period":4,"postseason":true,"season":2021,"status":"Final","time":"","visitor_team_id":1,"visitor_team_score":91},"min":"0:00","oreb":0,"pf":0,"player":{"id":329,"first_name":"Markieff","height_feet":null,"height_inches":null,"last_name":"Morris","position":"F","team_id":7,"weight_pounds":null},"pts":0,"reb":0,"stl":0,"team":{"id":16,"abbreviation":"MIA","city":"Miami","conference":"East","division":"Southeast","full_name":"Miami Heat","name":"Heat"},"turnover":0},{"id":11733453,"ast":0,"blk":0,"dreb":0,"fg3_pct":0,"fg3a":0,"fg3m":0,"fg_pct":0,"fga":0,"fgm":0,"ft_pct":0,"fta":0,"ftm":0,"game":{"id":832820,"date":"2022-04-17T00:00:00.000Z","home_team_id":16,"home_team_score":115,"period":4,"postseason":true,"season":2021,"status":"Final","time":"","visitor_team_id":1,"visitor_team_score":91},"min":"0:00","oreb":0,"pf":0,"player":{"id":357,"first_name":"Victor","height_feet":6,"height_inches":4,"last_name":"Oladipo","position":"G","team_id":16,"weight_pounds":210},"pts":0,"reb":0,"stl":0,"team":{"id":16,"abbreviation":"MIA","city":"Miami","conference":"East","division":"Southeast","full_name":"Miami Heat","name":"Heat"},"turnover":0},{"id":11733435,"ast":1,"blk":0,"dreb":4,"fg3_pct":0.5,"fg3a":2,"fg3m":1,"fg_pct":0.667,"fga":6,"fgm":4,"ft_pct":0.333,"fta":3,"ftm":1,"game":{"id":832820,"date":"2022-04-17T00:00:00.000Z","home_team_id":16,"home_team_score":115,"period":4,"postseason":true,"season":2021,"status":"Final","time":"","visitor_team_id":1,"visitor_team_score":91},"min":"21","oreb":0,"pf":0,"player":{"id":101,"first_name":"John","height_feet":6,"height_inches":10,"last_name":"Collins","position":"F-C","team_id":1,"weight_pounds":235},"pts":10,"reb":4,"stl":1,"team":{"id":1,"abbreviation":"ATL","city":"Atlanta","conference":"East","division":"Southeast","full_name":"Atlanta Hawks","name":"Hawks"},"turnover":0},{"id":11733439,"ast":0,"blk":0,"dreb":3,"fg3_pct":0.333,"fg3a":3,"fg3m":1,"fg_pct":0.5,"fga":4,"fgm":2,"ft_pct":null,"fta":0,"ftm":0,"game":{"id":832820,"date":"2022-04-17T00:00:00.000Z","home_team_id":16,"home_team_score":115,"period":4,"postseason":true,"season":2021,"status":"Final","time":"","visitor_team_id":1,"visitor_team_score":91},"min":"15","oreb":0,"pf":4,"player":{"id":288,"first_name":"Timothe","height_feet":6,"height_inches":6,"last_name":"Luwawu-Cabarrot","position":"G-F","team_id":1,"weight_pounds":210},"pts":5,"reb":3,"stl":0,"team":{"id":1,"abbreviation":"ATL","city":"Atlanta","conference":"East","division":"Southeast","full_name":"Atlanta Hawks","name":"Hawks"},"turnover":1},{"id":11733436,"ast":0,"blk":0,"dreb":0,"fg3_pct":null,"fg3a":0,"fg3m":0,"fg_pct":1,"fga":1,"fgm":1,"ft_pct":1,"fta":1,"ftm":1,"game":{"id":832820,"date":"2022-04-17T00:00:00.000Z","home_team_id":16,"home_team_score":115,"period":4,"postseason":true,"season":2021,"status":"Final","time":"","visitor_team_id":1,"visitor_team_score":91},"min":"6","oreb":1,"pf":0,"player":{"id":129,"first_name":"Gorgui","height_feet":6,"height_inches":11,"last_name":"Dieng","position":"C","team_id":27,"weight_pounds":252},"pts":3,"reb":1,"stl":0,"team":{"id":1,"abbreviation":"ATL","city":"Atlanta","conference":"East","division":"Southeast","full_name":"Atlanta Hawks","name":"Hawks"},"turnover":0},{"id":11733437,"ast":0,"blk":0,"dreb":0,"fg3_pct":0,"fg3a":1,"fg3m":0,"fg_pct":0,"fga":1,"fgm":0,"ft_pct":0,"fta":0,"ftm":0,"game":{"id":832820,"date":"2022-04-17T00:00:00.000Z","home_team_id":16,"home_team_score":115,"period":4,"postseason":true,"season":2021,"status":"Final","time":"","visitor_team_id":1,"visitor_team_score":91},"min":"4:58","oreb":0,"pf":0,"player":{"id":17896040,"first_name":"Jalen","height_feet":null,"height_inches":null,"last_name":"Johnson","position":"F","team_id":1,"weight_pounds":null},"pts":0,"reb":0,"stl":0,"team":{"id":1,"abbreviation":"ATL","city":"Atlanta","conference":"East","division":"Southeast","full_name":"Atlanta Hawks","name":"Hawks"},"turnover":0},{"id":11733440,"ast":0,"blk":0,"dreb":1,"fg3_pct":null,"fg3a":0,"fg3m":0,"fg_pct":1,"fga":1,"fgm":1,"ft_pct":null,"fta":0,"ftm":0,"game":{"id":832820,"date":"2022-04-17T00:00:00.000Z","home_team_id":16,"home_team_score":115,"period":4,"postseason":true,"season":2021,"status":"Final","time":"","visitor_team_id":1,"visitor_team_score":91},"min":"5","oreb":0,"pf":0,"player":{"id":3547289,"first_name":"Skylar","height_feet":null,"height_inches":null,"last_name":"Mays","position":"G","team_id":25,"weight_pounds":null},"pts":2,"reb":1,"stl":0,"team":{"id":1,"abbreviation":"ATL","city":"Atlanta","conference":"East","division":"Southeast","full_name":"Atlanta Hawks","name":"Hawks"},"turnover":0},{"id":11733438,"ast":0,"blk":0,"dreb":2,"fg3_pct":0.5,"fg3a":4,"fg3m":2,"fg_pct":0.6,"fga":5,"fgm":3,"ft_pct":1,"fta":2,"ftm":2,"game":{"id":832820,"date":"2022-04-17T00:00:00.000Z","home_team_id":16,"home_team_score":115,"period":4,"postseason":true,"season":2021,"status":"Final","time":"","visitor_team_id":1,"visitor_team_score":91},"min":"5","oreb":0,"pf":0,"player":{"id":259,"first_name":"Kevin","height_feet":6,"height_inches":9,"last_name":"Knox","position":"F","team_id":25,"weight_pounds":215},"pts":10,"reb":2,"stl":1,"team":{"id":1,"abbreviation":"ATL","city":"Atlanta","conference":"East","division":"Southeast","full_name":"Atlanta Hawks","name":"Hawks"},"turnover":3},{"id":11733442,"ast":4,"blk":0,"dreb":5,"fg3_pct":0.5,"fg3a":2,"fg3m":1,"fg_pct":0.6,"fga":15,"fgm":9,"ft_pct":0.286,"fta":7,"ftm":2,"game":{"id":832820,"date":"2022-04-17T00:00:00.000Z","home_team_id":16,"home_team_score":115,"period":4,"postseason":true,"season":2021,"status":"Final","time":"","visitor_team_id":1,"visitor_team_score":91},"min":"33","oreb":1,"pf":2,"player":{"id":79,"first_name":"Jimmy","height_feet":6,"height_inches":8,"last_name":"Butler","position":"G-F","team_id":16,"weight_pounds":232},"pts":21,"reb":6,"stl":3,"team":{"id":16,"abbreviation":"MIA","city":"Miami","conference":"East","division":"Southeast","full_name":"Miami Heat","name":"Heat"},"turnover":3},{"id":11733443,"ast":1,"blk":0,"dreb":5,"fg3_pct":1,"fg3a":4,"fg3m":4,"fg_pct":0.75,"fga":8,"fgm":6,"ft_pct":null,"fta":0,"ftm":0,"game":{"id":832820,"date":"2022-04-17T00:00:00.000Z","home_team_id":16,"home_team_score":115,"period":4,"postseason":true,"season":2021,"status":"Final","time":"","visitor_team_id":1,"visitor_team_score":91},"min":"24","oreb":0,"pf":2,"player":{"id":450,"first_name":"PJ","height_feet":6,"height_inches":6,"last_name":"Tucker","position":"F","team_id":23,"weight_pounds":245},"pts":16,"reb":5,"stl":0,"team":{"id":16,"abbreviation":"MIA","city":"Miami","conference":"East","division":"Southeast","full_name":"Miami Heat","name":"Heat"},"turnover":0},{"id":11733444,"ast":5,"blk":1,"dreb":6,"fg3_pct":null,"fg3a":0,"fg3m":0,"fg_pct":0.2,"fga":5,"fgm":1,"ft_pct":1,"fta":4,"ftm":4,"game":{"id":832820,"date":"2022-04-17T00:00:00.000Z","home_team_id":16,"home_team_score":115,"period":4,"postseason":true,"season":2021,"status":"Final","time":"","visitor_team_id":1,"visitor_team_score":91},"min":"28","oreb":0,"pf":2,"player":{"id":4,"first_name":"Bam","height_feet":6,"height_inches":10,"last_name":"Adebayo","position":"C-F","team_id":16,"weight_pounds":255},"pts":6,"reb":6,"stl":1,"team":{"id":16,"abbreviation":"MIA","city":"Miami","conference":"East","division":"Southeast","full_name":"Miami Heat","name":"Heat"},"turnover":4}],"meta":{"total_pages":2,"current_page":1,"next_page":2,"per_page":25,"total_count":28}}