{"data":[{"id":11894063,"ast":0,"blk":0,"dreb":0,"fg3_pct":0,"fg3a":1,"fg3m":0,"fg_pct":0,"fga":2,"fgm":0,"ft_pct":0,"fta":0,"ftm":0,"game":{"id":844654,"date":"2022-05-01T00:00:00.000Z","home_team_id":2,"home_team_score":89,"period":4,"postseason":true,"season":2021,"status":"Final","time":"","visitor_team_id":17,"visitor_team_score":101},"min":"1:59","oreb":0,"pf":0,"player":{"id":429,"first_name":"Nik","height_feet":6,"height_inches":6,"last_name":"Stauskas","position":"G","team_id":2,"weight_pounds":205},"pts":0,"reb":0,"stl":0,"team":{"id":2,"abbreviation":"BOS","city":"Boston","conference":"East","division":"Atlantic","full_name":"Boston Celtics","name":"Celtics"},"turnover":0},{"id":11894061,"ast":1,"blk":0,"dreb":1,"fg3_pct":0,"fg3a":0,"fg3m":0,"fg_pct":0,"fga":1,"fgm":0,"ft_pct":0,"fta":0,"ftm":0,"game":{"id":844654,"date":"2022-05-01T00:00:00.000Z","home_team_id":2,"home_team_score":89,"period":4,"postseason":true,"season":2021,"status":"Final","time":"","visitor_team_id":17,"visitor_team_score":101},"min":"1:59","oreb":0,"pf":0,"player":{"id":3547250,"first_name":"Aaron","height_feet":null,"height_inches":null,"last_name":"Nesmith","position":"G-F","team_id":12,"weight_pounds":null},"pts":0,"reb":1,"stl":0,"team":{"id":2,"abbreviation":"BOS","city":"Boston","conference":"East","division":"Atlantic","full_name":"Boston Celtics","name":"Celtics"},"turnover":0},{"id":11894058,"ast":0,"blk":0,"dreb":0,"fg3_pct":0,"fg3a":0,"fg3m":0,"fg_pct":0,"fga":0,"fgm":0,"ft_pct":0,"fta":0,"ftm":0,"game":{"id":844654,"date":"2022-05-01T00:00:00.000Z","home_team_id":2,"home_team_score":89,"period":4,"postseason":true,"season":2021,"status":"Final","time":"","visitor_team_id":17,"visitor_team_score":101},"min":"1:59","oreb":0,"pf":0,"player":{"id":17896060,"first_name":"Sam","height_feet":null,"height_inches":null,"last_name":"Hauser","position":"F","team_id":2,"weight_pounds":null},"pts":0,"reb":0,"stl":0,"team":{"id":2,"abbreviation":"BOS","city":"Boston","conference":"East","division":"Atlantic","full_name":"Boston Celtics","name":"Celtics"},"turnover":0},{"id":11894059,"ast":0,"blk":0,"dreb":0,"fg3_pct":0,"fg3a":0,"fg3m":0,"fg_pct":0,"fga":0,"fgm":0,"ft_pct":0,"fta":0,"ftm":0,"game":{"id":844654,"date":"2022-05-01T00:00:00.000Z","home_team_id":2,"home_team_score":89,"period":4,"postseason":true,"season":2021,"status":"Final","time":"","visitor_team_id":17,"visitor_team_score":101},"min":"1:59","oreb":0,"pf":0,"player":{"id":261,"first_name":"Luke","height_feet":7,"height_inches":1,"last_name":"Kornet","position":"F-C","team_id":2,"weight_pounds":250},"pts":0,"reb":0,"stl":0,"team":{"id":2,"abbreviation":"BOS","city":"Boston","conference":"East","division":"Atlantic","full_name":"Boston Celtics","name":"Celtics"},"turnover":0},{"id":11894060,"ast":0,"blk":0,"dreb":0,"fg3_pct":0,"fg3a":0,"fg3m":0,"fg_pct":0,"fga":0,"fgm":0,"ft_pct":0,"fta":0,"ftm":0,"game":{"id":844654,"date":"2022-05-01T00:00:00.000Z","home_team_id":2,"home_team_score":89,"period":4,"postseason":true,"season":2021,"status":"Final","time":"","visitor_team_id":17,"visitor_team_score":101},"min":"0:00","oreb":0,"pf":0,"player":{"id":666788,"first_name":"Juwan","height_feet":null,"height_inches":null,"last_name":"Morgan","position":"F","team_id":2,"weight_pounds":null},"pts":0,"reb":0,"stl":0,"team":{"id":2,"abbreviation":"BOS","city":"Boston","conference":"East","division":"Atlantic","full_name":"Boston Celtics","name":"Celtics"},"turnover":0},{"id":11894048,"ast":0,"blk":0,"dreb":0,"fg3_pct":0,"fg3a":0,"fg3m":0,"fg_pct":0,"fga":1,"fgm":0,"ft_pct":0,"fta":0,"ftm":0,"game":{"id":844654,"date":"2022-05-01T00:00:00.000Z","home_team_id":2,"home_team_score":89,"period":4,"postseason":true,"season":2021,"status":"Final","time":"","visitor_team_id":17,"visitor_team_score":101},"min":"1:12","oreb":0,"pf":0,"player":{"id":223,"first_name":"Serge","height_feet":6,"height_inches":10,"last_name":"Ibaka","position":"F-C","team_id":17,"weight_pounds":235},"pts":0,"reb":0,"stl":0,"team":{"id":17,"abbreviation":"MIL","city":"Milwaukee","conference":"East","division":"Central","full_name":"Milwaukee Bucks","name":"Bucks"},"turnover":0},{"id":11894045,"ast":0,"blk":0,"dreb":0,"fg3_pct":0,"fg3a":0,"fg3m":0,"fg_pct":0,"fga":0,"fgm":0,"ft_pct":0,"fta":0,"ftm":0,"game":{"id":844654,"date":"2022-05-01T00:00:00.000Z","home_team_id":2,"home_team_score":89,"period":4,"postseason":true,"season":2021,"status":"Final","time":"","visitor_team_id":17,"visitor_team_score":101},"min":"1:12","oreb":0,"pf":0,"player":{"id":2148,"first_name":"Thanasis","height_feet":null,"height_inches":null,"last_name":"Antetokounmpo","position":"","team_id":17,"weight_pounds":null},"pts":0,"reb":0,"stl":0,"team":{"id":17,"abbreviation":"MIL","city":"Milwaukee","conference":"East","division":"Central","full_name":"Milwaukee Bucks","name":"Bucks"},"turnover":0},{"id":11894050,"ast":0,"blk":0,"dreb":0,"fg3_pct":0,"fg3a":0,"fg3m":0,"fg_pct":0,"fga":0,"fgm":0,"ft_pct":0,"fta":0,"ftm":0,"game":{"id":844654,"date":"2022-05-01T00:00:00.000Z","home_team_id":2,"home_team_score":89,"period":4,"postseason":true,"season":2021,"status":"Final","time":"","visitor_team_id":17,"visitor_team_score":101},"min":"1:12","oreb":0,"pf":0,"player":{"id":666930,"first_name":"Rayjon","height_feet":null,"height_inches":null,"last_name":"Tucker","position":"F","team_id":17,"weight_pounds":null},"pts":0,"reb":0,"stl":0,"team":{"id":17,"abbreviation":"MIL","city":"Milwaukee","conference":"East","division":"Central","full_name":"Milwaukee Bucks","name":"Bucks"},"turnover":0},{"id":11894052,"ast":6,"blk":0,"dreb":4,"fg3_pct":0.444,"fg3a":9,"fg3m":4,"fg_pct":0.333,"fga":18,"fgm":6,"ft_pct":0.625,"fta":8,"ftm":5,"game":{"id":844654,"date":"2022-05-01T00:00:00.000Z","home_team_id":2,"home_team_score":89,"period":4,"postseason":true,"season":2021,"status":"Final","time":"","visitor_team_id":17,"visitor_team_score":101},"min":"40","oreb":2,"pf":4,"player":{"id":434,"first_name":"Jayson","height_feet":6,"height_inches":8,"last_name":"Tatum","position":"F","team_id":2,"weight_pounds":208},"pts":21,"reb":6,"stl":2,"team":{"id":2,"abbreviation":"BOS","city":"Boston","conference":"East","division":"Atlantic","full_name":"Boston Celtics","name":"Celtics"},"turnover":3},{"id":11894053,"ast":3,"blk":2,"dreb":10,"fg3_pct":0.444,"fg3a":9,"fg3m":4,"fg_pct":0.364,"fga":11,"fgm":4,"ft_pct":null,"fta":0,"ftm":0,"game":{"id":844654,"date":"2022-05-01T00:00:00.000Z","home_team_id":2,"home_team_score":89,"period":4,"postseason":true,"season":2021,"status":"Final","time":"","visitor_team_id":17,"visitor_team_score":101},"min":"36","oreb":0,"pf":3,"player":{"id":219,"first_name":"Al","height_feet":6,"height_inches":10,"last_name":"Horford","position":"C-F","team_id":2,"weight_pounds":245},"pts":12,"reb":10,"stl":1,"team":{"id":2,"abbreviation":"BOS","city":"Boston","conference":"East","division":"Atlantic","full_name":"Boston Celtics","name":"Celtics"},"turnover":2},{"id":11894054,"ast":0,"blk":3,"dreb":5,"fg3_pct":0,"fg3a":1,"fg3m":0,"fg_pct":0.5,"fga":6,"fgm":3,"ft_pct":null,"fta":0,"ftm":0,"game":{"id":844654,"date":"2022-05-01T00:00:00.000Z","home_team_id":2,"home_team_score":89,"period":4,"postseason":true,"season":2021,"status":"Final","time":"","visitor_team_id":17,"visitor_team_score":101},"min":"22","oreb":3,"pf":4,"player":{"id":476,"first_name":"Robert","height_feet":6,"height_inches":10,"last_name":"Williams III","position":"C-F","team_id":2,"weight_pounds":240},"pts":6,"reb":8,"stl":1,"team":{"id":2,"abbreviation":"BOS","city":"Boston","conference":"East","division":"Atlantic","full_name":"Boston Celtics","name":"Celtics"},"turnover":0},{"id":11894055,"ast":4,"blk":0,"dreb":7,"fg3_pct":0.333,"fg3a":9,"fg3m":3,"fg_pct":0.308,"fga":13,"fgm":4,"ft_pct":0.5,"fta":2,"ftm":1,"game":{"id":844654,"date":"2022-05-01T00:00:00.000Z","home_team_id":2,"home_team_score":89,"period":4,"postseason":true,"season":2021,"status":"Final","time":"","visitor_team_id":17,"visitor_team_score":101},"min":"38","oreb":2,"pf":4,"player":{"id":70,"first_name":"Jaylen","height_feet":6,"height_inches":7,"last_name":"Brown","position":"G","team_id":2,"weight_pounds":220},"pts":12,"reb":9,"stl":2,"team":{"id":2,"abbreviation":"BOS","city":"Boston","conference":"East","division":"Atlantic","full_name":"Boston Celtics","name":"Celtics"},"turnover":7},{"id":11894056,"ast":6,"blk":0,"dreb":1,"fg3_pct":0.167,"fg3a":6,"fg3m":1,"fg_pct":0.273,"fga":11,"fgm":3,"ft_pct":0.75,"fta":4,"ftm":3,"game":{"id":844654,"date":"2022-05-01T00:00:00.000Z","home_team_id":2,"home_team_score":89,"period":4,"postseason":true,"season":2021,"status":"Final","time":"","visitor_team_id":17,"visitor_team_score":101},"min":"33","oreb":0,"pf":3,"player":{"id":420,"first_name":"Marcus","height_feet":6,"height_inches":4,"last_name":"Smart","position":"G","team_id":2,"weight_pounds":220},"pts":10,"reb":1,"stl":2,"team":{"id":2,"abbreviation":"BOS","city":"Boston","conference":"East","division":"Atlantic","full_name":"Boston Celtics","name":"Celtics"},"turnover":3},{"id":11894065,"ast":1,"blk":0,"dreb":4,"fg3_pct":0.667,"fg3a":3,"fg3m":2,"fg_pct":0.333,"fga":6,"fgm":2,"ft_pct":1,"fta":4,"ftm":4,"game":{"id":844654,"date":"2022-05-01T00:00:00.000Z","home_team_id":2,"home_team_score":89,"period":4,"postseason":true,"season":2021,"status":"Final","time":"","visitor_team_id":17,"visitor_team_score":101},"min":"16","oreb":0,"pf":2,"player":{"id":473,"first_name":"Derrick","height_feet":6,"height_inches":4,"last_name":"White","position":"G","team_id":2,"weight_pounds":190},"pts":10,"reb":4,"stl":0,"team":{"id":2,"abbreviation":"BOS","city":"Boston","conference":"East","division":"Atlantic","full_name":"Boston Celtics","name":"Celtics"},"turnover":2},{"id":11894066,"ast":0,"blk":1,"dreb":3,"fg3_pct":0.5,"fg3a":4,"fg3m":2,"fg_pct":0.333,"fga":6,"fgm":2,"ft_pct":1,"fta":2,"ftm":2,"game":{"id":844654,"date":"2022-05-01T00:00:00.000Z","home_team_id":2,"home_team_score":89,"period":4,"postseason":true,"season":2021,"status":"Final","time":"","visitor_team_id":17,"visitor_team_score":101},"min":"29","oreb":1,"pf":2,"player":{"id":666965,"first_name":"Grant","height_feet":null,"height_inches":null,"last_name":"Williams","position":"F","team_id":2,"weight_pounds":null},"pts":8,"reb":4,"stl":0,"team":{"id":2,"abbreviation":"BOS","city":"Boston","conference":"East","division":"Atlantic","full_name":"Boston Celtics","name":"Celtics"},"turnover":0},{"id":11894062,"ast":0,"blk":0,"dreb":1,"fg3_pct":0.25,"fg3a":8,"fg3m":2,"fg_pct":0.25,"fga":8,"fgm":2,"ft_pct":null,"fta":0,"ftm":0,"game":{"id":844654,"date":"2022-05-01T00:00:00.000Z","home_team_id":2,"home_team_score":89,"period":4,"postseason":true,"season":2021,"status":"Final","time":"","visitor_team_id":17,"visitor_team_score":101},"min":"11","oreb":1,"pf":1,"player":{"id":3547276,"first_name":"Payton","height_feet":null,"height_inches":null,"last_name":"Pritchard","position":"G","team_id":2,"weight_pounds":null},"pts":6,"reb":2,"stl":0,"team":{"id":2,"abbreviation":"BOS","city":"Boston","conference":"East","division":"Atlantic","full_name":"Boston Celtics","name":"Celtics"},"turnover":0},{"id":11894064,"ast":0,"blk":1,"dreb":1,"fg3_pct":null,"fg3a":0,"fg3m":0,"fg_pct":1,"fga":1,"fgm":1,"ft_pct":null,"fta":0,"ftm":0,"game":{"id":844654,"date":"2022-05-01T00:00:00.000Z","home_team_id":2,"home_team_score":89,"period":4,"postseason":true,"season":2021,"status":"Final","time":"","visitor_team_id":17,"visitor_team_score":101},"min":"4","oreb":1,"pf":2,"player":{"id":439,"first_name":"Daniel","height_feet":6,"height_inches":8,"last_name":"Theis","position":"F","team_id":12,"weight_pounds":243},"pts":2,"reb":2,"stl":0,"team":{"id":2,"abbreviation":"BOS","city":"Boston","conference":"East","division":"Atlantic","full_name":"Boston Celtics","name":"Celtics"},"turnover":1},{"id":11894057,"ast":0,"blk":0,"dreb":1,"fg3_pct":null,"fg3a":0,"fg3m":0,"fg_pct":1,"fga":1,"fgm":1,"ft_pct":null,"fta":0,"ftm":0,"game":{"id":844654,"date":"2022-05-01T00:00:00.000Z","home_team_id":2,"home_team_score":89,"period":4,"postseason":true,"season":2021,"status":"Final","time":"","visitor_team_id":17,"visitor_team_score":101},"min":"2","oreb":0,"pf":0,"player":{"id":9338307,"first_name":"Malik","height_feet":null,"height_inches":null,"last_name":"Fitts","position":"F","team_id":2,"weight_pounds":null},"pts":2,"reb":1,"stl":0,"team":{"id":2,"abbreviation":"BOS","city":"Boston","conference":"East","division":"Atlantic","full_name":"Boston Celtics","name":"Celtics"},"turnover":0},{"id":11894039,"ast":1,"blk":0,"dreb":11,"fg3_pct":0.286,"fg3a":7,"fg3m":2,"fg_pct":0.5,"fga":12,"fgm":6,"ft_pct":0.5,"fta":2,"ftm":1,"game":{"id":844654,"date":"2022-05-01T00:00:00.000Z","home_team_id":2,"home_team_score":89,"period":4,"postseason":true,"season":2021,"status":"Final","time":"","visitor_team_id":17,"visitor_team_score":101},"min":"32","oreb":0,"pf":4,"player":{"id":377,"first_name":"Bobby","height_feet":6,"height_inches":11,"last_name":"Portis","position":"F","team_id":17,"weight_pounds":250},"pts":15,"reb":11,"stl":1,"team":{"id":17,"abbreviation":"MIL","city":"Milwaukee","conference":"East","division":"Central","full_name":"Milwaukee Bucks","name":"Bucks"},"turnover":1},{"id":11894040,"ast":12,"blk":2,"dreb":10,"fg3_pct":0,"fg3a":2,"fg3m":0,"fg_pct":0.36,"fga":25,"fgm":9,"ft_pct":0.545,"fta":11,"ftm":6,"game":{"id":844654,"date":"2022-05-01T00:00:00.000Z","home_team_id":2,"home_team_score":89,"period":4,"postseason":true,"season":2021,"status":"Final","time":"","visitor_team_id":17,"visitor_team_score":101},"min":"38","oreb":3,"pf":4,"player":{"id":15,"first_name":"Giannis","height_feet":6,"height_inches":11,"last_name":"Antetokounmpo","position":"F","team_id":17,"weight_pounds":242},"pts":24,"reb":13,"stl":0,"team":{"id":17,"abbreviation":"MIL","city":"Milwaukee","conference":"East","division":"Central","full_name":"Milwaukee Bucks","name":"Bucks"},"turnover":5},{"id":11894041,"ast":0,"blk":3,"dreb":6,"fg3_pct":0,"fg3a":2,"fg3m":0,"fg_pct":0.429,"fga":7,"fgm":3,"ft_pct":null,"fta":0,"ftm":0,"game":{"id":844654,"date":"2022-05-01T00:00:00.000Z","home_team_id":2,"home_team_score":89,"period":4,"postseason":true,"season":2021,"status":"Final","time":"","visitor_team_id":17,"visitor_team_score":101},"min":"28","oreb":4,"pf":1,"player":{"id":283,"first_name":"Brook","height_feet":7,"height_inches":0,"last_name":"Lopez","position":"C","team_id":17,"weight_pounds":270},"pts":6,"reb":10,"stl":1,"team":{"id":17,"abbreviation":"MIL","city":"Milwaukee","conference":"East","division":"Central","full_name":"Milwaukee Bucks","name":"Bucks"},"turnover":0},{"id":11894042,"ast":2,"blk":0,"dreb":2,"fg3_pct":0.167,"fg3a":6,"fg3m":1,"fg_pct":0.286,"fga":7,"fgm":2,"ft_pct":null,"fta":0,"ftm":0,"game":{"id":844654,"date":"2022-05-01T00:00:00.000Z","home_team_id":2,"home_team_score":89,"period":4,"postseason":true,"season":2021,"status":"Final","time":"","visitor_team_id":17,"visitor_team_score":101},"min":"29","oreb":0,"pf":2,"player":{"id":301,"first_name":"Wesley","height_feet":null,"height_inches":null,"last_name":"Matthews","position":"G-F","team_id":17,"weight_pounds":null},"pts":5,"reb":2,"stl":1,"team":{"id":17,"abbreviation":"MIL","city":"Milwaukee","conference":"East","division":"Central","full_name":"Milwaukee Bucks","name":"Bucks"},"turnover":1},{"id":11894043,"ast":5,"blk":0,"dreb":7,"fg3_pct":0.6,"fg3a":5,"fg3m":3,"fg_pct":0.4,"fga":20,"fgm":8,"ft_pct":1,"fta":6,"ftm":6,"game":{"id":844654,"date":"2022-05-01T00:00:00.000Z","home_team_id":2,"home_team_score":89,"period":4,"postseason":true,"season":2021,"status":"Final","time":"","visitor_team_id":17,"visitor_team_score":101},"min":"36","oreb":2,"pf":3,"player":{"id":214,"first_name":"Jrue","height_feet":6,"height_inches":4,"last_name":"Holiday","position":"G","team_id":17,"weight_pounds":205},"pts":25,"reb":9,"stl":3,"team":{"id":17,"abbreviation":"MIL","city":"Milwaukee","conference":"East","division":"Central","full_name":"Milwaukee Bucks","name":"Bucks"},"turnover":2},{"id":11894044,"ast":1,"blk":0,"dreb":2,"fg3_pct":0.5,"fg3a":6,"fg3m":3,"fg_pct":0.5,"fga":8,"fgm":4,"ft_pct":null,"fta":0,"ftm":0,"game":{"id":844654,"date":"2022-05-01T00:00:00.000Z","home_team_id":2,"home_team_score":89,"period":4,"postseason":true,"season":2021,"status":"Final","time":"","visitor_team_id":17,"visitor_team_score":101},"min":"29","oreb":0,"pf":3,"player":{"id":8,"first_name":"Grayson","height_feet":6,"height_inches":5,"last_name":"Allen","position":"G","team_id":17,"weight_pounds":198},"pts":11,"reb":2,"stl":3,"team":{"id":17,"abbreviation":"MIL","city":"Milwaukee","conference":"East","division":"Central","full_name":"Milwaukee Bucks","name":"Bucks"},"turnover":1},{"id":11894047,"ast":1,"blk":0,"dreb":4,"fg3_pct":0.5,"fg3a":4,"fg3m":2,"fg_pct":0.5,"fga":6,"fgm":3,"ft_pct":null,"fta":0,"ftm":0,"game":{"id":844654,"date":"2022-05-01T00:00:00.000Z","home_team_id":2,"home_team_score":89,"period":4,"postseason":true,"season":2021,"status":"Final","time":"","visitor_team_id":17,"visitor_team_score":101},"min":"21","oreb":1,"pf":4,"player":{"id":105,"first_name":"Pat","height_feet":6,"height_inches":4,"last_name":"Connaughton","position":"G","team_id":17,"weight_pounds":209},"pts":8,"reb":5,"stl":1,"team":{"id":17,"abbreviation":"MIL","city":"Milwaukee","conference":"East","division":"Central","full_name":"Milwaukee Bucks","name":"Bucks"},"turnover":2}],"meta":{"total_pages":2,"current_page":1,"next_page":2,"per_page":25,"total_count":28}}