{"data":[{"id":11704550,"ast":4,"blk":1,"dreb":3,"fg3_pct":0,"fg3a":4,"fg3m":0,"fg_pct":45.5,"fga":11,"fgm":5,"ft_pct":100,"fta":2,"ftm":2,"game":{"id":830800,"date":"2022-04-13T00:00:00.000Z","home_team_id":1,"home_team_score":132,"period":4,"postseason":true,"season":2021,"status":"Final","time":"","visitor_team_id":4,"visitor_team_score":103},"min":"29:55","oreb":1,"pf":4,"player":{"id":62,"first_name":"Miles","height_feet":6,"height_inches":7,"last_name":"Bridges","position":"F","team_id":4,"weight_pounds":225},"pts":12,"reb":4,"stl":0,"team":{"id":4,"abbreviation":"CHA","city":"Charlotte","conference":"East","division":"Southeast","full_name":"Charlotte Hornets","name":"Hornets"},"turnover":2},{"id":11704551,"ast":2,"blk":2,"dreb":6,"fg3_pct":60,"fg3a":5,"fg3m":3,"fg_pct":70,"fga":10,"fgm":7,"ft_pct":0,"fta":0,"ftm":0,"game":{"id":830800,"date":"2022-04-13T00:00:00.000Z","home_team_id":1,"home_team_score":132,"period":4,"postseason":true,"season":2021,"status":"Final","time":"","visitor_team_id":4,"visitor_team_score":103},"min":"38:10","oreb":0,"pf":4,"player":{"id":666950,"first_name":"P.J.","height_feet":null,"height_inches":null,"last_name":"Washington","position":"F","team_id":4,"weight_pounds":null},"pts":17,"reb":6,"stl":1,"team":{"id":4,"abbreviation":"CHA","city":"Charlotte","conference":"East","division":"Southeast","full_name":"Charlotte Hornets","name":"Hornets"},"turnover":0},{"id":11704552,"ast":2,"blk":0,"dreb":2,"fg3_pct":0,"fg3a":0,"fg3m":0,"fg_pct":100,"fga":1,"fgm":1,"ft_pct":50,"fta":2,"ftm":1,"game":{"id":830800,"date":"2022-04-13T00:00:00.000Z","home_team_id":1,"home_team_score":132,"period":4,"postseason":true,"season":2021,"status":"Final","time":"","visitor_team_id":4,"visitor_team_score":103},"min":"11:27","oreb":2,"pf":1,"player":{"id":371,"first_name":"Mason","height_feet":6,"height_inches":11,"last_name":"Plumlee","position":"F-C","team_id":13,"weight_pounds":235},"pts":3,"reb":4,"stl":0,"team":{"id":4,"abbreviation":"CHA","city":"Charlotte","conference":"East","division":"Southeast","full_name":"Charlotte Hornets","name":"Hornets"},"turnover":1},{"id":11704553,"ast":3,"blk":0,"dreb":2,"fg3_pct":25,"fg3a":8,"fg3m":2,"fg_pct":36.4,"fga":22,"fgm":8,"ft_pct":100,"fta":3,"ftm":3,"game":{"id":830800,"date":"2022-04-13T00:00:00.000Z","home_team_id":1,"home_team_score":132,"period":4,"postseason":true,"season":2021,"status":"Final","time":"","visitor_team_id":4,"visitor_team_score":103},"min":"36:29","oreb":2,"pf":2,"player":{"id":403,"first_name":"Terry","height_feet":6,"height_inches":1,"last_name":"Rozier","position":"G","team_id":4,"weight_pounds":190},"pts":21,"reb":4,"stl":0,"team":{"id":4,"abbreviation":"CHA","city":"Charlotte","conference":"East","division":"Southeast","full_name":"Charlotte Hornets","name":"Hornets"},"turnover":5},{"id":11704554,"ast":8,"blk":0,"dreb":3,"fg3_pct":28.6,"fg3a":14,"fg3m":4,"fg_pct":28,"fga":25,"fgm":7,"ft_pct":80,"fta":10,"ftm":8,"game":{"id":830800,"date":"2022-04-13T00:00:00.000Z","home_team_id":1,"home_team_score":132,"period":4,"postseason":true,"season":2021,"status":"Final","time":"","visitor_team_id":4,"visitor_team_score":103},"min":"38:20","oreb":2,"pf":5,"player":{"id":3547239,"first_name":"LaMelo","height_feet":null,"height_inches":null,"last_name":"Ball","position":"G","team_id":4,"weight_pounds":null},"pts":26,"reb":5,"stl":1,"team":{"id":4,"abbreviation":"CHA","city":"Charlotte","conference":"East","division":"Southeast","full_name":"Charlotte Hornets","name":"Hornets"},"turnover":3},{"id":11704555,"ast":0,"blk":0,"dreb":0,"fg3_pct":0,"fg3a":0,"fg3m":0,"fg_pct":0,"fga":0,"fgm":0,"ft_pct":0,"fta":0,"ftm":0,"game":{"id":830800,"date":"2022-04-13T00:00:00.000Z","home_team_id":1,"home_team_score":132,"period":4,"postseason":true,"season":2021,"status":"Final","time":"","visitor_team_id":4,"visitor_team_score":103},"min":"0:00","oreb":0,"pf":0,"player":{"id":17896037,"first_name":"James","height_feet":null,"height_inches":null,"last_name":"Bouknight","position":"G","team_id":4,"weight_pounds":null},"pts":0,"reb":0,"stl":0,"team":{"id":4,"abbreviation":"CHA","city":"Charlotte","conference":"East","division":"Southeast","full_name":"Charlotte Hornets","name":"Hornets"},"turnover":0},{"id":11704570,"ast":1,"blk":1,"dreb":0,"fg3_pct":50,"fg3a":2,"fg3m":1,"fg_pct":50,"fga":2,"fgm":1,"ft_pct":0,"fta":0,"ftm":0,"game":{"id":830800,"date":"2022-04-13T00:00:00.000Z","home_team_id":1,"home_team_score":132,"period":4,"postseason":true,"season":2021,"status":"Final","time":"","visitor_team_id":4,"visitor_team_score":103},"min":"1:53","oreb":0,"pf":0,"player":{"id":129,"first_name":"Gorgui","height_feet":6,"height_inches":11,"last_name":"Dieng","position":"C","team_id":27,"weight_pounds":252},"pts":3,"reb":0,"stl":0,"team":{"id":1,"abbreviation":"ATL","city":"Atlanta","conference":"East","division":"Southeast","full_name":"Atlanta Hawks","name":"Hawks"},"turnover":0},{"id":11704558,"ast":1,"blk":0,"dreb":5,"fg3_pct":0,"fg3a":1,"fg3m":0,"fg_pct":0,"fga":3,"fgm":0,"ft_pct":50,"fta":4,"ftm":2,"game":{"id":830800,"date":"2022-04-13T00:00:00.000Z","home_team_id":1,"home_team_score":132,"period":4,"postseason":true,"season":2021,"status":"Final","time":"","visitor_team_id":4,"visitor_team_score":103},"min":"21:51","oreb":1,"pf":3,"player":{"id":666748,"first_name":"Cody","height_feet":null,"height_inches":null,"last_name":"Martin","position":"F","team_id":4,"weight_pounds":null},"pts":2,"reb":6,"stl":2,"team":{"id":4,"abbreviation":"CHA","city":"Charlotte","conference":"East","division":"Southeast","full_name":"Charlotte Hornets","name":"Hornets"},"turnover":1},{"id":11704556,"ast":0,"blk":1,"dreb":2,"fg3_pct":0,"fg3a":0,"fg3m":0,"fg_pct":66.7,"fga":3,"fgm":2,"ft_pct":83.3,"fta":6,"ftm":5,"game":{"id":830800,"date":"2022-04-13T00:00:00.000Z","home_team_id":1,"home_team_score":132,"period":4,"postseason":true,"season":2021,"status":"Final","time":"","visitor_team_id":4,"visitor_team_score":103},"min":"16:00","oreb":1,"pf":1,"player":{"id":194,"first_name":"Montrezl","height_feet":6,"height_inches":8,"last_name":"Harrell","position":"F-C","team_id":23,"weight_pounds":240},"pts":9,"reb":3,"stl":0,"team":{"id":4,"abbreviation":"CHA","city":"Charlotte","conference":"East","division":"Southeast","full_name":"Charlotte Hornets","name":"Hornets"},"turnover":0},{"id":11704560,"ast":0,"blk":0,"dreb":3,"fg3_pct":25,"fg3a":4,"fg3m":1,"fg_pct":20,"fga":5,"fgm":1,"ft_pct":0,"fta":0,"ftm":0,"game":{"id":830800,"date":"2022-04-13T00:00:00.000Z","home_team_id":1,"home_team_score":132,"period":4,"postseason":true,"season":2021,"status":"Final","time":"","visitor_team_id":4,"visitor_team_score":103},"min":"15:53","oreb":0,"pf":1,"player":{"id":360,"first_name":"Kelly","height_feet":6,"height_inches":7,"last_name":"Oubre Jr.","position":"F","team_id":4,"weight_pounds":205},"pts":3,"reb":3,"stl":0,"team":{"id":4,"abbreviation":"CHA","city":"Charlotte","conference":"East","division":"Southeast","full_name":"Charlotte Hornets","name":"Hornets"},"turnover":1},{"id":11704559,"ast":1,"blk":0,"dreb":4,"fg3_pct":50,"fg3a":4,"fg3m":2,"fg_pct":33.3,"fga":6,"fgm":2,"ft_pct":50,"fta":2,"ftm":1,"game":{"id":830800,"date":"2022-04-13T00:00:00.000Z","home_team_id":1,"home_team_score":132,"period":4,"postseason":true,"season":2021,"status":"Final","time":"","visitor_team_id":4,"visitor_team_score":103},"min":"25:58","oreb":0,"pf":2,"player":{"id":666762,"first_name":"Jalen","height_feet":null,"height_inches":null,"last_name":"McDaniels","position":"F","team_id":23,"weight_pounds":null},"pts":7,"reb":4,"stl":0,"team":{"id":4,"abbreviation":"CHA","city":"Charlotte","conference":"East","division":"Southeast","full_name":"Charlotte Hornets","name":"Hornets"},"turnover":1},{"id":11704562,"ast":1,"blk":0,"dreb":0,"fg3_pct":100,"fg3a":1,"fg3m":1,"fg_pct":25,"fga":4,"fgm":1,"ft_pct":0,"fta":0,"ftm":0,"game":{"id":830800,"date":"2022-04-13T00:00:00.000Z","home_team_id":1,"home_team_score":132,"period":4,"postseason":true,"season":2021,"status":"Final","time":"","visitor_team_id":4,"visitor_team_score":103},"min":"5:57","oreb":2,"pf":1,"player":{"id":440,"first_name":"Isaiah","height_feet":5,"height_inches":9,"last_name":"Thomas","position":"G","team_id":4,"weight_pounds":185},"pts":3,"reb":2,"stl":0,"team":{"id":4,"abbreviation":"CHA","city":"Charlotte","conference":"East","division":"Southeast","full_name":"Charlotte Hornets","name":"Hornets"},"turnover":0},{"id":11704557,"ast":0,"blk":0,"dreb":0,"fg3_pct":0,"fg3a":0,"fg3m":0,"fg_pct":0,"fga":0,"fgm":0,"ft_pct":0,"fta":0,"ftm":0,"game":{"id":830800,"date":"2022-04-13T00:00:00.000Z","home_team_id":1,"home_team_score":132,"period":4,"postseason":true,"season":2021,"status":"Final","time":"","visitor_team_id":4,"visitor_team_score":103},"min":"0:00","oreb":0,"pf":0,"player":{"id":17896032,"first_name":"Kai","height_feet":null,"height_inches":null,"last_name":"Jones","position":"F-C","team_id":4,"weight_pounds":null},"pts":0,"reb":0,"stl":0,"team":{"id":4,"abbreviation":"CHA","city":"Charlotte","conference":"East","division":"Southeast","full_name":"Charlotte Hornets","name":"Hornets"},"turnover":0},{"id":11704561,"ast":0,"blk":0,"dreb":0,"fg3_pct":0,"fg3a":0,"fg3m":0,"fg_pct":0,"fga":0,"fgm":0,"ft_pct":0,"fta":0,"ftm":0,"game":{"id":830800,"date":"2022-04-13T00:00:00.000Z","home_team_id":1,"home_team_score":132,"period":4,"postseason":true,"season":2021,"status":"Final","time":"","visitor_team_id":4,"visitor_team_score":103},"min":"0:00","oreb":0,"pf":0,"player":{"id":3547282,"first_name":"Nick","height_feet":null,"height_inches":null,"last_name":"Richards","position":"C","team_id":4,"weight_pounds":null},"pts":0,"reb":0,"stl":0,"team":{"id":4,"abbreviation":"CHA","city":"Charlotte","conference":"East","division":"Southeast","full_name":"Charlotte Hornets","name":"Hornets"},"turnover":0},{"id":11704563,"ast":0,"blk":0,"dreb":0,"fg3_pct":0,"fg3a":0,"fg3m":0,"fg_pct":0,"fga":0,"fgm":0,"ft_pct":0,"fta":0,"ftm":0,"game":{"id":830800,"date":"2022-04-13T00:00:00.000Z","home_team_id":1,"home_team_score":132,"period":4,"postseason":true,"season":2021,"status":"Final","time":"","visitor_team_id":4,"visitor_team_score":103},"min":"0:00","oreb":0,"pf":0,"player":{"id":18678001,"first_name":"JT","height_feet":null,"height_inches":null,"last_name":"Thor","position":"F","team_id":4,"weight_pounds":null},"pts":0,"reb":0,"stl":0,"team":{"id":4,"abbreviation":"CHA","city":"Charlotte","conference":"East","division":"Southeast","full_name":"Charlotte Hornets","name":"Hornets"},"turnover":0},{"id":11704564,"ast":2,"blk":0,"dreb":6,"fg3_pct":66.7,"fg3a":3,"fg3m":2,"fg_pct":56.2,"fga":16,"fgm":9,"ft_pct":100,"fta":2,"ftm":2,"game":{"id":830800,"date":"2022-04-13T00:00:00.000Z","home_team_id":1,"home_team_score":132,"period":4,"postseason":true,"season":2021,"status":"Final","time":"","visitor_team_id":4,"visitor_team_score":103},"min":"30:23","oreb":1,"pf":1,"player":{"id":666656,"first_name":"De'Andre","height_feet":null,"height_inches":null,"last_name":"Hunter","position":"F","team_id":1,"weight_pounds":null},"pts":22,"reb":7,"stl":0,"team":{"id":1,"abbreviation":"ATL","city":"Atlanta","conference":"East","division":"Southeast","full_name":"Atlanta Hawks","name":"Hawks"},"turnover":0},{"id":11704565,"ast":2,"blk":0,"dreb":2,"fg3_pct":40,"fg3a":5,"fg3m":2,"fg_pct":58.3,"fga":12,"fgm":7,"ft_pct":66.7,"fta":3,"ftm":2,"game":{"id":830800,"date":"2022-04-13T00:00:00.000Z","home_team_id":1,"home_team_score":132,"period":4,"postseason":true,"season":2021,"status":"Final","time":"","visitor_team_id":4,"visitor_team_score":103},"min":"29:34","oreb":1,"pf":3,"player":{"id":167,"first_name":"Danilo","height_feet":6,"height_inches":10,"last_name":"Gallinari","position":"F","team_id":2,"weight_pounds":225},"pts":18,"reb":3,"stl":0,"team":{"id":1,"abbreviation":"ATL","city":"Atlanta","conference":"East","division":"Southeast","full_name":"Atlanta Hawks","name":"Hawks"},"turnover":1},{"id":11704566,"ast":3,"blk":3,"dreb":13,"fg3_pct":0,"fg3a":0,"fg3m":0,"fg_pct":66.7,"fga":9,"fgm":6,"ft_pct":50,"fta":6,"ftm":3,"game":{"id":830800,"date":"2022-04-13T00:00:00.000Z","home_team_id":1,"home_team_score":132,"period":4,"postseason":true,"season":2021,"status":"Final","time":"","visitor_team_id":4,"visitor_team_score":103},"min":"29:28","oreb":4,"pf":2,"player":{"id":83,"first_name":"Clint","height_feet":6,"height_inches":10,"last_name":"Capela","position":"C","team_id":1,"weight_pounds":240},"pts":15,"reb":17,"stl":2,"team":{"id":1,"abbreviation":"ATL","city":"Atlanta","conference":"East","division":"Southeast","full_name":"Atlanta Hawks","name":"Hawks"},"turnover":1},{"id":11704567,"ast":4,"blk":0,"dreb":3,"fg3_pct":75,"fg3a":4,"fg3m":3,"fg_pct":55.6,"fga":9,"fgm":5,"ft_pct":0,"fta":0,"ftm":0,"game":{"id":830800,"date":"2022-04-13T00:00:00.000Z","home_team_id":1,"home_team_score":132,"period":4,"postseason":true,"season":2021,"status":"Final","time":"","visitor_team_id":4,"visitor_team_score":103},"min":"29:46","oreb":2,"pf":5,"player":{"id":221,"first_name":"Kevin","height_feet":6,"height_inches":7,"last_name":"Huerter","position":"G","team_id":26,"weight_pounds":190},"pts":13,"reb":5,"stl":1,"team":{"id":1,"abbreviation":"ATL","city":"Atlanta","conference":"East","division":"Southeast","full_name":"Atlanta Hawks","name":"Hawks"},"turnover":1},{"id":11704568,"ast":11,"blk":1,"dreb":3,"fg3_pct":14.3,"fg3a":7,"fg3m":1,"fg_pct":33.3,"fga":24,"fgm":8,"ft_pct":87.5,"fta":8,"ftm":7,"game":{"id":830800,"date":"2022-04-13T00:00:00.000Z","home_team_id":1,"home_team_score":132,"period":4,"postseason":true,"season":2021,"status":"Final","time":"","visitor_team_id":4,"visitor_team_score":103},"min":"33:48","oreb":0,"pf":2,"player":{"id":490,"first_name":"Trae","height_feet":6,"height_inches":2,"last_name":"Young","position":"G","team_id":1,"weight_pounds":180},"pts":24,"reb":3,"stl":1,"team":{"id":1,"abbreviation":"ATL","city":"Atlanta","conference":"East","division":"Southeast","full_name":"Atlanta Hawks","name":"Hawks"},"turnover":3},{"id":11704569,"ast":1,"blk":0,"dreb":1,"fg3_pct":42.9,"fg3a":7,"fg3m":3,"fg_pct":44.4,"fga":9,"fgm":4,"ft_pct":100,"fta":2,"ftm":2,"game":{"id":830800,"date":"2022-04-13T00:00:00.000Z","home_team_id":1,"home_team_score":132,"period":4,"postseason":true,"season":2021,"status":"Final","time":"","visitor_team_id":4,"visitor_team_score":103},"min":"24:38","oreb":1,"pf":3,"player":{"id":53,"first_name":"Bogdan","height_feet":6,"height_inches":6,"last_name":"Bogdanovic","position":"G","team_id":1,"weight_pounds":205},"pts":13,"reb":2,"stl":1,"team":{"id":1,"abbreviation":"ATL","city":"Atlanta","conference":"East","division":"Southeast","full_name":"Atlanta Hawks","name":"Hawks"},"turnover":0},{"id":11704576,"ast":4,"blk":1,"dreb":3,"fg3_pct":100,"fg3a":1,"fg3m":1,"fg_pct":75,"fga":4,"fgm":3,"ft_pct":50,"fta":2,"ftm":1,"game":{"id":830800,"date":"2022-04-13T00:00:00.000Z","home_team_id":1,"home_team_score":132,"period":4,"postseason":true,"season":2021,"status":"Final","time":"","visitor_team_id":4,"visitor_team_score":103},"min":"18:53","oreb":2,"pf":1,"player":{"id":487,"first_name":"Delon","height_feet":6,"height_inches":5,"last_name":"Wright","position":"G","team_id":30,"weight_pounds":183},"pts":8,"reb":5,"stl":0,"team":{"id":1,"abbreviation":"ATL","city":"Atlanta","conference":"East","division":"Southeast","full_name":"Atlanta Hawks","name":"Hawks"},"turnover":0},{"id":11704575,"ast":1,"blk":0,"dreb":4,"fg3_pct":0,"fg3a":0,"fg3m":0,"fg_pct":50,"fga":2,"fgm":1,"ft_pct":50,"fta":2,"ftm":1,"game":{"id":830800,"date":"2022-04-13T00:00:00.000Z","home_team_id":1,"home_team_score":132,"period":4,"postseason":true,"season":2021,"status":"Final","time":"","visitor_team_id":4,"visitor_team_score":103},"min":"16:39","oreb":0,"pf":5,"player":{"id":3547244,"first_name":"Onyeka","height_feet":null,"height_inches":null,"last_name":"Okongwu","position":"F-C","team_id":1,"weight_pounds":null},"pts":3,"reb":4,"stl":0,"team":{"id":1,"abbreviation":"ATL","city":"Atlanta","conference":"East","division":"Southeast","full_name":"Atlanta Hawks","name":"Hawks"},"turnover":2},{"id":11704573,"ast":0,"blk":0,"dreb":5,"fg3_pct":100,"fg3a":2,"fg3m":2,"fg_pct":60,"fga":5,"fgm":3,"ft_pct":0,"fta":0,"ftm":0,"game":{"id":830800,"date":"2022-04-13T00:00:00.000Z","home_team_id":1,"home_team_score":132,"period":4,"postseason":true,"season":2021,"status":"Final","time":"","visitor_team_id":4,"visitor_team_score":103},"min":"16:27","oreb":0,"pf":1,"player":{"id":288,"first_name":"Timothe","height_feet":6,"height_inches":6,"last_name":"Luwawu-Cabarrot","position":"G-F","team_id":1,"weight_pounds":210},"pts":8,"reb":5,"stl":0,"team":{"id":1,"abbreviation":"ATL","city":"Atlanta","conference":"East","division":"Southeast","full_name":"Atlanta Hawks","name":"Hawks"},"turnover":1},{"id":11704571,"ast":0,"blk":0,"dreb":2,"fg3_pct":100,"fg3a":1,"fg3m":1,"fg_pct":100,"fga":1,"fgm":1,"ft_pct":0,"fta":0,"ftm":0,"game":{"id":830800,"date":"2022-04-13T00:00:00.000Z","home_team_id":1,"home_team_score":132,"period":4,"postseason":true,"season":2021,"status":"Final","time":"","visitor_team_id":4,"visitor_team_score":103},"min":"3:22","oreb":0,"pf":0,"player":{"id":17896040,"first_name":"Jalen","height_feet":null,"height_inches":null,"last_name":"Johnson","position":"F","team_id":1,"weight_pounds":null},"pts":3,"reb":2,"stl":0,"team":{"id":1,"abbreviation":"ATL","city":"Atlanta","conference":"East","division":"Southeast","full_name":"Atlanta Hawks","name":"Hawks"},"turnover":1}],"meta":{"total_pages":2,"current_page":1,"next_page":2,"per_page":25,"total_count":27}}