{"data":[{"id":11591778,"ast":1,"blk":0,"dreb":1,"fg3_pct":0.429,"fg3a":7,"fg3m":3,"fg_pct":0.462,"fga":13,"fgm":6,"ft_pct":null,"fta":0,"ftm":0,"game":{"id":474616,"date":"2022-04-08T00:00:00.000Z","home_team_id":9,"home_team_score":101,"period":4,"postseason":false,"season":2021,"status":"Final","time":"","visitor_team_id":17,"visitor_team_score":131},"min":"28","oreb":0,"pf":1,"player":{"id":315,"first_name":"Khris","height_feet":6,"height_inches":8,"last_name":"Middleton","position":"F","team_id":17,"weight_pounds":222},"pts":15,"reb":1,"stl":2,"team":{"id":17,"abbreviation":"MIL","city":"Milwaukee","conference":"East","division":"Central","full_name":"Milwaukee Bucks","name":"Bucks"},"turnover":0},{"id":11591779,"ast":8,"blk":0,"dreb":12,"fg3_pct":0.333,"fg3a":3,"fg3m":1,"fg_pct":0.563,"fga":16,"fgm":9,"ft_pct":0.846,"fta":13,"ftm":11,"game":{"id":474616,"date":"2022-04-08T00:00:00.000Z","home_team_id":9,"home_team_score":101,"period":4,"postseason":false,"season":2021,"status":"Final","time":"","visitor_team_id":17,"visitor_team_score":131},"min":"28","oreb":1,"pf":1,"player":{"id":15,"first_name":"Giannis","height_feet":6,"height_inches":11,"last_name":"Antetokounmpo","position":"F","team_id":17,"weight_pounds":242},"pts":30,"reb":13,"stl":2,"team":{"id":17,"abbreviation":"MIL","city":"Milwaukee","conference":"East","division":"Central","full_name":"Milwaukee Bucks","name":"Bucks"},"turnover":1},{"id":11591780,"ast":0,"blk":1,"dreb":2,"fg3_pct":0.75,"fg3a":4,"fg3m":3,"fg_pct":0.636,"fga":11,"fgm":7,"ft_pct":null,"fta":0,"ftm":0,"game":{"id":474616,"date":"2022-04-08T00:00:00.000Z","home_team_id":9,"home_team_score":101,"period":4,"postseason":false,"season":2021,"status":"Final","time":"","visitor_team_id":17,"visitor_team_score":131},"min":"21","oreb":2,"pf":2,"player":{"id":283,"first_name":"Brook","height_feet":7,"height_inches":0,"last_name":"Lopez","position":"C","team_id":17,"weight_pounds":270},"pts":17,"reb":4,"stl":0,"team":{"id":17,"abbreviation":"MIL","city":"Milwaukee","conference":"East","division":"Central","full_name":"Milwaukee Bucks","name":"Bucks"},"turnover":1},{"id":11591786,"ast":1,"blk":0,"dreb":0,"fg3_pct":0.25,"fg3a":4,"fg3m":1,"fg_pct":0.5,"fga":6,"fgm":3,"ft_pct":1,"fta":3,"ftm":3,"game":{"id":474616,"date":"2022-04-08T00:00:00.000Z","home_team_id":9,"home_team_score":101,"period":4,"postseason":false,"season":2021,"status":"Final","time":"","visitor_team_id":17,"visitor_team_score":131},"min":"16","oreb":0,"pf":1,"player":{"id":211,"first_name":"George","height_feet":6,"height_inches":3,"last_name":"Hill","position":"G","team_id":12,"weight_pounds":188},"pts":10,"reb":0,"stl":0,"team":{"id":17,"abbreviation":"MIL","city":"Milwaukee","conference":"East","division":"Central","full_name":"Milwaukee Bucks","name":"Bucks"},"turnover":1},{"id":11591785,"ast":2,"blk":0,"dreb":3,"fg3_pct":0.4,"fg3a":5,"fg3m":2,"fg_pct":0.375,"fga":8,"fgm":3,"ft_pct":1,"fta":2,"ftm":2,"game":{"id":474616,"date":"2022-04-08T00:00:00.000Z","home_team_id":9,"home_team_score":101,"period":4,"postseason":false,"season":2021,"status":"Final","time":"","visitor_team_id":17,"visitor_team_score":131},"min":"24","oreb":1,"pf":2,"player":{"id":105,"first_name":"Pat","height_feet":6,"height_inches":4,"last_name":"Connaughton","position":"G","team_id":17,"weight_pounds":209},"pts":10,"reb":4,"stl":1,"team":{"id":17,"abbreviation":"MIL","city":"Milwaukee","conference":"East","division":"Central","full_name":"Milwaukee Bucks","name":"Bucks"},"turnover":1},{"id":11591798,"ast":1,"blk":0,"dreb":2,"fg3_pct":0.333,"fg3a":3,"fg3m":1,"fg_pct":0.5,"fga":4,"fgm":2,"ft_pct":null,"fta":0,"ftm":0,"game":{"id":474616,"date":"2022-04-08T00:00:00.000Z","home_team_id":9,"home_team_score":101,"period":4,"postseason":false,"season":2021,"status":"Final","time":"","visitor_team_id":17,"visitor_team_score":131},"min":"13","oreb":0,"pf":1,"player":{"id":666551,"first_name":"Carsen","height_feet":null,"height_inches":null,"last_name":"Edwards","position":"G","team_id":9,"weight_pounds":null},"pts":5,"reb":2,"stl":0,"team":{"id":9,"abbreviation":"DET","city":"Detroit","conference":"East","division":"Central","full_name":"Detroit Pistons","name":"Pistons"},"turnover":0},{"id":11591784,"ast":3,"blk":0,"dreb":1,"fg3_pct":0.5,"fg3a":2,"fg3m":1,"fg_pct":0.333,"fga":3,"fgm":1,"ft_pct":null,"fta":0,"ftm":0,"game":{"id":474616,"date":"2022-04-08T00:00:00.000Z","home_team_id":9,"home_team_score":101,"period":4,"postseason":false,"season":2021,"status":"Final","time":"","visitor_team_id":17,"visitor_team_score":131},"min":"14","oreb":0,"pf":3,"player":{"id":87,"first_name":"Jevon","height_feet":6,"height_inches":2,"last_name":"Carter","position":"G","team_id":17,"weight_pounds":196},"pts":3,"reb":1,"stl":1,"team":{"id":17,"abbreviation":"MIL","city":"Milwaukee","conference":"East","division":"Central","full_name":"Milwaukee Bucks","name":"Bucks"},"turnover":1},{"id":11591787,"ast":0,"blk":0,"dreb":2,"fg3_pct":0,"fg3a":1,"fg3m":0,"fg_pct":0.8,"fga":5,"fgm":4,"ft_pct":null,"fta":0,"ftm":0,"game":{"id":474616,"date":"2022-04-08T00:00:00.000Z","home_team_id":9,"home_team_score":101,"period":4,"postseason":false,"season":2021,"status":"Final","time":"","visitor_team_id":17,"visitor_team_score":131},"min":"11","oreb":2,"pf":3,"player":{"id":223,"first_name":"Serge","height_feet":6,"height_inches":10,"last_name":"Ibaka","position":"F-C","team_id":17,"weight_pounds":235},"pts":8,"reb":4,"stl":0,"team":{"id":17,"abbreviation":"MIL","city":"Milwaukee","conference":"East","division":"Central","full_name":"Milwaukee Bucks","name":"Bucks"},"turnover":0},{"id":11591792,"ast":2,"blk":0,"dreb":2,"fg3_pct":0,"fg3a":1,"fg3m":0,"fg_pct":0,"fga":3,"fgm":0,"ft_pct":1,"fta":2,"ftm":2,"game":{"id":474616,"date":"2022-04-08T00:00:00.000Z","home_team_id":9,"home_team_score":101,"period":4,"postseason":false,"season":2021,"status":"Final","time":"","visitor_team_id":17,"visitor_team_score":131},"min":"8","oreb":0,"pf":1,"player":{"id":666960,"first_name":"Lindell","height_feet":null,"height_inches":null,"last_name":"Wigginton","position":"G","team_id":17,"weight_pounds":null},"pts":2,"reb":2,"stl":0,"team":{"id":17,"abbreviation":"MIL","city":"Milwaukee","conference":"East","division":"Central","full_name":"Milwaukee Bucks","name":"Bucks"},"turnover":0},{"id":11591789,"ast":0,"blk":0,"dreb":3,"fg3_pct":0,"fg3a":1,"fg3m":0,"fg_pct":0,"fga":2,"fgm":0,"ft_pct":0.5,"fta":2,"ftm":1,"game":{"id":474616,"date":"2022-04-08T00:00:00.000Z","home_team_id":9,"home_team_score":101,"period":4,"postseason":false,"season":2021,"status":"Final","time":"","visitor_team_id":17,"visitor_team_score":131},"min":"6","oreb":0,"pf":0,"player":{"id":3547207,"first_name":"Jordan","height_feet":null,"height_inches":null,"last_name":"Nwora","position":"F","team_id":12,"weight_pounds":null},"pts":1,"reb":3,"stl":0,"team":{"id":17,"abbreviation":"MIL","city":"Milwaukee","conference":"East","division":"Central","full_name":"Milwaukee Bucks","name":"Bucks"},"turnover":0},{"id":11591783,"ast":0,"blk":0,"dreb":0,"fg3_pct":null,"fg3a":0,"fg3m":0,"fg_pct":1,"fga":3,"fgm":3,"ft_pct":null,"fta":0,"ftm":0,"game":{"id":474616,"date":"2022-04-08T00:00:00.000Z","home_team_id":9,"home_team_score":101,"period":4,"postseason":false,"season":2021,"status":"Final","time":"","visitor_team_id":17,"visitor_team_score":131},"min":"6","oreb":0,"pf":1,"player":{"id":2148,"first_name":"Thanasis","height_feet":null,"height_inches":null,"last_name":"Antetokounmpo","position":"","team_id":17,"weight_pounds":null},"pts":6,"reb":0,"stl":0,"team":{"id":17,"abbreviation":"MIL","city":"Milwaukee","conference":"East","division":"Central","full_name":"Milwaukee Bucks","name":"Bucks"},"turnover":0},{"id":11591788,"ast":0,"blk":0,"dreb":0,"fg3_pct":null,"fg3a":0,"fg3m":0,"fg_pct":1,"fga":1,"fgm":1,"ft_pct":null,"fta":0,"ftm":0,"game":{"id":474616,"date":"2022-04-08T00:00:00.000Z","home_team_id":9,"home_team_score":101,"period":4,"postseason":false,"season":2021,"status":"Final","time":"","visitor_team_id":17,"visitor_team_score":131},"min":"6","oreb":0,"pf":0,"player":{"id":17896059,"first_name":"Sandro","height_feet":null,"height_inches":null,"last_name":"Mamukelashvili","position":"F","team_id":27,"weight_pounds":null},"pts":2,"reb":0,"stl":0,"team":{"id":17,"abbreviation":"MIL","city":"Milwaukee","conference":"East","division":"Central","full_name":"Milwaukee Bucks","name":"Bucks"},"turnover":0},{"id":11591791,"ast":2,"blk":0,"dreb":0,"fg3_pct":0,"fg3a":0,"fg3m":0,"fg_pct":0,"fga":0,"fgm":0,"ft_pct":0,"fta":0,"ftm":0,"game":{"id":474616,"date":"2022-04-08T00:00:00.000Z","home_team_id":9,"home_team_score":101,"period":4,"postseason":false,"season":2021,"status":"Final","time":"","visitor_team_id":17,"visitor_team_score":131},"min":"2:24","oreb":0,"pf":0,"player":{"id":666930,"first_name":"Rayjon","height_feet":null,"height_inches":null,"last_name":"Tucker","position":"F","team_id":17,"weight_pounds":null},"pts":0,"reb":0,"stl":1,"team":{"id":17,"abbreviation":"MIL","city":"Milwaukee","conference":"East","division":"Central","full_name":"Milwaukee Bucks","name":"Bucks"},"turnover":0},{"id":11591799,"ast":0,"blk":0,"dreb":0,"fg3_pct":0,"fg3a":0,"fg3m":0,"fg_pct":0,"fga":0,"fgm":0,"ft_pct":0,"fta":0,"ftm":0,"game":{"id":474616,"date":"2022-04-08T00:00:00.000Z","home_team_id":9,"home_team_score":101,"period":4,"postseason":false,"season":2021,"status":"Final","time":"","visitor_team_id":17,"visitor_team_score":131},"min":"","oreb":0,"pf":0,"player":{"id":182,"first_name":"Jerami","height_feet":6,"height_inches":9,"last_name":"Grant","position":"F","team_id":25,"weight_pounds":220},"pts":0,"reb":0,"stl":0,"team":{"id":9,"abbreviation":"DET","city":"Detroit","conference":"East","division":"Central","full_name":"Detroit Pistons","name":"Pistons"},"turnover":0},{"id":11591801,"ast":0,"blk":0,"dreb":0,"fg3_pct":0,"fg3a":0,"fg3m":0,"fg_pct":0,"fga":0,"fgm":0,"ft_pct":0,"fta":0,"ftm":0,"game":{"id":474616,"date":"2022-04-08T00:00:00.000Z","home_team_id":9,"home_team_score":101,"period":4,"postseason":false,"season":2021,"status":"Final","time":"","visitor_team_id":17,"visitor_team_score":131},"min":"","oreb":0,"pf":0,"player":{"id":251,"first_name":"Cory","height_feet":6,"height_inches":3,"last_name":"Joseph","position":"G","team_id":9,"weight_pounds":193},"pts":0,"reb":0,"stl":0,"team":{"id":9,"abbreviation":"DET","city":"Detroit","conference":"East","division":"Central","full_name":"Detroit Pistons","name":"Pistons"},"turnover":0},{"id":11591793,"ast":0,"blk":0,"dreb":3,"fg3_pct":0,"fg3a":1,"fg3m":0,"fg_pct":0,"fga":2,"fgm":0,"ft_pct":0,"fta":0,"ftm":0,"game":{"id":474616,"date":"2022-04-08T00:00:00.000Z","home_team_id":9,"home_team_score":101,"period":4,"postseason":false,"season":2021,"status":"Final","time":"","visitor_team_id":17,"visitor_team_score":131},"min":"19:23","oreb":0,"pf":2,"player":{"id":17896071,"first_name":"Isaiah","height_feet":null,"height_inches":null,"last_name":"Livers","position":"F","team_id":9,"weight_pounds":null},"pts":0,"reb":3,"stl":2,"team":{"id":9,"abbreviation":"DET","city":"Detroit","conference":"East","division":"Central","full_name":"Detroit Pistons","name":"Pistons"},"turnover":0},{"id":11591794,"ast":2,"blk":0,"dreb":1,"fg3_pct":0.167,"fg3a":12,"fg3m":2,"fg_pct":0.368,"fga":19,"fgm":7,"ft_pct":1,"fta":4,"ftm":4,"game":{"id":474616,"date":"2022-04-08T00:00:00.000Z","home_team_id":9,"home_team_score":101,"period":4,"postseason":false,"season":2021,"status":"Final","time":"","visitor_team_id":17,"visitor_team_score":131},"min":"33","oreb":0,"pf":2,"player":{"id":3547256,"first_name":"Saddiq","height_feet":null,"height_inches":null,"last_name":"Bey","position":"F","team_id":1,"weight_pounds":null},"pts":20,"reb":1,"stl":0,"team":{"id":9,"abbreviation":"DET","city":"Detroit","conference":"East","division":"Central","full_name":"Detroit Pistons","name":"Pistons"},"turnover":0},{"id":11591795,"ast":4,"blk":2,"dreb":7,"fg3_pct":0.25,"fg3a":4,"fg3m":1,"fg_pct":0.167,"fga":6,"fgm":1,"ft_pct":1,"fta":2,"ftm":2,"game":{"id":474616,"date":"2022-04-08T00:00:00.000Z","home_team_id":9,"home_team_score":101,"period":4,"postseason":false,"season":2021,"status":"Final","time":"","visitor_team_id":17,"visitor_team_score":131},"min":"27","oreb":5,"pf":3,"player":{"id":3547267,"first_name":"Isaiah","height_feet":null,"height_inches":null,"last_name":"Stewart","position":"F-C","team_id":9,"weight_pounds":null},"pts":5,"reb":12,"stl":0,"team":{"id":9,"abbreviation":"DET","city":"Detroit","conference":"East","division":"Central","full_name":"Detroit Pistons","name":"Pistons"},"turnover":0},{"id":11591796,"ast":3,"blk":1,"dreb":3,"fg3_pct":0,"fg3a":5,"fg3m":0,"fg_pct":0.333,"fga":9,"fgm":3,"ft_pct":null,"fta":0,"ftm":0,"game":{"id":474616,"date":"2022-04-08T00:00:00.000Z","home_team_id":9,"home_team_score":101,"period":4,"postseason":false,"season":2021,"status":"Final","time":"","visitor_team_id":17,"visitor_team_score":131},"min":"27","oreb":0,"pf":1,"player":{"id":3547241,"first_name":"Killian","height_feet":null,"height_inches":null,"last_name":"Hayes","position":"G","team_id":9,"weight_pounds":null},"pts":6,"reb":3,"stl":0,"team":{"id":9,"abbreviation":"DET","city":"Detroit","conference":"East","division":"Central","full_name":"Detroit Pistons","name":"Pistons"},"turnover":0},{"id":11591797,"ast":7,"blk":1,"dreb":6,"fg3_pct":0,"fg3a":5,"fg3m":0,"fg_pct":0.333,"fga":18,"fgm":6,"ft_pct":1,"fta":2,"ftm":2,"game":{"id":474616,"date":"2022-04-08T00:00:00.000Z","home_team_id":9,"home_team_score":101,"period":4,"postseason":false,"season":2021,"status":"Final","time":"","visitor_team_id":17,"visitor_team_score":131},"min":"39","oreb":0,"pf":4,"player":{"id":17896075,"first_name":"Cade","height_feet":null,"height_inches":null,"last_name":"Cunningham","position":"G-F","team_id":9,"weight_pounds":null},"pts":14,"reb":6,"stl":0,"team":{"id":9,"abbreviation":"DET","city":"Detroit","conference":"East","division":"Central","full_name":"Detroit Pistons","name":"Pistons"},"turnover":6},{"id":11591804,"ast":5,"blk":1,"dreb":4,"fg3_pct":0.25,"fg3a":4,"fg3m":1,"fg_pct":0.571,"fga":7,"fgm":4,"ft_pct":0.889,"fta":9,"ftm":8,"game":{"id":474616,"date":"2022-04-08T00:00:00.000Z","home_team_id":9,"home_team_score":101,"period":4,"postseason":false,"season":2021,"status":"Final","time":"","visitor_team_id":17,"visitor_team_score":131},"min":"23","oreb":1,"pf":2,"player":{"id":358,"first_name":"Kelly","height_feet":7,"height_inches":0,"last_name":"Olynyk","position":"F","team_id":29,"weight_pounds":240},"pts":17,"reb":5,"stl":0,"team":{"id":9,"abbreviation":"DET","city":"Detroit","conference":"East","division":"Central","full_name":"Detroit Pistons","name":"Pistons"},"turnover":3},{"id":11591802,"ast":2,"blk":0,"dreb":4,"fg3_pct":0,"fg3a":4,"fg3m":0,"fg_pct":0.333,"fga":6,"fgm":2,"ft_pct":0.5,"fta":2,"ftm":1,"game":{"id":474616,"date":"2022-04-08T00:00:00.000Z","home_team_id":9,"home_team_score":101,"period":4,"postseason":false,"season":2021,"status":"Final","time":"","visitor_team_id":17,"visitor_team_score":131},"min":"20","oreb":0,"pf":3,"player":{"id":17896007,"first_name":"Braxton","height_feet":null,"height_inches":null,"last_name":"Key","position":"G","team_id":9,"weight_pounds":null},"pts":5,"reb":4,"stl":1,"team":{"id":9,"abbreviation":"DET","city":"Detroit","conference":"East","division":"Central","full_name":"Detroit Pistons","name":"Pistons"},"turnover":1},{"id":11591800,"ast":1,"blk":0,"dreb":3,"fg3_pct":0.2,"fg3a":5,"fg3m":1,"fg_pct":0.125,"fga":8,"fgm":1,"ft_pct":null,"fta":0,"ftm":0,"game":{"id":474616,"date":"2022-04-08T00:00:00.000Z","home_team_id":9,"home_team_score":101,"period":4,"postseason":false,"season":2021,"status":"Final","time":"","visitor_team_id":17,"visitor_team_score":131},"min":"16","oreb":1,"pf":2,"player":{"id":233,"first_name":"Frank","height_feet":6,"height_inches":3,"last_name":"Jackson","position":"G","team_id":29,"weight_pounds":205},"pts":3,"reb":4,"stl":1,"team":{"id":9,"abbreviation":"DET","city":"Detroit","conference":"East","division":"Central","full_name":"Detroit Pistons","name":"Pistons"},"turnover":0},{"id":11591803,"ast":2,"blk":0,"dreb":1,"fg3_pct":0.8,"fg3a":5,"fg3m":4,"fg_pct":0.818,"fga":11,"fgm":9,"ft_pct":1,"fta":4,"ftm":4,"game":{"id":474616,"date":"2022-04-08T00:00:00.000Z","home_team_id":9,"home_team_score":101,"period":4,"postseason":false,"season":2021,"status":"Final","time":"","visitor_team_id":17,"visitor_team_score":131},"min":"24","oreb":2,"pf":2,"player":{"id":307,"first_name":"Rodney","height_feet":6,"height_inches":4,"last_name":"McGruder","position":"F-G","team_id":9,"weight_pounds":200},"pts":26,"reb":3,"stl":2,"team":{"id":9,"abbreviation":"DET","city":"Detroit","conference":"East","division":"Central","full_name":"Detroit Pistons","name":"Pistons"},"turnover":1},{"id":11591790,"ast":0,"blk":0,"dreb":11,"fg3_pct":0,"fg3a":3,"fg3m":0,"fg_pct":0.308,"fga":13,"fgm":4,"ft_pct":null,"fta":0,"ftm":0,"game":{"id":474616,"date":"2022-04-08T00:00:00.000Z","home_team_id":9,"home_team_score":101,"period":4,"postseason":false,"season":2021,"status":"Final","time":"","visitor_team_id":17,"visitor_team_score":131},"min":"22","oreb":4,"pf":1,"player":{"id":377,"first_name":"Bobby","height_feet":6,"height_inches":11,"last_name":"Portis","position":"F","team_id":17,"weight_pounds":250},"pts":8,"reb":15,"stl":0,"team":{"id":17,"abbreviation":"MIL","city":"Milwaukee","conference":"East","division":"Central","full_name":"Milwaukee Bucks","name":"Bucks"},"turnover":0}],"meta":{"total_pages":2,"current_page":1,"next_page":2,"per_page":25,"total_count":27}}