{"data":[{"id":7061620,"ast":0,"blk":0,"dreb":4,"fg3_pct":25,"fg3a":4,"fg3m":1,"fg_pct":50,"fga":8,"fgm":4,"ft_pct":100,"fta":2,"ftm":2,"game":{"id":455107,"date":"2021-08-10T00:00:00.000Z","home_team_id":12,"home_team_score":83,"period":0,"postseason":false,"season":2021,"status":"Final","time":"","visitor_team_id":1,"visitor_team_score":84},"min":"27:35","oreb":2,"pf":4,"player":{"id":5,"first_name":"DeVaughn","height_feet":null,"height_inches":null,"last_name":"Akoon-Purcell","position":"G-F","team_id":1,"weight_pounds":null},"pts":11,"reb":6,"stl":1,"team":{"id":1,"abbreviation":"ATL","city":"Atlanta","conference":"East","division":"Southeast","full_name":"Atlanta Hawks","name":"Hawks"},"turnover":0},{"id":7061621,"ast":1,"blk":1,"dreb":0,"fg3_pct":0,"fg3a":0,"fg3m":0,"fg_pct":0,"fga":0,"fgm":0,"ft_pct":0,"fta":0,"ftm":0,"game":{"id":455107,"date":"2021-08-10T00:00:00.000Z","home_team_id":12,"home_team_score":83,"period":0,"postseason":false,"season":2021,"status":"Final","time":"","visitor_team_id":1,"visitor_team_score":84},"min":"12:49","oreb":0,"pf":0,"player":{"id":41,"first_name":"Jordan","height_feet":6,"height_inches":9,"last_name":"Bell","position":"F","team_id":5,"weight_pounds":224},"pts":0,"reb":0,"stl":1,"team":{"id":1,"abbreviation":"ATL","city":"Atlanta","conference":"East","division":"Southeast","full_name":"Atlanta Hawks","name":"Hawks"},"turnover":1},{"id":7061622,"ast":1,"blk":2,"dreb":9,"fg3_pct":0,"fg3a":1,"fg3m":0,"fg_pct":57.1,"fga":14,"fgm":8,"ft_pct":100,"fta":2,"ftm":2,"game":{"id":455107,"date":"2021-08-10T00:00:00.000Z","home_team_id":12,"home_team_score":83,"period":0,"postseason":false,"season":2021,"status":"Final","time":"","visitor_team_id":1,"visitor_team_score":84},"min":"30:36","oreb":1,"pf":3,"player":{"id":17896040,"first_name":"Jalen","height_feet":null,"height_inches":null,"last_name":"Johnson","position":"F","team_id":1,"weight_pounds":null},"pts":18,"reb":10,"stl":0,"team":{"id":1,"abbreviation":"ATL","city":"Atlanta","conference":"East","division":"Southeast","full_name":"Atlanta Hawks","name":"Hawks"},"turnover":6},{"id":7061623,"ast":3,"blk":0,"dreb":3,"fg3_pct":57.1,"fg3a":7,"fg3m":4,"fg_pct":54.5,"fga":11,"fgm":6,"ft_pct":0,"fta":0,"ftm":0,"game":{"id":455107,"date":"2021-08-10T00:00:00.000Z","home_team_id":12,"home_team_score":83,"period":0,"postseason":false,"season":2021,"status":"Final","time":"","visitor_team_id":1,"visitor_team_score":84},"min":"29:08","oreb":0,"pf":4,"player":{"id":3547289,"first_name":"Skylar","height_feet":null,"height_inches":null,"last_name":"Mays","position":"G","team_id":25,"weight_pounds":null},"pts":16,"reb":3,"stl":2,"team":{"id":1,"abbreviation":"ATL","city":"Atlanta","conference":"East","division":"Southeast","full_name":"Atlanta Hawks","name":"Hawks"},"turnover":1},{"id":7061624,"ast":9,"blk":0,"dreb":1,"fg3_pct":62.5,"fg3a":8,"fg3m":5,"fg_pct":57.1,"fga":14,"fgm":8,"ft_pct":0,"fta":0,"ftm":0,"game":{"id":455107,"date":"2021-08-10T00:00:00.000Z","home_team_id":12,"home_team_score":83,"period":0,"postseason":false,"season":2021,"status":"Final","time":"","visitor_team_id":1,"visitor_team_score":84},"min":"29:16","oreb":0,"pf":5,"player":{"id":17896029,"first_name":"Sharife","height_feet":null,"height_inches":null,"last_name":"Cooper","position":"G","team_id":1,"weight_pounds":null},"pts":21,"reb":1,"stl":1,"team":{"id":1,"abbreviation":"ATL","city":"Atlanta","conference":"East","division":"Southeast","full_name":"Atlanta Hawks","name":"Hawks"},"turnover":6},{"id":7061628,"ast":2,"blk":0,"dreb":2,"fg3_pct":33.3,"fg3a":3,"fg3m":1,"fg_pct":42.9,"fga":7,"fgm":3,"ft_pct":100,"fta":1,"ftm":1,"game":{"id":455107,"date":"2021-08-10T00:00:00.000Z","home_team_id":12,"home_team_score":83,"period":0,"postseason":false,"season":2021,"status":"Final","time":"","visitor_team_id":1,"visitor_team_score":84},"min":"21:17","oreb":1,"pf":1,"player":{"id":17895722,"first_name":"Max","height_feet":null,"height_inches":null,"last_name":"Heidegger","position":"G","team_id":1,"weight_pounds":null},"pts":8,"reb":3,"stl":2,"team":{"id":1,"abbreviation":"ATL","city":"Atlanta","conference":"East","division":"Southeast","full_name":"Atlanta Hawks","name":"Hawks"},"turnover":0},{"id":7061626,"ast":1,"blk":0,"dreb":3,"fg3_pct":0,"fg3a":0,"fg3m":0,"fg_pct":100,"fga":2,"fgm":2,"ft_pct":0,"fta":0,"ftm":0,"game":{"id":455107,"date":"2021-08-10T00:00:00.000Z","home_team_id":12,"home_team_score":83,"period":0,"postseason":false,"season":2021,"status":"Final","time":"","visitor_team_id":1,"visitor_team_score":84},"min":"9:24","oreb":2,"pf":2,"player":{"id":17895839,"first_name":"Javin","height_feet":null,"height_inches":null,"last_name":"DeLaurier","position":"F","team_id":17,"weight_pounds":null},"pts":4,"reb":5,"stl":0,"team":{"id":1,"abbreviation":"ATL","city":"Atlanta","conference":"East","division":"Southeast","full_name":"Atlanta Hawks","name":"Hawks"},"turnover":0},{"id":7061630,"ast":1,"blk":0,"dreb":2,"fg3_pct":0,"fg3a":4,"fg3m":0,"fg_pct":16.7,"fga":6,"fgm":1,"ft_pct":0,"fta":0,"ftm":0,"game":{"id":455107,"date":"2021-08-10T00:00:00.000Z","home_team_id":12,"home_team_score":83,"period":0,"postseason":false,"season":2021,"status":"Final","time":"","visitor_team_id":1,"visitor_team_score":84},"min":"12:57","oreb":0,"pf":3,"player":{"id":17554004,"first_name":"AJ","height_feet":null,"height_inches":null,"last_name":"Lawson","position":"G","team_id":7,"weight_pounds":null},"pts":2,"reb":2,"stl":0,"team":{"id":1,"abbreviation":"ATL","city":"Atlanta","conference":"East","division":"Southeast","full_name":"Atlanta Hawks","name":"Hawks"},"turnover":1},{"id":7061625,"ast":0,"blk":0,"dreb":0,"fg3_pct":0,"fg3a":0,"fg3m":0,"fg_pct":0,"fga":0,"fgm":0,"ft_pct":0,"fta":0,"ftm":0,"game":{"id":455107,"date":"2021-08-10T00:00:00.000Z","home_team_id":12,"home_team_score":83,"period":0,"postseason":false,"season":2021,"status":"Final","time":"","visitor_team_id":1,"visitor_team_score":84},"min":"0:00","oreb":0,"pf":0,"player":{"id":17896019,"first_name":"Nahziah","height_feet":null,"height_inches":null,"last_name":"Carter","position":"G","team_id":1,"weight_pounds":null},"pts":0,"reb":0,"stl":0,"team":{"id":1,"abbreviation":"ATL","city":"Atlanta","conference":"East","division":"Southeast","full_name":"Atlanta Hawks","name":"Hawks"},"turnover":0},{"id":7061627,"ast":0,"blk":0,"dreb":0,"fg3_pct":0,"fg3a":0,"fg3m":0,"fg_pct":0,"fga":0,"fgm":0,"ft_pct":0,"fta":0,"ftm":0,"game":{"id":455107,"date":"2021-08-10T00:00:00.000Z","home_team_id":12,"home_team_score":83,"period":0,"postseason":false,"season":2021,"status":"Final","time":"","visitor_team_id":1,"visitor_team_score":84},"min":"0:00","oreb":0,"pf":0,"player":{"id":17895721,"first_name":"Juwan","height_feet":null,"height_inches":null,"last_name":"Durham","position":"F","team_id":1,"weight_pounds":null},"pts":0,"reb":0,"stl":0,"team":{"id":1,"abbreviation":"ATL","city":"Atlanta","conference":"East","division":"Southeast","full_name":"Atlanta Hawks","name":"Hawks"},"turnover":0},{"id":7061629,"ast":0,"blk":0,"dreb":0,"fg3_pct":0,"fg3a":0,"fg3m":0,"fg_pct":0,"fga":0,"fgm":0,"ft_pct":0,"fta":0,"ftm":0,"game":{"id":455107,"date":"2021-08-10T00:00:00.000Z","home_team_id":12,"home_team_score":83,"period":0,"postseason":false,"season":2021,"status":"Final","time":"","visitor_team_id":1,"visitor_team_score":84},"min":"0:00","oreb":0,"pf":0,"player":{"id":17895723,"first_name":"Justin","height_feet":null,"height_inches":null,"last_name":"Jaworski","position":"G","team_id":1,"weight_pounds":null},"pts":0,"reb":0,"stl":0,"team":{"id":1,"abbreviation":"ATL","city":"Atlanta","conference":"East","division":"Southeast","full_name":"Atlanta Hawks","name":"Hawks"},"turnover":0},{"id":7061631,"ast":0,"blk":0,"dreb":0,"fg3_pct":0,"fg3a":0,"fg3m":0,"fg_pct":0,"fga":0,"fgm":0,"ft_pct":0,"fta":0,"ftm":0,"game":{"id":455107,"date":"2021-08-10T00:00:00.000Z","home_team_id":12,"home_team_score":83,"period":0,"postseason":false,"season":2021,"status":"Final","time":"","visitor_team_id":1,"visitor_team_score":84},"min":"0:00","oreb":0,"pf":0,"player":{"id":666750,"first_name":"Jeremiah","height_feet":null,"height_inches":null,"last_name":"Martin","position":"G","team_id":6,"weight_pounds":null},"pts":0,"reb":0,"stl":0,"team":{"id":1,"abbreviation":"ATL","city":"Atlanta","conference":"East","division":"Southeast","full_name":"Atlanta Hawks","name":"Hawks"},"turnover":0},{"id":7061633,"ast":0,"blk":0,"dreb":2,"fg3_pct":0,"fg3a":1,"fg3m":0,"fg_pct":0,"fga":1,"fgm":0,"ft_pct":0,"fta":0,"ftm":0,"game":{"id":455107,"date":"2021-08-10T00:00:00.000Z","home_team_id":12,"home_team_score":83,"period":0,"postseason":false,"season":2021,"status":"Final","time":"","visitor_team_id":1,"visitor_team_score":84},"min":"10:34","oreb":0,"pf":1,"player":{"id":666885,"first_name":"Admiral","height_feet":null,"height_inches":null,"last_name":"Schofield","position":"F","team_id":22,"weight_pounds":null},"pts":0,"reb":2,"stl":0,"team":{"id":1,"abbreviation":"ATL","city":"Atlanta","conference":"East","division":"Southeast","full_name":"Atlanta Hawks","name":"Hawks"},"turnover":0},{"id":7061634,"ast":2,"blk":0,"dreb":1,"fg3_pct":0,"fg3a":1,"fg3m":0,"fg_pct":66.7,"fga":3,"fgm":2,"ft_pct":0,"fta":0,"ftm":0,"game":{"id":455107,"date":"2021-08-10T00:00:00.000Z","home_team_id":12,"home_team_score":83,"period":0,"postseason":false,"season":2021,"status":"Final","time":"","visitor_team_id":1,"visitor_team_score":84},"min":"16:24","oreb":2,"pf":2,"player":{"id":17895724,"first_name":"Ibi","height_feet":null,"height_inches":null,"last_name":"Watson","position":"G","team_id":1,"weight_pounds":null},"pts":4,"reb":3,"stl":0,"team":{"id":1,"abbreviation":"ATL","city":"Atlanta","conference":"East","division":"Southeast","full_name":"Atlanta Hawks","name":"Hawks"},"turnover":1},{"id":7061632,"ast":0,"blk":0,"dreb":0,"fg3_pct":0,"fg3a":0,"fg3m":0,"fg_pct":0,"fga":0,"fgm":0,"ft_pct":0,"fta":0,"ftm":0,"game":{"id":455107,"date":"2021-08-10T00:00:00.000Z","home_team_id":12,"home_team_score":83,"period":0,"postseason":false,"season":2021,"status":"Final","time":"","visitor_team_id":1,"visitor_team_score":84},"min":"0:00","oreb":0,"pf":0,"player":{"id":2106,"first_name":"Eric","height_feet":null,"height_inches":null,"last_name":"Moreland","position":"","team_id":1,"weight_pounds":null},"pts":0,"reb":0,"stl":0,"team":{"id":1,"abbreviation":"ATL","city":"Atlanta","conference":"East","division":"Southeast","full_name":"Atlanta Hawks","name":"Hawks"},"turnover":0},{"id":7061635,"ast":2,"blk":0,"dreb":1,"fg3_pct":66.7,"fg3a":3,"fg3m":2,"fg_pct":71.4,"fga":7,"fgm":5,"ft_pct":66.7,"fta":3,"ftm":2,"game":{"id":455107,"date":"2021-08-10T00:00:00.000Z","home_team_id":12,"home_team_score":83,"period":0,"postseason":false,"season":2021,"status":"Final","time":"","visitor_team_id":1,"visitor_team_score":84},"min":"21:14","oreb":1,"pf":0,"player":{"id":3547273,"first_name":"Cassius","height_feet":null,"height_inches":null,"last_name":"Stanley","position":"G","team_id":9,"weight_pounds":null},"pts":14,"reb":2,"stl":1,"team":{"id":12,"abbreviation":"IND","city":"Indiana","conference":"East","division":"Central","full_name":"Indiana Pacers","name":"Pacers"},"turnover":1},{"id":7061636,"ast":3,"blk":1,"dreb":4,"fg3_pct":0,"fg3a":5,"fg3m":0,"fg_pct":25,"fga":12,"fgm":3,"ft_pct":87.5,"fta":8,"ftm":7,"game":{"id":455107,"date":"2021-08-10T00:00:00.000Z","home_team_id":12,"home_team_score":83,"period":0,"postseason":false,"season":2021,"status":"Final","time":"","visitor_team_id":1,"visitor_team_score":84},"min":"29:45","oreb":2,"pf":2,"player":{"id":666468,"first_name":"Oshae","height_feet":null,"height_inches":null,"last_name":"Brissett","position":"F","team_id":12,"weight_pounds":null},"pts":13,"reb":6,"stl":1,"team":{"id":12,"abbreviation":"IND","city":"Indiana","conference":"East","division":"Central","full_name":"Indiana Pacers","name":"Pacers"},"turnover":2},{"id":7061637,"ast":1,"blk":0,"dreb":1,"fg3_pct":0,"fg3a":0,"fg3m":0,"fg_pct":100,"fga":1,"fgm":1,"ft_pct":50,"fta":2,"ftm":1,"game":{"id":455107,"date":"2021-08-10T00:00:00.000Z","home_team_id":12,"home_team_score":83,"period":0,"postseason":false,"season":2021,"status":"Final","time":"","visitor_team_id":1,"visitor_team_score":84},"min":"10:50","oreb":2,"pf":0,"player":{"id":666467,"first_name":"Amida","height_feet":null,"height_inches":null,"last_name":"Brimah","position":"C","team_id":12,"weight_pounds":null},"pts":3,"reb":3,"stl":0,"team":{"id":12,"abbreviation":"IND","city":"Indiana","conference":"East","division":"Central","full_name":"Indiana Pacers","name":"Pacers"},"turnover":1},{"id":7061638,"ast":2,"blk":1,"dreb":5,"fg3_pct":50,"fg3a":10,"fg3m":5,"fg_pct":42.1,"fga":19,"fgm":8,"ft_pct":0,"fta":0,"ftm":0,"game":{"id":455107,"date":"2021-08-10T00:00:00.000Z","home_team_id":12,"home_team_score":83,"period":0,"postseason":false,"season":2021,"status":"Final","time":"","visitor_team_id":1,"visitor_team_score":84},"min":"30:25","oreb":2,"pf":3,"player":{"id":17896030,"first_name":"Chris","height_feet":null,"height_inches":null,"last_name":"Duarte","position":"G","team_id":12,"weight_pounds":null},"pts":21,"reb":7,"stl":2,"team":{"id":12,"abbreviation":"IND","city":"Indiana","conference":"East","division":"Central","full_name":"Indiana Pacers","name":"Pacers"},"turnover":4},{"id":7061639,"ast":3,"blk":0,"dreb":2,"fg3_pct":0,"fg3a":2,"fg3m":0,"fg_pct":20,"fga":5,"fgm":1,"ft_pct":100,"fta":2,"ftm":2,"game":{"id":455107,"date":"2021-08-10T00:00:00.000Z","home_team_id":12,"home_team_score":83,"period":0,"postseason":false,"season":2021,"status":"Final","time":"","visitor_team_id":1,"visitor_team_score":84},"min":"13:44","oreb":0,"pf":0,"player":{"id":666454,"first_name":"Jordan","height_feet":null,"height_inches":null,"last_name":"Bone","position":"G","team_id":12,"weight_pounds":null},"pts":4,"reb":2,"stl":0,"team":{"id":12,"abbreviation":"IND","city":"Indiana","conference":"East","division":"Central","full_name":"Indiana Pacers","name":"Pacers"},"turnover":0},{"id":7061646,"ast":0,"blk":0,"dreb":0,"fg3_pct":33.3,"fg3a":3,"fg3m":1,"fg_pct":33.3,"fga":3,"fgm":1,"ft_pct":0,"fta":0,"ftm":0,"game":{"id":455107,"date":"2021-08-10T00:00:00.000Z","home_team_id":12,"home_team_score":83,"period":0,"postseason":false,"season":2021,"status":"Final","time":"","visitor_team_id":1,"visitor_team_score":84},"min":"19:30","oreb":0,"pf":3,"player":{"id":17895769,"first_name":"Keifer","height_feet":null,"height_inches":null,"last_name":"Sykes","position":"G","team_id":12,"weight_pounds":null},"pts":3,"reb":0,"stl":0,"team":{"id":12,"abbreviation":"IND","city":"Indiana","conference":"East","division":"Central","full_name":"Indiana Pacers","name":"Pacers"},"turnover":0},{"id":7061643,"ast":2,"blk":0,"dreb":6,"fg3_pct":0,"fg3a":0,"fg3m":0,"fg_pct":55.6,"fga":9,"fgm":5,"ft_pct":75,"fta":4,"ftm":3,"game":{"id":455107,"date":"2021-08-10T00:00:00.000Z","home_team_id":12,"home_team_score":83,"period":0,"postseason":false,"season":2021,"status":"Final","time":"","visitor_team_id":1,"visitor_team_score":84},"min":"17:23","oreb":6,"pf":3,"player":{"id":17896035,"first_name":"Isaiah","height_feet":null,"height_inches":null,"last_name":"Jackson","position":"F","team_id":12,"weight_pounds":null},"pts":13,"reb":12,"stl":1,"team":{"id":12,"abbreviation":"IND","city":"Indiana","conference":"East","division":"Central","full_name":"Indiana Pacers","name":"Pacers"},"turnover":0},{"id":7061649,"ast":1,"blk":0,"dreb":0,"fg3_pct":25,"fg3a":4,"fg3m":1,"fg_pct":16.7,"fga":6,"fgm":1,"ft_pct":50,"fta":2,"ftm":1,"game":{"id":455107,"date":"2021-08-10T00:00:00.000Z","home_team_id":12,"home_team_score":83,"period":0,"postseason":false,"season":2021,"status":"Final","time":"","visitor_team_id":1,"visitor_team_score":84},"min":"17:40","oreb":1,"pf":0,"player":{"id":17896089,"first_name":"Duane","height_feet":null,"height_inches":null,"last_name":"Washington Jr.","position":"G","team_id":20,"weight_pounds":null},"pts":4,"reb":1,"stl":1,"team":{"id":12,"abbreviation":"IND","city":"Indiana","conference":"East","division":"Central","full_name":"Indiana Pacers","name":"Pacers"},"turnover":0},{"id":7061644,"ast":0,"blk":0,"dreb":0,"fg3_pct":0,"fg3a":1,"fg3m":0,"fg_pct":60,"fga":5,"fgm":3,"ft_pct":0,"fta":0,"ftm":0,"game":{"id":455107,"date":"2021-08-10T00:00:00.000Z","home_team_id":12,"home_team_score":83,"period":0,"postseason":false,"season":2021,"status":"Final","time":"","visitor_team_id":1,"visitor_team_score":84},"min":"10:15","oreb":1,"pf":2,"player":{"id":50815,"first_name":"BJ","height_feet":null,"height_inches":null,"last_name":"Johnson","position":"F","team_id":22,"weight_pounds":null},"pts":6,"reb":1,"stl":1,"team":{"id":12,"abbreviation":"IND","city":"Indiana","conference":"East","division":"Central","full_name":"Indiana Pacers","name":"Pacers"},"turnover":1},{"id":7061648,"ast":1,"blk":0,"dreb":3,"fg3_pct":0,"fg3a":2,"fg3m":0,"fg_pct":20,"fga":5,"fgm":1,"ft_pct":0,"fta":0,"ftm":0,"game":{"id":455107,"date":"2021-08-10T00:00:00.000Z","home_team_id":12,"home_team_score":83,"period":0,"postseason":false,"season":2021,"status":"Final","time":"","visitor_team_id":1,"visitor_team_score":84},"min":"20:00","oreb":0,"pf":0,"player":{"id":466,"first_name":"Tyrone","height_feet":6,"height_inches":5,"last_name":"Wallace","position":"G","team_id":19,"weight_pounds":198},"pts":2,"reb":3,"stl":1,"team":{"id":12,"abbreviation":"IND","city":"Indiana","conference":"East","division":"Central","full_name":"Indiana Pacers","name":"Pacers"},"turnover":3}],"meta":{"total_pages":2,"current_page":1,"next_page":2,"per_page":25,"total_count":30}}