{"data":[{"id":7241869,"ast":1,"blk":1,"dreb":1,"fg3_pct":50,"fg3a":2,"fg3m":1,"fg_pct":33.3,"fga":3,"fgm":1,"ft_pct":100,"fta":2,"ftm":2,"game":{"id":467896,"date":"2021-08-16T00:00:00.000Z","home_team_id":8,"home_team_score":94,"period":4,"postseason":false,"season":2021,"status":"Final","time":"","visitor_team_id":17,"visitor_team_score":87},"min":"7:37","oreb":0,"pf":0,"player":{"id":17895903,"first_name":"Brandon","height_feet":null,"height_inches":null,"last_name":"Randolph","position":"G-F","team_id":17,"weight_pounds":null},"pts":5,"reb":1,"stl":0,"team":{"id":17,"abbreviation":"MIL","city":"Milwaukee","conference":"East","division":"Central","full_name":"Milwaukee Bucks","name":"Bucks"},"turnover":1},{"id":7241870,"ast":0,"blk":1,"dreb":5,"fg3_pct":33.3,"fg3a":3,"fg3m":1,"fg_pct":42.9,"fga":7,"fgm":3,"ft_pct":66.7,"fta":3,"ftm":2,"game":{"id":467896,"date":"2021-08-16T00:00:00.000Z","home_team_id":8,"home_team_score":94,"period":4,"postseason":false,"season":2021,"status":"Final","time":"","visitor_team_id":17,"visitor_team_score":87},"min":"28:02","oreb":1,"pf":4,"player":{"id":3547163,"first_name":"Mamadi","height_feet":null,"height_inches":null,"last_name":"Diakite","position":"F","team_id":6,"weight_pounds":null},"pts":9,"reb":6,"stl":1,"team":{"id":17,"abbreviation":"MIL","city":"Milwaukee","conference":"East","division":"Central","full_name":"Milwaukee Bucks","name":"Bucks"},"turnover":6},{"id":7241871,"ast":0,"blk":1,"dreb":4,"fg3_pct":75,"fg3a":4,"fg3m":3,"fg_pct":66.7,"fga":12,"fgm":8,"ft_pct":100,"fta":1,"ftm":1,"game":{"id":467896,"date":"2021-08-16T00:00:00.000Z","home_team_id":8,"home_team_score":94,"period":4,"postseason":false,"season":2021,"status":"Final","time":"","visitor_team_id":17,"visitor_team_score":87},"min":"22:04","oreb":3,"pf":1,"player":{"id":17896059,"first_name":"Sandro","height_feet":null,"height_inches":null,"last_name":"Mamukelashvili","position":"F","team_id":27,"weight_pounds":null},"pts":20,"reb":7,"stl":0,"team":{"id":17,"abbreviation":"MIL","city":"Milwaukee","conference":"East","division":"Central","full_name":"Milwaukee Bucks","name":"Bucks"},"turnover":3},{"id":7241872,"ast":3,"blk":0,"dreb":3,"fg3_pct":20,"fg3a":5,"fg3m":1,"fg_pct":14.3,"fga":7,"fgm":1,"ft_pct":100,"fta":2,"ftm":2,"game":{"id":467896,"date":"2021-08-16T00:00:00.000Z","home_team_id":8,"home_team_score":94,"period":4,"postseason":false,"season":2021,"status":"Final","time":"","visitor_team_id":17,"visitor_team_score":87},"min":"16:55","oreb":0,"pf":2,"player":{"id":370,"first_name":"Theo","height_feet":6,"height_inches":6,"last_name":"Pinson","position":"G-F","team_id":7,"weight_pounds":218},"pts":5,"reb":3,"stl":0,"team":{"id":17,"abbreviation":"MIL","city":"Milwaukee","conference":"East","division":"Central","full_name":"Milwaukee Bucks","name":"Bucks"},"turnover":1},{"id":7241873,"ast":4,"blk":1,"dreb":2,"fg3_pct":16.7,"fg3a":6,"fg3m":1,"fg_pct":27.3,"fga":11,"fgm":3,"ft_pct":0,"fta":0,"ftm":0,"game":{"id":467896,"date":"2021-08-16T00:00:00.000Z","home_team_id":8,"home_team_score":94,"period":4,"postseason":false,"season":2021,"status":"Final","time":"","visitor_team_id":17,"visitor_team_score":87},"min":"27:44","oreb":3,"pf":1,"player":{"id":17896092,"first_name":"Jalen","height_feet":null,"height_inches":null,"last_name":"Crutcher","position":"G","team_id":17,"weight_pounds":null},"pts":7,"reb":5,"stl":0,"team":{"id":17,"abbreviation":"MIL","city":"Milwaukee","conference":"East","division":"Central","full_name":"Milwaukee Bucks","name":"Bucks"},"turnover":4},{"id":7241874,"ast":3,"blk":0,"dreb":0,"fg3_pct":50,"fg3a":6,"fg3m":3,"fg_pct":62.5,"fga":16,"fgm":10,"ft_pct":100,"fta":1,"ftm":1,"game":{"id":467896,"date":"2021-08-16T00:00:00.000Z","home_team_id":8,"home_team_score":94,"period":4,"postseason":false,"season":2021,"status":"Final","time":"","visitor_team_id":17,"visitor_team_score":87},"min":"26:07","oreb":1,"pf":0,"player":{"id":17895753,"first_name":"DMitrik","height_feet":null,"height_inches":null,"last_name":"Trice","position":"G","team_id":17,"weight_pounds":null},"pts":24,"reb":1,"stl":0,"team":{"id":17,"abbreviation":"MIL","city":"Milwaukee","conference":"East","division":"Central","full_name":"Milwaukee Bucks","name":"Bucks"},"turnover":3},{"id":7241875,"ast":5,"blk":0,"dreb":7,"fg3_pct":0,"fg3a":0,"fg3m":0,"fg_pct":66.7,"fga":3,"fgm":2,"ft_pct":100,"fta":1,"ftm":1,"game":{"id":467896,"date":"2021-08-16T00:00:00.000Z","home_team_id":8,"home_team_score":94,"period":4,"postseason":false,"season":2021,"status":"Final","time":"","visitor_team_id":17,"visitor_team_score":87},"min":"21:55","oreb":6,"pf":0,"player":{"id":50823,"first_name":"Jemerrio","height_feet":null,"height_inches":null,"last_name":"Jones","position":"F","team_id":14,"weight_pounds":null},"pts":5,"reb":13,"stl":0,"team":{"id":17,"abbreviation":"MIL","city":"Milwaukee","conference":"East","division":"Central","full_name":"Milwaukee Bucks","name":"Bucks"},"turnover":4},{"id":7241877,"ast":0,"blk":0,"dreb":5,"fg3_pct":0,"fg3a":1,"fg3m":0,"fg_pct":50,"fga":4,"fgm":2,"ft_pct":0,"fta":0,"ftm":0,"game":{"id":467896,"date":"2021-08-16T00:00:00.000Z","home_team_id":8,"home_team_score":94,"period":4,"postseason":false,"season":2021,"status":"Final","time":"","visitor_team_id":17,"visitor_team_score":87},"min":"13:40","oreb":1,"pf":5,"player":{"id":17895750,"first_name":"Steven","height_feet":null,"height_inches":null,"last_name":"Enoch","position":"F","team_id":17,"weight_pounds":null},"pts":4,"reb":6,"stl":0,"team":{"id":17,"abbreviation":"MIL","city":"Milwaukee","conference":"East","division":"Central","full_name":"Milwaukee Bucks","name":"Bucks"},"turnover":2},{"id":7241883,"ast":1,"blk":1,"dreb":2,"fg3_pct":25,"fg3a":4,"fg3m":1,"fg_pct":33.3,"fga":6,"fgm":2,"ft_pct":0,"fta":0,"ftm":0,"game":{"id":467896,"date":"2021-08-16T00:00:00.000Z","home_team_id":8,"home_team_score":94,"period":4,"postseason":false,"season":2021,"status":"Final","time":"","visitor_team_id":17,"visitor_team_score":87},"min":"20:15","oreb":1,"pf":1,"player":{"id":17895754,"first_name":"Tyree","height_feet":null,"height_inches":null,"last_name":"White","position":"F","team_id":17,"weight_pounds":null},"pts":5,"reb":3,"stl":0,"team":{"id":17,"abbreviation":"MIL","city":"Milwaukee","conference":"East","division":"Central","full_name":"Milwaukee Bucks","name":"Bucks"},"turnover":1},{"id":7241876,"ast":0,"blk":3,"dreb":0,"fg3_pct":0,"fg3a":0,"fg3m":0,"fg_pct":0,"fga":1,"fgm":0,"ft_pct":0,"fta":0,"ftm":0,"game":{"id":467896,"date":"2021-08-16T00:00:00.000Z","home_team_id":8,"home_team_score":94,"period":4,"postseason":false,"season":2021,"status":"Final","time":"","visitor_team_id":17,"visitor_team_score":87},"min":"12:26","oreb":0,"pf":1,"player":{"id":17895963,"first_name":"Paul","height_feet":null,"height_inches":null,"last_name":"Eboua","position":"F","team_id":17,"weight_pounds":null},"pts":0,"reb":0,"stl":0,"team":{"id":17,"abbreviation":"MIL","city":"Milwaukee","conference":"East","division":"Central","full_name":"Milwaukee Bucks","name":"Bucks"},"turnover":0},{"id":7241882,"ast":0,"blk":0,"dreb":0,"fg3_pct":100,"fg3a":1,"fg3m":1,"fg_pct":100,"fga":1,"fgm":1,"ft_pct":0,"fta":0,"ftm":0,"game":{"id":467896,"date":"2021-08-16T00:00:00.000Z","home_team_id":8,"home_team_score":94,"period":4,"postseason":false,"season":2021,"status":"Final","time":"","visitor_team_id":17,"visitor_team_score":87},"min":"3:14","oreb":0,"pf":0,"player":{"id":17895752,"first_name":"Mike","height_feet":null,"height_inches":null,"last_name":"Smith","position":"G","team_id":17,"weight_pounds":null},"pts":3,"reb":0,"stl":0,"team":{"id":17,"abbreviation":"MIL","city":"Milwaukee","conference":"East","division":"Central","full_name":"Milwaukee Bucks","name":"Bucks"},"turnover":2},{"id":7241878,"ast":0,"blk":0,"dreb":0,"fg3_pct":0,"fg3a":0,"fg3m":0,"fg_pct":0,"fga":0,"fgm":0,"ft_pct":0,"fta":0,"ftm":0,"game":{"id":467896,"date":"2021-08-16T00:00:00.000Z","home_team_id":8,"home_team_score":94,"period":4,"postseason":false,"season":2021,"status":"Final","time":"","visitor_team_id":17,"visitor_team_score":87},"min":"0:00","oreb":0,"pf":0,"player":{"id":18170939,"first_name":"Georgios","height_feet":null,"height_inches":null,"last_name":"Kalaitzakis","position":"F","team_id":21,"weight_pounds":null},"pts":0,"reb":0,"stl":0,"team":{"id":17,"abbreviation":"MIL","city":"Milwaukee","conference":"East","division":"Central","full_name":"Milwaukee Bucks","name":"Bucks"},"turnover":0},{"id":7241879,"ast":0,"blk":0,"dreb":0,"fg3_pct":0,"fg3a":0,"fg3m":0,"fg_pct":0,"fga":0,"fgm":0,"ft_pct":0,"fta":0,"ftm":0,"game":{"id":467896,"date":"2021-08-16T00:00:00.000Z","home_team_id":8,"home_team_score":94,"period":4,"postseason":false,"season":2021,"status":"Final","time":"","visitor_team_id":17,"visitor_team_score":87},"min":"0:00","oreb":0,"pf":0,"player":{"id":17895996,"first_name":"E.J.","height_feet":null,"height_inches":null,"last_name":"Montgomery","position":"F","team_id":17,"weight_pounds":null},"pts":0,"reb":0,"stl":0,"team":{"id":17,"abbreviation":"MIL","city":"Milwaukee","conference":"East","division":"Central","full_name":"Milwaukee Bucks","name":"Bucks"},"turnover":0},{"id":7241880,"ast":0,"blk":0,"dreb":0,"fg3_pct":0,"fg3a":0,"fg3m":0,"fg_pct":0,"fga":0,"fgm":0,"ft_pct":0,"fta":0,"ftm":0,"game":{"id":467896,"date":"2021-08-16T00:00:00.000Z","home_team_id":8,"home_team_score":94,"period":4,"postseason":false,"season":2021,"status":"Final","time":"","visitor_team_id":17,"visitor_team_score":87},"min":"0:00","oreb":0,"pf":0,"player":{"id":17895751,"first_name":"John","height_feet":null,"height_inches":null,"last_name":"Mooney","position":"F","team_id":17,"weight_pounds":null},"pts":0,"reb":0,"stl":0,"team":{"id":17,"abbreviation":"MIL","city":"Milwaukee","conference":"East","division":"Central","full_name":"Milwaukee Bucks","name":"Bucks"},"turnover":0},{"id":7241881,"ast":0,"blk":0,"dreb":0,"fg3_pct":0,"fg3a":0,"fg3m":0,"fg_pct":0,"fga":0,"fgm":0,"ft_pct":0,"fta":0,"ftm":0,"game":{"id":467896,"date":"2021-08-16T00:00:00.000Z","home_team_id":8,"home_team_score":94,"period":4,"postseason":false,"season":2021,"status":"Final","time":"","visitor_team_id":17,"visitor_team_score":87},"min":"0:00","oreb":0,"pf":0,"player":{"id":3547207,"first_name":"Jordan","height_feet":null,"height_inches":null,"last_name":"Nwora","position":"F","team_id":12,"weight_pounds":null},"pts":0,"reb":0,"stl":0,"team":{"id":17,"abbreviation":"MIL","city":"Milwaukee","conference":"East","division":"Central","full_name":"Milwaukee Bucks","name":"Bucks"},"turnover":0},{"id":7241884,"ast":4,"blk":1,"dreb":2,"fg3_pct":50,"fg3a":4,"fg3m":2,"fg_pct":50,"fga":10,"fgm":5,"ft_pct":50,"fta":2,"ftm":1,"game":{"id":467896,"date":"2021-08-16T00:00:00.000Z","home_team_id":8,"home_team_score":94,"period":4,"postseason":false,"season":2021,"status":"Final","time":"","visitor_team_id":17,"visitor_team_score":87},"min":"26:51","oreb":1,"pf":1,"player":{"id":17895762,"first_name":"Deonte","height_feet":null,"height_inches":null,"last_name":"Burton","position":"F","team_id":8,"weight_pounds":null},"pts":13,"reb":3,"stl":4,"team":{"id":8,"abbreviation":"DEN","city":"Denver","conference":"West","division":"Northwest","full_name":"Denver Nuggets","name":"Nuggets"},"turnover":2},{"id":7241885,"ast":2,"blk":0,"dreb":3,"fg3_pct":100,"fg3a":1,"fg3m":1,"fg_pct":71.4,"fga":7,"fgm":5,"ft_pct":100,"fta":2,"ftm":2,"game":{"id":467896,"date":"2021-08-16T00:00:00.000Z","home_team_id":8,"home_team_score":94,"period":4,"postseason":false,"season":2021,"status":"Final","time":"","visitor_team_id":17,"visitor_team_score":87},"min":"23:36","oreb":2,"pf":0,"player":{"id":666502,"first_name":"Zylan","height_feet":null,"height_inches":null,"last_name":"Cheatham","position":"F","team_id":19,"weight_pounds":null},"pts":13,"reb":5,"stl":1,"team":{"id":8,"abbreviation":"DEN","city":"Denver","conference":"West","division":"Northwest","full_name":"Denver Nuggets","name":"Nuggets"},"turnover":0},{"id":7241886,"ast":2,"blk":1,"dreb":3,"fg3_pct":25,"fg3a":4,"fg3m":1,"fg_pct":16.7,"fga":6,"fgm":1,"ft_pct":0,"fta":2,"ftm":0,"game":{"id":467896,"date":"2021-08-16T00:00:00.000Z","home_team_id":8,"home_team_score":94,"period":4,"postseason":false,"season":2021,"status":"Final","time":"","visitor_team_id":17,"visitor_team_score":87},"min":"24:29","oreb":2,"pf":4,"player":{"id":3547268,"first_name":"Zeke","height_feet":null,"height_inches":null,"last_name":"Nnaji","position":"F-C","team_id":8,"weight_pounds":null},"pts":3,"reb":5,"stl":2,"team":{"id":8,"abbreviation":"DEN","city":"Denver","conference":"West","division":"Northwest","full_name":"Denver Nuggets","name":"Nuggets"},"turnover":1},{"id":7241887,"ast":2,"blk":0,"dreb":2,"fg3_pct":25,"fg3a":4,"fg3m":1,"fg_pct":37.5,"fga":8,"fgm":3,"ft_pct":0,"fta":0,"ftm":0,"game":{"id":467896,"date":"2021-08-16T00:00:00.000Z","home_team_id":8,"home_team_score":94,"period":4,"postseason":false,"season":2021,"status":"Final","time":"","visitor_team_id":17,"visitor_team_score":87},"min":"24:29","oreb":1,"pf":0,"player":{"id":390,"first_name":"Davon","height_feet":6,"height_inches":5,"last_name":"Reed","position":"G","team_id":14,"weight_pounds":208},"pts":7,"reb":3,"stl":4,"team":{"id":8,"abbreviation":"DEN","city":"Denver","conference":"West","division":"Northwest","full_name":"Denver Nuggets","name":"Nuggets"},"turnover":3},{"id":7241888,"ast":5,"blk":0,"dreb":2,"fg3_pct":33.3,"fg3a":9,"fg3m":3,"fg_pct":50,"fga":14,"fgm":7,"ft_pct":75,"fta":4,"ftm":3,"game":{"id":467896,"date":"2021-08-16T00:00:00.000Z","home_team_id":8,"home_team_score":94,"period":4,"postseason":false,"season":2021,"status":"Final","time":"","visitor_team_id":17,"visitor_team_score":87},"min":"28:48","oreb":0,"pf":3,"player":{"id":17896031,"first_name":"Nah'Shon","height_feet":null,"height_inches":null,"last_name":"Hyland","position":"G","team_id":13,"weight_pounds":null},"pts":20,"reb":2,"stl":1,"team":{"id":8,"abbreviation":"DEN","city":"Denver","conference":"West","division":"Northwest","full_name":"Denver Nuggets","name":"Nuggets"},"turnover":1},{"id":7241889,"ast":0,"blk":0,"dreb":1,"fg3_pct":28.6,"fg3a":7,"fg3m":2,"fg_pct":41.7,"fga":12,"fgm":5,"ft_pct":0,"fta":0,"ftm":0,"game":{"id":467896,"date":"2021-08-16T00:00:00.000Z","home_team_id":8,"home_team_score":94,"period":4,"postseason":false,"season":2021,"status":"Final","time":"","visitor_team_id":17,"visitor_team_score":87},"min":"14:14","oreb":2,"pf":2,"player":{"id":17895711,"first_name":"Caleb","height_feet":null,"height_inches":null,"last_name":"Agada","position":"G-F","team_id":8,"weight_pounds":null},"pts":12,"reb":3,"stl":1,"team":{"id":8,"abbreviation":"DEN","city":"Denver","conference":"West","division":"Northwest","full_name":"Denver Nuggets","name":"Nuggets"},"turnover":1},{"id":7241894,"ast":2,"blk":0,"dreb":1,"fg3_pct":0,"fg3a":1,"fg3m":0,"fg_pct":50,"fga":4,"fgm":2,"ft_pct":100,"fta":2,"ftm":2,"game":{"id":467896,"date":"2021-08-16T00:00:00.000Z","home_team_id":8,"home_team_score":94,"period":4,"postseason":false,"season":2021,"status":"Final","time":"","visitor_team_id":17,"visitor_team_score":87},"min":"16:24","oreb":2,"pf":3,"player":{"id":17895714,"first_name":"Jason","height_feet":null,"height_inches":null,"last_name":"Burnell","position":"F","team_id":8,"weight_pounds":null},"pts":6,"reb":3,"stl":0,"team":{"id":8,"abbreviation":"DEN","city":"Denver","conference":"West","division":"Northwest","full_name":"Denver Nuggets","name":"Nuggets"},"turnover":0},{"id":7241890,"ast":1,"blk":1,"dreb":0,"fg3_pct":0,"fg3a":0,"fg3m":0,"fg_pct":25,"fga":4,"fgm":1,"ft_pct":0,"fta":0,"ftm":0,"game":{"id":467896,"date":"2021-08-16T00:00:00.000Z","home_team_id":8,"home_team_score":94,"period":4,"postseason":false,"season":2021,"status":"Final","time":"","visitor_team_id":17,"visitor_team_score":87},"min":"7:16","oreb":0,"pf":0,"player":{"id":17895712,"first_name":"Giorgi","height_feet":null,"height_inches":null,"last_name":"Bezhanishvili","position":"F","team_id":8,"weight_pounds":null},"pts":2,"reb":0,"stl":0,"team":{"id":8,"abbreviation":"DEN","city":"Denver","conference":"West","division":"Northwest","full_name":"Denver Nuggets","name":"Nuggets"},"turnover":0},{"id":7241896,"ast":1,"blk":0,"dreb":1,"fg3_pct":33.3,"fg3a":3,"fg3m":1,"fg_pct":44.4,"fga":9,"fgm":4,"ft_pct":0,"fta":1,"ftm":0,"game":{"id":467896,"date":"2021-08-16T00:00:00.000Z","home_team_id":8,"home_team_score":94,"period":4,"postseason":false,"season":2021,"status":"Final","time":"","visitor_team_id":17,"visitor_team_score":87},"min":"12:21","oreb":0,"pf":0,"player":{"id":17896014,"first_name":"Eugene","height_feet":null,"height_inches":null,"last_name":"German","position":"G","team_id":8,"weight_pounds":null},"pts":9,"reb":1,"stl":0,"team":{"id":8,"abbreviation":"DEN","city":"Denver","conference":"West","division":"Northwest","full_name":"Denver Nuggets","name":"Nuggets"},"turnover":0},{"id":7241891,"ast":3,"blk":0,"dreb":1,"fg3_pct":0,"fg3a":1,"fg3m":0,"fg_pct":0,"fga":3,"fgm":0,"ft_pct":0,"fta":0,"ftm":0,"game":{"id":467896,"date":"2021-08-16T00:00:00.000Z","home_team_id":8,"home_team_score":94,"period":4,"postseason":false,"season":2021,"status":"Final","time":"","visitor_team_id":17,"visitor_team_score":87},"min":"13:17","oreb":0,"pf":1,"player":{"id":17895713,"first_name":"Chudier","height_feet":null,"height_inches":null,"last_name":"Bile","position":"F","team_id":8,"weight_pounds":null},"pts":0,"reb":1,"stl":1,"team":{"id":8,"abbreviation":"DEN","city":"Denver","conference":"West","division":"Northwest","full_name":"Denver Nuggets","name":"Nuggets"},"turnover":2}],"meta":{"total_pages":2,"current_page":1,"next_page":2,"per_page":25,"total_count":33}}