{"data":[{"id":11800867,"ast":8,"blk":1,"dreb":6,"fg3_pct":0.2,"fg3a":5,"fg3m":1,"fg_pct":0.4,"fga":20,"fgm":8,"ft_pct":1,"fta":3,"ftm":3,"game":{"id":837569,"date":"2022-04-22T00:00:00.000Z","home_team_id":1,"home_team_score":111,"period":4,"postseason":true,"season":2021,"status":"Final","time":"","visitor_team_id":16,"visitor_team_score":110},"min":"41","oreb":4,"pf":0,"player":{"id":79,"first_name":"Jimmy","height_feet":6,"height_inches":8,"last_name":"Butler","position":"G-F","team_id":16,"weight_pounds":232},"pts":20,"reb":10,"stl":2,"team":{"id":16,"abbreviation":"MIA","city":"Miami","conference":"East","division":"Southeast","full_name":"Miami Heat","name":"Heat"},"turnover":2},{"id":11800868,"ast":4,"blk":0,"dreb":4,"fg3_pct":0.333,"fg3a":3,"fg3m":1,"fg_pct":0.667,"fga":6,"fgm":4,"ft_pct":1,"fta":2,"ftm":2,"game":{"id":837569,"date":"2022-04-22T00:00:00.000Z","home_team_id":1,"home_team_score":111,"period":4,"postseason":true,"season":2021,"status":"Final","time":"","visitor_team_id":16,"visitor_team_score":110},"min":"33","oreb":3,"pf":4,"player":{"id":450,"first_name":"PJ","height_feet":6,"height_inches":6,"last_name":"Tucker","position":"F","team_id":23,"weight_pounds":245},"pts":11,"reb":7,"stl":0,"team":{"id":16,"abbreviation":"MIA","city":"Miami","conference":"East","division":"Southeast","full_name":"Miami Heat","name":"Heat"},"turnover":0},{"id":11800869,"ast":5,"blk":0,"dreb":9,"fg3_pct":null,"fg3a":0,"fg3m":0,"fg_pct":0.556,"fga":9,"fgm":5,"ft_pct":1,"fta":3,"ftm":3,"game":{"id":837569,"date":"2022-04-22T00:00:00.000Z","home_team_id":1,"home_team_score":111,"period":4,"postseason":true,"season":2021,"status":"Final","time":"","visitor_team_id":16,"visitor_team_score":110},"min":"35","oreb":2,"pf":2,"player":{"id":4,"first_name":"Bam","height_feet":6,"height_inches":10,"last_name":"Adebayo","position":"C-F","team_id":16,"weight_pounds":255},"pts":13,"reb":11,"stl":3,"team":{"id":16,"abbreviation":"MIA","city":"Miami","conference":"East","division":"Southeast","full_name":"Miami Heat","name":"Heat"},"turnover":3},{"id":11800870,"ast":1,"blk":0,"dreb":1,"fg3_pct":0.5,"fg3a":10,"fg3m":5,"fg_pct":0.538,"fga":13,"fgm":7,"ft_pct":0.333,"fta":3,"ftm":1,"game":{"id":837569,"date":"2022-04-22T00:00:00.000Z","home_team_id":1,"home_team_score":111,"period":4,"postseason":true,"season":2021,"status":"Final","time":"","visitor_team_id":16,"visitor_team_score":110},"min":"29","oreb":0,"pf":2,"player":{"id":666908,"first_name":"Max","height_feet":null,"height_inches":null,"last_name":"Strus","position":"G","team_id":16,"weight_pounds":null},"pts":20,"reb":1,"stl":0,"team":{"id":16,"abbreviation":"MIA","city":"Miami","conference":"East","division":"Southeast","full_name":"Miami Heat","name":"Heat"},"turnover":1},{"id":11800871,"ast":5,"blk":0,"dreb":4,"fg3_pct":0.333,"fg3a":6,"fg3m":2,"fg_pct":0.286,"fga":7,"fgm":2,"ft_pct":null,"fta":0,"ftm":0,"game":{"id":837569,"date":"2022-04-22T00:00:00.000Z","home_team_id":1,"home_team_score":111,"period":4,"postseason":true,"season":2021,"status":"Final","time":"","visitor_team_id":16,"visitor_team_score":110},"min":"23","oreb":0,"pf":3,"player":{"id":286,"first_name":"Kyle","height_feet":6,"height_inches":1,"last_name":"Lowry","position":"G","team_id":16,"weight_pounds":196},"pts":6,"reb":4,"stl":0,"team":{"id":16,"abbreviation":"MIA","city":"Miami","conference":"East","division":"Southeast","full_name":"Miami Heat","name":"Heat"},"turnover":0},{"id":11800874,"ast":4,"blk":1,"dreb":7,"fg3_pct":0.364,"fg3a":11,"fg3m":4,"fg_pct":0.455,"fga":22,"fgm":10,"ft_pct":null,"fta":0,"ftm":0,"game":{"id":837569,"date":"2022-04-22T00:00:00.000Z","home_team_id":1,"home_team_score":111,"period":4,"postseason":true,"season":2021,"status":"Final","time":"","visitor_team_id":16,"visitor_team_score":110},"min":"34","oreb":0,"pf":3,"player":{"id":666633,"first_name":"Tyler","height_feet":null,"height_inches":null,"last_name":"Herro","position":"G","team_id":16,"weight_pounds":null},"pts":24,"reb":7,"stl":0,"team":{"id":16,"abbreviation":"MIA","city":"Miami","conference":"East","division":"Southeast","full_name":"Miami Heat","name":"Heat"},"turnover":3},{"id":11800872,"ast":0,"blk":1,"dreb":0,"fg3_pct":0,"fg3a":1,"fg3m":0,"fg_pct":0.5,"fga":6,"fgm":3,"ft_pct":0.5,"fta":2,"ftm":1,"game":{"id":837569,"date":"2022-04-22T00:00:00.000Z","home_team_id":1,"home_team_score":111,"period":4,"postseason":true,"season":2021,"status":"Final","time":"","visitor_team_id":16,"visitor_team_score":110},"min":"13","oreb":2,"pf":2,"player":{"id":120,"first_name":"Dewayne","height_feet":7,"height_inches":0,"last_name":"Dedmon","position":"C","team_id":23,"weight_pounds":245},"pts":7,"reb":2,"stl":0,"team":{"id":16,"abbreviation":"MIA","city":"Miami","conference":"East","division":"Southeast","full_name":"Miami Heat","name":"Heat"},"turnover":0},{"id":11800873,"ast":0,"blk":0,"dreb":0,"fg3_pct":0,"fg3a":0,"fg3m":0,"fg_pct":0,"fga":0,"fgm":0,"ft_pct":0,"fta":0,"ftm":0,"game":{"id":837569,"date":"2022-04-22T00:00:00.000Z","home_team_id":1,"home_team_score":111,"period":4,"postseason":true,"season":2021,"status":"Final","time":"","visitor_team_id":16,"visitor_team_score":110},"min":"0:00","oreb":0,"pf":0,"player":{"id":203,"first_name":"Udonis","height_feet":6,"height_inches":8,"last_name":"Haslem","position":"F","team_id":16,"weight_pounds":235},"pts":0,"reb":0,"stl":0,"team":{"id":16,"abbreviation":"MIA","city":"Miami","conference":"East","division":"Southeast","full_name":"Miami Heat","name":"Heat"},"turnover":0},{"id":11800875,"ast":0,"blk":0,"dreb":0,"fg3_pct":0,"fg3a":0,"fg3m":0,"fg_pct":0,"fga":0,"fgm":0,"ft_pct":0,"fta":0,"ftm":0,"game":{"id":837569,"date":"2022-04-22T00:00:00.000Z","home_team_id":1,"home_team_score":111,"period":4,"postseason":true,"season":2021,"status":"Final","time":"","visitor_team_id":16,"visitor_team_score":110},"min":"0:00","oreb":0,"pf":0,"player":{"id":3092,"first_name":"Haywood","height_feet":6,"height_inches":7,"last_name":"Highsmith","position":"","team_id":16,"weight_pounds":220},"pts":0,"reb":0,"stl":0,"team":{"id":16,"abbreviation":"MIA","city":"Miami","conference":"East","division":"Southeast","full_name":"Miami Heat","name":"Heat"},"turnover":0},{"id":11800880,"ast":3,"blk":0,"dreb":1,"fg3_pct":0,"fg3a":5,"fg3m":0,"fg_pct":0.167,"fga":6,"fgm":1,"ft_pct":1,"fta":1,"ftm":1,"game":{"id":837569,"date":"2022-04-22T00:00:00.000Z","home_team_id":1,"home_team_score":111,"period":4,"postseason":true,"season":2021,"status":"Final","time":"","visitor_team_id":16,"visitor_team_score":110},"min":"18","oreb":0,"pf":3,"player":{"id":1603383,"first_name":"Gabe","height_feet":null,"height_inches":null,"last_name":"Vincent","position":"G","team_id":16,"weight_pounds":null},"pts":3,"reb":1,"stl":1,"team":{"id":16,"abbreviation":"MIA","city":"Miami","conference":"East","division":"Southeast","full_name":"Miami Heat","name":"Heat"},"turnover":3},{"id":11800879,"ast":0,"blk":0,"dreb":2,"fg3_pct":0.25,"fg3a":4,"fg3m":1,"fg_pct":0.25,"fga":4,"fgm":1,"ft_pct":1,"fta":3,"ftm":3,"game":{"id":837569,"date":"2022-04-22T00:00:00.000Z","home_team_id":1,"home_team_score":111,"period":4,"postseason":true,"season":2021,"status":"Final","time":"","visitor_team_id":16,"visitor_team_score":110},"min":"14","oreb":0,"pf":4,"player":{"id":397,"first_name":"Duncan","height_feet":6,"height_inches":8,"last_name":"Robinson","position":"F","team_id":16,"weight_pounds":210},"pts":6,"reb":2,"stl":0,"team":{"id":16,"abbreviation":"MIA","city":"Miami","conference":"East","division":"Southeast","full_name":"Miami Heat","name":"Heat"},"turnover":2},{"id":11800878,"ast":0,"blk":0,"dreb":0,"fg3_pct":0,"fg3a":0,"fg3m":0,"fg_pct":0,"fga":0,"fgm":0,"ft_pct":0,"fta":0,"ftm":0,"game":{"id":837569,"date":"2022-04-22T00:00:00.000Z","home_team_id":1,"home_team_score":111,"period":4,"postseason":true,"season":2021,"status":"Final","time":"","visitor_team_id":16,"visitor_team_score":110},"min":"0:00","oreb":0,"pf":0,"player":{"id":357,"first_name":"Victor","height_feet":6,"height_inches":4,"last_name":"Oladipo","position":"G","team_id":16,"weight_pounds":210},"pts":0,"reb":0,"stl":0,"team":{"id":16,"abbreviation":"MIA","city":"Miami","conference":"East","division":"Southeast","full_name":"Miami Heat","name":"Heat"},"turnover":0},{"id":11800881,"ast":0,"blk":0,"dreb":0,"fg3_pct":0,"fg3a":0,"fg3m":0,"fg_pct":0,"fga":0,"fgm":0,"ft_pct":0,"fta":0,"ftm":0,"game":{"id":837569,"date":"2022-04-22T00:00:00.000Z","home_team_id":1,"home_team_score":111,"period":4,"postseason":true,"season":2021,"status":"Final","time":"","visitor_team_id":16,"visitor_team_score":110},"min":"0:00","oreb":0,"pf":0,"player":{"id":11891374,"first_name":"Omer","height_feet":null,"height_inches":null,"last_name":"Yurtseven","position":"C","team_id":16,"weight_pounds":null},"pts":0,"reb":0,"stl":0,"team":{"id":16,"abbreviation":"MIA","city":"Miami","conference":"East","division":"Southeast","full_name":"Miami Heat","name":"Heat"},"turnover":0},{"id":11800882,"ast":0,"blk":0,"dreb":0,"fg3_pct":0.333,"fg3a":6,"fg3m":2,"fg_pct":0.538,"fga":13,"fgm":7,"ft_pct":0.5,"fta":2,"ftm":1,"game":{"id":837569,"date":"2022-04-22T00:00:00.000Z","home_team_id":1,"home_team_score":111,"period":4,"postseason":true,"season":2021,"status":"Final","time":"","visitor_team_id":16,"visitor_team_score":110},"min":"32","oreb":0,"pf":4,"player":{"id":666656,"first_name":"De'Andre","height_feet":null,"height_inches":null,"last_name":"Hunter","position":"F","team_id":1,"weight_pounds":null},"pts":17,"reb":0,"stl":0,"team":{"id":1,"abbreviation":"ATL","city":"Atlanta","conference":"East","division":"Southeast","full_name":"Atlanta Hawks","name":"Hawks"},"turnover":4},{"id":11800883,"ast":2,"blk":0,"dreb":3,"fg3_pct":1,"fg3a":1,"fg3m":1,"fg_pct":0.571,"fga":7,"fgm":4,"ft_pct":1,"fta":2,"ftm":2,"game":{"id":837569,"date":"2022-04-22T00:00:00.000Z","home_team_id":1,"home_team_score":111,"period":4,"postseason":true,"season":2021,"status":"Final","time":"","visitor_team_id":16,"visitor_team_score":110},"min":"25","oreb":0,"pf":0,"player":{"id":167,"first_name":"Danilo","height_feet":6,"height_inches":10,"last_name":"Gallinari","position":"F","team_id":2,"weight_pounds":225},"pts":11,"reb":3,"stl":0,"team":{"id":1,"abbreviation":"ATL","city":"Atlanta","conference":"East","division":"Southeast","full_name":"Atlanta Hawks","name":"Hawks"},"turnover":2},{"id":11800884,"ast":2,"blk":0,"dreb":5,"fg3_pct":1,"fg3a":1,"fg3m":1,"fg_pct":0.333,"fga":6,"fgm":2,"ft_pct":1,"fta":1,"ftm":1,"game":{"id":837569,"date":"2022-04-22T00:00:00.000Z","home_team_id":1,"home_team_score":111,"period":4,"postseason":true,"season":2021,"status":"Final","time":"","visitor_team_id":16,"visitor_team_score":110},"min":"24","oreb":0,"pf":3,"player":{"id":101,"first_name":"John","height_feet":6,"height_inches":10,"last_name":"Collins","position":"F-C","team_id":1,"weight_pounds":235},"pts":6,"reb":5,"stl":0,"team":{"id":1,"abbreviation":"ATL","city":"Atlanta","conference":"East","division":"Southeast","full_name":"Atlanta Hawks","name":"Hawks"},"turnover":0},{"id":11800885,"ast":4,"blk":0,"dreb":5,"fg3_pct":0.125,"fg3a":8,"fg3m":1,"fg_pct":0.385,"fga":13,"fgm":5,"ft_pct":1,"fta":2,"ftm":2,"game":{"id":837569,"date":"2022-04-22T00:00:00.000Z","home_team_id":1,"home_team_score":111,"period":4,"postseason":true,"season":2021,"status":"Final","time":"","visitor_team_id":16,"visitor_team_score":110},"min":"33","oreb":0,"pf":4,"player":{"id":221,"first_name":"Kevin","height_feet":6,"height_inches":7,"last_name":"Huerter","position":"G","team_id":26,"weight_pounds":190},"pts":13,"reb":5,"stl":2,"team":{"id":1,"abbreviation":"ATL","city":"Atlanta","conference":"East","division":"Southeast","full_name":"Atlanta Hawks","name":"Hawks"},"turnover":0},{"id":11800886,"ast":8,"blk":0,"dreb":4,"fg3_pct":0.333,"fg3a":6,"fg3m":2,"fg_pct":0.429,"fga":14,"fgm":6,"ft_pct":0.833,"fta":12,"ftm":10,"game":{"id":837569,"date":"2022-04-22T00:00:00.000Z","home_team_id":1,"home_team_score":111,"period":4,"postseason":true,"season":2021,"status":"Final","time":"","visitor_team_id":16,"visitor_team_score":110},"min":"40","oreb":0,"pf":4,"player":{"id":490,"first_name":"Trae","height_feet":6,"height_inches":2,"last_name":"Young","position":"G","team_id":1,"weight_pounds":180},"pts":24,"reb":4,"stl":1,"team":{"id":1,"abbreviation":"ATL","city":"Atlanta","conference":"East","division":"Southeast","full_name":"Atlanta Hawks","name":"Hawks"},"turnover":3},{"id":11800887,"ast":6,"blk":1,"dreb":7,"fg3_pct":0.444,"fg3a":9,"fg3m":4,"fg_pct":0.412,"fga":17,"fgm":7,"ft_pct":null,"fta":0,"ftm":0,"game":{"id":837569,"date":"2022-04-22T00:00:00.000Z","home_team_id":1,"home_team_score":111,"period":4,"postseason":true,"season":2021,"status":"Final","time":"","visitor_team_id":16,"visitor_team_score":110},"min":"32","oreb":1,"pf":1,"player":{"id":53,"first_name":"Bogdan","height_feet":6,"height_inches":6,"last_name":"Bogdanovic","position":"G","team_id":1,"weight_pounds":205},"pts":18,"reb":8,"stl":1,"team":{"id":1,"abbreviation":"ATL","city":"Atlanta","conference":"East","division":"Southeast","full_name":"Atlanta Hawks","name":"Hawks"},"turnover":1},{"id":11800876,"ast":0,"blk":0,"dreb":0,"fg3_pct":0,"fg3a":0,"fg3m":0,"fg_pct":0,"fga":0,"fgm":0,"ft_pct":0,"fta":0,"ftm":0,"game":{"id":837569,"date":"2022-04-22T00:00:00.000Z","home_team_id":1,"home_team_score":111,"period":4,"postseason":true,"season":2021,"status":"Final","time":"","visitor_team_id":16,"visitor_team_score":110},"min":"0:49","oreb":0,"pf":0,"player":{"id":666747,"first_name":"Caleb","height_feet":null,"height_inches":null,"last_name":"Martin","position":"F","team_id":16,"weight_pounds":null},"pts":0,"reb":0,"stl":0,"team":{"id":16,"abbreviation":"MIA","city":"Miami","conference":"East","division":"Southeast","full_name":"Miami Heat","name":"Heat"},"turnover":0},{"id":11800877,"ast":0,"blk":0,"dreb":0,"fg3_pct":0,"fg3a":0,"fg3m":0,"fg_pct":0,"fga":0,"fgm":0,"ft_pct":0,"fta":0,"ftm":0,"game":{"id":837569,"date":"2022-04-22T00:00:00.000Z","home_team_id":1,"home_team_score":111,"period":4,"postseason":true,"season":2021,"status":"Final","time":"","visitor_team_id":16,"visitor_team_score":110},"min":"0:00","oreb":0,"pf":0,"player":{"id":329,"first_name":"Markieff","height_feet":null,"height_inches":null,"last_name":"Morris","position":"F","team_id":7,"weight_pounds":null},"pts":0,"reb":0,"stl":0,"team":{"id":16,"abbreviation":"MIA","city":"Miami","conference":"East","division":"Southeast","full_name":"Miami Heat","name":"Heat"},"turnover":0},{"id":11800894,"ast":1,"blk":0,"dreb":3,"fg3_pct":1,"fg3a":1,"fg3m":1,"fg_pct":1,"fga":6,"fgm":6,"ft_pct":0,"fta":1,"ftm":0,"game":{"id":837569,"date":"2022-04-22T00:00:00.000Z","home_team_id":1,"home_team_score":111,"period":4,"postseason":true,"season":2021,"status":"Final","time":"","visitor_team_id":16,"visitor_team_score":110},"min":"30","oreb":2,"pf":0,"player":{"id":487,"first_name":"Delon","height_feet":6,"height_inches":5,"last_name":"Wright","position":"G","team_id":30,"weight_pounds":183},"pts":13,"reb":5,"stl":0,"team":{"id":1,"abbreviation":"ATL","city":"Atlanta","conference":"East","division":"Southeast","full_name":"Atlanta Hawks","name":"Hawks"},"turnover":0},{"id":11800893,"ast":0,"blk":2,"dreb":4,"fg3_pct":null,"fg3a":0,"fg3m":0,"fg_pct":1,"fga":4,"fgm":4,"ft_pct":1,"fta":1,"ftm":1,"game":{"id":837569,"date":"2022-04-22T00:00:00.000Z","home_team_id":1,"home_team_score":111,"period":4,"postseason":true,"season":2021,"status":"Final","time":"","visitor_team_id":16,"visitor_team_score":110},"min":"24","oreb":2,"pf":4,"player":{"id":3547244,"first_name":"Onyeka","height_feet":null,"height_inches":null,"last_name":"Okongwu","position":"F-C","team_id":1,"weight_pounds":null},"pts":9,"reb":6,"stl":1,"team":{"id":1,"abbreviation":"ATL","city":"Atlanta","conference":"East","division":"Southeast","full_name":"Atlanta Hawks","name":"Hawks"},"turnover":1},{"id":11800888,"ast":0,"blk":0,"dreb":0,"fg3_pct":0,"fg3a":0,"fg3m":0,"fg_pct":0,"fga":0,"fgm":0,"ft_pct":0,"fta":0,"ftm":0,"game":{"id":837569,"date":"2022-04-22T00:00:00.000Z","home_team_id":1,"home_team_score":111,"period":4,"postseason":true,"season":2021,"status":"Final","time":"","visitor_team_id":16,"visitor_team_score":110},"min":"0:00","oreb":0,"pf":0,"player":{"id":129,"first_name":"Gorgui","height_feet":6,"height_inches":11,"last_name":"Dieng","position":"C","team_id":27,"weight_pounds":252},"pts":0,"reb":0,"stl":0,"team":{"id":1,"abbreviation":"ATL","city":"Atlanta","conference":"East","division":"Southeast","full_name":"Atlanta Hawks","name":"Hawks"},"turnover":0},{"id":11800889,"ast":0,"blk":0,"dreb":0,"fg3_pct":0,"fg3a":0,"fg3m":0,"fg_pct":0,"fga":0,"fgm":0,"ft_pct":0,"fta":0,"ftm":0,"game":{"id":837569,"date":"2022-04-22T00:00:00.000Z","home_team_id":1,"home_team_score":111,"period":4,"postseason":true,"season":2021,"status":"Final","time":"","visitor_team_id":16,"visitor_team_score":110},"min":"0:00","oreb":0,"pf":0,"player":{"id":17896040,"first_name":"Jalen","height_feet":null,"height_inches":null,"last_name":"Johnson","position":"F","team_id":1,"weight_pounds":null},"pts":0,"reb":0,"stl":0,"team":{"id":1,"abbreviation":"ATL","city":"Atlanta","conference":"East","division":"Southeast","full_name":"Atlanta Hawks","name":"Hawks"},"turnover":0}],"meta":{"total_pages":2,"current_page":1,"next_page":2,"per_page":25,"total_count":28}}