{"data":[{"id":11766567,"ast":5,"blk":0,"dreb":5,"fg3_pct":0.571,"fg3a":7,"fg3m":4,"fg_pct":0.6,"fga":25,"fgm":15,"ft_pct":0.917,"fta":12,"ftm":11,"game":{"id":834976,"date":"2022-04-19T00:00:00.000Z","home_team_id":16,"home_team_score":86,"period":4,"postseason":true,"season":2021,"status":"Final","time":"","visitor_team_id":1,"visitor_team_score":76},"min":"39","oreb":0,"pf":0,"player":{"id":79,"first_name":"Jimmy","height_feet":6,"height_inches":8,"last_name":"Butler","position":"G-F","team_id":16,"weight_pounds":232},"pts":45,"reb":5,"stl":2,"team":{"id":16,"abbreviation":"MIA","city":"Miami","conference":"East","division":"Southeast","full_name":"Miami Heat","name":"Heat"},"turnover":0},{"id":11766554,"ast":0,"blk":1,"dreb":2,"fg3_pct":0.2,"fg3a":5,"fg3m":1,"fg_pct":0.4,"fga":15,"fgm":6,"ft_pct":1,"fta":3,"ftm":3,"game":{"id":834976,"date":"2022-04-19T00:00:00.000Z","home_team_id":16,"home_team_score":86,"period":4,"postseason":true,"season":2021,"status":"Final","time":"","visitor_team_id":1,"visitor_team_score":76},"min":"35","oreb":0,"pf":5,"player":{"id":666656,"first_name":"De'Andre","height_feet":null,"height_inches":null,"last_name":"Hunter","position":"F","team_id":1,"weight_pounds":null},"pts":16,"reb":2,"stl":0,"team":{"id":1,"abbreviation":"ATL","city":"Atlanta","conference":"East","division":"Southeast","full_name":"Atlanta Hawks","name":"Hawks"},"turnover":0},{"id":11766555,"ast":1,"blk":0,"dreb":5,"fg3_pct":0,"fg3a":4,"fg3m":0,"fg_pct":0,"fga":6,"fgm":0,"ft_pct":1,"fta":2,"ftm":2,"game":{"id":834976,"date":"2022-04-19T00:00:00.000Z","home_team_id":16,"home_team_score":86,"period":4,"postseason":true,"season":2021,"status":"Final","time":"","visitor_team_id":1,"visitor_team_score":76},"min":"22","oreb":1,"pf":1,"player":{"id":167,"first_name":"Danilo","height_feet":6,"height_inches":10,"last_name":"Gallinari","position":"F","team_id":2,"weight_pounds":225},"pts":2,"reb":6,"stl":1,"team":{"id":1,"abbreviation":"ATL","city":"Atlanta","conference":"East","division":"Southeast","full_name":"Atlanta Hawks","name":"Hawks"},"turnover":1},{"id":11766556,"ast":2,"blk":0,"dreb":9,"fg3_pct":0,"fg3a":1,"fg3m":0,"fg_pct":0.545,"fga":11,"fgm":6,"ft_pct":0.333,"fta":3,"ftm":1,"game":{"id":834976,"date":"2022-04-19T00:00:00.000Z","home_team_id":16,"home_team_score":86,"period":4,"postseason":true,"season":2021,"status":"Final","time":"","visitor_team_id":1,"visitor_team_score":76},"min":"29","oreb":1,"pf":2,"player":{"id":101,"first_name":"John","height_feet":6,"height_inches":10,"last_name":"Collins","position":"F-C","team_id":1,"weight_pounds":235},"pts":13,"reb":10,"stl":1,"team":{"id":1,"abbreviation":"ATL","city":"Atlanta","conference":"East","division":"Southeast","full_name":"Atlanta Hawks","name":"Hawks"},"turnover":2},{"id":11766557,"ast":6,"blk":1,"dreb":5,"fg3_pct":0.429,"fg3a":7,"fg3m":3,"fg_pct":0.3,"fga":10,"fgm":3,"ft_pct":null,"fta":0,"ftm":0,"game":{"id":834976,"date":"2022-04-19T00:00:00.000Z","home_team_id":16,"home_team_score":86,"period":4,"postseason":true,"season":2021,"status":"Final","time":"","visitor_team_id":1,"visitor_team_score":76},"min":"34","oreb":0,"pf":5,"player":{"id":221,"first_name":"Kevin","height_feet":6,"height_inches":7,"last_name":"Huerter","position":"G","team_id":26,"weight_pounds":190},"pts":9,"reb":5,"stl":1,"team":{"id":1,"abbreviation":"ATL","city":"Atlanta","conference":"East","division":"Southeast","full_name":"Atlanta Hawks","name":"Hawks"},"turnover":2},{"id":11766566,"ast":2,"blk":0,"dreb":1,"fg3_pct":0.333,"fg3a":3,"fg3m":1,"fg_pct":0.6,"fga":5,"fgm":3,"ft_pct":1,"fta":2,"ftm":2,"game":{"id":834976,"date":"2022-04-19T00:00:00.000Z","home_team_id":16,"home_team_score":86,"period":4,"postseason":true,"season":2021,"status":"Final","time":"","visitor_team_id":1,"visitor_team_score":76},"min":"29","oreb":2,"pf":0,"player":{"id":487,"first_name":"Delon","height_feet":6,"height_inches":5,"last_name":"Wright","position":"G","team_id":30,"weight_pounds":183},"pts":9,"reb":3,"stl":2,"team":{"id":1,"abbreviation":"ATL","city":"Atlanta","conference":"East","division":"Southeast","full_name":"Atlanta Hawks","name":"Hawks"},"turnover":2},{"id":11766559,"ast":0,"blk":0,"dreb":0,"fg3_pct":0,"fg3a":0,"fg3m":0,"fg_pct":0,"fga":0,"fgm":0,"ft_pct":0,"fta":0,"ftm":0,"game":{"id":834976,"date":"2022-04-19T00:00:00.000Z","home_team_id":16,"home_team_score":86,"period":4,"postseason":true,"season":2021,"status":"Final","time":"","visitor_team_id":1,"visitor_team_score":76},"min":"","oreb":0,"pf":0,"player":{"id":53,"first_name":"Bogdan","height_feet":6,"height_inches":6,"last_name":"Bogdanovic","position":"G","team_id":1,"weight_pounds":205},"pts":0,"reb":0,"stl":0,"team":{"id":1,"abbreviation":"ATL","city":"Atlanta","conference":"East","division":"Southeast","full_name":"Atlanta Hawks","name":"Hawks"},"turnover":0},{"id":11766565,"ast":0,"blk":0,"dreb":4,"fg3_pct":null,"fg3a":0,"fg3m":0,"fg_pct":0.5,"fga":2,"fgm":1,"ft_pct":null,"fta":0,"ftm":0,"game":{"id":834976,"date":"2022-04-19T00:00:00.000Z","home_team_id":16,"home_team_score":86,"period":4,"postseason":true,"season":2021,"status":"Final","time":"","visitor_team_id":1,"visitor_team_score":76},"min":"19","oreb":0,"pf":3,"player":{"id":3547244,"first_name":"Onyeka","height_feet":null,"height_inches":null,"last_name":"Okongwu","position":"F-C","team_id":1,"weight_pounds":null},"pts":2,"reb":4,"stl":1,"team":{"id":1,"abbreviation":"ATL","city":"Atlanta","conference":"East","division":"Southeast","full_name":"Atlanta Hawks","name":"Hawks"},"turnover":1},{"id":11766563,"ast":0,"blk":0,"dreb":0,"fg3_pct":0,"fg3a":0,"fg3m":0,"fg_pct":0,"fga":0,"fgm":0,"ft_pct":0,"fta":0,"ftm":0,"game":{"id":834976,"date":"2022-04-19T00:00:00.000Z","home_team_id":16,"home_team_score":86,"period":4,"postseason":true,"season":2021,"status":"Final","time":"","visitor_team_id":1,"visitor_team_score":76},"min":"3:15","oreb":0,"pf":2,"player":{"id":288,"first_name":"Timothe","height_feet":6,"height_inches":6,"last_name":"Luwawu-Cabarrot","position":"G-F","team_id":1,"weight_pounds":210},"pts":0,"reb":0,"stl":0,"team":{"id":1,"abbreviation":"ATL","city":"Atlanta","conference":"East","division":"Southeast","full_name":"Atlanta Hawks","name":"Hawks"},"turnover":0},{"id":11766560,"ast":0,"blk":0,"dreb":0,"fg3_pct":0,"fg3a":0,"fg3m":0,"fg_pct":0,"fga":0,"fgm":0,"ft_pct":0,"fta":0,"ftm":0,"game":{"id":834976,"date":"2022-04-19T00:00:00.000Z","home_team_id":16,"home_team_score":86,"period":4,"postseason":true,"season":2021,"status":"Final","time":"","visitor_team_id":1,"visitor_team_score":76},"min":"0:00","oreb":0,"pf":0,"player":{"id":129,"first_name":"Gorgui","height_feet":6,"height_inches":11,"last_name":"Dieng","position":"C","team_id":27,"weight_pounds":252},"pts":0,"reb":0,"stl":0,"team":{"id":1,"abbreviation":"ATL","city":"Atlanta","conference":"East","division":"Southeast","full_name":"Atlanta Hawks","name":"Hawks"},"turnover":0},{"id":11766561,"ast":0,"blk":0,"dreb":0,"fg3_pct":0,"fg3a":0,"fg3m":0,"fg_pct":0,"fga":0,"fgm":0,"ft_pct":0,"fta":0,"ftm":0,"game":{"id":834976,"date":"2022-04-19T00:00:00.000Z","home_team_id":16,"home_team_score":86,"period":4,"postseason":true,"season":2021,"status":"Final","time":"","visitor_team_id":1,"visitor_team_score":76},"min":"0:00","oreb":0,"pf":0,"player":{"id":17896040,"first_name":"Jalen","height_feet":null,"height_inches":null,"last_name":"Johnson","position":"F","team_id":1,"weight_pounds":null},"pts":0,"reb":0,"stl":0,"team":{"id":1,"abbreviation":"ATL","city":"Atlanta","conference":"East","division":"Southeast","full_name":"Atlanta Hawks","name":"Hawks"},"turnover":0},{"id":11766562,"ast":0,"blk":0,"dreb":0,"fg3_pct":0,"fg3a":0,"fg3m":0,"fg_pct":0,"fga":0,"fgm":0,"ft_pct":0,"fta":0,"ftm":0,"game":{"id":834976,"date":"2022-04-19T00:00:00.000Z","home_team_id":16,"home_team_score":86,"period":4,"postseason":true,"season":2021,"status":"Final","time":"","visitor_team_id":1,"visitor_team_score":76},"min":"0:00","oreb":0,"pf":0,"player":{"id":259,"first_name":"Kevin","height_feet":6,"height_inches":9,"last_name":"Knox","position":"F","team_id":25,"weight_pounds":215},"pts":0,"reb":0,"stl":0,"team":{"id":1,"abbreviation":"ATL","city":"Atlanta","conference":"East","division":"Southeast","full_name":"Atlanta Hawks","name":"Hawks"},"turnover":0},{"id":11766564,"ast":0,"blk":0,"dreb":0,"fg3_pct":0,"fg3a":0,"fg3m":0,"fg_pct":0,"fga":0,"fgm":0,"ft_pct":0,"fta":0,"ftm":0,"game":{"id":834976,"date":"2022-04-19T00:00:00.000Z","home_team_id":16,"home_team_score":86,"period":4,"postseason":true,"season":2021,"status":"Final","time":"","visitor_team_id":1,"visitor_team_score":76},"min":"0:00","oreb":0,"pf":0,"player":{"id":3547289,"first_name":"Skylar","height_feet":null,"height_inches":null,"last_name":"Mays","position":"G","team_id":25,"weight_pounds":null},"pts":0,"reb":0,"stl":0,"team":{"id":1,"abbreviation":"ATL","city":"Atlanta","conference":"East","division":"Southeast","full_name":"Atlanta Hawks","name":"Hawks"},"turnover":0},{"id":11766568,"ast":0,"blk":0,"dreb":0,"fg3_pct":0,"fg3a":0,"fg3m":0,"fg_pct":0,"fga":0,"fgm":0,"ft_pct":0,"fta":0,"ftm":0,"game":{"id":834976,"date":"2022-04-19T00:00:00.000Z","home_team_id":16,"home_team_score":86,"period":4,"postseason":true,"season":2021,"status":"Final","time":"","visitor_team_id":1,"visitor_team_score":76},"min":"","oreb":0,"pf":0,"player":{"id":450,"first_name":"PJ","height_feet":6,"height_inches":6,"last_name":"Tucker","position":"F","team_id":23,"weight_pounds":245},"pts":0,"reb":0,"stl":0,"team":{"id":16,"abbreviation":"MIA","city":"Miami","conference":"East","division":"Southeast","full_name":"Miami Heat","name":"Heat"},"turnover":0},{"id":11766569,"ast":0,"blk":0,"dreb":0,"fg3_pct":0,"fg3a":0,"fg3m":0,"fg_pct":0,"fga":0,"fgm":0,"ft_pct":0,"fta":0,"ftm":0,"game":{"id":834976,"date":"2022-04-19T00:00:00.000Z","home_team_id":16,"home_team_score":86,"period":4,"postseason":true,"season":2021,"status":"Final","time":"","visitor_team_id":1,"visitor_team_score":76},"min":"","oreb":0,"pf":0,"player":{"id":4,"first_name":"Bam","height_feet":6,"height_inches":10,"last_name":"Adebayo","position":"C-F","team_id":16,"weight_pounds":255},"pts":0,"reb":0,"stl":0,"team":{"id":16,"abbreviation":"MIA","city":"Miami","conference":"East","division":"Southeast","full_name":"Miami Heat","name":"Heat"},"turnover":0},{"id":11766570,"ast":4,"blk":0,"dreb":1,"fg3_pct":0.375,"fg3a":8,"fg3m":3,"fg_pct":0.5,"fga":10,"fgm":5,"ft_pct":1,"fta":1,"ftm":1,"game":{"id":834976,"date":"2022-04-19T00:00:00.000Z","home_team_id":16,"home_team_score":86,"period":4,"postseason":true,"season":2021,"status":"Final","time":"","visitor_team_id":1,"visitor_team_score":76},"min":"22","oreb":0,"pf":2,"player":{"id":666908,"first_name":"Max","height_feet":null,"height_inches":null,"last_name":"Strus","position":"G","team_id":16,"weight_pounds":null},"pts":14,"reb":1,"stl":2,"team":{"id":16,"abbreviation":"MIA","city":"Miami","conference":"East","division":"Southeast","full_name":"Miami Heat","name":"Heat"},"turnover":1},{"id":11766571,"ast":2,"blk":3,"dreb":3,"fg3_pct":0.167,"fg3a":6,"fg3m":1,"fg_pct":0.25,"fga":8,"fgm":2,"ft_pct":0.8,"fta":5,"ftm":4,"game":{"id":834976,"date":"2022-04-19T00:00:00.000Z","home_team_id":16,"home_team_score":86,"period":4,"postseason":true,"season":2021,"status":"Final","time":"","visitor_team_id":1,"visitor_team_score":76},"min":"37","oreb":0,"pf":1,"player":{"id":286,"first_name":"Kyle","height_feet":6,"height_inches":1,"last_name":"Lowry","position":"G","team_id":16,"weight_pounds":196},"pts":9,"reb":3,"stl":0,"team":{"id":16,"abbreviation":"MIA","city":"Miami","conference":"East","division":"Southeast","full_name":"Miami Heat","name":"Heat"},"turnover":3},{"id":11766574,"ast":2,"blk":1,"dreb":3,"fg3_pct":0.25,"fg3a":4,"fg3m":1,"fg_pct":0.455,"fga":11,"fgm":5,"ft_pct":1,"fta":4,"ftm":4,"game":{"id":834976,"date":"2022-04-19T00:00:00.000Z","home_team_id":16,"home_team_score":86,"period":4,"postseason":true,"season":2021,"status":"Final","time":"","visitor_team_id":1,"visitor_team_score":76},"min":"31","oreb":0,"pf":3,"player":{"id":666633,"first_name":"Tyler","height_feet":null,"height_inches":null,"last_name":"Herro","position":"G","team_id":16,"weight_pounds":null},"pts":15,"reb":3,"stl":0,"team":{"id":16,"abbreviation":"MIA","city":"Miami","conference":"East","division":"Southeast","full_name":"Miami Heat","name":"Heat"},"turnover":1},{"id":11766572,"ast":0,"blk":0,"dreb":0,"fg3_pct":0,"fg3a":0,"fg3m":0,"fg_pct":0,"fga":0,"fgm":0,"ft_pct":0,"fta":0,"ftm":0,"game":{"id":834976,"date":"2022-04-19T00:00:00.000Z","home_team_id":16,"home_team_score":86,"period":4,"postseason":true,"season":2021,"status":"Final","time":"","visitor_team_id":1,"visitor_team_score":76},"min":"","oreb":0,"pf":0,"player":{"id":120,"first_name":"Dewayne","height_feet":7,"height_inches":0,"last_name":"Dedmon","position":"C","team_id":23,"weight_pounds":245},"pts":0,"reb":0,"stl":0,"team":{"id":16,"abbreviation":"MIA","city":"Miami","conference":"East","division":"Southeast","full_name":"Miami Heat","name":"Heat"},"turnover":0},{"id":11766576,"ast":0,"blk":1,"dreb":0,"fg3_pct":0.333,"fg3a":3,"fg3m":1,"fg_pct":0.2,"fga":5,"fgm":1,"ft_pct":null,"fta":0,"ftm":0,"game":{"id":834976,"date":"2022-04-19T00:00:00.000Z","home_team_id":16,"home_team_score":86,"period":4,"postseason":true,"season":2021,"status":"Final","time":"","visitor_team_id":1,"visitor_team_score":76},"min":"17","oreb":0,"pf":1,"player":{"id":666747,"first_name":"Caleb","height_feet":null,"height_inches":null,"last_name":"Martin","position":"F","team_id":16,"weight_pounds":null},"pts":3,"reb":0,"stl":2,"team":{"id":16,"abbreviation":"MIA","city":"Miami","conference":"East","division":"Southeast","full_name":"Miami Heat","name":"Heat"},"turnover":0},{"id":11766573,"ast":0,"blk":0,"dreb":0,"fg3_pct":0,"fg3a":0,"fg3m":0,"fg_pct":0,"fga":0,"fgm":0,"ft_pct":0,"fta":0,"ftm":0,"game":{"id":834976,"date":"2022-04-19T00:00:00.000Z","home_team_id":16,"home_team_score":86,"period":4,"postseason":true,"season":2021,"status":"Final","time":"","visitor_team_id":1,"visitor_team_score":76},"min":"0:00","oreb":0,"pf":0,"player":{"id":203,"first_name":"Udonis","height_feet":6,"height_inches":8,"last_name":"Haslem","position":"F","team_id":16,"weight_pounds":235},"pts":0,"reb":0,"stl":0,"team":{"id":16,"abbreviation":"MIA","city":"Miami","conference":"East","division":"Southeast","full_name":"Miami Heat","name":"Heat"},"turnover":0},{"id":11766575,"ast":0,"blk":0,"dreb":0,"fg3_pct":0,"fg3a":0,"fg3m":0,"fg_pct":0,"fga":0,"fgm":0,"ft_pct":0,"fta":0,"ftm":0,"game":{"id":834976,"date":"2022-04-19T00:00:00.000Z","home_team_id":16,"home_team_score":86,"period":4,"postseason":true,"season":2021,"status":"Final","time":"","visitor_team_id":1,"visitor_team_score":76},"min":"","oreb":0,"pf":0,"player":{"id":3092,"first_name":"Haywood","height_feet":6,"height_inches":7,"last_name":"Highsmith","position":"","team_id":16,"weight_pounds":220},"pts":0,"reb":0,"stl":0,"team":{"id":16,"abbreviation":"MIA","city":"Miami","conference":"East","division":"Southeast","full_name":"Miami Heat","name":"Heat"},"turnover":0},{"id":11766577,"ast":0,"blk":0,"dreb":0,"fg3_pct":0,"fg3a":0,"fg3m":0,"fg_pct":0,"fga":0,"fgm":0,"ft_pct":0,"fta":0,"ftm":0,"game":{"id":834976,"date":"2022-04-19T00:00:00.000Z","home_team_id":16,"home_team_score":86,"period":4,"postseason":true,"season":2021,"status":"Final","time":"","visitor_team_id":1,"visitor_team_score":76},"min":"","oreb":0,"pf":0,"player":{"id":329,"first_name":"Markieff","height_feet":null,"height_inches":null,"last_name":"Morris","position":"F","team_id":7,"weight_pounds":null},"pts":0,"reb":0,"stl":0,"team":{"id":16,"abbreviation":"MIA","city":"Miami","conference":"East","division":"Southeast","full_name":"Miami Heat","name":"Heat"},"turnover":0},{"id":11766578,"ast":0,"blk":0,"dreb":0,"fg3_pct":0,"fg3a":0,"fg3m":0,"fg_pct":0,"fga":0,"fgm":0,"ft_pct":0,"fta":0,"ftm":0,"game":{"id":834976,"date":"2022-04-19T00:00:00.000Z","home_team_id":16,"home_team_score":86,"period":4,"postseason":true,"season":2021,"status":"Final","time":"","visitor_team_id":1,"visitor_team_score":76},"min":"0:00","oreb":0,"pf":0,"player":{"id":357,"first_name":"Victor","height_feet":6,"height_inches":4,"last_name":"Oladipo","position":"G","team_id":16,"weight_pounds":210},"pts":0,"reb":0,"stl":0,"team":{"id":16,"abbreviation":"MIA","city":"Miami","conference":"East","division":"Southeast","full_name":"Miami Heat","name":"Heat"},"turnover":0},{"id":11766580,"ast":0,"blk":0,"dreb":0,"fg3_pct":0,"fg3a":0,"fg3m":0,"fg_pct":0,"fga":0,"fgm":0,"ft_pct":0,"fta":0,"ftm":0,"game":{"id":834976,"date":"2022-04-19T00:00:00.000Z","home_team_id":16,"home_team_score":86,"period":4,"postseason":true,"season":2021,"status":"Final","time":"","visitor_team_id":1,"visitor_team_score":76},"min":"","oreb":0,"pf":0,"player":{"id":1603383,"first_name":"Gabe","height_feet":null,"height_inches":null,"last_name":"Vincent","position":"G","team_id":16,"weight_pounds":null},"pts":0,"reb":0,"stl":0,"team":{"id":16,"abbreviation":"MIA","city":"Miami","conference":"East","division":"Southeast","full_name":"Miami Heat","name":"Heat"},"turnover":0}],"meta":{"total_pages":2,"current_page":1,"next_page":2,"per_page":25,"total_count":30}}