{"data":[{"id":11320218,"ast":7,"blk":1,"dreb":7,"fg3_pct":0.375,"fg3a":8,"fg3m":3,"fg_pct":0.471,"fga":17,"fgm":8,"ft_pct":0.6,"fta":5,"ftm":3,"game":{"id":474540,"date":"2022-03-29T00:00:00.000Z","home_team_id":23,"home_team_score":116,"period":4,"postseason":false,"season":2021,"status":"Final","time":"","visitor_team_id":17,"visitor_team_score":118},"min":"39","oreb":2,"pf":0,"player":{"id":315,"first_name":"Khris","height_feet":6,"height_inches":8,"last_name":"Middleton","position":"F","team_id":17,"weight_pounds":222},"pts":22,"reb":9,"stl":1,"team":{"id":17,"abbreviation":"MIL","city":"Milwaukee","conference":"East","division":"Central","full_name":"Milwaukee Bucks","name":"Bucks"},"turnover":2},{"id":11320219,"ast":6,"blk":3,"dreb":11,"fg3_pct":0.333,"fg3a":3,"fg3m":1,"fg_pct":0.667,"fga":24,"fgm":16,"ft_pct":0.7,"fta":10,"ftm":7,"game":{"id":474540,"date":"2022-03-29T00:00:00.000Z","home_team_id":23,"home_team_score":116,"period":4,"postseason":false,"season":2021,"status":"Final","time":"","visitor_team_id":17,"visitor_team_score":118},"min":"38","oreb":3,"pf":3,"player":{"id":15,"first_name":"Giannis","height_feet":6,"height_inches":11,"last_name":"Antetokounmpo","position":"F","team_id":17,"weight_pounds":242},"pts":40,"reb":14,"stl":1,"team":{"id":17,"abbreviation":"MIL","city":"Milwaukee","conference":"East","division":"Central","full_name":"Milwaukee Bucks","name":"Bucks"},"turnover":3},{"id":11320220,"ast":0,"blk":0,"dreb":2,"fg3_pct":0.444,"fg3a":9,"fg3m":4,"fg_pct":0.429,"fga":14,"fgm":6,"ft_pct":1,"fta":1,"ftm":1,"game":{"id":474540,"date":"2022-03-29T00:00:00.000Z","home_team_id":23,"home_team_score":116,"period":4,"postseason":false,"season":2021,"status":"Final","time":"","visitor_team_id":17,"visitor_team_score":118},"min":"29","oreb":1,"pf":4,"player":{"id":283,"first_name":"Brook","height_feet":7,"height_inches":0,"last_name":"Lopez","position":"C","team_id":17,"weight_pounds":270},"pts":17,"reb":3,"stl":0,"team":{"id":17,"abbreviation":"MIL","city":"Milwaukee","conference":"East","division":"Central","full_name":"Milwaukee Bucks","name":"Bucks"},"turnover":2},{"id":11320221,"ast":1,"blk":0,"dreb":1,"fg3_pct":0.5,"fg3a":2,"fg3m":1,"fg_pct":0.4,"fga":5,"fgm":2,"ft_pct":null,"fta":0,"ftm":0,"game":{"id":474540,"date":"2022-03-29T00:00:00.000Z","home_team_id":23,"home_team_score":116,"period":4,"postseason":false,"season":2021,"status":"Final","time":"","visitor_team_id":17,"visitor_team_score":118},"min":"25","oreb":2,"pf":2,"player":{"id":301,"first_name":"Wesley","height_feet":null,"height_inches":null,"last_name":"Matthews","position":"G-F","team_id":17,"weight_pounds":null},"pts":5,"reb":3,"stl":1,"team":{"id":17,"abbreviation":"MIL","city":"Milwaukee","conference":"East","division":"Central","full_name":"Milwaukee Bucks","name":"Bucks"},"turnover":0},{"id":11320222,"ast":10,"blk":0,"dreb":8,"fg3_pct":0.333,"fg3a":6,"fg3m":2,"fg_pct":0.438,"fga":16,"fgm":7,"ft_pct":1,"fta":2,"ftm":2,"game":{"id":474540,"date":"2022-03-29T00:00:00.000Z","home_team_id":23,"home_team_score":116,"period":4,"postseason":false,"season":2021,"status":"Final","time":"","visitor_team_id":17,"visitor_team_score":118},"min":"40","oreb":0,"pf":0,"player":{"id":214,"first_name":"Jrue","height_feet":6,"height_inches":4,"last_name":"Holiday","position":"G","team_id":17,"weight_pounds":205},"pts":18,"reb":8,"stl":1,"team":{"id":17,"abbreviation":"MIL","city":"Milwaukee","conference":"East","division":"Central","full_name":"Milwaukee Bucks","name":"Bucks"},"turnover":1},{"id":11320230,"ast":1,"blk":0,"dreb":4,"fg3_pct":0.5,"fg3a":2,"fg3m":1,"fg_pct":0.5,"fga":2,"fgm":1,"ft_pct":null,"fta":0,"ftm":0,"game":{"id":474540,"date":"2022-03-29T00:00:00.000Z","home_team_id":23,"home_team_score":116,"period":4,"postseason":false,"season":2021,"status":"Final","time":"","visitor_team_id":17,"visitor_team_score":118},"min":"14","oreb":1,"pf":3,"player":{"id":377,"first_name":"Bobby","height_feet":6,"height_inches":11,"last_name":"Portis","position":"F","team_id":17,"weight_pounds":250},"pts":3,"reb":5,"stl":1,"team":{"id":17,"abbreviation":"MIL","city":"Milwaukee","conference":"East","division":"Central","full_name":"Milwaukee Bucks","name":"Bucks"},"turnover":0},{"id":11320223,"ast":0,"blk":0,"dreb":4,"fg3_pct":0.5,"fg3a":4,"fg3m":2,"fg_pct":0.6,"fga":5,"fgm":3,"ft_pct":0.667,"fta":3,"ftm":2,"game":{"id":474540,"date":"2022-03-29T00:00:00.000Z","home_team_id":23,"home_team_score":116,"period":4,"postseason":false,"season":2021,"status":"Final","time":"","visitor_team_id":17,"visitor_team_score":118},"min":"25","oreb":0,"pf":2,"player":{"id":8,"first_name":"Grayson","height_feet":6,"height_inches":5,"last_name":"Allen","position":"G","team_id":17,"weight_pounds":198},"pts":10,"reb":4,"stl":0,"team":{"id":17,"abbreviation":"MIL","city":"Milwaukee","conference":"East","division":"Central","full_name":"Milwaukee Bucks","name":"Bucks"},"turnover":2},{"id":11320226,"ast":0,"blk":0,"dreb":1,"fg3_pct":0,"fg3a":4,"fg3m":0,"fg_pct":0.2,"fga":5,"fgm":1,"ft_pct":null,"fta":0,"ftm":0,"game":{"id":474540,"date":"2022-03-29T00:00:00.000Z","home_team_id":23,"home_team_score":116,"period":4,"postseason":false,"season":2021,"status":"Final","time":"","visitor_team_id":17,"visitor_team_score":118},"min":"18","oreb":0,"pf":1,"player":{"id":105,"first_name":"Pat","height_feet":6,"height_inches":4,"last_name":"Connaughton","position":"G","team_id":17,"weight_pounds":209},"pts":2,"reb":1,"stl":0,"team":{"id":17,"abbreviation":"MIL","city":"Milwaukee","conference":"East","division":"Central","full_name":"Milwaukee Bucks","name":"Bucks"},"turnover":0},{"id":11320227,"ast":0,"blk":0,"dreb":0,"fg3_pct":null,"fg3a":0,"fg3m":0,"fg_pct":null,"fga":0,"fgm":0,"ft_pct":0.5,"fta":2,"ftm":1,"game":{"id":474540,"date":"2022-03-29T00:00:00.000Z","home_team_id":23,"home_team_score":116,"period":4,"postseason":false,"season":2021,"status":"Final","time":"","visitor_team_id":17,"visitor_team_score":118},"min":"9","oreb":0,"pf":1,"player":{"id":211,"first_name":"George","height_feet":6,"height_inches":3,"last_name":"Hill","position":"G","team_id":12,"weight_pounds":188},"pts":1,"reb":0,"stl":0,"team":{"id":17,"abbreviation":"MIL","city":"Milwaukee","conference":"East","division":"Central","full_name":"Milwaukee Bucks","name":"Bucks"},"turnover":0},{"id":11320228,"ast":1,"blk":0,"dreb":1,"fg3_pct":0,"fg3a":0,"fg3m":0,"fg_pct":0,"fga":0,"fgm":0,"ft_pct":0,"fta":0,"ftm":0,"game":{"id":474540,"date":"2022-03-29T00:00:00.000Z","home_team_id":23,"home_team_score":116,"period":4,"postseason":false,"season":2021,"status":"Final","time":"","visitor_team_id":17,"visitor_team_score":118},"min":"3:19","oreb":0,"pf":1,"player":{"id":223,"first_name":"Serge","height_feet":6,"height_inches":10,"last_name":"Ibaka","position":"F-C","team_id":17,"weight_pounds":235},"pts":0,"reb":1,"stl":0,"team":{"id":17,"abbreviation":"MIL","city":"Milwaukee","conference":"East","division":"Central","full_name":"Milwaukee Bucks","name":"Bucks"},"turnover":0},{"id":11320224,"ast":0,"blk":0,"dreb":0,"fg3_pct":0,"fg3a":0,"fg3m":0,"fg_pct":0,"fga":0,"fgm":0,"ft_pct":0,"fta":0,"ftm":0,"game":{"id":474540,"date":"2022-03-29T00:00:00.000Z","home_team_id":23,"home_team_score":116,"period":4,"postseason":false,"season":2021,"status":"Final","time":"","visitor_team_id":17,"visitor_team_score":118},"min":"0:00","oreb":0,"pf":0,"player":{"id":2148,"first_name":"Thanasis","height_feet":null,"height_inches":null,"last_name":"Antetokounmpo","position":"","team_id":17,"weight_pounds":null},"pts":0,"reb":0,"stl":0,"team":{"id":17,"abbreviation":"MIL","city":"Milwaukee","conference":"East","division":"Central","full_name":"Milwaukee Bucks","name":"Bucks"},"turnover":0},{"id":11320225,"ast":0,"blk":0,"dreb":0,"fg3_pct":0,"fg3a":0,"fg3m":0,"fg_pct":0,"fga":0,"fgm":0,"ft_pct":0,"fta":0,"ftm":0,"game":{"id":474540,"date":"2022-03-29T00:00:00.000Z","home_team_id":23,"home_team_score":116,"period":4,"postseason":false,"season":2021,"status":"Final","time":"","visitor_team_id":17,"visitor_team_score":118},"min":"0:00","oreb":0,"pf":0,"player":{"id":87,"first_name":"Jevon","height_feet":6,"height_inches":2,"last_name":"Carter","position":"G","team_id":17,"weight_pounds":196},"pts":0,"reb":0,"stl":0,"team":{"id":17,"abbreviation":"MIL","city":"Milwaukee","conference":"East","division":"Central","full_name":"Milwaukee Bucks","name":"Bucks"},"turnover":0},{"id":11320229,"ast":0,"blk":0,"dreb":0,"fg3_pct":0,"fg3a":0,"fg3m":0,"fg_pct":0,"fga":0,"fgm":0,"ft_pct":0,"fta":0,"ftm":0,"game":{"id":474540,"date":"2022-03-29T00:00:00.000Z","home_team_id":23,"home_team_score":116,"period":4,"postseason":false,"season":2021,"status":"Final","time":"","visitor_team_id":17,"visitor_team_score":118},"min":"0:00","oreb":0,"pf":0,"player":{"id":3547207,"first_name":"Jordan","height_feet":null,"height_inches":null,"last_name":"Nwora","position":"F","team_id":12,"weight_pounds":null},"pts":0,"reb":0,"stl":0,"team":{"id":17,"abbreviation":"MIL","city":"Milwaukee","conference":"East","division":"Central","full_name":"Milwaukee Bucks","name":"Bucks"},"turnover":0},{"id":11320234,"ast":6,"blk":0,"dreb":1,"fg3_pct":0.25,"fg3a":4,"fg3m":1,"fg_pct":0.273,"fga":11,"fgm":3,"ft_pct":null,"fta":0,"ftm":0,"game":{"id":474540,"date":"2022-03-29T00:00:00.000Z","home_team_id":23,"home_team_score":116,"period":4,"postseason":false,"season":2021,"status":"Final","time":"","visitor_team_id":17,"visitor_team_score":118},"min":"40","oreb":0,"pf":1,"player":{"id":3547254,"first_name":"Tyrese","height_feet":null,"height_inches":null,"last_name":"Maxey","position":"G","team_id":23,"weight_pounds":null},"pts":7,"reb":1,"stl":0,"team":{"id":23,"abbreviation":"PHI","city":"Philadelphia","conference":"East","division":"Atlantic","full_name":"Philadelphia 76ers","name":"76ers"},"turnover":0},{"id":11320235,"ast":9,"blk":1,"dreb":5,"fg3_pct":0.4,"fg3a":10,"fg3m":4,"fg_pct":0.529,"fga":17,"fgm":9,"ft_pct":0.833,"fta":12,"ftm":10,"game":{"id":474540,"date":"2022-03-29T00:00:00.000Z","home_team_id":23,"home_team_score":116,"period":4,"postseason":false,"season":2021,"status":"Final","time":"","visitor_team_id":17,"visitor_team_score":118},"min":"37","oreb":0,"pf":3,"player":{"id":192,"first_name":"James","height_feet":6,"height_inches":5,"last_name":"Harden","position":"G","team_id":23,"weight_pounds":220},"pts":32,"reb":5,"stl":0,"team":{"id":23,"abbreviation":"PHI","city":"Philadelphia","conference":"East","division":"Atlantic","full_name":"Philadelphia 76ers","name":"76ers"},"turnover":2},{"id":11320243,"ast":0,"blk":0,"dreb":2,"fg3_pct":0.375,"fg3a":8,"fg3m":3,"fg_pct":0.333,"fga":9,"fgm":3,"ft_pct":null,"fta":0,"ftm":0,"game":{"id":474540,"date":"2022-03-29T00:00:00.000Z","home_team_id":23,"home_team_score":116,"period":4,"postseason":false,"season":2021,"status":"Final","time":"","visitor_team_id":17,"visitor_team_score":118},"min":"20","oreb":0,"pf":1,"player":{"id":344,"first_name":"Georges","height_feet":6,"height_inches":8,"last_name":"Niang","position":"F","team_id":23,"weight_pounds":230},"pts":9,"reb":2,"stl":0,"team":{"id":23,"abbreviation":"PHI","city":"Philadelphia","conference":"East","division":"Atlantic","full_name":"Philadelphia 76ers","name":"76ers"},"turnover":1},{"id":11320237,"ast":0,"blk":1,"dreb":4,"fg3_pct":0.6,"fg3a":5,"fg3m":3,"fg_pct":0.6,"fga":5,"fgm":3,"ft_pct":null,"fta":0,"ftm":0,"game":{"id":474540,"date":"2022-03-29T00:00:00.000Z","home_team_id":23,"home_team_score":116,"period":4,"postseason":false,"season":2021,"status":"Final","time":"","visitor_team_id":17,"visitor_team_score":118},"min":"23","oreb":0,"pf":3,"player":{"id":184,"first_name":"Danny","height_feet":6,"height_inches":6,"last_name":"Green","position":"G-F","team_id":6,"weight_pounds":215},"pts":9,"reb":4,"stl":0,"team":{"id":23,"abbreviation":"PHI","city":"Philadelphia","conference":"East","division":"Atlantic","full_name":"Philadelphia 76ers","name":"76ers"},"turnover":0},{"id":11320241,"ast":0,"blk":0,"dreb":0,"fg3_pct":0,"fg3a":0,"fg3m":0,"fg_pct":0,"fga":1,"fgm":0,"ft_pct":0,"fta":0,"ftm":0,"game":{"id":474540,"date":"2022-03-29T00:00:00.000Z","home_team_id":23,"home_team_score":116,"period":4,"postseason":false,"season":2021,"status":"Final","time":"","visitor_team_id":17,"visitor_team_score":118},"min":"9:25","oreb":0,"pf":2,"player":{"id":318,"first_name":"Paul","height_feet":6,"height_inches":8,"last_name":"Millsap","position":"F","team_id":23,"weight_pounds":246},"pts":0,"reb":0,"stl":1,"team":{"id":23,"abbreviation":"PHI","city":"Philadelphia","conference":"East","division":"Atlantic","full_name":"Philadelphia 76ers","name":"76ers"},"turnover":1},{"id":11320242,"ast":0,"blk":0,"dreb":2,"fg3_pct":0,"fg3a":1,"fg3m":0,"fg_pct":0.6,"fga":5,"fgm":3,"ft_pct":null,"fta":0,"ftm":0,"game":{"id":474540,"date":"2022-03-29T00:00:00.000Z","home_team_id":23,"home_team_score":116,"period":4,"postseason":false,"season":2021,"status":"Final","time":"","visitor_team_id":17,"visitor_team_score":118},"min":"16","oreb":0,"pf":3,"player":{"id":320,"first_name":"Shake","height_feet":6,"height_inches":6,"last_name":"Milton","position":"G","team_id":23,"weight_pounds":207},"pts":6,"reb":2,"stl":0,"team":{"id":23,"abbreviation":"PHI","city":"Philadelphia","conference":"East","division":"Atlantic","full_name":"Philadelphia 76ers","name":"76ers"},"turnover":0},{"id":11320236,"ast":0,"blk":0,"dreb":0,"fg3_pct":0,"fg3a":0,"fg3m":0,"fg_pct":0,"fga":0,"fgm":0,"ft_pct":0,"fta":0,"ftm":0,"game":{"id":474540,"date":"2022-03-29T00:00:00.000Z","home_team_id":23,"home_team_score":116,"period":4,"postseason":false,"season":2021,"status":"Final","time":"","visitor_team_id":17,"visitor_team_score":118},"min":"0:00","oreb":0,"pf":0,"player":{"id":666474,"first_name":"Charles","height_feet":null,"height_inches":null,"last_name":"Brown","position":"G","team_id":23,"weight_pounds":null},"pts":0,"reb":0,"stl":0,"team":{"id":23,"abbreviation":"PHI","city":"Philadelphia","conference":"East","division":"Atlantic","full_name":"Philadelphia 76ers","name":"76ers"},"turnover":0},{"id":11320238,"ast":0,"blk":0,"dreb":0,"fg3_pct":0,"fg3a":0,"fg3m":0,"fg_pct":0,"fga":0,"fgm":0,"ft_pct":0,"fta":0,"ftm":0,"game":{"id":474540,"date":"2022-03-29T00:00:00.000Z","home_team_id":23,"home_team_score":116,"period":4,"postseason":false,"season":2021,"status":"Final","time":"","visitor_team_id":17,"visitor_team_score":118},"min":"0:00","oreb":0,"pf":0,"player":{"id":3547272,"first_name":"Isaiah","height_feet":null,"height_inches":null,"last_name":"Joe","position":"G","team_id":21,"weight_pounds":null},"pts":0,"reb":0,"stl":0,"team":{"id":23,"abbreviation":"PHI","city":"Philadelphia","conference":"East","division":"Atlantic","full_name":"Philadelphia 76ers","name":"76ers"},"turnover":0},{"id":11320239,"ast":0,"blk":0,"dreb":0,"fg3_pct":0,"fg3a":0,"fg3m":0,"fg_pct":0,"fga":0,"fgm":0,"ft_pct":0,"fta":0,"ftm":0,"game":{"id":474540,"date":"2022-03-29T00:00:00.000Z","home_team_id":23,"home_team_score":116,"period":4,"postseason":false,"season":2021,"status":"Final","time":"","visitor_team_id":17,"visitor_team_score":118},"min":"0:00","oreb":0,"pf":0,"player":{"id":250,"first_name":"DeAndre","height_feet":6,"height_inches":11,"last_name":"Jordan","position":"C","team_id":8,"weight_pounds":265},"pts":0,"reb":0,"stl":0,"team":{"id":23,"abbreviation":"PHI","city":"Philadelphia","conference":"East","division":"Atlantic","full_name":"Philadelphia 76ers","name":"76ers"},"turnover":0},{"id":11320240,"ast":0,"blk":0,"dreb":0,"fg3_pct":0,"fg3a":0,"fg3m":0,"fg_pct":0,"fga":0,"fgm":0,"ft_pct":0,"fta":0,"ftm":0,"game":{"id":474540,"date":"2022-03-29T00:00:00.000Z","home_team_id":23,"home_team_score":116,"period":4,"postseason":false,"season":2021,"status":"Final","time":"","visitor_team_id":17,"visitor_team_score":118},"min":"0:00","oreb":0,"pf":0,"player":{"id":260,"first_name":"Furkan","height_feet":6,"height_inches":7,"last_name":"Korkmaz","position":"G-F","team_id":23,"weight_pounds":190},"pts":0,"reb":0,"stl":0,"team":{"id":23,"abbreviation":"PHI","city":"Philadelphia","conference":"East","division":"Atlantic","full_name":"Philadelphia 76ers","name":"76ers"},"turnover":0},{"id":11320244,"ast":0,"blk":0,"dreb":0,"fg3_pct":0,"fg3a":0,"fg3m":0,"fg_pct":0,"fga":0,"fgm":0,"ft_pct":0,"fta":0,"ftm":0,"game":{"id":474540,"date":"2022-03-29T00:00:00.000Z","home_team_id":23,"home_team_score":116,"period":4,"postseason":false,"season":2021,"status":"Final","time":"","visitor_team_id":17,"visitor_team_score":118},"min":"0:00","oreb":0,"pf":0,"player":{"id":3547270,"first_name":"Paul","height_feet":null,"height_inches":null,"last_name":"Reed","position":"F","team_id":23,"weight_pounds":null},"pts":0,"reb":0,"stl":0,"team":{"id":23,"abbreviation":"PHI","city":"Philadelphia","conference":"East","division":"Atlantic","full_name":"Philadelphia 76ers","name":"76ers"},"turnover":0},{"id":11320231,"ast":0,"blk":1,"dreb":1,"fg3_pct":null,"fg3a":0,"fg3m":0,"fg_pct":1,"fga":1,"fgm":1,"ft_pct":null,"fta":0,"ftm":0,"game":{"id":474540,"date":"2022-03-29T00:00:00.000Z","home_team_id":23,"home_team_score":116,"period":4,"postseason":false,"season":2021,"status":"Final","time":"","visitor_team_id":17,"visitor_team_score":118},"min":"21","oreb":0,"pf":0,"player":{"id":666923,"first_name":"Matisse","height_feet":null,"height_inches":null,"last_name":"Thybulle","position":"G-F","team_id":25,"weight_pounds":null},"pts":2,"reb":1,"stl":2,"team":{"id":23,"abbreviation":"PHI","city":"Philadelphia","conference":"East","division":"Atlantic","full_name":"Philadelphia 76ers","name":"76ers"},"turnover":0}],"meta":{"total_pages":2,"current_page":1,"next_page":2,"per_page":25,"total_count":27}}