{"data":[{"id":11593511,"ast":0,"blk":0,"dreb":1,"fg3_pct":0,"fg3a":2,"fg3m":0,"fg_pct":0.143,"fga":7,"fgm":1,"ft_pct":null,"fta":0,"ftm":0,"game":{"id":474615,"date":"2022-04-08T00:00:00.000Z","home_team_id":16,"home_team_score":113,"period":4,"postseason":false,"season":2021,"status":"Final","time":"","visitor_team_id":1,"visitor_team_score":109},"min":"25","oreb":0,"pf":5,"player":{"id":666656,"first_name":"De'Andre","height_feet":null,"height_inches":null,"last_name":"Hunter","position":"F","team_id":1,"weight_pounds":null},"pts":2,"reb":1,"stl":0,"team":{"id":1,"abbreviation":"ATL","city":"Atlanta","conference":"East","division":"Southeast","full_name":"Atlanta Hawks","name":"Hawks"},"turnover":3},{"id":11593512,"ast":0,"blk":0,"dreb":2,"fg3_pct":0.167,"fg3a":6,"fg3m":1,"fg_pct":0.333,"fga":9,"fgm":3,"ft_pct":null,"fta":0,"ftm":0,"game":{"id":474615,"date":"2022-04-08T00:00:00.000Z","home_team_id":16,"home_team_score":113,"period":4,"postseason":false,"season":2021,"status":"Final","time":"","visitor_team_id":1,"visitor_team_score":109},"min":"29","oreb":0,"pf":3,"player":{"id":167,"first_name":"Danilo","height_feet":6,"height_inches":10,"last_name":"Gallinari","position":"F","team_id":2,"weight_pounds":225},"pts":7,"reb":2,"stl":0,"team":{"id":1,"abbreviation":"ATL","city":"Atlanta","conference":"East","division":"Southeast","full_name":"Atlanta Hawks","name":"Hawks"},"turnover":1},{"id":11593513,"ast":0,"blk":0,"dreb":8,"fg3_pct":null,"fg3a":0,"fg3m":0,"fg_pct":0.727,"fga":11,"fgm":8,"ft_pct":0.333,"fta":3,"ftm":1,"game":{"id":474615,"date":"2022-04-08T00:00:00.000Z","home_team_id":16,"home_team_score":113,"period":4,"postseason":false,"season":2021,"status":"Final","time":"","visitor_team_id":1,"visitor_team_score":109},"min":"27","oreb":6,"pf":2,"player":{"id":83,"first_name":"Clint","height_feet":6,"height_inches":10,"last_name":"Capela","position":"C","team_id":1,"weight_pounds":240},"pts":17,"reb":14,"stl":0,"team":{"id":1,"abbreviation":"ATL","city":"Atlanta","conference":"East","division":"Southeast","full_name":"Atlanta Hawks","name":"Hawks"},"turnover":0},{"id":11593514,"ast":3,"blk":0,"dreb":6,"fg3_pct":0.25,"fg3a":4,"fg3m":1,"fg_pct":0.545,"fga":11,"fgm":6,"ft_pct":1,"fta":2,"ftm":2,"game":{"id":474615,"date":"2022-04-08T00:00:00.000Z","home_team_id":16,"home_team_score":113,"period":4,"postseason":false,"season":2021,"status":"Final","time":"","visitor_team_id":1,"visitor_team_score":109},"min":"30","oreb":1,"pf":5,"player":{"id":221,"first_name":"Kevin","height_feet":6,"height_inches":7,"last_name":"Huerter","position":"G","team_id":26,"weight_pounds":190},"pts":15,"reb":7,"stl":3,"team":{"id":1,"abbreviation":"ATL","city":"Atlanta","conference":"East","division":"Southeast","full_name":"Atlanta Hawks","name":"Hawks"},"turnover":1},{"id":11593515,"ast":8,"blk":0,"dreb":1,"fg3_pct":0.273,"fg3a":11,"fg3m":3,"fg_pct":0.522,"fga":23,"fgm":12,"ft_pct":1,"fta":8,"ftm":8,"game":{"id":474615,"date":"2022-04-08T00:00:00.000Z","home_team_id":16,"home_team_score":113,"period":4,"postseason":false,"season":2021,"status":"Final","time":"","visitor_team_id":1,"visitor_team_score":109},"min":"36","oreb":1,"pf":1,"player":{"id":490,"first_name":"Trae","height_feet":6,"height_inches":2,"last_name":"Young","position":"G","team_id":1,"weight_pounds":180},"pts":35,"reb":2,"stl":1,"team":{"id":1,"abbreviation":"ATL","city":"Atlanta","conference":"East","division":"Southeast","full_name":"Atlanta Hawks","name":"Hawks"},"turnover":7},{"id":11593516,"ast":2,"blk":0,"dreb":6,"fg3_pct":0.375,"fg3a":8,"fg3m":3,"fg_pct":0.444,"fga":18,"fgm":8,"ft_pct":1,"fta":6,"ftm":6,"game":{"id":474615,"date":"2022-04-08T00:00:00.000Z","home_team_id":16,"home_team_score":113,"period":4,"postseason":false,"season":2021,"status":"Final","time":"","visitor_team_id":1,"visitor_team_score":109},"min":"36","oreb":1,"pf":1,"player":{"id":53,"first_name":"Bogdan","height_feet":6,"height_inches":6,"last_name":"Bogdanovic","position":"G","team_id":1,"weight_pounds":205},"pts":25,"reb":7,"stl":2,"team":{"id":1,"abbreviation":"ATL","city":"Atlanta","conference":"East","division":"Southeast","full_name":"Atlanta Hawks","name":"Hawks"},"turnover":0},{"id":11593521,"ast":1,"blk":0,"dreb":1,"fg3_pct":0,"fg3a":2,"fg3m":0,"fg_pct":0,"fga":2,"fgm":0,"ft_pct":0,"fta":0,"ftm":0,"game":{"id":474615,"date":"2022-04-08T00:00:00.000Z","home_team_id":16,"home_team_score":113,"period":4,"postseason":false,"season":2021,"status":"Final","time":"","visitor_team_id":1,"visitor_team_score":109},"min":"14:45","oreb":0,"pf":1,"player":{"id":288,"first_name":"Timothe","height_feet":6,"height_inches":6,"last_name":"Luwawu-Cabarrot","position":"G-F","team_id":1,"weight_pounds":210},"pts":0,"reb":1,"stl":0,"team":{"id":1,"abbreviation":"ATL","city":"Atlanta","conference":"East","division":"Southeast","full_name":"Atlanta Hawks","name":"Hawks"},"turnover":0},{"id":11593538,"ast":0,"blk":0,"dreb":0,"fg3_pct":0,"fg3a":0,"fg3m":0,"fg_pct":0,"fga":0,"fgm":0,"ft_pct":0,"fta":0,"ftm":0,"game":{"id":474615,"date":"2022-04-08T00:00:00.000Z","home_team_id":16,"home_team_score":113,"period":4,"postseason":false,"season":2021,"status":"Final","time":"","visitor_team_id":1,"visitor_team_score":109},"min":"0:00","oreb":0,"pf":0,"player":{"id":17554001,"first_name":"Javonte","height_feet":null,"height_inches":null,"last_name":"Smart","position":"G","team_id":16,"weight_pounds":null},"pts":0,"reb":0,"stl":0,"team":{"id":16,"abbreviation":"MIA","city":"Miami","conference":"East","division":"Southeast","full_name":"Miami Heat","name":"Heat"},"turnover":0},{"id":11593539,"ast":0,"blk":0,"dreb":1,"fg3_pct":0.5,"fg3a":6,"fg3m":3,"fg_pct":0.571,"fga":7,"fgm":4,"ft_pct":null,"fta":0,"ftm":0,"game":{"id":474615,"date":"2022-04-08T00:00:00.000Z","home_team_id":16,"home_team_score":113,"period":4,"postseason":false,"season":2021,"status":"Final","time":"","visitor_team_id":1,"visitor_team_score":109},"min":"17","oreb":0,"pf":2,"player":{"id":1603383,"first_name":"Gabe","height_feet":null,"height_inches":null,"last_name":"Vincent","position":"G","team_id":16,"weight_pounds":null},"pts":11,"reb":1,"stl":0,"team":{"id":16,"abbreviation":"MIA","city":"Miami","conference":"East","division":"Southeast","full_name":"Miami Heat","name":"Heat"},"turnover":1},{"id":11593537,"ast":1,"blk":0,"dreb":1,"fg3_pct":0.4,"fg3a":5,"fg3m":2,"fg_pct":0.5,"fga":6,"fgm":3,"ft_pct":null,"fta":0,"ftm":0,"game":{"id":474615,"date":"2022-04-08T00:00:00.000Z","home_team_id":16,"home_team_score":113,"period":4,"postseason":false,"season":2021,"status":"Final","time":"","visitor_team_id":1,"visitor_team_score":109},"min":"20","oreb":0,"pf":3,"player":{"id":397,"first_name":"Duncan","height_feet":6,"height_inches":8,"last_name":"Robinson","position":"F","team_id":16,"weight_pounds":210},"pts":8,"reb":1,"stl":1,"team":{"id":16,"abbreviation":"MIA","city":"Miami","conference":"East","division":"Southeast","full_name":"Miami Heat","name":"Heat"},"turnover":1},{"id":11593531,"ast":0,"blk":0,"dreb":0,"fg3_pct":0,"fg3a":0,"fg3m":0,"fg_pct":0,"fga":0,"fgm":0,"ft_pct":0,"fta":0,"ftm":0,"game":{"id":474615,"date":"2022-04-08T00:00:00.000Z","home_team_id":16,"home_team_score":113,"period":4,"postseason":false,"season":2021,"status":"Final","time":"","visitor_team_id":1,"visitor_team_score":109},"min":"0:00","oreb":0,"pf":0,"player":{"id":203,"first_name":"Udonis","height_feet":6,"height_inches":8,"last_name":"Haslem","position":"F","team_id":16,"weight_pounds":235},"pts":0,"reb":0,"stl":0,"team":{"id":16,"abbreviation":"MIA","city":"Miami","conference":"East","division":"Southeast","full_name":"Miami Heat","name":"Heat"},"turnover":0},{"id":11593533,"ast":0,"blk":0,"dreb":0,"fg3_pct":0,"fg3a":0,"fg3m":0,"fg_pct":0,"fga":0,"fgm":0,"ft_pct":0,"fta":0,"ftm":0,"game":{"id":474615,"date":"2022-04-08T00:00:00.000Z","home_team_id":16,"home_team_score":113,"period":4,"postseason":false,"season":2021,"status":"Final","time":"","visitor_team_id":1,"visitor_team_score":109},"min":"0:00","oreb":0,"pf":0,"player":{"id":3092,"first_name":"Haywood","height_feet":6,"height_inches":7,"last_name":"Highsmith","position":"","team_id":16,"weight_pounds":220},"pts":0,"reb":0,"stl":0,"team":{"id":16,"abbreviation":"MIA","city":"Miami","conference":"East","division":"Southeast","full_name":"Miami Heat","name":"Heat"},"turnover":0},{"id":11593534,"ast":0,"blk":0,"dreb":0,"fg3_pct":0,"fg3a":0,"fg3m":0,"fg_pct":0,"fga":0,"fgm":0,"ft_pct":0,"fta":0,"ftm":0,"game":{"id":474615,"date":"2022-04-08T00:00:00.000Z","home_team_id":16,"home_team_score":113,"period":4,"postseason":false,"season":2021,"status":"Final","time":"","visitor_team_id":1,"visitor_team_score":109},"min":"0:00","oreb":0,"pf":0,"player":{"id":329,"first_name":"Markieff","height_feet":null,"height_inches":null,"last_name":"Morris","position":"F","team_id":7,"weight_pounds":null},"pts":0,"reb":0,"stl":0,"team":{"id":16,"abbreviation":"MIA","city":"Miami","conference":"East","division":"Southeast","full_name":"Miami Heat","name":"Heat"},"turnover":0},{"id":11593523,"ast":2,"blk":0,"dreb":3,"fg3_pct":null,"fg3a":0,"fg3m":0,"fg_pct":0.75,"fga":4,"fgm":3,"ft_pct":null,"fta":0,"ftm":0,"game":{"id":474615,"date":"2022-04-08T00:00:00.000Z","home_team_id":16,"home_team_score":113,"period":4,"postseason":false,"season":2021,"status":"Final","time":"","visitor_team_id":1,"visitor_team_score":109},"min":"21","oreb":4,"pf":4,"player":{"id":3547244,"first_name":"Onyeka","height_feet":null,"height_inches":null,"last_name":"Okongwu","position":"F-C","team_id":1,"weight_pounds":null},"pts":6,"reb":7,"stl":1,"team":{"id":1,"abbreviation":"ATL","city":"Atlanta","conference":"East","division":"Southeast","full_name":"Atlanta Hawks","name":"Hawks"},"turnover":2},{"id":11593517,"ast":0,"blk":0,"dreb":0,"fg3_pct":0,"fg3a":0,"fg3m":0,"fg_pct":0,"fga":0,"fgm":0,"ft_pct":0,"fta":0,"ftm":0,"game":{"id":474615,"date":"2022-04-08T00:00:00.000Z","home_team_id":16,"home_team_score":113,"period":4,"postseason":false,"season":2021,"status":"Final","time":"","visitor_team_id":1,"visitor_team_score":109},"min":"0:00","oreb":0,"pf":0,"player":{"id":17896029,"first_name":"Sharife","height_feet":null,"height_inches":null,"last_name":"Cooper","position":"G","team_id":1,"weight_pounds":null},"pts":0,"reb":0,"stl":0,"team":{"id":1,"abbreviation":"ATL","city":"Atlanta","conference":"East","division":"Southeast","full_name":"Atlanta Hawks","name":"Hawks"},"turnover":0},{"id":11593518,"ast":0,"blk":0,"dreb":0,"fg3_pct":0,"fg3a":0,"fg3m":0,"fg_pct":0,"fga":0,"fgm":0,"ft_pct":0,"fta":0,"ftm":0,"game":{"id":474615,"date":"2022-04-08T00:00:00.000Z","home_team_id":16,"home_team_score":113,"period":4,"postseason":false,"season":2021,"status":"Final","time":"","visitor_team_id":1,"visitor_team_score":109},"min":"0:00","oreb":0,"pf":0,"player":{"id":129,"first_name":"Gorgui","height_feet":6,"height_inches":11,"last_name":"Dieng","position":"C","team_id":27,"weight_pounds":252},"pts":0,"reb":0,"stl":0,"team":{"id":1,"abbreviation":"ATL","city":"Atlanta","conference":"East","division":"Southeast","full_name":"Atlanta Hawks","name":"Hawks"},"turnover":0},{"id":11593519,"ast":0,"blk":0,"dreb":0,"fg3_pct":0,"fg3a":0,"fg3m":0,"fg_pct":0,"fga":0,"fgm":0,"ft_pct":0,"fta":0,"ftm":0,"game":{"id":474615,"date":"2022-04-08T00:00:00.000Z","home_team_id":16,"home_team_score":113,"period":4,"postseason":false,"season":2021,"status":"Final","time":"","visitor_team_id":1,"visitor_team_score":109},"min":"0:00","oreb":0,"pf":0,"player":{"id":17896040,"first_name":"Jalen","height_feet":null,"height_inches":null,"last_name":"Johnson","position":"F","team_id":1,"weight_pounds":null},"pts":0,"reb":0,"stl":0,"team":{"id":1,"abbreviation":"ATL","city":"Atlanta","conference":"East","division":"Southeast","full_name":"Atlanta Hawks","name":"Hawks"},"turnover":0},{"id":11593520,"ast":0,"blk":0,"dreb":0,"fg3_pct":0,"fg3a":0,"fg3m":0,"fg_pct":0,"fga":0,"fgm":0,"ft_pct":0,"fta":0,"ftm":0,"game":{"id":474615,"date":"2022-04-08T00:00:00.000Z","home_team_id":16,"home_team_score":113,"period":4,"postseason":false,"season":2021,"status":"Final","time":"","visitor_team_id":1,"visitor_team_score":109},"min":"0:00","oreb":0,"pf":0,"player":{"id":259,"first_name":"Kevin","height_feet":6,"height_inches":9,"last_name":"Knox","position":"F","team_id":25,"weight_pounds":215},"pts":0,"reb":0,"stl":0,"team":{"id":1,"abbreviation":"ATL","city":"Atlanta","conference":"East","division":"Southeast","full_name":"Atlanta Hawks","name":"Hawks"},"turnover":0},{"id":11593522,"ast":0,"blk":0,"dreb":0,"fg3_pct":0,"fg3a":0,"fg3m":0,"fg_pct":0,"fga":0,"fgm":0,"ft_pct":0,"fta":0,"ftm":0,"game":{"id":474615,"date":"2022-04-08T00:00:00.000Z","home_team_id":16,"home_team_score":113,"period":4,"postseason":false,"season":2021,"status":"Final","time":"","visitor_team_id":1,"visitor_team_score":109},"min":"0:00","oreb":0,"pf":0,"player":{"id":3547289,"first_name":"Skylar","height_feet":null,"height_inches":null,"last_name":"Mays","position":"G","team_id":25,"weight_pounds":null},"pts":0,"reb":0,"stl":0,"team":{"id":1,"abbreviation":"ATL","city":"Atlanta","conference":"East","division":"Southeast","full_name":"Atlanta Hawks","name":"Hawks"},"turnover":0},{"id":11593526,"ast":1,"blk":0,"dreb":4,"fg3_pct":0.25,"fg3a":4,"fg3m":1,"fg_pct":0.429,"fga":7,"fgm":3,"ft_pct":1,"fta":1,"ftm":1,"game":{"id":474615,"date":"2022-04-08T00:00:00.000Z","home_team_id":16,"home_team_score":113,"period":4,"postseason":false,"season":2021,"status":"Final","time":"","visitor_team_id":1,"visitor_team_score":109},"min":"26","oreb":0,"pf":0,"player":{"id":666747,"first_name":"Caleb","height_feet":null,"height_inches":null,"last_name":"Martin","position":"F","team_id":16,"weight_pounds":null},"pts":8,"reb":4,"stl":0,"team":{"id":16,"abbreviation":"MIA","city":"Miami","conference":"East","division":"Southeast","full_name":"Miami Heat","name":"Heat"},"turnover":3},{"id":11593527,"ast":4,"blk":0,"dreb":4,"fg3_pct":null,"fg3a":0,"fg3m":0,"fg_pct":0.571,"fga":14,"fgm":8,"ft_pct":0.8,"fta":10,"ftm":8,"game":{"id":474615,"date":"2022-04-08T00:00:00.000Z","home_team_id":16,"home_team_score":113,"period":4,"postseason":false,"season":2021,"status":"Final","time":"","visitor_team_id":1,"visitor_team_score":109},"min":"33","oreb":2,"pf":2,"player":{"id":4,"first_name":"Bam","height_feet":6,"height_inches":10,"last_name":"Adebayo","position":"C-F","team_id":16,"weight_pounds":255},"pts":24,"reb":6,"stl":2,"team":{"id":16,"abbreviation":"MIA","city":"Miami","conference":"East","division":"Southeast","full_name":"Miami Heat","name":"Heat"},"turnover":1},{"id":11593528,"ast":0,"blk":0,"dreb":3,"fg3_pct":0.667,"fg3a":3,"fg3m":2,"fg_pct":0.75,"fga":4,"fgm":3,"ft_pct":null,"fta":0,"ftm":0,"game":{"id":474615,"date":"2022-04-08T00:00:00.000Z","home_team_id":16,"home_team_score":113,"period":4,"postseason":false,"season":2021,"status":"Final","time":"","visitor_team_id":1,"visitor_team_score":109},"min":"27","oreb":0,"pf":2,"player":{"id":666908,"first_name":"Max","height_feet":null,"height_inches":null,"last_name":"Strus","position":"G","team_id":16,"weight_pounds":null},"pts":8,"reb":3,"stl":1,"team":{"id":16,"abbreviation":"MIA","city":"Miami","conference":"East","division":"Southeast","full_name":"Miami Heat","name":"Heat"},"turnover":2},{"id":11593529,"ast":3,"blk":0,"dreb":4,"fg3_pct":0.667,"fg3a":3,"fg3m":2,"fg_pct":0.7,"fga":10,"fgm":7,"ft_pct":0,"fta":1,"ftm":0,"game":{"id":474615,"date":"2022-04-08T00:00:00.000Z","home_team_id":16,"home_team_score":113,"period":4,"postseason":false,"season":2021,"status":"Final","time":"","visitor_team_id":1,"visitor_team_score":109},"min":"31","oreb":1,"pf":4,"player":{"id":286,"first_name":"Kyle","height_feet":6,"height_inches":1,"last_name":"Lowry","position":"G","team_id":16,"weight_pounds":196},"pts":16,"reb":5,"stl":2,"team":{"id":16,"abbreviation":"MIA","city":"Miami","conference":"East","division":"Southeast","full_name":"Miami Heat","name":"Heat"},"turnover":3},{"id":11593532,"ast":9,"blk":0,"dreb":5,"fg3_pct":0.5,"fg3a":2,"fg3m":1,"fg_pct":0.5,"fga":12,"fgm":6,"ft_pct":1,"fta":2,"ftm":2,"game":{"id":474615,"date":"2022-04-08T00:00:00.000Z","home_team_id":16,"home_team_score":113,"period":4,"postseason":false,"season":2021,"status":"Final","time":"","visitor_team_id":1,"visitor_team_score":109},"min":"33","oreb":0,"pf":1,"player":{"id":666633,"first_name":"Tyler","height_feet":null,"height_inches":null,"last_name":"Herro","position":"G","team_id":16,"weight_pounds":null},"pts":15,"reb":5,"stl":1,"team":{"id":16,"abbreviation":"MIA","city":"Miami","conference":"East","division":"Southeast","full_name":"Miami Heat","name":"Heat"},"turnover":1},{"id":11593535,"ast":0,"blk":0,"dreb":0,"fg3_pct":0,"fg3a":0,"fg3m":0,"fg_pct":0,"fga":0,"fgm":0,"ft_pct":0,"fta":0,"ftm":0,"game":{"id":474615,"date":"2022-04-08T00:00:00.000Z","home_team_id":16,"home_team_score":113,"period":4,"postseason":false,"season":2021,"status":"Final","time":"","visitor_team_id":1,"visitor_team_score":109},"min":"0:00","oreb":0,"pf":0,"player":{"id":666794,"first_name":"Mychal","height_feet":null,"height_inches":null,"last_name":"Mulder","position":"G","team_id":16,"weight_pounds":null},"pts":0,"reb":0,"stl":0,"team":{"id":16,"abbreviation":"MIA","city":"Miami","conference":"East","division":"Southeast","full_name":"Miami Heat","name":"Heat"},"turnover":0}],"meta":{"total_pages":2,"current_page":1,"next_page":2,"per_page":25,"total_count":29}}