{"data":[{"id":11801777,"ast":0,"blk":0,"dreb":13,"fg3_pct":0.5,"fg3a":8,"fg3m":4,"fg_pct":0.5,"fga":14,"fgm":7,"ft_pct":null,"fta":0,"ftm":0,"game":{"id":837570,"date":"2022-04-22T00:00:00.000Z","home_team_id":5,"home_team_score":81,"period":4,"postseason":true,"season":2021,"status":"Final","time":"","visitor_team_id":17,"visitor_team_score":111},"min":"25","oreb":3,"pf":2,"player":{"id":377,"first_name":"Bobby","height_feet":6,"height_inches":11,"last_name":"Portis","position":"F","team_id":17,"weight_pounds":250},"pts":18,"reb":16,"stl":0,"team":{"id":17,"abbreviation":"MIL","city":"Milwaukee","conference":"East","division":"Central","full_name":"Milwaukee Bucks","name":"Bucks"},"turnover":1},{"id":11801778,"ast":9,"blk":1,"dreb":7,"fg3_pct":0,"fg3a":3,"fg3m":0,"fg_pct":0.583,"fga":12,"fgm":7,"ft_pct":0.8,"fta":5,"ftm":4,"game":{"id":837570,"date":"2022-04-22T00:00:00.000Z","home_team_id":5,"home_team_score":81,"period":4,"postseason":true,"season":2021,"status":"Final","time":"","visitor_team_id":17,"visitor_team_score":111},"min":"29","oreb":0,"pf":3,"player":{"id":15,"first_name":"Giannis","height_feet":6,"height_inches":11,"last_name":"Antetokounmpo","position":"F","team_id":17,"weight_pounds":242},"pts":18,"reb":7,"stl":0,"team":{"id":17,"abbreviation":"MIL","city":"Milwaukee","conference":"East","division":"Central","full_name":"Milwaukee Bucks","name":"Bucks"},"turnover":4},{"id":11801779,"ast":1,"blk":2,"dreb":2,"fg3_pct":0.5,"fg3a":2,"fg3m":1,"fg_pct":0.444,"fga":9,"fgm":4,"ft_pct":null,"fta":0,"ftm":0,"game":{"id":837570,"date":"2022-04-22T00:00:00.000Z","home_team_id":5,"home_team_score":81,"period":4,"postseason":true,"season":2021,"status":"Final","time":"","visitor_team_id":17,"visitor_team_score":111},"min":"25","oreb":0,"pf":1,"player":{"id":283,"first_name":"Brook","height_feet":7,"height_inches":0,"last_name":"Lopez","position":"C","team_id":17,"weight_pounds":270},"pts":9,"reb":2,"stl":0,"team":{"id":17,"abbreviation":"MIL","city":"Milwaukee","conference":"East","division":"Central","full_name":"Milwaukee Bucks","name":"Bucks"},"turnover":0},{"id":11801780,"ast":1,"blk":0,"dreb":1,"fg3_pct":0.333,"fg3a":3,"fg3m":1,"fg_pct":0.333,"fga":3,"fgm":1,"ft_pct":null,"fta":0,"ftm":0,"game":{"id":837570,"date":"2022-04-22T00:00:00.000Z","home_team_id":5,"home_team_score":81,"period":4,"postseason":true,"season":2021,"status":"Final","time":"","visitor_team_id":17,"visitor_team_score":111},"min":"25","oreb":2,"pf":3,"player":{"id":301,"first_name":"Wesley","height_feet":null,"height_inches":null,"last_name":"Matthews","position":"G-F","team_id":17,"weight_pounds":null},"pts":3,"reb":3,"stl":1,"team":{"id":17,"abbreviation":"MIL","city":"Milwaukee","conference":"East","division":"Central","full_name":"Milwaukee Bucks","name":"Bucks"},"turnover":1},{"id":11801782,"ast":0,"blk":1,"dreb":6,"fg3_pct":0.714,"fg3a":7,"fg3m":5,"fg_pct":0.667,"fga":12,"fgm":8,"ft_pct":1,"fta":1,"ftm":1,"game":{"id":837570,"date":"2022-04-22T00:00:00.000Z","home_team_id":5,"home_team_score":81,"period":4,"postseason":true,"season":2021,"status":"Final","time":"","visitor_team_id":17,"visitor_team_score":111},"min":"25","oreb":0,"pf":0,"player":{"id":8,"first_name":"Grayson","height_feet":6,"height_inches":5,"last_name":"Allen","position":"G","team_id":17,"weight_pounds":198},"pts":22,"reb":6,"stl":1,"team":{"id":17,"abbreviation":"MIL","city":"Milwaukee","conference":"East","division":"Central","full_name":"Milwaukee Bucks","name":"Bucks"},"turnover":0},{"id":11801784,"ast":4,"blk":0,"dreb":1,"fg3_pct":0,"fg3a":0,"fg3m":0,"fg_pct":0,"fga":0,"fgm":0,"ft_pct":0,"fta":0,"ftm":0,"game":{"id":837570,"date":"2022-04-22T00:00:00.000Z","home_team_id":5,"home_team_score":81,"period":4,"postseason":true,"season":2021,"status":"Final","time":"","visitor_team_id":17,"visitor_team_score":111},"min":"17:43","oreb":0,"pf":2,"player":{"id":87,"first_name":"Jevon","height_feet":6,"height_inches":2,"last_name":"Carter","position":"G","team_id":17,"weight_pounds":196},"pts":0,"reb":1,"stl":1,"team":{"id":17,"abbreviation":"MIL","city":"Milwaukee","conference":"East","division":"Central","full_name":"Milwaukee Bucks","name":"Bucks"},"turnover":0},{"id":11801785,"ast":1,"blk":1,"dreb":4,"fg3_pct":0.286,"fg3a":7,"fg3m":2,"fg_pct":0.375,"fga":8,"fgm":3,"ft_pct":1,"fta":3,"ftm":3,"game":{"id":837570,"date":"2022-04-22T00:00:00.000Z","home_team_id":5,"home_team_score":81,"period":4,"postseason":true,"season":2021,"status":"Final","time":"","visitor_team_id":17,"visitor_team_score":111},"min":"21","oreb":0,"pf":0,"player":{"id":105,"first_name":"Pat","height_feet":6,"height_inches":4,"last_name":"Connaughton","position":"G","team_id":17,"weight_pounds":209},"pts":11,"reb":4,"stl":1,"team":{"id":17,"abbreviation":"MIL","city":"Milwaukee","conference":"East","division":"Central","full_name":"Milwaukee Bucks","name":"Bucks"},"turnover":0},{"id":11801786,"ast":0,"blk":0,"dreb":4,"fg3_pct":0,"fg3a":1,"fg3m":0,"fg_pct":0.286,"fga":7,"fgm":2,"ft_pct":0.5,"fta":2,"ftm":1,"game":{"id":837570,"date":"2022-04-22T00:00:00.000Z","home_team_id":5,"home_team_score":81,"period":4,"postseason":true,"season":2021,"status":"Final","time":"","visitor_team_id":17,"visitor_team_score":111},"min":"9","oreb":2,"pf":0,"player":{"id":223,"first_name":"Serge","height_feet":6,"height_inches":10,"last_name":"Ibaka","position":"F-C","team_id":17,"weight_pounds":235},"pts":5,"reb":6,"stl":0,"team":{"id":17,"abbreviation":"MIL","city":"Milwaukee","conference":"East","division":"Central","full_name":"Milwaukee Bucks","name":"Bucks"},"turnover":1},{"id":11801783,"ast":1,"blk":0,"dreb":0,"fg3_pct":null,"fg3a":0,"fg3m":0,"fg_pct":0.667,"fga":3,"fgm":2,"ft_pct":0,"fta":1,"ftm":0,"game":{"id":837570,"date":"2022-04-22T00:00:00.000Z","home_team_id":5,"home_team_score":81,"period":4,"postseason":true,"season":2021,"status":"Final","time":"","visitor_team_id":17,"visitor_team_score":111},"min":"9","oreb":0,"pf":3,"player":{"id":2148,"first_name":"Thanasis","height_feet":null,"height_inches":null,"last_name":"Antetokounmpo","position":"","team_id":17,"weight_pounds":null},"pts":4,"reb":0,"stl":1,"team":{"id":17,"abbreviation":"MIL","city":"Milwaukee","conference":"East","division":"Central","full_name":"Milwaukee Bucks","name":"Bucks"},"turnover":0},{"id":11801793,"ast":5,"blk":0,"dreb":5,"fg3_pct":0.5,"fg3a":4,"fg3m":2,"fg_pct":0.462,"fga":13,"fgm":6,"ft_pct":1,"fta":1,"ftm":1,"game":{"id":837570,"date":"2022-04-22T00:00:00.000Z","home_team_id":5,"home_team_score":81,"period":4,"postseason":true,"season":2021,"status":"Final","time":"","visitor_team_id":17,"visitor_team_score":111},"min":"31","oreb":0,"pf":2,"player":{"id":268,"first_name":"Zach","height_feet":6,"height_inches":5,"last_name":"LaVine","position":"G","team_id":5,"weight_pounds":200},"pts":15,"reb":5,"stl":1,"team":{"id":5,"abbreviation":"CHI","city":"Chicago","conference":"East","division":"Central","full_name":"Chicago Bulls","name":"Bulls"},"turnover":2},{"id":11801794,"ast":1,"blk":0,"dreb":2,"fg3_pct":0.6,"fg3a":5,"fg3m":3,"fg_pct":0.429,"fga":7,"fgm":3,"ft_pct":null,"fta":0,"ftm":0,"game":{"id":837570,"date":"2022-04-22T00:00:00.000Z","home_team_id":5,"home_team_score":81,"period":4,"postseason":true,"season":2021,"status":"Final","time":"","visitor_team_id":17,"visitor_team_score":111},"min":"26","oreb":0,"pf":3,"player":{"id":89,"first_name":"Alex","height_feet":6,"height_inches":5,"last_name":"Caruso","position":"G","team_id":5,"weight_pounds":186},"pts":9,"reb":2,"stl":0,"team":{"id":5,"abbreviation":"CHI","city":"Chicago","conference":"East","division":"Central","full_name":"Chicago Bulls","name":"Bulls"},"turnover":0},{"id":11801802,"ast":1,"blk":0,"dreb":8,"fg3_pct":0.167,"fg3a":6,"fg3m":1,"fg_pct":0.222,"fga":9,"fgm":2,"ft_pct":0.5,"fta":2,"ftm":1,"game":{"id":837570,"date":"2022-04-22T00:00:00.000Z","home_team_id":5,"home_team_score":81,"period":4,"postseason":true,"season":2021,"status":"Final","time":"","visitor_team_id":17,"visitor_team_score":111},"min":"21","oreb":0,"pf":2,"player":{"id":666956,"first_name":"Coby","height_feet":null,"height_inches":null,"last_name":"White","position":"G","team_id":5,"weight_pounds":null},"pts":6,"reb":8,"stl":0,"team":{"id":5,"abbreviation":"CHI","city":"Chicago","conference":"East","division":"Central","full_name":"Chicago Bulls","name":"Bulls"},"turnover":1},{"id":11801801,"ast":1,"blk":0,"dreb":0,"fg3_pct":null,"fg3a":0,"fg3m":0,"fg_pct":0.5,"fga":2,"fgm":1,"ft_pct":null,"fta":0,"ftm":0,"game":{"id":837570,"date":"2022-04-22T00:00:00.000Z","home_team_id":5,"home_team_score":81,"period":4,"postseason":true,"season":2021,"status":"Final","time":"","visitor_team_id":17,"visitor_team_score":111},"min":"12","oreb":0,"pf":1,"player":{"id":444,"first_name":"Tristan","height_feet":6,"height_inches":10,"last_name":"Thompson","position":"C-F","team_id":14,"weight_pounds":238},"pts":2,"reb":0,"stl":0,"team":{"id":5,"abbreviation":"CHI","city":"Chicago","conference":"East","division":"Central","full_name":"Chicago Bulls","name":"Bulls"},"turnover":2},{"id":11801799,"ast":1,"blk":0,"dreb":1,"fg3_pct":0,"fg3a":1,"fg3m":0,"fg_pct":0.5,"fga":2,"fgm":1,"ft_pct":null,"fta":0,"ftm":0,"game":{"id":837570,"date":"2022-04-22T00:00:00.000Z","home_team_id":5,"home_team_score":81,"period":4,"postseason":true,"season":2021,"status":"Final","time":"","visitor_team_id":17,"visitor_team_score":111},"min":"14","oreb":1,"pf":1,"player":{"id":247,"first_name":"Derrick","height_feet":6,"height_inches":7,"last_name":"Jones Jr.","position":"F-G","team_id":5,"weight_pounds":200},"pts":2,"reb":2,"stl":0,"team":{"id":5,"abbreviation":"CHI","city":"Chicago","conference":"East","division":"Central","full_name":"Chicago Bulls","name":"Bulls"},"turnover":1},{"id":11801798,"ast":0,"blk":0,"dreb":1,"fg3_pct":0,"fg3a":1,"fg3m":0,"fg_pct":0,"fga":1,"fgm":0,"ft_pct":0,"fta":0,"ftm":0,"game":{"id":837570,"date":"2022-04-22T00:00:00.000Z","home_team_id":5,"home_team_score":81,"period":4,"postseason":true,"season":2021,"status":"Final","time":"","visitor_team_id":17,"visitor_team_score":111},"min":"7:40","oreb":1,"pf":0,"player":{"id":666604,"first_name":"Javonte","height_feet":null,"height_inches":null,"last_name":"Green","position":"G-F","team_id":5,"weight_pounds":null},"pts":0,"reb":2,"stl":0,"team":{"id":5,"abbreviation":"CHI","city":"Chicago","conference":"East","division":"Central","full_name":"Chicago Bulls","name":"Bulls"},"turnover":0},{"id":11801797,"ast":5,"blk":0,"dreb":2,"fg3_pct":0,"fg3a":3,"fg3m":0,"fg_pct":0.333,"fga":6,"fgm":2,"ft_pct":null,"fta":0,"ftm":0,"game":{"id":837570,"date":"2022-04-22T00:00:00.000Z","home_team_id":5,"home_team_score":81,"period":4,"postseason":true,"season":2021,"status":"Final","time":"","visitor_team_id":17,"visitor_team_score":111},"min":"18","oreb":2,"pf":1,"player":{"id":17895983,"first_name":"Ayo","height_feet":null,"height_inches":null,"last_name":"Dosunmu","position":"G","team_id":5,"weight_pounds":null},"pts":4,"reb":4,"stl":0,"team":{"id":5,"abbreviation":"CHI","city":"Chicago","conference":"East","division":"Central","full_name":"Chicago Bulls","name":"Bulls"},"turnover":2},{"id":11801796,"ast":0,"blk":0,"dreb":2,"fg3_pct":0,"fg3a":1,"fg3m":0,"fg_pct":0.25,"fga":4,"fgm":1,"ft_pct":null,"fta":0,"ftm":0,"game":{"id":837570,"date":"2022-04-22T00:00:00.000Z","home_team_id":5,"home_team_score":81,"period":4,"postseason":true,"season":2021,"status":"Final","time":"","visitor_team_id":17,"visitor_team_score":111},"min":"12","oreb":0,"pf":1,"player":{"id":68,"first_name":"Troy","height_feet":6,"height_inches":7,"last_name":"Brown Jr.","position":"F","team_id":14,"weight_pounds":215},"pts":2,"reb":2,"stl":1,"team":{"id":5,"abbreviation":"CHI","city":"Chicago","conference":"East","division":"Central","full_name":"Chicago Bulls","name":"Bulls"},"turnover":1},{"id":11801795,"ast":0,"blk":0,"dreb":3,"fg3_pct":null,"fg3a":0,"fg3m":0,"fg_pct":1,"fga":5,"fgm":5,"ft_pct":null,"fta":0,"ftm":0,"game":{"id":837570,"date":"2022-04-22T00:00:00.000Z","home_team_id":5,"home_team_score":81,"period":4,"postseason":true,"season":2021,"status":"Final","time":"","visitor_team_id":17,"visitor_team_score":111},"min":"6","oreb":0,"pf":0,"player":{"id":60,"first_name":"Tony","height_feet":6,"height_inches":10,"last_name":"Bradley","position":"C","team_id":5,"weight_pounds":248},"pts":10,"reb":3,"stl":0,"team":{"id":5,"abbreviation":"CHI","city":"Chicago","conference":"East","division":"Central","full_name":"Chicago Bulls","name":"Bulls"},"turnover":0},{"id":11801800,"ast":0,"blk":0,"dreb":0,"fg3_pct":0,"fg3a":0,"fg3m":0,"fg_pct":0,"fga":0,"fgm":0,"ft_pct":0,"fta":0,"ftm":0,"game":{"id":837570,"date":"2022-04-22T00:00:00.000Z","home_team_id":5,"home_team_score":81,"period":4,"postseason":true,"season":2021,"status":"Final","time":"","visitor_team_id":17,"visitor_team_score":111},"min":"0:00","oreb":0,"pf":0,"player":{"id":4197388,"first_name":"Marko","height_feet":null,"height_inches":null,"last_name":"Simonovic","position":"C","team_id":5,"weight_pounds":null},"pts":0,"reb":0,"stl":0,"team":{"id":5,"abbreviation":"CHI","city":"Chicago","conference":"East","division":"Central","full_name":"Chicago Bulls","name":"Bulls"},"turnover":0},{"id":11801787,"ast":1,"blk":0,"dreb":1,"fg3_pct":0,"fg3a":2,"fg3m":0,"fg_pct":0.167,"fga":6,"fgm":1,"ft_pct":null,"fta":0,"ftm":0,"game":{"id":837570,"date":"2022-04-22T00:00:00.000Z","home_team_id":5,"home_team_score":81,"period":4,"postseason":true,"season":2021,"status":"Final","time":"","visitor_team_id":17,"visitor_team_score":111},"min":"9","oreb":0,"pf":0,"player":{"id":3547207,"first_name":"Jordan","height_feet":null,"height_inches":null,"last_name":"Nwora","position":"F","team_id":12,"weight_pounds":null},"pts":2,"reb":1,"stl":0,"team":{"id":17,"abbreviation":"MIL","city":"Milwaukee","conference":"East","division":"Central","full_name":"Milwaukee Bucks","name":"Bucks"},"turnover":0},{"id":11801789,"ast":3,"blk":0,"dreb":1,"fg3_pct":0.333,"fg3a":3,"fg3m":1,"fg_pct":0.333,"fga":3,"fgm":1,"ft_pct":null,"fta":0,"ftm":0,"game":{"id":837570,"date":"2022-04-22T00:00:00.000Z","home_team_id":5,"home_team_score":81,"period":4,"postseason":true,"season":2021,"status":"Final","time":"","visitor_team_id":17,"visitor_team_score":111},"min":"8","oreb":0,"pf":1,"player":{"id":11314392,"first_name":"Luca","height_feet":null,"height_inches":null,"last_name":"Vildoza","position":"G","team_id":17,"weight_pounds":null},"pts":3,"reb":1,"stl":2,"team":{"id":17,"abbreviation":"MIL","city":"Milwaukee","conference":"East","division":"Central","full_name":"Milwaukee Bucks","name":"Bucks"},"turnover":0},{"id":11801788,"ast":0,"blk":0,"dreb":1,"fg3_pct":0,"fg3a":0,"fg3m":0,"fg_pct":0,"fga":0,"fgm":0,"ft_pct":0,"fta":0,"ftm":0,"game":{"id":837570,"date":"2022-04-22T00:00:00.000Z","home_team_id":5,"home_team_score":81,"period":4,"postseason":true,"season":2021,"status":"Final","time":"","visitor_team_id":17,"visitor_team_score":111},"min":"8:02","oreb":1,"pf":0,"player":{"id":666930,"first_name":"Rayjon","height_feet":null,"height_inches":null,"last_name":"Tucker","position":"F","team_id":17,"weight_pounds":null},"pts":0,"reb":2,"stl":0,"team":{"id":17,"abbreviation":"MIL","city":"Milwaukee","conference":"East","division":"Central","full_name":"Milwaukee Bucks","name":"Bucks"},"turnover":0},{"id":11801790,"ast":4,"blk":0,"dreb":5,"fg3_pct":null,"fg3a":0,"fg3m":0,"fg_pct":0.444,"fga":9,"fgm":4,"ft_pct":0.6,"fta":5,"ftm":3,"game":{"id":837570,"date":"2022-04-22T00:00:00.000Z","home_team_id":5,"home_team_score":81,"period":4,"postseason":true,"season":2021,"status":"Final","time":"","visitor_team_id":17,"visitor_team_score":111},"min":"32","oreb":0,"pf":2,"player":{"id":125,"first_name":"DeMar","height_feet":6,"height_inches":7,"last_name":"DeRozan","position":"G","team_id":5,"weight_pounds":220},"pts":11,"reb":5,"stl":1,"team":{"id":5,"abbreviation":"CHI","city":"Chicago","conference":"East","division":"Central","full_name":"Chicago Bulls","name":"Bulls"},"turnover":3},{"id":11801791,"ast":1,"blk":1,"dreb":3,"fg3_pct":0,"fg3a":4,"fg3m":0,"fg_pct":0,"fga":9,"fgm":0,"ft_pct":0.5,"fta":2,"ftm":1,"game":{"id":837570,"date":"2022-04-22T00:00:00.000Z","home_team_id":5,"home_team_score":81,"period":4,"postseason":true,"season":2021,"status":"Final","time":"","visitor_team_id":17,"visitor_team_score":111},"min":"30","oreb":1,"pf":2,"player":{"id":3547248,"first_name":"Patrick","height_feet":null,"height_inches":null,"last_name":"Williams","position":"F","team_id":5,"weight_pounds":null},"pts":1,"reb":4,"stl":2,"team":{"id":5,"abbreviation":"CHI","city":"Chicago","conference":"East","division":"Central","full_name":"Chicago Bulls","name":"Bulls"},"turnover":1},{"id":11801792,"ast":3,"blk":1,"dreb":6,"fg3_pct":0.333,"fg3a":9,"fg3m":3,"fg_pct":0.471,"fga":17,"fgm":8,"ft_pct":null,"fta":0,"ftm":0,"game":{"id":837570,"date":"2022-04-22T00:00:00.000Z","home_team_id":5,"home_team_score":81,"period":4,"postseason":true,"season":2021,"status":"Final","time":"","visitor_team_id":17,"visitor_team_score":111},"min":"30","oreb":0,"pf":0,"player":{"id":460,"first_name":"Nikola","height_feet":7,"height_inches":0,"last_name":"Vucevic","position":"C","team_id":5,"weight_pounds":260},"pts":19,"reb":6,"stl":0,"team":{"id":5,"abbreviation":"CHI","city":"Chicago","conference":"East","division":"Central","full_name":"Chicago Bulls","name":"Bulls"},"turnover":0}],"meta":{"total_pages":2,"current_page":1,"next_page":2,"per_page":25,"total_count":26}}