{"data":[{"id":11779234,"ast":4,"blk":2,"dreb":7,"fg3_pct":0,"fg3a":2,"fg3m":0,"fg_pct":0.516,"fga":31,"fgm":16,"ft_pct":1,"fta":9,"ftm":9,"game":{"id":835842,"date":"2022-04-20T00:00:00.000Z","home_team_id":17,"home_team_score":110,"period":4,"postseason":true,"season":2021,"status":"Final","time":"","visitor_team_id":5,"visitor_team_score":114},"min":"44","oreb":0,"pf":3,"player":{"id":125,"first_name":"DeMar","height_feet":6,"height_inches":7,"last_name":"DeRozan","position":"G","team_id":5,"weight_pounds":220},"pts":41,"reb":7,"stl":1,"team":{"id":5,"abbreviation":"CHI","city":"Chicago","conference":"East","division":"Central","full_name":"Chicago Bulls","name":"Bulls"},"turnover":2},{"id":11779235,"ast":3,"blk":1,"dreb":8,"fg3_pct":0,"fg3a":2,"fg3m":0,"fg_pct":0.556,"fga":9,"fgm":5,"ft_pct":null,"fta":0,"ftm":0,"game":{"id":835842,"date":"2022-04-20T00:00:00.000Z","home_team_id":17,"home_team_score":110,"period":4,"postseason":true,"season":2021,"status":"Final","time":"","visitor_team_id":5,"visitor_team_score":114},"min":"32","oreb":1,"pf":4,"player":{"id":3547248,"first_name":"Patrick","height_feet":null,"height_inches":null,"last_name":"Williams","position":"F","team_id":5,"weight_pounds":null},"pts":10,"reb":9,"stl":1,"team":{"id":5,"abbreviation":"CHI","city":"Chicago","conference":"East","division":"Central","full_name":"Chicago Bulls","name":"Bulls"},"turnover":1},{"id":11779236,"ast":2,"blk":0,"dreb":10,"fg3_pct":0.5,"fg3a":8,"fg3m":4,"fg_pct":0.556,"fga":18,"fgm":10,"ft_pct":null,"fta":0,"ftm":0,"game":{"id":835842,"date":"2022-04-20T00:00:00.000Z","home_team_id":17,"home_team_score":110,"period":4,"postseason":true,"season":2021,"status":"Final","time":"","visitor_team_id":5,"visitor_team_score":114},"min":"36","oreb":3,"pf":5,"player":{"id":460,"first_name":"Nikola","height_feet":7,"height_inches":0,"last_name":"Vucevic","position":"C","team_id":5,"weight_pounds":260},"pts":24,"reb":13,"stl":1,"team":{"id":5,"abbreviation":"CHI","city":"Chicago","conference":"East","division":"Central","full_name":"Chicago Bulls","name":"Bulls"},"turnover":2},{"id":11779237,"ast":3,"blk":0,"dreb":1,"fg3_pct":0.75,"fg3a":4,"fg3m":3,"fg_pct":0.538,"fga":13,"fgm":7,"ft_pct":0.75,"fta":4,"ftm":3,"game":{"id":835842,"date":"2022-04-20T00:00:00.000Z","home_team_id":17,"home_team_score":110,"period":4,"postseason":true,"season":2021,"status":"Final","time":"","visitor_team_id":5,"visitor_team_score":114},"min":"43","oreb":0,"pf":1,"player":{"id":268,"first_name":"Zach","height_feet":6,"height_inches":5,"last_name":"LaVine","position":"G","team_id":5,"weight_pounds":200},"pts":20,"reb":1,"stl":1,"team":{"id":5,"abbreviation":"CHI","city":"Chicago","conference":"East","division":"Central","full_name":"Chicago Bulls","name":"Bulls"},"turnover":4},{"id":11779238,"ast":10,"blk":2,"dreb":1,"fg3_pct":0.429,"fg3a":7,"fg3m":3,"fg_pct":0.375,"fga":8,"fgm":3,"ft_pct":null,"fta":0,"ftm":0,"game":{"id":835842,"date":"2022-04-20T00:00:00.000Z","home_team_id":17,"home_team_score":110,"period":4,"postseason":true,"season":2021,"status":"Final","time":"","visitor_team_id":5,"visitor_team_score":114},"min":"38","oreb":1,"pf":1,"player":{"id":89,"first_name":"Alex","height_feet":6,"height_inches":5,"last_name":"Caruso","position":"G","team_id":5,"weight_pounds":186},"pts":9,"reb":2,"stl":2,"team":{"id":5,"abbreviation":"CHI","city":"Chicago","conference":"East","division":"Central","full_name":"Chicago Bulls","name":"Bulls"},"turnover":1},{"id":11779245,"ast":0,"blk":0,"dreb":3,"fg3_pct":0,"fg3a":0,"fg3m":0,"fg_pct":0,"fga":1,"fgm":0,"ft_pct":0,"fta":0,"ftm":0,"game":{"id":835842,"date":"2022-04-20T00:00:00.000Z","home_team_id":17,"home_team_score":110,"period":4,"postseason":true,"season":2021,"status":"Final","time":"","visitor_team_id":5,"visitor_team_score":114},"min":"7:15","oreb":0,"pf":1,"player":{"id":444,"first_name":"Tristan","height_feet":6,"height_inches":10,"last_name":"Thompson","position":"C-F","team_id":14,"weight_pounds":238},"pts":0,"reb":3,"stl":1,"team":{"id":5,"abbreviation":"CHI","city":"Chicago","conference":"East","division":"Central","full_name":"Chicago Bulls","name":"Bulls"},"turnover":0},{"id":11779246,"ast":2,"blk":0,"dreb":0,"fg3_pct":1,"fg3a":1,"fg3m":1,"fg_pct":0.2,"fga":5,"fgm":1,"ft_pct":1,"fta":2,"ftm":2,"game":{"id":835842,"date":"2022-04-20T00:00:00.000Z","home_team_id":17,"home_team_score":110,"period":4,"postseason":true,"season":2021,"status":"Final","time":"","visitor_team_id":5,"visitor_team_score":114},"min":"10","oreb":0,"pf":0,"player":{"id":666956,"first_name":"Coby","height_feet":null,"height_inches":null,"last_name":"White","position":"G","team_id":5,"weight_pounds":null},"pts":5,"reb":0,"stl":0,"team":{"id":5,"abbreviation":"CHI","city":"Chicago","conference":"East","division":"Central","full_name":"Chicago Bulls","name":"Bulls"},"turnover":2},{"id":11779243,"ast":0,"blk":0,"dreb":1,"fg3_pct":1,"fg3a":1,"fg3m":1,"fg_pct":1,"fga":1,"fgm":1,"ft_pct":null,"fta":0,"ftm":0,"game":{"id":835842,"date":"2022-04-20T00:00:00.000Z","home_team_id":17,"home_team_score":110,"period":4,"postseason":true,"season":2021,"status":"Final","time":"","visitor_team_id":5,"visitor_team_score":114},"min":"8","oreb":0,"pf":3,"player":{"id":247,"first_name":"Derrick","height_feet":6,"height_inches":7,"last_name":"Jones Jr.","position":"F-G","team_id":5,"weight_pounds":200},"pts":3,"reb":1,"stl":0,"team":{"id":5,"abbreviation":"CHI","city":"Chicago","conference":"East","division":"Central","full_name":"Chicago Bulls","name":"Bulls"},"turnover":0},{"id":11779241,"ast":1,"blk":0,"dreb":2,"fg3_pct":0,"fg3a":0,"fg3m":0,"fg_pct":0,"fga":1,"fgm":0,"ft_pct":0,"fta":0,"ftm":0,"game":{"id":835842,"date":"2022-04-20T00:00:00.000Z","home_team_id":17,"home_team_score":110,"period":4,"postseason":true,"season":2021,"status":"Final","time":"","visitor_team_id":5,"visitor_team_score":114},"min":"7:19","oreb":0,"pf":1,"player":{"id":17895983,"first_name":"Ayo","height_feet":null,"height_inches":null,"last_name":"Dosunmu","position":"G","team_id":5,"weight_pounds":null},"pts":0,"reb":2,"stl":0,"team":{"id":5,"abbreviation":"CHI","city":"Chicago","conference":"East","division":"Central","full_name":"Chicago Bulls","name":"Bulls"},"turnover":0},{"id":11779242,"ast":0,"blk":0,"dreb":4,"fg3_pct":null,"fg3a":0,"fg3m":0,"fg_pct":0.5,"fga":2,"fgm":1,"ft_pct":null,"fta":0,"ftm":0,"game":{"id":835842,"date":"2022-04-20T00:00:00.000Z","home_team_id":17,"home_team_score":110,"period":4,"postseason":true,"season":2021,"status":"Final","time":"","visitor_team_id":5,"visitor_team_score":114},"min":"14","oreb":1,"pf":1,"player":{"id":666604,"first_name":"Javonte","height_feet":null,"height_inches":null,"last_name":"Green","position":"G-F","team_id":5,"weight_pounds":null},"pts":2,"reb":5,"stl":0,"team":{"id":5,"abbreviation":"CHI","city":"Chicago","conference":"East","division":"Central","full_name":"Chicago Bulls","name":"Bulls"},"turnover":0},{"id":11779239,"ast":0,"blk":0,"dreb":0,"fg3_pct":0,"fg3a":0,"fg3m":0,"fg_pct":0,"fga":0,"fgm":0,"ft_pct":0,"fta":0,"ftm":0,"game":{"id":835842,"date":"2022-04-20T00:00:00.000Z","home_team_id":17,"home_team_score":110,"period":4,"postseason":true,"season":2021,"status":"Final","time":"","visitor_team_id":5,"visitor_team_score":114},"min":"0:00","oreb":0,"pf":0,"player":{"id":60,"first_name":"Tony","height_feet":6,"height_inches":10,"last_name":"Bradley","position":"C","team_id":5,"weight_pounds":248},"pts":0,"reb":0,"stl":0,"team":{"id":5,"abbreviation":"CHI","city":"Chicago","conference":"East","division":"Central","full_name":"Chicago Bulls","name":"Bulls"},"turnover":0},{"id":11779240,"ast":0,"blk":0,"dreb":0,"fg3_pct":0,"fg3a":0,"fg3m":0,"fg_pct":0,"fga":0,"fgm":0,"ft_pct":0,"fta":0,"ftm":0,"game":{"id":835842,"date":"2022-04-20T00:00:00.000Z","home_team_id":17,"home_team_score":110,"period":4,"postseason":true,"season":2021,"status":"Final","time":"","visitor_team_id":5,"visitor_team_score":114},"min":"0:00","oreb":0,"pf":0,"player":{"id":68,"first_name":"Troy","height_feet":6,"height_inches":7,"last_name":"Brown Jr.","position":"F","team_id":14,"weight_pounds":215},"pts":0,"reb":0,"stl":0,"team":{"id":5,"abbreviation":"CHI","city":"Chicago","conference":"East","division":"Central","full_name":"Chicago Bulls","name":"Bulls"},"turnover":0},{"id":11779244,"ast":0,"blk":0,"dreb":0,"fg3_pct":0,"fg3a":0,"fg3m":0,"fg_pct":0,"fga":0,"fgm":0,"ft_pct":0,"fta":0,"ftm":0,"game":{"id":835842,"date":"2022-04-20T00:00:00.000Z","home_team_id":17,"home_team_score":110,"period":4,"postseason":true,"season":2021,"status":"Final","time":"","visitor_team_id":5,"visitor_team_score":114},"min":"0:00","oreb":0,"pf":0,"player":{"id":4197388,"first_name":"Marko","height_feet":null,"height_inches":null,"last_name":"Simonovic","position":"C","team_id":5,"weight_pounds":null},"pts":0,"reb":0,"stl":0,"team":{"id":5,"abbreviation":"CHI","city":"Chicago","conference":"East","division":"Central","full_name":"Chicago Bulls","name":"Bulls"},"turnover":0},{"id":11779247,"ast":8,"blk":0,"dreb":4,"fg3_pct":0.714,"fg3a":7,"fg3m":5,"fg_pct":0.545,"fga":11,"fgm":6,"ft_pct":1,"fta":1,"ftm":1,"game":{"id":835842,"date":"2022-04-20T00:00:00.000Z","home_team_id":17,"home_team_score":110,"period":4,"postseason":true,"season":2021,"status":"Final","time":"","visitor_team_id":5,"visitor_team_score":114},"min":"33","oreb":1,"pf":4,"player":{"id":315,"first_name":"Khris","height_feet":6,"height_inches":8,"last_name":"Middleton","position":"F","team_id":17,"weight_pounds":222},"pts":18,"reb":5,"stl":2,"team":{"id":17,"abbreviation":"MIL","city":"Milwaukee","conference":"East","division":"Central","full_name":"Milwaukee Bucks","name":"Bucks"},"turnover":4},{"id":11779248,"ast":9,"blk":2,"dreb":15,"fg3_pct":0,"fg3a":2,"fg3m":0,"fg_pct":0.55,"fga":20,"fgm":11,"ft_pct":0.611,"fta":18,"ftm":11,"game":{"id":835842,"date":"2022-04-20T00:00:00.000Z","home_team_id":17,"home_team_score":110,"period":4,"postseason":true,"season":2021,"status":"Final","time":"","visitor_team_id":5,"visitor_team_score":114},"min":"40","oreb":3,"pf":3,"player":{"id":15,"first_name":"Giannis","height_feet":6,"height_inches":11,"last_name":"Antetokounmpo","position":"F","team_id":17,"weight_pounds":242},"pts":33,"reb":18,"stl":1,"team":{"id":17,"abbreviation":"MIL","city":"Milwaukee","conference":"East","division":"Central","full_name":"Milwaukee Bucks","name":"Bucks"},"turnover":3},{"id":11779249,"ast":1,"blk":1,"dreb":3,"fg3_pct":0.5,"fg3a":6,"fg3m":3,"fg_pct":0.6,"fga":15,"fgm":9,"ft_pct":1,"fta":4,"ftm":4,"game":{"id":835842,"date":"2022-04-20T00:00:00.000Z","home_team_id":17,"home_team_score":110,"period":4,"postseason":true,"season":2021,"status":"Final","time":"","visitor_team_id":5,"visitor_team_score":114},"min":"35","oreb":2,"pf":1,"player":{"id":283,"first_name":"Brook","height_feet":7,"height_inches":0,"last_name":"Lopez","position":"C","team_id":17,"weight_pounds":270},"pts":25,"reb":5,"stl":0,"team":{"id":17,"abbreviation":"MIL","city":"Milwaukee","conference":"East","division":"Central","full_name":"Milwaukee Bucks","name":"Bucks"},"turnover":0},{"id":11779250,"ast":1,"blk":2,"dreb":2,"fg3_pct":0.5,"fg3a":6,"fg3m":3,"fg_pct":0.571,"fga":7,"fgm":4,"ft_pct":0,"fta":2,"ftm":0,"game":{"id":835842,"date":"2022-04-20T00:00:00.000Z","home_team_id":17,"home_team_score":110,"period":4,"postseason":true,"season":2021,"status":"Final","time":"","visitor_team_id":5,"visitor_team_score":114},"min":"34","oreb":0,"pf":3,"player":{"id":301,"first_name":"Wesley","height_feet":null,"height_inches":null,"last_name":"Matthews","position":"G-F","team_id":17,"weight_pounds":null},"pts":11,"reb":2,"stl":0,"team":{"id":17,"abbreviation":"MIL","city":"Milwaukee","conference":"East","division":"Central","full_name":"Milwaukee Bucks","name":"Bucks"},"turnover":0},{"id":11779251,"ast":6,"blk":1,"dreb":6,"fg3_pct":0.4,"fg3a":5,"fg3m":2,"fg_pct":0.375,"fga":16,"fgm":6,"ft_pct":0.5,"fta":2,"ftm":1,"game":{"id":835842,"date":"2022-04-20T00:00:00.000Z","home_team_id":17,"home_team_score":110,"period":4,"postseason":true,"season":2021,"status":"Final","time":"","visitor_team_id":5,"visitor_team_score":114},"min":"38","oreb":0,"pf":3,"player":{"id":214,"first_name":"Jrue","height_feet":6,"height_inches":4,"last_name":"Holiday","position":"G","team_id":17,"weight_pounds":205},"pts":15,"reb":6,"stl":0,"team":{"id":17,"abbreviation":"MIL","city":"Milwaukee","conference":"East","division":"Central","full_name":"Milwaukee Bucks","name":"Bucks"},"turnover":6},{"id":11779252,"ast":1,"blk":0,"dreb":0,"fg3_pct":0,"fg3a":2,"fg3m":0,"fg_pct":0.25,"fga":4,"fgm":1,"ft_pct":0.5,"fta":2,"ftm":1,"game":{"id":835842,"date":"2022-04-20T00:00:00.000Z","home_team_id":17,"home_team_score":110,"period":4,"postseason":true,"season":2021,"status":"Final","time":"","visitor_team_id":5,"visitor_team_score":114},"min":"21","oreb":1,"pf":2,"player":{"id":8,"first_name":"Grayson","height_feet":6,"height_inches":5,"last_name":"Allen","position":"G","team_id":17,"weight_pounds":198},"pts":3,"reb":1,"stl":0,"team":{"id":17,"abbreviation":"MIL","city":"Milwaukee","conference":"East","division":"Central","full_name":"Milwaukee Bucks","name":"Bucks"},"turnover":0},{"id":11779258,"ast":0,"blk":0,"dreb":1,"fg3_pct":0,"fg3a":1,"fg3m":0,"fg_pct":0,"fga":2,"fgm":0,"ft_pct":1,"fta":2,"ftm":2,"game":{"id":835842,"date":"2022-04-20T00:00:00.000Z","home_team_id":17,"home_team_score":110,"period":4,"postseason":true,"season":2021,"status":"Final","time":"","visitor_team_id":5,"visitor_team_score":114},"min":"6","oreb":1,"pf":0,"player":{"id":377,"first_name":"Bobby","height_feet":6,"height_inches":11,"last_name":"Portis","position":"F","team_id":17,"weight_pounds":250},"pts":2,"reb":2,"stl":0,"team":{"id":17,"abbreviation":"MIL","city":"Milwaukee","conference":"East","division":"Central","full_name":"Milwaukee Bucks","name":"Bucks"},"turnover":1},{"id":11779254,"ast":0,"blk":0,"dreb":2,"fg3_pct":0,"fg3a":1,"fg3m":0,"fg_pct":0,"fga":1,"fgm":0,"ft_pct":0,"fta":0,"ftm":0,"game":{"id":835842,"date":"2022-04-20T00:00:00.000Z","home_team_id":17,"home_team_score":110,"period":4,"postseason":true,"season":2021,"status":"Final","time":"","visitor_team_id":5,"visitor_team_score":114},"min":"9:18","oreb":0,"pf":1,"player":{"id":87,"first_name":"Jevon","height_feet":6,"height_inches":2,"last_name":"Carter","position":"G","team_id":17,"weight_pounds":196},"pts":0,"reb":2,"stl":0,"team":{"id":17,"abbreviation":"MIL","city":"Milwaukee","conference":"East","division":"Central","full_name":"Milwaukee Bucks","name":"Bucks"},"turnover":0},{"id":11779255,"ast":1,"blk":0,"dreb":2,"fg3_pct":0.167,"fg3a":6,"fg3m":1,"fg_pct":0.167,"fga":6,"fgm":1,"ft_pct":null,"fta":0,"ftm":0,"game":{"id":835842,"date":"2022-04-20T00:00:00.000Z","home_team_id":17,"home_team_score":110,"period":4,"postseason":true,"season":2021,"status":"Final","time":"","visitor_team_id":5,"visitor_team_score":114},"min":"23","oreb":1,"pf":0,"player":{"id":105,"first_name":"Pat","height_feet":6,"height_inches":4,"last_name":"Connaughton","position":"G","team_id":17,"weight_pounds":209},"pts":3,"reb":3,"stl":1,"team":{"id":17,"abbreviation":"MIL","city":"Milwaukee","conference":"East","division":"Central","full_name":"Milwaukee Bucks","name":"Bucks"},"turnover":1},{"id":11779256,"ast":0,"blk":0,"dreb":0,"fg3_pct":0,"fg3a":0,"fg3m":0,"fg_pct":0,"fga":0,"fgm":0,"ft_pct":0,"fta":0,"ftm":0,"game":{"id":835842,"date":"2022-04-20T00:00:00.000Z","home_team_id":17,"home_team_score":110,"period":4,"postseason":true,"season":2021,"status":"Final","time":"","visitor_team_id":5,"visitor_team_score":114},"min":"0:37","oreb":0,"pf":0,"player":{"id":223,"first_name":"Serge","height_feet":6,"height_inches":10,"last_name":"Ibaka","position":"F-C","team_id":17,"weight_pounds":235},"pts":0,"reb":0,"stl":0,"team":{"id":17,"abbreviation":"MIL","city":"Milwaukee","conference":"East","division":"Central","full_name":"Milwaukee Bucks","name":"Bucks"},"turnover":0},{"id":11779253,"ast":0,"blk":0,"dreb":0,"fg3_pct":0,"fg3a":0,"fg3m":0,"fg_pct":0,"fga":0,"fgm":0,"ft_pct":0,"fta":0,"ftm":0,"game":{"id":835842,"date":"2022-04-20T00:00:00.000Z","home_team_id":17,"home_team_score":110,"period":4,"postseason":true,"season":2021,"status":"Final","time":"","visitor_team_id":5,"visitor_team_score":114},"min":"0:00","oreb":0,"pf":0,"player":{"id":2148,"first_name":"Thanasis","height_feet":null,"height_inches":null,"last_name":"Antetokounmpo","position":"","team_id":17,"weight_pounds":null},"pts":0,"reb":0,"stl":0,"team":{"id":17,"abbreviation":"MIL","city":"Milwaukee","conference":"East","division":"Central","full_name":"Milwaukee Bucks","name":"Bucks"},"turnover":0},{"id":11779257,"ast":0,"blk":0,"dreb":0,"fg3_pct":0,"fg3a":0,"fg3m":0,"fg_pct":0,"fga":0,"fgm":0,"ft_pct":0,"fta":0,"ftm":0,"game":{"id":835842,"date":"2022-04-20T00:00:00.000Z","home_team_id":17,"home_team_score":110,"period":4,"postseason":true,"season":2021,"status":"Final","time":"","visitor_team_id":5,"visitor_team_score":114},"min":"","oreb":0,"pf":0,"player":{"id":3547207,"first_name":"Jordan","height_feet":null,"height_inches":null,"last_name":"Nwora","position":"F","team_id":12,"weight_pounds":null},"pts":0,"reb":0,"stl":0,"team":{"id":17,"abbreviation":"MIL","city":"Milwaukee","conference":"East","division":"Central","full_name":"Milwaukee Bucks","name":"Bucks"},"turnover":0}],"meta":{"total_pages":2,"current_page":1,"next_page":2,"per_page":25,"total_count":27}}