{"data":[{"id":11859302,"ast":2,"blk":0,"dreb":10,"fg3_pct":0.429,"fg3a":7,"fg3m":3,"fg_pct":0.524,"fga":21,"fgm":11,"ft_pct":0.909,"fta":11,"ftm":10,"game":{"id":841601,"date":"2022-04-26T00:00:00.000Z","home_team_id":16,"home_team_score":83,"period":4,"postseason":true,"season":2021,"status":"Final","time":"","visitor_team_id":1,"visitor_team_score":92},"min":"43","oreb":1,"pf":6,"player":{"id":666656,"first_name":"De'Andre","height_feet":null,"height_inches":null,"last_name":"Hunter","position":"F","team_id":1,"weight_pounds":null},"pts":35,"reb":11,"stl":3,"team":{"id":1,"abbreviation":"ATL","city":"Atlanta","conference":"East","division":"Southeast","full_name":"Atlanta Hawks","name":"Hawks"},"turnover":4},{"id":11859303,"ast":0,"blk":0,"dreb":1,"fg3_pct":0,"fg3a":3,"fg3m":0,"fg_pct":0.375,"fga":8,"fgm":3,"ft_pct":1,"fta":1,"ftm":1,"game":{"id":841601,"date":"2022-04-26T00:00:00.000Z","home_team_id":16,"home_team_score":83,"period":4,"postseason":true,"season":2021,"status":"Final","time":"","visitor_team_id":1,"visitor_team_score":92},"min":"26","oreb":1,"pf":2,"player":{"id":101,"first_name":"John","height_feet":6,"height_inches":10,"last_name":"Collins","position":"F-C","team_id":1,"weight_pounds":235},"pts":7,"reb":2,"stl":0,"team":{"id":1,"abbreviation":"ATL","city":"Atlanta","conference":"East","division":"Southeast","full_name":"Atlanta Hawks","name":"Hawks"},"turnover":1},{"id":11859304,"ast":0,"blk":0,"dreb":0,"fg3_pct":0,"fg3a":0,"fg3m":0,"fg_pct":0,"fga":0,"fgm":0,"ft_pct":0,"fta":0,"ftm":0,"game":{"id":841601,"date":"2022-04-26T00:00:00.000Z","home_team_id":16,"home_team_score":83,"period":4,"postseason":true,"season":2021,"status":"Final","time":"","visitor_team_id":1,"visitor_team_score":92},"min":"","oreb":0,"pf":0,"player":{"id":83,"first_name":"Clint","height_feet":6,"height_inches":10,"last_name":"Capela","position":"C","team_id":1,"weight_pounds":240},"pts":0,"reb":0,"stl":0,"team":{"id":1,"abbreviation":"ATL","city":"Atlanta","conference":"East","division":"Southeast","full_name":"Atlanta Hawks","name":"Hawks"},"turnover":0},{"id":11859305,"ast":3,"blk":1,"dreb":1,"fg3_pct":0.4,"fg3a":5,"fg3m":2,"fg_pct":0.556,"fga":9,"fgm":5,"ft_pct":null,"fta":0,"ftm":0,"game":{"id":841601,"date":"2022-04-26T00:00:00.000Z","home_team_id":16,"home_team_score":83,"period":4,"postseason":true,"season":2021,"status":"Final","time":"","visitor_team_id":1,"visitor_team_score":92},"min":"33","oreb":0,"pf":3,"player":{"id":221,"first_name":"Kevin","height_feet":6,"height_inches":7,"last_name":"Huerter","position":"G","team_id":26,"weight_pounds":190},"pts":12,"reb":1,"stl":2,"team":{"id":1,"abbreviation":"ATL","city":"Atlanta","conference":"East","division":"Southeast","full_name":"Atlanta Hawks","name":"Hawks"},"turnover":3},{"id":11859306,"ast":6,"blk":0,"dreb":6,"fg3_pct":0,"fg3a":5,"fg3m":0,"fg_pct":0.167,"fga":12,"fgm":2,"ft_pct":0.778,"fta":9,"ftm":7,"game":{"id":841601,"date":"2022-04-26T00:00:00.000Z","home_team_id":16,"home_team_score":83,"period":4,"postseason":true,"season":2021,"status":"Final","time":"","visitor_team_id":1,"visitor_team_score":92},"min":"41","oreb":2,"pf":2,"player":{"id":490,"first_name":"Trae","height_feet":6,"height_inches":2,"last_name":"Young","position":"G","team_id":1,"weight_pounds":180},"pts":11,"reb":8,"stl":0,"team":{"id":1,"abbreviation":"ATL","city":"Atlanta","conference":"East","division":"Southeast","full_name":"Atlanta Hawks","name":"Hawks"},"turnover":7},{"id":11859315,"ast":3,"blk":0,"dreb":4,"fg3_pct":0.5,"fg3a":2,"fg3m":1,"fg_pct":0.333,"fga":6,"fgm":2,"ft_pct":1,"fta":2,"ftm":2,"game":{"id":841601,"date":"2022-04-26T00:00:00.000Z","home_team_id":16,"home_team_score":83,"period":4,"postseason":true,"season":2021,"status":"Final","time":"","visitor_team_id":1,"visitor_team_score":92},"min":"31","oreb":3,"pf":2,"player":{"id":487,"first_name":"Delon","height_feet":6,"height_inches":5,"last_name":"Wright","position":"G","team_id":30,"weight_pounds":183},"pts":7,"reb":7,"stl":0,"team":{"id":1,"abbreviation":"ATL","city":"Atlanta","conference":"East","division":"Southeast","full_name":"Atlanta Hawks","name":"Hawks"},"turnover":2},{"id":11859309,"ast":0,"blk":0,"dreb":0,"fg3_pct":0.667,"fg3a":3,"fg3m":2,"fg_pct":0.455,"fga":11,"fgm":5,"ft_pct":null,"fta":0,"ftm":0,"game":{"id":841601,"date":"2022-04-26T00:00:00.000Z","home_team_id":16,"home_team_score":83,"period":4,"postseason":true,"season":2021,"status":"Final","time":"","visitor_team_id":1,"visitor_team_score":92},"min":"21","oreb":0,"pf":1,"player":{"id":167,"first_name":"Danilo","height_feet":6,"height_inches":10,"last_name":"Gallinari","position":"F","team_id":2,"weight_pounds":225},"pts":12,"reb":0,"stl":0,"team":{"id":1,"abbreviation":"ATL","city":"Atlanta","conference":"East","division":"Southeast","full_name":"Atlanta Hawks","name":"Hawks"},"turnover":1},{"id":11859314,"ast":1,"blk":0,"dreb":2,"fg3_pct":null,"fg3a":0,"fg3m":0,"fg_pct":0.4,"fga":5,"fgm":2,"ft_pct":0.8,"fta":5,"ftm":4,"game":{"id":841601,"date":"2022-04-26T00:00:00.000Z","home_team_id":16,"home_team_score":83,"period":4,"postseason":true,"season":2021,"status":"Final","time":"","visitor_team_id":1,"visitor_team_score":92},"min":"26","oreb":3,"pf":4,"player":{"id":3547244,"first_name":"Onyeka","height_feet":null,"height_inches":null,"last_name":"Okongwu","position":"F-C","team_id":1,"weight_pounds":null},"pts":8,"reb":5,"stl":2,"team":{"id":1,"abbreviation":"ATL","city":"Atlanta","conference":"East","division":"Southeast","full_name":"Atlanta Hawks","name":"Hawks"},"turnover":0},{"id":11859312,"ast":0,"blk":0,"dreb":0,"fg3_pct":0,"fg3a":0,"fg3m":0,"fg_pct":0,"fga":0,"fgm":0,"ft_pct":0,"fta":0,"ftm":0,"game":{"id":841601,"date":"2022-04-26T00:00:00.000Z","home_team_id":16,"home_team_score":83,"period":4,"postseason":true,"season":2021,"status":"Final","time":"","visitor_team_id":1,"visitor_team_score":92},"min":"0:03","oreb":0,"pf":0,"player":{"id":288,"first_name":"Timothe","height_feet":6,"height_inches":6,"last_name":"Luwawu-Cabarrot","position":"G-F","team_id":1,"weight_pounds":210},"pts":0,"reb":0,"stl":0,"team":{"id":1,"abbreviation":"ATL","city":"Atlanta","conference":"East","division":"Southeast","full_name":"Atlanta Hawks","name":"Hawks"},"turnover":0},{"id":11859307,"ast":0,"blk":0,"dreb":0,"fg3_pct":0,"fg3a":0,"fg3m":0,"fg_pct":0,"fga":0,"fgm":0,"ft_pct":0,"fta":0,"ftm":0,"game":{"id":841601,"date":"2022-04-26T00:00:00.000Z","home_team_id":16,"home_team_score":83,"period":4,"postseason":true,"season":2021,"status":"Final","time":"","visitor_team_id":1,"visitor_team_score":92},"min":"","oreb":0,"pf":0,"player":{"id":53,"first_name":"Bogdan","height_feet":6,"height_inches":6,"last_name":"Bogdanovic","position":"G","team_id":1,"weight_pounds":205},"pts":0,"reb":0,"stl":0,"team":{"id":1,"abbreviation":"ATL","city":"Atlanta","conference":"East","division":"Southeast","full_name":"Atlanta Hawks","name":"Hawks"},"turnover":0},{"id":11859308,"ast":0,"blk":0,"dreb":0,"fg3_pct":0,"fg3a":0,"fg3m":0,"fg_pct":0,"fga":0,"fgm":0,"ft_pct":0,"fta":0,"ftm":0,"game":{"id":841601,"date":"2022-04-26T00:00:00.000Z","home_team_id":16,"home_team_score":83,"period":4,"postseason":true,"season":2021,"status":"Final","time":"","visitor_team_id":1,"visitor_team_score":92},"min":"0:00","oreb":0,"pf":0,"player":{"id":129,"first_name":"Gorgui","height_feet":6,"height_inches":11,"last_name":"Dieng","position":"C","team_id":27,"weight_pounds":252},"pts":0,"reb":0,"stl":0,"team":{"id":1,"abbreviation":"ATL","city":"Atlanta","conference":"East","division":"Southeast","full_name":"Atlanta Hawks","name":"Hawks"},"turnover":0},{"id":11859310,"ast":0,"blk":0,"dreb":0,"fg3_pct":0,"fg3a":0,"fg3m":0,"fg_pct":0,"fga":0,"fgm":0,"ft_pct":0,"fta":0,"ftm":0,"game":{"id":841601,"date":"2022-04-26T00:00:00.000Z","home_team_id":16,"home_team_score":83,"period":4,"postseason":true,"season":2021,"status":"Final","time":"","visitor_team_id":1,"visitor_team_score":92},"min":"0:00","oreb":0,"pf":0,"player":{"id":17896040,"first_name":"Jalen","height_feet":null,"height_inches":null,"last_name":"Johnson","position":"F","team_id":1,"weight_pounds":null},"pts":0,"reb":0,"stl":0,"team":{"id":1,"abbreviation":"ATL","city":"Atlanta","conference":"East","division":"Southeast","full_name":"Atlanta Hawks","name":"Hawks"},"turnover":0},{"id":11859311,"ast":0,"blk":0,"dreb":0,"fg3_pct":0,"fg3a":0,"fg3m":0,"fg_pct":0,"fga":0,"fgm":0,"ft_pct":0,"fta":0,"ftm":0,"game":{"id":841601,"date":"2022-04-26T00:00:00.000Z","home_team_id":16,"home_team_score":83,"period":4,"postseason":true,"season":2021,"status":"Final","time":"","visitor_team_id":1,"visitor_team_score":92},"min":"0:00","oreb":0,"pf":0,"player":{"id":259,"first_name":"Kevin","height_feet":6,"height_inches":9,"last_name":"Knox","position":"F","team_id":25,"weight_pounds":215},"pts":0,"reb":0,"stl":0,"team":{"id":1,"abbreviation":"ATL","city":"Atlanta","conference":"East","division":"Southeast","full_name":"Atlanta Hawks","name":"Hawks"},"turnover":0},{"id":11859313,"ast":0,"blk":0,"dreb":0,"fg3_pct":0,"fg3a":0,"fg3m":0,"fg_pct":0,"fga":0,"fgm":0,"ft_pct":0,"fta":0,"ftm":0,"game":{"id":841601,"date":"2022-04-26T00:00:00.000Z","home_team_id":16,"home_team_score":83,"period":4,"postseason":true,"season":2021,"status":"Final","time":"","visitor_team_id":1,"visitor_team_score":92},"min":"0:00","oreb":0,"pf":0,"player":{"id":3547289,"first_name":"Skylar","height_feet":null,"height_inches":null,"last_name":"Mays","position":"G","team_id":25,"weight_pounds":null},"pts":0,"reb":0,"stl":0,"team":{"id":1,"abbreviation":"ATL","city":"Atlanta","conference":"East","division":"Southeast","full_name":"Atlanta Hawks","name":"Hawks"},"turnover":0},{"id":11859316,"ast":2,"blk":0,"dreb":3,"fg3_pct":0.375,"fg3a":8,"fg3m":3,"fg_pct":0.5,"fga":12,"fgm":6,"ft_pct":null,"fta":0,"ftm":0,"game":{"id":841601,"date":"2022-04-26T00:00:00.000Z","home_team_id":16,"home_team_score":83,"period":4,"postseason":true,"season":2021,"status":"Final","time":"","visitor_team_id":1,"visitor_team_score":92},"min":"32","oreb":2,"pf":5,"player":{"id":666908,"first_name":"Max","height_feet":null,"height_inches":null,"last_name":"Strus","position":"G","team_id":16,"weight_pounds":null},"pts":15,"reb":5,"stl":2,"team":{"id":16,"abbreviation":"MIA","city":"Miami","conference":"East","division":"Southeast","full_name":"Miami Heat","name":"Heat"},"turnover":2},{"id":11859320,"ast":4,"blk":0,"dreb":4,"fg3_pct":0.5,"fg3a":2,"fg3m":1,"fg_pct":0.375,"fga":8,"fgm":3,"ft_pct":1,"fta":2,"ftm":2,"game":{"id":841601,"date":"2022-04-26T00:00:00.000Z","home_team_id":16,"home_team_score":83,"period":4,"postseason":true,"season":2021,"status":"Final","time":"","visitor_team_id":1,"visitor_team_score":92},"min":"30","oreb":0,"pf":1,"player":{"id":1603383,"first_name":"Gabe","height_feet":null,"height_inches":null,"last_name":"Vincent","position":"G","team_id":16,"weight_pounds":null},"pts":9,"reb":4,"stl":2,"team":{"id":16,"abbreviation":"MIA","city":"Miami","conference":"East","division":"Southeast","full_name":"Miami Heat","name":"Heat"},"turnover":1},{"id":11859323,"ast":4,"blk":1,"dreb":1,"fg3_pct":0,"fg3a":4,"fg3m":0,"fg_pct":0.5,"fga":12,"fgm":6,"ft_pct":1,"fta":4,"ftm":4,"game":{"id":841601,"date":"2022-04-26T00:00:00.000Z","home_team_id":16,"home_team_score":83,"period":4,"postseason":true,"season":2021,"status":"Final","time":"","visitor_team_id":1,"visitor_team_score":92},"min":"33","oreb":0,"pf":3,"player":{"id":666633,"first_name":"Tyler","height_feet":null,"height_inches":null,"last_name":"Herro","position":"G","team_id":16,"weight_pounds":null},"pts":16,"reb":1,"stl":2,"team":{"id":16,"abbreviation":"MIA","city":"Miami","conference":"East","division":"Southeast","full_name":"Miami Heat","name":"Heat"},"turnover":3},{"id":11859325,"ast":0,"blk":0,"dreb":0,"fg3_pct":0,"fg3a":0,"fg3m":0,"fg_pct":0,"fga":0,"fgm":0,"ft_pct":0,"fta":0,"ftm":0,"game":{"id":841601,"date":"2022-04-26T00:00:00.000Z","home_team_id":16,"home_team_score":83,"period":4,"postseason":true,"season":2021,"status":"Final","time":"","visitor_team_id":1,"visitor_team_score":92},"min":"","oreb":0,"pf":0,"player":{"id":666747,"first_name":"Caleb","height_feet":null,"height_inches":null,"last_name":"Martin","position":"F","team_id":16,"weight_pounds":null},"pts":0,"reb":0,"stl":0,"team":{"id":16,"abbreviation":"MIA","city":"Miami","conference":"East","division":"Southeast","full_name":"Miami Heat","name":"Heat"},"turnover":0},{"id":11859327,"ast":0,"blk":0,"dreb":0,"fg3_pct":0,"fg3a":5,"fg3m":0,"fg_pct":0,"fga":5,"fgm":0,"ft_pct":0,"fta":0,"ftm":0,"game":{"id":841601,"date":"2022-04-26T00:00:00.000Z","home_team_id":16,"home_team_score":83,"period":4,"postseason":true,"season":2021,"status":"Final","time":"","visitor_team_id":1,"visitor_team_score":92},"min":"12:29","oreb":0,"pf":0,"player":{"id":397,"first_name":"Duncan","height_feet":6,"height_inches":8,"last_name":"Robinson","position":"F","team_id":16,"weight_pounds":210},"pts":0,"reb":0,"stl":0,"team":{"id":16,"abbreviation":"MIA","city":"Miami","conference":"East","division":"Southeast","full_name":"Miami Heat","name":"Heat"},"turnover":0},{"id":11859321,"ast":0,"blk":0,"dreb":1,"fg3_pct":0,"fg3a":0,"fg3m":0,"fg_pct":0,"fga":0,"fgm":0,"ft_pct":0,"fta":0,"ftm":0,"game":{"id":841601,"date":"2022-04-26T00:00:00.000Z","home_team_id":16,"home_team_score":83,"period":4,"postseason":true,"season":2021,"status":"Final","time":"","visitor_team_id":1,"visitor_team_score":92},"min":"2:21","oreb":1,"pf":2,"player":{"id":120,"first_name":"Dewayne","height_feet":7,"height_inches":0,"last_name":"Dedmon","position":"C","team_id":23,"weight_pounds":245},"pts":0,"reb":2,"stl":0,"team":{"id":16,"abbreviation":"MIA","city":"Miami","conference":"East","division":"Southeast","full_name":"Miami Heat","name":"Heat"},"turnover":1},{"id":11859322,"ast":0,"blk":0,"dreb":0,"fg3_pct":0,"fg3a":0,"fg3m":0,"fg_pct":0,"fga":0,"fgm":0,"ft_pct":0,"fta":0,"ftm":0,"game":{"id":841601,"date":"2022-04-26T00:00:00.000Z","home_team_id":16,"home_team_score":83,"period":4,"postseason":true,"season":2021,"status":"Final","time":"","visitor_team_id":1,"visitor_team_score":92},"min":"0:00","oreb":0,"pf":0,"player":{"id":203,"first_name":"Udonis","height_feet":6,"height_inches":8,"last_name":"Haslem","position":"F","team_id":16,"weight_pounds":235},"pts":0,"reb":0,"stl":0,"team":{"id":16,"abbreviation":"MIA","city":"Miami","conference":"East","division":"Southeast","full_name":"Miami Heat","name":"Heat"},"turnover":0},{"id":11859324,"ast":0,"blk":0,"dreb":0,"fg3_pct":0,"fg3a":0,"fg3m":0,"fg_pct":0,"fga":0,"fgm":0,"ft_pct":0,"fta":0,"ftm":0,"game":{"id":841601,"date":"2022-04-26T00:00:00.000Z","home_team_id":16,"home_team_score":83,"period":4,"postseason":true,"season":2021,"status":"Final","time":"","visitor_team_id":1,"visitor_team_score":92},"min":"0:00","oreb":0,"pf":0,"player":{"id":3092,"first_name":"Haywood","height_feet":6,"height_inches":7,"last_name":"Highsmith","position":"","team_id":16,"weight_pounds":220},"pts":0,"reb":0,"stl":0,"team":{"id":16,"abbreviation":"MIA","city":"Miami","conference":"East","division":"Southeast","full_name":"Miami Heat","name":"Heat"},"turnover":0},{"id":11859326,"ast":0,"blk":0,"dreb":0,"fg3_pct":0,"fg3a":0,"fg3m":0,"fg_pct":0,"fga":0,"fgm":0,"ft_pct":0,"fta":0,"ftm":0,"game":{"id":841601,"date":"2022-04-26T00:00:00.000Z","home_team_id":16,"home_team_score":83,"period":4,"postseason":true,"season":2021,"status":"Final","time":"","visitor_team_id":1,"visitor_team_score":92},"min":"0:00","oreb":0,"pf":0,"player":{"id":329,"first_name":"Markieff","height_feet":null,"height_inches":null,"last_name":"Morris","position":"F","team_id":7,"weight_pounds":null},"pts":0,"reb":0,"stl":0,"team":{"id":16,"abbreviation":"MIA","city":"Miami","conference":"East","division":"Southeast","full_name":"Miami Heat","name":"Heat"},"turnover":0},{"id":11859328,"ast":0,"blk":0,"dreb":0,"fg3_pct":0,"fg3a":0,"fg3m":0,"fg_pct":0,"fga":0,"fgm":0,"ft_pct":0,"fta":0,"ftm":0,"game":{"id":841601,"date":"2022-04-26T00:00:00.000Z","home_team_id":16,"home_team_score":83,"period":4,"postseason":true,"season":2021,"status":"Final","time":"","visitor_team_id":1,"visitor_team_score":92},"min":"0:00","oreb":0,"pf":0,"player":{"id":11891374,"first_name":"Omer","height_feet":null,"height_inches":null,"last_name":"Yurtseven","position":"C","team_id":16,"weight_pounds":null},"pts":0,"reb":0,"stl":0,"team":{"id":16,"abbreviation":"MIA","city":"Miami","conference":"East","division":"Southeast","full_name":"Miami Heat","name":"Heat"},"turnover":0},{"id":11859317,"ast":0,"blk":0,"dreb":0,"fg3_pct":0,"fg3a":0,"fg3m":0,"fg_pct":0,"fga":0,"fgm":0,"ft_pct":0,"fta":0,"ftm":0,"game":{"id":841601,"date":"2022-04-26T00:00:00.000Z","home_team_id":16,"home_team_score":83,"period":4,"postseason":true,"season":2021,"status":"Final","time":"","visitor_team_id":1,"visitor_team_score":92},"min":"","oreb":0,"pf":0,"player":{"id":450,"first_name":"PJ","height_feet":6,"height_inches":6,"last_name":"Tucker","position":"F","team_id":23,"weight_pounds":245},"pts":0,"reb":0,"stl":0,"team":{"id":16,"abbreviation":"MIA","city":"Miami","conference":"East","division":"Southeast","full_name":"Miami Heat","name":"Heat"},"turnover":0}],"meta":{"total_pages":2,"current_page":1,"next_page":2,"per_page":25,"total_count":30}}